lab2/data_45_046.csv

Channel              :,CH1,CH2
Frequency            :,451.4Hz,289.9Hz
Period               :,2.215ms,3.450ms
PK-PK                :,92.00mV,292.0mV
Probe attenuation    :,1X,1X
Voltage per ADC value:,0.050000mV,0.250000mV
Time interval        :,4.00000uS,4.00000uS

index,CH1_Voltage(mV),CH2_Voltage(mV)
1,-14.400000,124.000000
2,-14.400000,124.000000
3,-6.400000,124.000000
4,-14.400000,124.000000
5,-28.000000,124.000000
6,-12.000000,120.000000
7,4.000000,124.000000
8,6.400000,124.000000
9,-1.600000,124.000000
10,-3.200000,124.000000
11,8.800000,128.000000
12,6.400000,128.000000
13,-5.600000,128.000000
14,-8.000000,128.000000
15,-1.600000,124.000000
16,0.800000,124.000000
17,-8.800000,128.000000
18,-8.000000,132.000000
19,-11.200000,124.000000
20,-4.800000,124.000000
21,-2.400000,128.000000
22,8.800000,128.000000
23,9.600000,124.000000
24,-7.200000,124.000000
25,-13.600000,124.000000
26,1.600000,128.000000
27,-0.800000,128.000000
28,-9.600000,124.000000
29,-7.200000,116.000000
30,5.600000,124.000000
31,5.600000,128.000000
32,0.800000,124.000000
33,4.800000,124.000000
34,12.000000,128.000000
35,6.400000,128.000000
36,11.200000,128.000000
37,8.000000,124.000000
38,4.000000,128.000000
39,-4.800000,124.000000
40,-4.000000,124.000000
41,-1.600000,128.000000
42,0.000000,124.000000
43,0.800000,128.000000
44,-2.400000,124.000000
45,1.600000,124.000000
46,2.400000,124.000000
47,-1.600000,136.000000
48,2.400000,124.000000
49,3.200000,124.000000
50,8.800000,120.000000
51,3.200000,124.000000
52,-3.200000,124.000000
53,2.400000,128.000000
54,-1.600000,124.000000
55,-3.200000,124.000000
56,0.800000,124.000000
57,-6.400000,124.000000
58,-15.200000,124.000000
59,-12.000000,116.000000
60,-0.800000,124.000000
61,-5.600000,124.000000
62,-4.800000,120.000000
63,8.800000,120.000000
64,18.400000,120.000000
65,19.200001,120.000000
66,8.800000,124.000000
67,2.400000,120.000000
68,0.000000,120.000000
69,4.000000,120.000000
70,4.800000,112.000000
71,-7.200000,116.000000
72,-6.400000,120.000000
73,5.600000,116.000000
74,11.200000,120.000000
75,11.200000,120.000000
76,16.000000,124.000000
77,13.600000,120.000000
78,15.200000,120.000000
79,9.600000,120.000000
80,6.400000,120.000000
81,7.200000,120.000000
82,4.000000,120.000000
83,9.600000,116.000000
84,13.600000,112.000000
85,10.400000,116.000000
86,-4.800000,116.000000
87,-1.600000,116.000000
88,3.200000,112.000000
89,4.800000,116.000000
90,4.000000,116.000000
91,-6.400000,112.000000
92,-3.200000,112.000000
93,11.200000,112.000000
94,6.400000,108.000000
95,8.800000,116.000000
96,12.800000,108.000000
97,9.600000,108.000000
98,14.400000,112.000000
99,18.400000,108.000000
100,13.600000,112.000000
101,8.800000,108.000000
102,11.200000,108.000000
103,21.600000,108.000000
104,11.200000,108.000000
105,-0.800000,108.000000
106,0.800000,104.000000
107,3.200000,104.000000
108,-2.400000,104.000000
109,2.400000,104.000000
110,10.400000,104.000000
111,8.000000,104.000000
112,9.600000,108.000000
113,10.400000,104.000000
114,4.000000,104.000000
115,2.400000,100.000000
116,8.000000,100.000000
117,13.600000,88.000000
118,16.000000,100.000000
119,0.000000,100.000000
120,2.400000,100.000000
121,5.600000,100.000000
122,9.600000,100.000000
123,1.600000,92.000000
124,0.800000,96.000000
125,8.000000,96.000000
126,6.400000,96.000000
127,3.200000,96.000000
128,13.600000,96.000000
129,13.600000,92.000000
130,0.800000,96.000000
131,12.000000,92.000000
132,27.200001,92.000000
133,16.000000,92.000000
134,4.000000,92.000000
135,5.600000,88.000000
136,12.000000,88.000000
137,8.000000,88.000000
138,5.600000,88.000000
139,14.400000,84.000000
140,19.200001,88.000000
141,0.800000,88.000000
142,8.800000,84.000000
143,16.799999,84.000000
144,4.000000,84.000000
145,15.200000,84.000000
146,25.600000,84.000000
147,20.799999,88.000000
148,5.600000,80.000000
149,3.200000,80.000000
150,15.200000,80.000000
151,16.799999,80.000000
152,6.400000,80.000000
153,-4.800000,76.000000
154,3.200000,76.000000
155,0.800000,76.000000
156,2.400000,76.000000
157,12.000000,76.000000
158,14.400000,84.000000
159,6.400000,72.000000
160,8.000000,68.000000
161,15.200000,68.000000
162,9.600000,72.000000
163,-4.000000,72.000000
164,4.000000,72.000000
165,21.600000,68.000000
166,12.800000,68.000000
167,3.200000,68.000000
168,15.200000,64.000000
169,24.799999,64.000000
170,17.600000,64.000000
171,13.600000,64.000000
172,20.799999,64.000000
173,16.799999,64.000000
174,7.200000,60.000000
175,20.799999,60.000000
176,22.400000,68.000000
177,8.800000,60.000000
178,9.600000,56.000000
179,20.799999,56.000000
180,22.400000,56.000000
181,20.000000,56.000000
182,16.799999,52.000000
183,27.200001,52.000000
184,33.599998,52.000000
185,24.799999,52.000000
186,20.799999,48.000000
187,24.000000,48.000000
188,10.400000,40.000000
189,8.000000,48.000000
190,14.400000,44.000000
191,10.400000,44.000000
192,8.000000,44.000000
193,16.799999,44.000000
194,27.200001,44.000000
195,20.799999,40.000000
196,8.000000,40.000000
197,10.400000,44.000000
198,20.000000,40.000000
199,16.000000,32.000000
200,20.799999,36.000000
201,21.600000,36.000000
202,15.200000,36.000000
203,7.200000,36.000000
204,14.400000,36.000000
205,11.200000,40.000000
206,4.000000,32.000000
207,3.200000,32.000000
208,13.600000,32.000000
209,12.000000,28.000000
210,7.200000,28.000000
211,13.600000,32.000000
212,16.799999,28.000000
213,8.800000,28.000000
214,15.200000,24.000000
215,18.400000,24.000000
216,12.800000,24.000000
217,8.800000,20.000000
218,4.800000,24.000000
219,6.400000,20.000000
220,6.400000,20.000000
221,6.400000,20.000000
222,12.800000,20.000000
223,15.200000,16.000000
224,11.200000,16.000000
225,11.200000,16.000000
226,16.799999,16.000000
227,27.200001,16.000000
228,32.799999,12.000000
229,21.600000,16.000000
230,20.799999,12.000000
231,12.800000,8.000000
232,-0.800000,12.000000
233,13.600000,8.000000
234,16.799999,8.000000
235,6.400000,4.000000
236,7.200000,4.000000
237,20.000000,4.000000
238,22.400000,4.000000
239,20.000000,4.000000
240,11.200000,4.000000
241,9.600000,4.000000
242,15.200000,0.000000
243,23.200001,0.000000
244,24.000000,0.000000
245,24.799999,0.000000
246,19.200001,-24.000000
247,19.200001,0.000000
248,26.400000,-4.000000
249,26.400000,-4.000000
250,16.000000,-4.000000
251,9.600000,-8.000000
252,9.600000,-12.000000
253,18.400000,-8.000000
254,13.600000,-8.000000
255,13.600000,-12.000000
256,22.400000,-12.000000
257,16.799999,-16.000000
258,17.600000,-12.000000
259,18.400000,-12.000000
260,20.799999,-16.000000
261,16.799999,-16.000000
262,10.400000,-16.000000
263,14.400000,-20.000000
264,11.200000,-24.000000
265,-4.000000,-20.000000
266,-6.400000,-20.000000
267,8.800000,-24.000000
268,8.000000,-24.000000
269,0.800000,-28.000000
270,16.000000,-24.000000
271,13.600000,-24.000000
272,12.800000,-28.000000
273,21.600000,-28.000000
274,28.799999,-28.000000
275,21.600000,-28.000000
276,19.200001,-28.000000
277,19.200001,-32.000000
278,18.400000,-32.000000
279,16.799999,-32.000000
280,12.800000,-36.000000
281,20.799999,-36.000000
282,18.400000,-36.000000
283,15.200000,-36.000000
284,12.800000,-40.000000
285,16.799999,-40.000000
286,20.799999,-40.000000
287,20.000000,-24.000000
288,10.400000,-40.000000
289,4.000000,-40.000000
290,8.000000,-40.000000
291,15.200000,-44.000000
292,12.000000,-44.000000
293,8.000000,-40.000000
294,9.600000,-48.000000
295,8.000000,-44.000000
296,8.000000,-48.000000
297,10.400000,-48.000000
298,13.600000,-48.000000
299,16.799999,-48.000000
300,14.400000,-52.000000
301,14.400000,-52.000000
302,12.000000,-52.000000
303,14.400000,-52.000000
304,3.200000,-56.000000
305,-0.800000,-44.000000
306,6.400000,-56.000000
307,12.000000,-56.000000
308,8.000000,-56.000000
309,14.400000,-60.000000
310,31.200001,-60.000000
311,30.400000,-60.000000
312,14.400000,-64.000000
313,12.800000,-64.000000
314,16.000000,-64.000000
315,11.200000,-68.000000
316,8.800000,-68.000000
317,-0.800000,-72.000000
318,8.000000,-68.000000
319,7.200000,-68.000000
320,12.800000,-68.000000
321,7.200000,-68.000000
322,4.800000,-72.000000
323,-1.600000,-72.000000
324,1.600000,-76.000000
325,1.600000,-72.000000
326,12.800000,-72.000000
327,28.799999,-76.000000
328,26.400000,-80.000000
329,14.400000,-76.000000
330,11.200000,-80.000000
331,14.400000,-76.000000
332,12.000000,-76.000000
333,12.800000,-80.000000
334,2.400000,-72.000000
335,8.000000,-80.000000
336,8.800000,-80.000000
337,9.600000,-80.000000
338,16.000000,-84.000000
339,20.000000,-84.000000
340,2.400000,-84.000000
341,6.400000,-84.000000
342,14.400000,-84.000000
343,18.400000,-84.000000
344,7.200000,-84.000000
345,5.600000,-88.000000
346,8.800000,-92.000000
347,9.600000,-88.000000
348,4.000000,-88.000000
349,3.200000,-88.000000
350,10.400000,-92.000000
351,12.800000,-92.000000
352,6.400000,-92.000000
353,8.000000,-92.000000
354,-0.800000,-92.000000
355,-5.600000,-92.000000
356,1.600000,-92.000000
357,-2.400000,-92.000000
358,-4.000000,-92.000000
359,3.200000,-96.000000
360,8.800000,-96.000000
361,5.600000,-96.000000
362,12.000000,-100.000000
363,19.200001,-96.000000
364,11.200000,-104.000000
365,4.000000,-100.000000
366,0.800000,-100.000000
367,14.400000,-100.000000
368,18.400000,-100.000000
369,8.000000,-100.000000
370,18.400000,-100.000000
371,22.400000,-104.000000
372,11.200000,-100.000000
373,4.800000,-104.000000
374,11.200000,-104.000000
375,12.000000,-116.000000
376,17.600000,-104.000000
377,10.400000,-104.000000
378,8.000000,-108.000000
379,1.600000,-108.000000
380,-0.800000,-108.000000
381,1.600000,-116.000000
382,4.000000,-108.000000
383,-1.600000,-108.000000
384,-3.200000,-108.000000
385,2.400000,-112.000000
386,-5.600000,-112.000000
387,3.200000,-108.000000
388,12.800000,-112.000000
389,5.600000,-112.000000
390,-2.400000,-112.000000
391,2.400000,-112.000000
392,0.800000,-112.000000
393,-5.600000,-120.000000
394,-4.000000,-116.000000
395,4.800000,-112.000000
396,3.200000,-116.000000
397,-5.600000,-116.000000
398,0.000000,-120.000000
399,18.400000,-116.000000
400,17.600000,-116.000000
401,3.200000,-116.000000
402,8.800000,-116.000000
403,4.000000,-116.000000
404,-6.400000,-120.000000
405,2.400000,-112.000000
406,6.400000,-120.000000
407,-9.600000,-120.000000
408,-8.800000,-116.000000
409,4.800000,-120.000000
410,5.600000,-120.000000
411,9.600000,-120.000000
412,12.000000,-120.000000
413,12.800000,-124.000000
414,6.400000,-120.000000
415,8.800000,-120.000000
416,5.600000,-116.000000
417,4.000000,-124.000000
418,-3.200000,-120.000000
419,0.000000,-124.000000
420,12.000000,-124.000000
421,-1.600000,-124.000000
422,-8.000000,-120.000000
423,-4.000000,-124.000000
424,-4.000000,-124.000000
425,-4.000000,-124.000000
426,15.200000,-124.000000
427,12.800000,-124.000000
428,4.800000,-124.000000
429,9.600000,-124.000000
430,6.400000,-124.000000
431,-0.800000,-124.000000
432,0.000000,-124.000000
433,2.400000,-124.000000
434,0.800000,-120.000000
435,4.000000,-124.000000
436,22.400000,-124.000000
437,28.799999,-128.000000
438,16.000000,-128.000000
439,7.200000,-128.000000
440,14.400000,-128.000000
441,4.000000,-128.000000
442,-0.800000,-128.000000
443,8.800000,-128.000000
444,11.200000,-128.000000
445,-8.800000,-128.000000
446,-3.200000,-132.000000
447,1.600000,-128.000000
448,-0.800000,-128.000000
449,5.600000,-128.000000
450,11.200000,-128.000000
451,-7.200000,-128.000000
452,-12.000000,-128.000000
453,-9.600000,-132.000000
454,0.000000,-128.000000
455,-3.200000,-128.000000
456,-0.800000,-128.000000
457,5.600000,-132.000000
458,-4.000000,-128.000000
459,-15.200000,-128.000000
460,-1.600000,-128.000000
461,12.800000,-128.000000
462,4.000000,-128.000000
463,9.600000,-124.000000
464,13.600000,-128.000000
465,3.200000,-128.000000
466,0.800000,-128.000000
467,13.600000,-128.000000
468,11.200000,-128.000000
469,6.400000,-124.000000
470,7.200000,-124.000000
471,4.000000,-128.000000
472,-1.600000,-128.000000
473,0.800000,-124.000000
474,16.799999,-128.000000
475,12.000000,-132.000000
476,-0.800000,-128.000000
477,3.200000,-124.000000
478,12.000000,-124.000000
479,6.400000,-124.000000
480,11.200000,-128.000000
481,11.200000,-128.000000
482,6.400000,-128.000000
483,0.000000,-128.000000
484,10.400000,-124.000000
485,15.200000,-124.000000
486,9.600000,-124.000000
487,-4.800000,-128.000000
488,-5.600000,-128.000000
489,-3.200000,-124.000000
490,-3.200000,-124.000000
491,0.000000,-124.000000
492,-4.000000,-124.000000
493,-2.400000,-120.000000
494,-3.200000,-124.000000
495,11.200000,-124.000000
496,11.200000,-120.000000
497,4.800000,-124.000000
498,-0.800000,-124.000000
499,4.000000,-124.000000
500,-1.600000,-124.000000
501,-8.800000,-120.000000
502,0.000000,-124.000000
503,-0.800000,-120.000000
504,-6.400000,-148.000000
505,3.200000,-120.000000
506,9.600000,-120.000000
507,5.600000,-124.000000
508,-2.400000,-120.000000
509,8.800000,-120.000000
510,7.200000,-120.000000
511,5.600000,-120.000000
512,11.200000,-116.000000
513,2.400000,-116.000000
514,-4.800000,-116.000000
515,-9.600000,-120.000000
516,-11.200000,-116.000000
517,-3.200000,-116.000000
518,-12.800000,-116.000000
519,-6.400000,-112.000000
520,-3.200000,-116.000000
521,-1.600000,-112.000000
522,0.000000,-108.000000
523,5.600000,-116.000000
524,6.400000,-112.000000
525,-14.400000,-112.000000
526,-17.600000,-112.000000
527,-11.200000,-112.000000
528,-8.800000,-108.000000
529,-3.200000,-112.000000
530,-0.800000,-112.000000
531,-2.400000,-108.000000
532,5.600000,-108.000000
533,12.800000,-112.000000
534,4.800000,-112.000000
535,-2.400000,-112.000000
536,-1.600000,-108.000000
537,-8.800000,-108.000000
538,-13.600000,-104.000000
539,-2.400000,-104.000000
540,-4.800000,-108.000000
541,4.000000,-104.000000
542,14.400000,-104.000000
543,10.400000,-104.000000
544,2.400000,-104.000000
545,8.800000,-76.000000
546,20.000000,-100.000000
547,22.400000,-104.000000
548,10.400000,-100.000000
549,5.600000,-100.000000
550,-4.800000,-100.000000
551,-9.600000,-104.000000
552,-6.400000,-100.000000
553,1.600000,-96.000000
554,-3.200000,-96.000000
555,-18.400000,-96.000000
556,-12.000000,-96.000000
557,-10.400000,-96.000000
558,-5.600000,-92.000000
559,6.400000,-92.000000
560,8.800000,-92.000000
561,1.600000,-92.000000
562,-7.200000,-96.000000
563,-7.200000,-96.000000
564,-13.600000,-92.000000
565,-4.000000,-92.000000
566,4.800000,-88.000000
567,1.600000,-88.000000
568,-1.600000,-88.000000
569,-1.600000,-88.000000
570,-2.400000,-88.000000
571,4.800000,-88.000000
572,8.800000,-84.000000
573,5.600000,-84.000000
574,-3.200000,-88.000000
575,1.600000,-84.000000
576,0.000000,-84.000000
577,-4.800000,-84.000000
578,-17.600000,-80.000000
579,-17.600000,-84.000000
580,-12.000000,-80.000000
581,-3.200000,-80.000000
582,0.800000,-80.000000
583,6.400000,-80.000000
584,1.600000,-76.000000
585,-1.600000,-76.000000
586,8.800000,-72.000000
587,11.200000,-80.000000
588,1.600000,-72.000000
589,4.800000,-76.000000
590,1.600000,-72.000000
591,0.000000,-72.000000
592,-4.000000,-64.000000
593,-0.800000,-72.000000
594,-5.600000,-72.000000
595,-7.200000,-72.000000
596,-1.600000,-68.000000
597,-2.400000,-68.000000
598,-2.400000,-72.000000
599,-6.400000,-68.000000
600,-2.400000,-64.000000
601,-3.200000,-64.000000
602,-5.600000,-68.000000
603,-3.200000,-64.000000
604,-8.800000,-68.000000
605,-8.800000,-64.000000
606,-7.200000,-60.000000
607,-16.000000,-60.000000
608,-16.799999,-60.000000
609,-2.400000,-60.000000
610,8.800000,-64.000000
611,-5.600000,-60.000000
612,-8.000000,-56.000000
613,-7.200000,-52.000000
614,-12.800000,-56.000000
615,-12.800000,-52.000000
616,-2.400000,-56.000000
617,-10.400000,-52.000000
618,-12.800000,-52.000000
619,3.200000,-52.000000
620,5.600000,-48.000000
621,-11.200000,-48.000000
622,-3.200000,-44.000000
623,-6.400000,-44.000000
624,-14.400000,-44.000000
625,-8.800000,-44.000000
626,-0.800000,-44.000000
627,-11.200000,-44.000000
628,-12.800000,-44.000000
629,-13.600000,-44.000000
630,-17.600000,-40.000000
631,-12.000000,-40.000000
632,6.400000,-36.000000
633,0.800000,-56.000000
634,-4.800000,-36.000000
635,9.600000,-36.000000
636,5.600000,-36.000000
637,-5.600000,-32.000000
638,1.600000,-32.000000
639,2.400000,-32.000000
640,-6.400000,-32.000000
641,-11.200000,-28.000000
642,-4.000000,-28.000000
643,-9.600000,-28.000000
644,-12.800000,-28.000000
645,-3.200000,-28.000000
646,-10.400000,-24.000000
647,-12.000000,-24.000000
648,0.800000,-24.000000
649,1.600000,-24.000000
650,0.000000,-20.000000
651,4.800000,-20.000000
652,-3.200000,-20.000000
653,-10.400000,-20.000000
654,-8.000000,-20.000000
655,-1.600000,-20.000000
656,-7.200000,-16.000000
657,-1.600000,-12.000000
658,1.600000,-16.000000
659,-4.000000,-16.000000
660,-3.200000,-12.000000
661,6.400000,-12.000000
662,-4.000000,-12.000000
663,-14.400000,-16.000000
664,-1.600000,-12.000000
665,-0.800000,-8.000000
666,4.000000,-8.000000
667,7.200000,-4.000000
668,1.600000,-4.000000
669,-3.200000,-8.000000
670,3.200000,-4.000000
671,-1.600000,-4.000000
672,-4.000000,-4.000000
673,-8.800000,0.000000
674,-9.600000,24.000000
675,-4.800000,0.000000
676,2.400000,0.000000
677,7.200000,4.000000
678,-3.200000,0.000000
679,-8.000000,4.000000
680,0.000000,0.000000
681,-4.800000,8.000000
682,0.000000,8.000000
683,4.800000,8.000000
684,0.800000,8.000000
685,-0.800000,8.000000
686,-1.600000,12.000000
687,-0.800000,12.000000
688,-7.200000,12.000000
689,6.400000,12.000000
690,13.600000,12.000000
691,11.200000,16.000000
692,8.000000,12.000000
693,11.200000,16.000000
694,-4.800000,20.000000
695,-1.600000,20.000000
696,11.200000,20.000000
697,6.400000,20.000000
698,4.000000,20.000000
699,0.800000,20.000000
700,-0.800000,24.000000
701,1.600000,24.000000
702,8.000000,24.000000
703,3.200000,28.000000
704,0.800000,28.000000
705,8.800000,28.000000
706,4.800000,24.000000
707,3.200000,32.000000
708,3.200000,28.000000
709,4.000000,32.000000
710,0.800000,28.000000
711,1.600000,32.000000
712,-8.800000,36.000000
713,-6.400000,36.000000
714,-8.800000,36.000000
715,-2.400000,36.000000
716,-8.000000,36.000000
717,0.000000,36.000000
718,-4.000000,40.000000
719,-10.400000,40.000000
720,-1.600000,40.000000
721,6.400000,56.000000
722,0.800000,44.000000
723,-1.600000,44.000000
724,4.000000,44.000000
725,-5.600000,48.000000
726,-8.800000,48.000000
727,-4.000000,44.000000
728,-6.400000,48.000000
729,-8.800000,48.000000
730,-9.600000,48.000000
731,-4.000000,52.000000
732,-4.000000,52.000000
733,-9.600000,52.000000
734,0.000000,56.000000
735,-2.400000,56.000000
736,-1.600000,56.000000
737,1.600000,56.000000
738,0.000000,56.000000
739,4.000000,52.000000
740,0.800000,60.000000
741,3.200000,60.000000
742,5.600000,60.000000
743,4.000000,60.000000
744,8.000000,60.000000
745,6.400000,56.000000
746,0.000000,64.000000
747,8.000000,64.000000
748,7.200000,64.000000
749,-7.200000,68.000000
750,-11.200000,64.000000
751,-8.800000,72.000000
752,-8.000000,68.000000
753,-8.000000,68.000000
754,-3.200000,68.000000
755,-5.600000,68.000000
756,3.200000,72.000000
757,0.000000,72.000000
758,-3.200000,72.000000
759,0.000000,76.000000
760,16.000000,76.000000
761,10.400000,72.000000
762,12.000000,56.000000
763,14.400000,80.000000
764,10.400000,80.000000
765,-2.400000,80.000000
766,-7.200000,76.000000
767,-8.800000,80.000000
768,-8.000000,84.000000
769,0.800000,84.000000
770,0.800000,80.000000
771,0.000000,84.000000
772,2.400000,84.000000
773,-5.600000,84.000000
774,-7.200000,88.000000
775,1.600000,88.000000
776,6.400000,88.000000
777,0.800000,84.000000
778,-4.800000,88.000000
779,0.800000,88.000000
780,-4.800000,84.000000
781,-0.800000,88.000000
782,0.000000,88.000000
783,0.000000,88.000000
784,-0.800000,92.000000
785,-3.200000,92.000000
786,0.000000,96.000000
787,8.000000,92.000000
788,0.000000,92.000000
789,-3.200000,92.000000
790,-0.800000,96.000000
791,4.000000,96.000000
792,9.600000,96.000000
793,8.000000,96.000000
794,-2.400000,100.000000
795,0.800000,96.000000
796,11.200000,100.000000
797,6.400000,100.000000
798,-5.600000,100.000000
799,-0.800000,100.000000
800,-2.400000,100.000000
801,-8.800000,104.000000
802,3.200000,104.000000
803,8.800000,132.000000
804,7.200000,104.000000
805,-1.600000,104.000000
806,1.600000,104.000000
807,0.000000,104.000000
