lab2/data_45_023.csv

Channel              :,CH1,CH2
Frequency            :,65.03Hz,64.94Hz
Period               :,15.38ms,15.40ms
PK-PK                :,2.420V,864.0mV
Probe attenuation    :,1X,1X
Voltage per ADC value:,1.250000mV,0.500000mV
Time interval        :,20.00000uS,20.00000uS

index,CH1_Voltage(mV),CH2_Voltage(mV)
1,-660.000000,24.000000
2,-660.000000,24.000000
3,-660.000000,24.000000
4,-660.000000,32.000000
5,-640.000000,24.000000
6,-640.000000,24.000000
7,-640.000000,40.000000
8,-620.000000,40.000000
9,-620.000000,40.000000
10,-600.000000,48.000000
11,-600.000000,48.000000
12,-580.000000,48.000000
13,-560.000000,48.000000
14,-580.000000,48.000000
15,-560.000000,56.000000
16,-540.000000,56.000000
17,-540.000000,64.000000
18,-540.000000,64.000000
19,-520.000000,72.000000
20,-500.000000,80.000000
21,-500.000000,80.000000
22,-480.000000,80.000000
23,-480.000000,88.000000
24,-460.000000,80.000000
25,-460.000000,96.000000
26,-460.000000,96.000000
27,-460.000000,96.000000
28,-440.000000,104.000000
29,-420.000000,104.000000
30,-420.000000,112.000000
31,-400.000000,112.000000
32,-400.000000,120.000000
33,-380.000000,120.000000
34,-360.000000,128.000000
35,-360.000000,128.000000
36,-360.000000,136.000000
37,-360.000000,136.000000
38,-340.000000,136.000000
39,-320.000000,144.000000
40,-340.000000,144.000000
41,-300.000000,152.000000
42,-300.000000,152.000000
43,-280.000000,152.000000
44,-300.000000,160.000000
45,-260.000000,160.000000
46,-280.000000,168.000000
47,-240.000000,176.000000
48,-240.000000,176.000000
49,-240.000000,176.000000
50,-220.000000,176.000000
51,-220.000000,184.000000
52,-180.000000,184.000000
53,-180.000000,192.000000
54,-180.000000,200.000000
55,-180.000000,200.000000
56,-160.000000,200.000000
57,-140.000000,200.000000
58,-140.000000,208.000000
59,-120.000000,208.000000
60,-120.000000,208.000000
61,-120.000000,232.000000
62,-100.000000,224.000000
63,-80.000000,224.000000
64,-80.000000,224.000000
65,-60.000000,232.000000
66,-40.000000,232.000000
67,-40.000000,232.000000
68,-40.000000,240.000000
69,-20.000000,240.000000
70,-20.000000,240.000000
71,0.000000,240.000000
72,0.000000,248.000000
73,20.000000,248.000000
74,20.000000,248.000000
75,40.000000,256.000000
76,60.000000,256.000000
77,60.000000,264.000000
78,80.000000,264.000000
79,60.000000,264.000000
80,100.000000,272.000000
81,100.000000,272.000000
82,100.000000,272.000000
83,120.000000,280.000000
84,140.000000,280.000000
85,160.000000,280.000000
86,160.000000,280.000000
87,140.000000,296.000000
88,180.000000,288.000000
89,180.000000,296.000000
90,200.000000,296.000000
91,220.000000,288.000000
92,220.000000,296.000000
93,220.000000,304.000000
94,220.000000,304.000000
95,240.000000,320.000000
96,260.000000,312.000000
97,240.000000,320.000000
98,280.000000,312.000000
99,280.000000,320.000000
100,280.000000,320.000000
101,280.000000,320.000000
102,320.000000,320.000000
103,340.000000,328.000000
104,340.000000,328.000000
105,340.000000,336.000000
106,360.000000,336.000000
107,380.000000,336.000000
108,340.000000,336.000000
109,380.000000,344.000000
110,380.000000,344.000000
111,380.000000,344.000000
112,400.000000,352.000000
113,400.000000,352.000000
114,400.000000,360.000000
115,420.000000,352.000000
116,440.000000,360.000000
117,440.000000,360.000000
118,460.000000,360.000000
119,440.000000,360.000000
120,460.000000,360.000000
121,480.000000,368.000000
122,480.000000,384.000000
123,500.000000,368.000000
124,500.000000,368.000000
125,520.000000,376.000000
126,520.000000,376.000000
127,520.000000,384.000000
128,520.000000,384.000000
129,540.000000,376.000000
130,560.000000,384.000000
131,560.000000,384.000000
132,560.000000,384.000000
133,580.000000,384.000000
134,580.000000,392.000000
135,600.000000,392.000000
136,600.000000,384.000000
137,600.000000,384.000000
138,620.000000,384.000000
139,620.000000,392.000000
140,640.000000,392.000000
141,640.000000,392.000000
142,640.000000,392.000000
143,640.000000,392.000000
144,660.000000,400.000000
145,660.000000,400.000000
146,660.000000,400.000000
147,680.000000,400.000000
148,680.000000,408.000000
149,660.000000,392.000000
150,680.000000,400.000000
151,680.000000,400.000000
152,720.000000,408.000000
153,700.000000,408.000000
154,700.000000,408.000000
155,740.000000,408.000000
156,720.000000,424.000000
157,740.000000,408.000000
158,740.000000,408.000000
159,760.000000,408.000000
160,740.000000,408.000000
161,780.000000,408.000000
162,760.000000,408.000000
163,780.000000,408.000000
164,780.000000,408.000000
165,800.000000,408.000000
166,800.000000,416.000000
167,780.000000,416.000000
168,800.000000,416.000000
169,820.000000,408.000000
170,800.000000,416.000000
171,820.000000,416.000000
172,820.000000,416.000000
173,840.000000,416.000000
174,820.000000,416.000000
175,840.000000,416.000000
176,840.000000,416.000000
177,860.000000,416.000000
178,860.000000,416.000000
179,840.000000,416.000000
180,860.000000,416.000000
181,880.000000,416.000000
182,860.000000,416.000000
183,880.000000,408.000000
184,880.000000,416.000000
185,900.000000,408.000000
186,900.000000,416.000000
187,900.000000,408.000000
188,900.000000,408.000000
189,900.000000,408.000000
190,900.000000,408.000000
191,920.000000,408.000000
192,900.000000,408.000000
193,920.000000,408.000000
194,900.000000,408.000000
195,920.000000,408.000000
196,920.000000,408.000000
197,940.000000,400.000000
198,940.000000,408.000000
199,920.000000,400.000000
200,940.000000,400.000000
201,940.000000,400.000000
202,940.000000,400.000000
203,940.000000,400.000000
204,940.000000,400.000000
205,940.000000,400.000000
206,940.000000,400.000000
207,960.000000,400.000000
208,960.000000,400.000000
209,960.000000,400.000000
210,960.000000,392.000000
211,980.000000,392.000000
212,960.000000,400.000000
213,980.000000,400.000000
214,980.000000,392.000000
215,960.000000,392.000000
216,980.000000,392.000000
217,980.000000,376.000000
218,960.000000,392.000000
219,980.000000,384.000000
220,980.000000,392.000000
221,980.000000,384.000000
222,980.000000,384.000000
223,980.000000,376.000000
224,980.000000,384.000000
225,1000.000000,376.000000
226,1000.000000,376.000000
227,1000.000000,376.000000
228,1000.000000,368.000000
229,980.000000,368.000000
230,980.000000,360.000000
231,1000.000000,368.000000
232,1000.000000,368.000000
233,980.000000,360.000000
234,1000.000000,360.000000
235,1000.000000,360.000000
236,1000.000000,360.000000
237,1000.000000,360.000000
238,1000.000000,360.000000
239,1000.000000,352.000000
240,980.000000,352.000000
241,1000.000000,352.000000
242,1000.000000,344.000000
243,980.000000,352.000000
244,980.000000,336.000000
245,980.000000,344.000000
246,980.000000,344.000000
247,1000.000000,344.000000
248,1000.000000,336.000000
249,980.000000,336.000000
250,1000.000000,328.000000
251,980.000000,336.000000
252,980.000000,328.000000
253,980.000000,328.000000
254,980.000000,328.000000
255,960.000000,320.000000
256,980.000000,320.000000
257,980.000000,312.000000
258,980.000000,320.000000
259,980.000000,312.000000
260,980.000000,312.000000
261,960.000000,312.000000
262,980.000000,304.000000
263,980.000000,304.000000
264,960.000000,312.000000
265,960.000000,304.000000
266,960.000000,296.000000
267,980.000000,296.000000
268,960.000000,296.000000
269,960.000000,288.000000
270,940.000000,288.000000
271,940.000000,296.000000
272,960.000000,288.000000
273,940.000000,288.000000
274,940.000000,288.000000
275,960.000000,280.000000
276,940.000000,272.000000
277,920.000000,280.000000
278,940.000000,248.000000
279,920.000000,272.000000
280,920.000000,272.000000
281,940.000000,264.000000
282,920.000000,264.000000
283,900.000000,264.000000
284,920.000000,248.000000
285,920.000000,256.000000
286,900.000000,256.000000
287,880.000000,248.000000
288,900.000000,248.000000
289,900.000000,248.000000
290,880.000000,240.000000
291,880.000000,240.000000
292,880.000000,232.000000
293,860.000000,232.000000
294,860.000000,232.000000
295,860.000000,232.000000
296,840.000000,224.000000
297,860.000000,224.000000
298,840.000000,216.000000
299,840.000000,224.000000
300,840.000000,216.000000
301,820.000000,216.000000
302,840.000000,208.000000
303,820.000000,208.000000
304,820.000000,200.000000
305,820.000000,200.000000
306,820.000000,200.000000
307,800.000000,192.000000
308,800.000000,192.000000
309,800.000000,192.000000
310,800.000000,184.000000
311,780.000000,184.000000
312,780.000000,176.000000
313,780.000000,176.000000
314,780.000000,176.000000
315,760.000000,168.000000
316,760.000000,176.000000
317,740.000000,168.000000
318,740.000000,160.000000
319,740.000000,160.000000
320,720.000000,160.000000
321,720.000000,160.000000
322,720.000000,152.000000
323,700.000000,152.000000
324,700.000000,152.000000
325,700.000000,152.000000
326,700.000000,144.000000
327,680.000000,136.000000
328,660.000000,136.000000
329,680.000000,136.000000
330,660.000000,136.000000
331,660.000000,128.000000
332,660.000000,128.000000
333,640.000000,120.000000
334,640.000000,120.000000
335,620.000000,112.000000
336,620.000000,112.000000
337,620.000000,104.000000
338,600.000000,104.000000
339,600.000000,120.000000
340,580.000000,96.000000
341,600.000000,96.000000
342,580.000000,96.000000
343,580.000000,88.000000
344,580.000000,80.000000
345,560.000000,88.000000
346,540.000000,80.000000
347,540.000000,80.000000
348,540.000000,72.000000
349,520.000000,72.000000
350,520.000000,72.000000
351,500.000000,64.000000
352,500.000000,64.000000
353,500.000000,56.000000
354,500.000000,56.000000
355,480.000000,56.000000
356,480.000000,48.000000
357,480.000000,48.000000
358,460.000000,48.000000
359,440.000000,40.000000
360,440.000000,32.000000
361,440.000000,32.000000
362,400.000000,32.000000
363,420.000000,24.000000
364,420.000000,32.000000
365,400.000000,16.000000
366,400.000000,24.000000
367,400.000000,16.000000
368,380.000000,8.000000
369,380.000000,8.000000
370,360.000000,8.000000
371,360.000000,0.000000
372,340.000000,0.000000
373,340.000000,0.000000
374,340.000000,-8.000000
375,320.000000,-8.000000
376,300.000000,-8.000000
377,280.000000,-16.000000
378,280.000000,-24.000000
379,260.000000,-16.000000
380,280.000000,-24.000000
381,280.000000,-32.000000
382,240.000000,-32.000000
383,260.000000,-32.000000
384,240.000000,-32.000000
385,220.000000,-40.000000
386,220.000000,-48.000000
387,220.000000,-48.000000
388,200.000000,-48.000000
389,200.000000,-56.000000
390,180.000000,-56.000000
391,180.000000,-56.000000
392,140.000000,-64.000000
393,160.000000,-64.000000
394,140.000000,-72.000000
395,140.000000,-72.000000
396,120.000000,-72.000000
397,120.000000,-80.000000
398,100.000000,-80.000000
399,100.000000,-80.000000
400,100.000000,-80.000000
401,80.000000,-88.000000
402,60.000000,-96.000000
403,60.000000,-96.000000
404,60.000000,-96.000000
405,60.000000,-104.000000
406,60.000000,-104.000000
407,20.000000,-104.000000
408,20.000000,-112.000000
409,40.000000,-112.000000
410,20.000000,-120.000000
411,0.000000,-128.000000
412,-40.000000,-128.000000
413,-20.000000,-128.000000
414,-40.000000,-128.000000
415,-60.000000,-136.000000
416,-60.000000,-136.000000
417,-60.000000,-144.000000
418,-80.000000,-144.000000
419,-100.000000,-144.000000
420,-80.000000,-152.000000
421,-100.000000,-152.000000
422,-120.000000,-160.000000
423,-120.000000,-160.000000
424,-120.000000,-160.000000
425,-120.000000,-160.000000
426,-160.000000,-168.000000
427,-160.000000,-176.000000
428,-180.000000,-176.000000
429,-180.000000,-176.000000
430,-180.000000,-176.000000
431,-200.000000,-184.000000
432,-220.000000,-184.000000
433,-220.000000,-184.000000
434,-240.000000,-184.000000
435,-240.000000,-192.000000
436,-240.000000,-192.000000
437,-260.000000,-192.000000
438,-260.000000,-200.000000
439,-260.000000,-208.000000
440,-300.000000,-208.000000
441,-300.000000,-208.000000
442,-300.000000,-208.000000
443,-320.000000,-208.000000
444,-320.000000,-216.000000
445,-300.000000,-216.000000
446,-340.000000,-224.000000
447,-340.000000,-232.000000
448,-340.000000,-224.000000
449,-360.000000,-240.000000
450,-360.000000,-232.000000
451,-380.000000,-232.000000
452,-380.000000,-240.000000
453,-400.000000,-240.000000
454,-400.000000,-240.000000
455,-420.000000,-248.000000
456,-440.000000,-240.000000
457,-440.000000,-248.000000
458,-440.000000,-256.000000
459,-460.000000,-256.000000
460,-460.000000,-264.000000
461,-500.000000,-264.000000
462,-480.000000,-256.000000
463,-480.000000,-264.000000
464,-520.000000,-256.000000
465,-520.000000,-272.000000
466,-520.000000,-272.000000
467,-520.000000,-272.000000
468,-520.000000,-272.000000
469,-540.000000,-280.000000
470,-540.000000,-272.000000
471,-560.000000,-280.000000
472,-560.000000,-280.000000
473,-580.000000,-280.000000
474,-580.000000,-288.000000
475,-600.000000,-288.000000
476,-620.000000,-296.000000
477,-600.000000,-296.000000
478,-640.000000,-288.000000
479,-620.000000,-296.000000
480,-660.000000,-296.000000
481,-660.000000,-304.000000
482,-660.000000,-296.000000
483,-660.000000,-304.000000
484,-680.000000,-312.000000
485,-700.000000,-304.000000
486,-700.000000,-312.000000
487,-700.000000,-312.000000
488,-700.000000,-320.000000
489,-720.000000,-312.000000
490,-720.000000,-320.000000
491,-740.000000,-320.000000
492,-740.000000,-320.000000
493,-740.000000,-320.000000
494,-760.000000,-320.000000
495,-780.000000,-336.000000
496,-780.000000,-328.000000
497,-780.000000,-328.000000
498,-800.000000,-336.000000
499,-780.000000,-336.000000
500,-800.000000,-336.000000
501,-780.000000,-352.000000
502,-820.000000,-336.000000
503,-820.000000,-344.000000
504,-820.000000,-344.000000
505,-840.000000,-344.000000
506,-840.000000,-352.000000
507,-860.000000,-344.000000
508,-880.000000,-352.000000
509,-860.000000,-352.000000
510,-880.000000,-352.000000
511,-900.000000,-352.000000
512,-900.000000,-360.000000
513,-880.000000,-360.000000
514,-900.000000,-352.000000
515,-920.000000,-360.000000
516,-920.000000,-360.000000
517,-920.000000,-360.000000
518,-920.000000,-360.000000
519,-960.000000,-360.000000
520,-960.000000,-368.000000
521,-960.000000,-368.000000
522,-960.000000,-368.000000
523,-960.000000,-368.000000
524,-980.000000,-368.000000
525,-1000.000000,-368.000000
526,-1000.000000,-376.000000
527,-1000.000000,-376.000000
528,-1000.000000,-376.000000
529,-1020.000000,-368.000000
530,-1020.000000,-376.000000
531,-1020.000000,-376.000000
532,-1040.000000,-376.000000
533,-1040.000000,-376.000000
534,-1040.000000,-384.000000
535,-1040.000000,-384.000000
536,-1060.000000,-384.000000
537,-1060.000000,-384.000000
538,-1060.000000,-392.000000
539,-1080.000000,-384.000000
540,-1080.000000,-384.000000
541,-1100.000000,-392.000000
542,-1100.000000,-384.000000
543,-1100.000000,-392.000000
544,-1100.000000,-392.000000
545,-1100.000000,-392.000000
546,-1120.000000,-400.000000
547,-1120.000000,-392.000000
548,-1120.000000,-392.000000
549,-1140.000000,-392.000000
550,-1140.000000,-392.000000
551,-1140.000000,-392.000000
552,-1160.000000,-392.000000
553,-1160.000000,-400.000000
554,-1160.000000,-400.000000
555,-1180.000000,-392.000000
556,-1180.000000,-384.000000
557,-1180.000000,-392.000000
558,-1180.000000,-400.000000
559,-1200.000000,-400.000000
560,-1200.000000,-400.000000
561,-1200.000000,-400.000000
562,-1200.000000,-392.000000
563,-1200.000000,-400.000000
564,-1220.000000,-400.000000
565,-1240.000000,-400.000000
566,-1240.000000,-400.000000
567,-1240.000000,-400.000000
568,-1240.000000,-400.000000
569,-1240.000000,-400.000000
570,-1260.000000,-400.000000
571,-1240.000000,-400.000000
572,-1260.000000,-400.000000
573,-1260.000000,-400.000000
574,-1260.000000,-400.000000
575,-1280.000000,-400.000000
576,-1280.000000,-400.000000
577,-1280.000000,-400.000000
578,-1260.000000,-400.000000
579,-1280.000000,-400.000000
580,-1280.000000,-400.000000
581,-1280.000000,-400.000000
582,-1280.000000,-400.000000
583,-1280.000000,-400.000000
584,-1300.000000,-400.000000
585,-1320.000000,-408.000000
586,-1300.000000,-408.000000
587,-1320.000000,-400.000000
588,-1300.000000,-400.000000
589,-1320.000000,-400.000000
590,-1320.000000,-392.000000
591,-1300.000000,-400.000000
592,-1340.000000,-400.000000
593,-1340.000000,-400.000000
594,-1320.000000,-400.000000
595,-1320.000000,-400.000000
596,-1340.000000,-392.000000
597,-1340.000000,-392.000000
598,-1340.000000,-400.000000
599,-1340.000000,-400.000000
600,-1340.000000,-392.000000
601,-1340.000000,-392.000000
602,-1340.000000,-392.000000
603,-1360.000000,-400.000000
604,-1340.000000,-392.000000
605,-1340.000000,-392.000000
606,-1360.000000,-392.000000
607,-1360.000000,-384.000000
608,-1360.000000,-384.000000
609,-1360.000000,-384.000000
610,-1380.000000,-384.000000
611,-1380.000000,-392.000000
612,-1360.000000,-384.000000
613,-1380.000000,-384.000000
614,-1380.000000,-384.000000
615,-1360.000000,-384.000000
616,-1380.000000,-376.000000
617,-1380.000000,-368.000000
618,-1380.000000,-384.000000
619,-1380.000000,-376.000000
620,-1380.000000,-376.000000
621,-1380.000000,-376.000000
622,-1380.000000,-376.000000
623,-1400.000000,-368.000000
624,-1380.000000,-376.000000
625,-1380.000000,-368.000000
626,-1380.000000,-368.000000
627,-1380.000000,-368.000000
628,-1380.000000,-368.000000
629,-1380.000000,-368.000000
630,-1380.000000,-360.000000
631,-1380.000000,-360.000000
632,-1380.000000,-360.000000
633,-1380.000000,-360.000000
634,-1380.000000,-360.000000
635,-1380.000000,-352.000000
636,-1380.000000,-352.000000
637,-1380.000000,-360.000000
638,-1380.000000,-352.000000
639,-1360.000000,-352.000000
640,-1360.000000,-352.000000
641,-1400.000000,-352.000000
642,-1380.000000,-344.000000
643,-1360.000000,-344.000000
644,-1360.000000,-344.000000
645,-1360.000000,-336.000000
646,-1360.000000,-336.000000
647,-1360.000000,-336.000000
648,-1360.000000,-336.000000
649,-1360.000000,-328.000000
650,-1340.000000,-336.000000
651,-1360.000000,-312.000000
652,-1360.000000,-328.000000
653,-1340.000000,-328.000000
654,-1340.000000,-320.000000
655,-1360.000000,-320.000000
656,-1360.000000,-320.000000
657,-1340.000000,-320.000000
658,-1340.000000,-312.000000
659,-1340.000000,-312.000000
660,-1340.000000,-312.000000
661,-1340.000000,-304.000000
662,-1340.000000,-304.000000
663,-1340.000000,-304.000000
664,-1320.000000,-304.000000
665,-1340.000000,-296.000000
666,-1340.000000,-296.000000
667,-1320.000000,-296.000000
668,-1320.000000,-296.000000
669,-1340.000000,-288.000000
670,-1320.000000,-288.000000
671,-1280.000000,-280.000000
672,-1300.000000,-280.000000
673,-1300.000000,-272.000000
674,-1300.000000,-280.000000
675,-1300.000000,-280.000000
676,-1300.000000,-272.000000
677,-1300.000000,-272.000000
678,-1280.000000,-272.000000
679,-1300.000000,-264.000000
680,-1280.000000,-256.000000
681,-1280.000000,-256.000000
682,-1280.000000,-256.000000
683,-1260.000000,-248.000000
684,-1260.000000,-256.000000
685,-1260.000000,-248.000000
686,-1260.000000,-248.000000
687,-1260.000000,-240.000000
688,-1240.000000,-240.000000
689,-1240.000000,-232.000000
690,-1220.000000,-232.000000
691,-1220.000000,-232.000000
692,-1240.000000,-224.000000
693,-1220.000000,-224.000000
694,-1220.000000,-224.000000
695,-1220.000000,-216.000000
696,-1200.000000,-216.000000
697,-1200.000000,-208.000000
698,-1200.000000,-216.000000
699,-1200.000000,-208.000000
700,-1180.000000,-200.000000
701,-1200.000000,-192.000000
702,-1180.000000,-200.000000
703,-1180.000000,-192.000000
704,-1160.000000,-192.000000
705,-1140.000000,-184.000000
706,-1140.000000,-192.000000
707,-1160.000000,-184.000000
708,-1140.000000,-184.000000
709,-1140.000000,-176.000000
710,-1140.000000,-176.000000
711,-1140.000000,-168.000000
712,-1120.000000,-176.000000
713,-1120.000000,-160.000000
714,-1100.000000,-160.000000
715,-1100.000000,-152.000000
716,-1080.000000,-160.000000
717,-1080.000000,-152.000000
718,-1080.000000,-160.000000
719,-1080.000000,-144.000000
720,-1080.000000,-144.000000
721,-1060.000000,-136.000000
722,-1060.000000,-136.000000
723,-1040.000000,-128.000000
724,-1060.000000,-120.000000
725,-1020.000000,-128.000000
726,-1020.000000,-120.000000
727,-1020.000000,-112.000000
728,-1020.000000,-112.000000
729,-1000.000000,-104.000000
