lab2/data_45_006.csv

Channel              :,CH1,CH2
Frequency            :,  ?,  ?
Period               :,  ?,  ?
PK-PK                :,1.580V,262.0mV
Probe attenuation    :,1X,1X
Voltage per ADC value:,1.250000mV,0.125000mV
Time interval        :,200.00000uS,200.00000uS

index,CH1_Voltage(mV),CH2_Voltage(mV)
1,320.000000,32.000000
2,320.000000,32.000000
3,320.000000,24.000000
4,340.000000,20.000000
5,300.000000,20.000000
6,320.000000,24.000000
7,280.000000,22.000000
8,300.000000,20.000000
9,260.000000,20.000000
10,280.000000,20.000000
11,240.000000,16.000000
12,240.000000,16.000000
13,240.000000,16.000000
14,260.000000,16.000000
15,220.000000,16.000000
16,240.000000,16.000000
17,220.000000,14.000000
18,200.000000,14.000000
19,180.000000,12.000000
20,180.000000,12.000000
21,180.000000,12.000000
22,160.000000,12.000000
23,180.000000,4.000000
24,160.000000,10.000000
25,160.000000,6.000000
26,160.000000,8.000000
27,160.000000,4.000000
28,160.000000,6.000000
29,140.000000,6.000000
30,140.000000,4.000000
31,140.000000,6.000000
32,140.000000,4.000000
33,140.000000,4.000000
34,120.000000,0.000000
35,120.000000,2.000000
36,120.000000,2.000000
37,80.000000,2.000000
38,100.000000,0.000000
39,120.000000,-2.000000
40,100.000000,-2.000000
41,120.000000,-4.000000
42,100.000000,2.000000
43,100.000000,-4.000000
44,120.000000,-6.000000
45,100.000000,-6.000000
46,120.000000,-4.000000
47,100.000000,-8.000000
48,100.000000,-10.000000
49,100.000000,-6.000000
50,80.000000,-10.000000
51,80.000000,-10.000000
52,60.000000,-12.000000
53,80.000000,-12.000000
54,60.000000,-14.000000
55,60.000000,-14.000000
56,40.000000,-14.000000
57,20.000000,-14.000000
58,20.000000,-14.000000
59,20.000000,-16.000000
60,0.000000,-18.000000
61,20.000000,-18.000000
62,0.000000,-18.000000
63,20.000000,-26.000000
64,20.000000,-20.000000
65,0.000000,-28.000000
66,-20.000000,-22.000000
67,-40.000000,-26.000000
68,-20.000000,-26.000000
69,-40.000000,-26.000000
70,-60.000000,-24.000000
71,-60.000000,-26.000000
72,-60.000000,-26.000000
73,-80.000000,-28.000000
74,-80.000000,-28.000000
75,-100.000000,-30.000000
76,-80.000000,-28.000000
77,-100.000000,-30.000000
78,-100.000000,-30.000000
79,-120.000000,-32.000000
80,-120.000000,-32.000000
81,-120.000000,-32.000000
82,-140.000000,-34.000000
83,-80.000000,-36.000000
84,-120.000000,-36.000000
85,-120.000000,-36.000000
86,-120.000000,-38.000000
87,-140.000000,-36.000000
88,-120.000000,-38.000000
89,-120.000000,-38.000000
90,-160.000000,-40.000000
91,-140.000000,-38.000000
92,-140.000000,-40.000000
93,-140.000000,-42.000000
94,-140.000000,-44.000000
95,-160.000000,-42.000000
96,-140.000000,-44.000000
97,-140.000000,-44.000000
98,-140.000000,-44.000000
99,-140.000000,-46.000000
100,-140.000000,-48.000000
101,-180.000000,-46.000000
102,-180.000000,-48.000000
103,-200.000000,-70.000000
104,-220.000000,-48.000000
105,-220.000000,-48.000000
106,-240.000000,-50.000000
107,-240.000000,-54.000000
108,-240.000000,-52.000000
109,-240.000000,-52.000000
110,-280.000000,-54.000000
111,-280.000000,-54.000000
112,-280.000000,-54.000000
113,-260.000000,-56.000000
114,-280.000000,-56.000000
115,-300.000000,-58.000000
116,-320.000000,-58.000000
117,-320.000000,-58.000000
118,-320.000000,-60.000000
119,-320.000000,-60.000000
120,-340.000000,-60.000000
121,-360.000000,-62.000000
122,-360.000000,-60.000000
123,-380.000000,-62.000000
124,-400.000000,-62.000000
125,-380.000000,-62.000000
126,-340.000000,-54.000000
127,-380.000000,-66.000000
128,-380.000000,-64.000000
129,-360.000000,-66.000000
130,-400.000000,-68.000000
131,-380.000000,-68.000000
132,-400.000000,-68.000000
133,-420.000000,-70.000000
134,-400.000000,-70.000000
135,-400.000000,-70.000000
136,-420.000000,-70.000000
137,-420.000000,-70.000000
138,-420.000000,-68.000000
139,-420.000000,-72.000000
140,-420.000000,-74.000000
141,-400.000000,-72.000000
142,-440.000000,-76.000000
143,-420.000000,-88.000000
144,-420.000000,-76.000000
145,-440.000000,-72.000000
146,-440.000000,-76.000000
147,-460.000000,-78.000000
148,-440.000000,-78.000000
149,-460.000000,-80.000000
150,-460.000000,-80.000000
151,-460.000000,-80.000000
152,-460.000000,-80.000000
153,-460.000000,-80.000000
154,-460.000000,-82.000000
155,-480.000000,-84.000000
156,-480.000000,-84.000000
157,-480.000000,-82.000000
158,-480.000000,-86.000000
159,-480.000000,-86.000000
160,-520.000000,-84.000000
161,-520.000000,-88.000000
162,-520.000000,-88.000000
163,-540.000000,-88.000000
164,-520.000000,-82.000000
165,-540.000000,-90.000000
166,-580.000000,-94.000000
167,-560.000000,-90.000000
168,-580.000000,-86.000000
169,-540.000000,-92.000000
170,-560.000000,-90.000000
171,-580.000000,-92.000000
172,-600.000000,-92.000000
173,-600.000000,-94.000000
174,-620.000000,-94.000000
175,-620.000000,-96.000000
176,-620.000000,-96.000000
177,-640.000000,-96.000000
178,-640.000000,-96.000000
179,-640.000000,-96.000000
180,-640.000000,-98.000000
181,-660.000000,-98.000000
182,-640.000000,-100.000000
183,-640.000000,-98.000000
184,-660.000000,-100.000000
185,-640.000000,-102.000000
186,-660.000000,-100.000000
187,-680.000000,-102.000000
188,-640.000000,-100.000000
189,-660.000000,-98.000000
190,-640.000000,-102.000000
191,-660.000000,-102.000000
192,-680.000000,-102.000000
193,-680.000000,-102.000000
194,-660.000000,-104.000000
195,-660.000000,-104.000000
196,-660.000000,-104.000000
197,-640.000000,-104.000000
198,-660.000000,-104.000000
199,-660.000000,-104.000000
200,-660.000000,-106.000000
201,-680.000000,-106.000000
202,-700.000000,-106.000000
203,-680.000000,-106.000000
204,-700.000000,-114.000000
205,-700.000000,-108.000000
206,-700.000000,-106.000000
207,-720.000000,-108.000000
208,-720.000000,-104.000000
209,-740.000000,-110.000000
210,-740.000000,-112.000000
211,-740.000000,-110.000000
212,-760.000000,-110.000000
213,-740.000000,-110.000000
214,-760.000000,-110.000000
215,-760.000000,-112.000000
216,-760.000000,-112.000000
217,-760.000000,-110.000000
218,-780.000000,-112.000000
219,-780.000000,-112.000000
220,-780.000000,-110.000000
221,-800.000000,-112.000000
222,-800.000000,-114.000000
223,-800.000000,-112.000000
224,-820.000000,-114.000000
225,-800.000000,-118.000000
226,-800.000000,-114.000000
227,-820.000000,-112.000000
228,-840.000000,-114.000000
229,-840.000000,-118.000000
230,-820.000000,-114.000000
231,-840.000000,-114.000000
232,-840.000000,-114.000000
233,-840.000000,-114.000000
234,-840.000000,-114.000000
235,-840.000000,-114.000000
236,-860.000000,-116.000000
237,-840.000000,-116.000000
238,-840.000000,-114.000000
239,-840.000000,-116.000000
240,-840.000000,-116.000000
241,-840.000000,-116.000000
242,-860.000000,-116.000000
243,-840.000000,-118.000000
244,-800.000000,-114.000000
245,-820.000000,-116.000000
246,-800.000000,-122.000000
247,-800.000000,-116.000000
248,-800.000000,-118.000000
249,-820.000000,-116.000000
250,-840.000000,-118.000000
251,-840.000000,-114.000000
252,-800.000000,-114.000000
253,-840.000000,-116.000000
254,-840.000000,-114.000000
255,-820.000000,-116.000000
256,-820.000000,-114.000000
257,-820.000000,-116.000000
258,-840.000000,-116.000000
259,-840.000000,-114.000000
260,-840.000000,-114.000000
261,-800.000000,-114.000000
262,-840.000000,-116.000000
263,-860.000000,-114.000000
264,-840.000000,-114.000000
265,-820.000000,-120.000000
266,-820.000000,-114.000000
267,-860.000000,-114.000000
268,-860.000000,-114.000000
269,-840.000000,-110.000000
270,-860.000000,-114.000000
271,-880.000000,-114.000000
272,-880.000000,-114.000000
273,-880.000000,-112.000000
274,-860.000000,-112.000000
275,-880.000000,-114.000000
276,-900.000000,-112.000000
277,-900.000000,-112.000000
278,-880.000000,-110.000000
279,-880.000000,-112.000000
280,-880.000000,-110.000000
281,-900.000000,-110.000000
282,-880.000000,-112.000000
283,-880.000000,-110.000000
284,-880.000000,-110.000000
285,-860.000000,-110.000000
286,-860.000000,-110.000000
287,-880.000000,-108.000000
288,-860.000000,-98.000000
289,-880.000000,-110.000000
290,-880.000000,-110.000000
291,-840.000000,-106.000000
292,-840.000000,-106.000000
293,-860.000000,-106.000000
294,-840.000000,-106.000000
295,-860.000000,-106.000000
296,-840.000000,-106.000000
297,-840.000000,-106.000000
298,-820.000000,-106.000000
299,-840.000000,-106.000000
300,-820.000000,-104.000000
301,-840.000000,-104.000000
302,-840.000000,-102.000000
303,-840.000000,-102.000000
304,-840.000000,-104.000000
305,-840.000000,-116.000000
306,-840.000000,-100.000000
307,-840.000000,-100.000000
308,-840.000000,-100.000000
309,-840.000000,-100.000000
310,-860.000000,-100.000000
311,-840.000000,-100.000000
312,-860.000000,-98.000000
313,-860.000000,-96.000000
314,-840.000000,-98.000000
315,-840.000000,-96.000000
316,-860.000000,-96.000000
317,-880.000000,-96.000000
318,-860.000000,-94.000000
319,-860.000000,-96.000000
320,-840.000000,-94.000000
321,-880.000000,-92.000000
322,-860.000000,-94.000000
323,-860.000000,-94.000000
324,-840.000000,-92.000000
325,-860.000000,-92.000000
326,-860.000000,-72.000000
327,-860.000000,-90.000000
328,-860.000000,-92.000000
329,-860.000000,-88.000000
330,-860.000000,-86.000000
331,-840.000000,-88.000000
332,-840.000000,-86.000000
333,-860.000000,-86.000000
334,-860.000000,-84.000000
335,-840.000000,-84.000000
336,-840.000000,-84.000000
337,-840.000000,-84.000000
338,-820.000000,-82.000000
339,-820.000000,-80.000000
340,-840.000000,-80.000000
341,-820.000000,-82.000000
342,-820.000000,-82.000000
343,-800.000000,-80.000000
344,-800.000000,-76.000000
345,-780.000000,-76.000000
346,-780.000000,-76.000000
347,-780.000000,-78.000000
348,-780.000000,-74.000000
349,-780.000000,-76.000000
350,-760.000000,-74.000000
351,-760.000000,-68.000000
352,-740.000000,-72.000000
353,-740.000000,-70.000000
354,-740.000000,-70.000000
355,-740.000000,-70.000000
356,-720.000000,-68.000000
357,-780.000000,-68.000000
358,-740.000000,-68.000000
359,-740.000000,-66.000000
360,-720.000000,-68.000000
361,-720.000000,-64.000000
362,-720.000000,-64.000000
363,-720.000000,-64.000000
364,-700.000000,-62.000000
365,-700.000000,-62.000000
366,-720.000000,-66.000000
367,-720.000000,-60.000000
368,-720.000000,-58.000000
369,-720.000000,-58.000000
370,-700.000000,-54.000000
371,-720.000000,-58.000000
372,-720.000000,-56.000000
373,-720.000000,-54.000000
374,-720.000000,-52.000000
375,-700.000000,-54.000000
376,-680.000000,-52.000000
377,-680.000000,-50.000000
378,-700.000000,-50.000000
379,-720.000000,-50.000000
380,-700.000000,-48.000000
381,-700.000000,-48.000000
382,-680.000000,-48.000000
383,-680.000000,-46.000000
384,-640.000000,-46.000000
385,-640.000000,-44.000000
386,-660.000000,-42.000000
387,-620.000000,-24.000000
388,-640.000000,-40.000000
389,-620.000000,-44.000000
390,-580.000000,-40.000000
391,-580.000000,-34.000000
392,-580.000000,-38.000000
393,-600.000000,-38.000000
394,-560.000000,-36.000000
395,-580.000000,-34.000000
396,-540.000000,-34.000000
397,-520.000000,-34.000000
398,-560.000000,-32.000000
399,-540.000000,-32.000000
400,-540.000000,-28.000000
401,-520.000000,-28.000000
402,-540.000000,-28.000000
403,-520.000000,-26.000000
404,-540.000000,-26.000000
405,-540.000000,-26.000000
406,-520.000000,-22.000000
407,-520.000000,-24.000000
408,-540.000000,-26.000000
409,-520.000000,-20.000000
410,-520.000000,-24.000000
411,-520.000000,-20.000000
412,-500.000000,-22.000000
413,-520.000000,-18.000000
414,-520.000000,-16.000000
415,-480.000000,-16.000000
416,-480.000000,-16.000000
417,-500.000000,-14.000000
418,-480.000000,-14.000000
419,-480.000000,-14.000000
420,-480.000000,-12.000000
421,-480.000000,-10.000000
422,-480.000000,-8.000000
423,-480.000000,-10.000000
424,-460.000000,-8.000000
425,-460.000000,-8.000000
426,-440.000000,-6.000000
427,-440.000000,-10.000000
428,-460.000000,-4.000000
429,-460.000000,-4.000000
430,-460.000000,-4.000000
431,-420.000000,-2.000000
432,-440.000000,-2.000000
433,-420.000000,0.000000
434,-420.000000,2.000000
435,-420.000000,2.000000
436,-420.000000,2.000000
437,-400.000000,2.000000
438,-380.000000,4.000000
439,-380.000000,4.000000
440,-380.000000,4.000000
441,-340.000000,6.000000
442,-340.000000,6.000000
443,-320.000000,10.000000
444,-300.000000,8.000000
445,-340.000000,8.000000
446,-300.000000,10.000000
447,-320.000000,12.000000
448,-320.000000,10.000000
449,-280.000000,12.000000
450,-300.000000,18.000000
451,-300.000000,14.000000
452,-260.000000,8.000000
453,-280.000000,16.000000
454,-260.000000,16.000000
455,-240.000000,18.000000
456,-240.000000,20.000000
457,-240.000000,18.000000
458,-220.000000,20.000000
459,-240.000000,22.000000
460,-220.000000,22.000000
461,-220.000000,22.000000
462,-220.000000,22.000000
463,-200.000000,22.000000
464,-220.000000,22.000000
465,-200.000000,24.000000
466,-200.000000,26.000000
467,-200.000000,22.000000
468,-220.000000,28.000000
469,-200.000000,34.000000
470,-220.000000,30.000000
471,-180.000000,30.000000
472,-200.000000,32.000000
473,-200.000000,32.000000
474,-180.000000,32.000000
475,-180.000000,36.000000
476,-180.000000,34.000000
477,-160.000000,36.000000
478,-140.000000,34.000000
479,-140.000000,38.000000
480,-140.000000,38.000000
481,-120.000000,40.000000
482,-120.000000,40.000000
483,-100.000000,40.000000
484,-120.000000,40.000000
485,-100.000000,40.000000
486,-100.000000,42.000000
487,-80.000000,42.000000
488,-80.000000,60.000000
489,-80.000000,44.000000
490,-60.000000,40.000000
491,-60.000000,44.000000
492,-20.000000,50.000000
493,-20.000000,46.000000
494,0.000000,48.000000
495,0.000000,48.000000
496,20.000000,48.000000
497,40.000000,50.000000
498,40.000000,50.000000
499,40.000000,50.000000
500,20.000000,50.000000
501,40.000000,52.000000
502,60.000000,54.000000
503,60.000000,52.000000
504,60.000000,54.000000
505,60.000000,54.000000
506,60.000000,54.000000
507,60.000000,56.000000
508,40.000000,54.000000
509,60.000000,54.000000
510,40.000000,58.000000
511,60.000000,56.000000
512,40.000000,58.000000
513,60.000000,58.000000
514,60.000000,60.000000
515,40.000000,62.000000
516,60.000000,60.000000
517,60.000000,64.000000
518,60.000000,62.000000
519,60.000000,64.000000
520,60.000000,64.000000
521,80.000000,64.000000
522,60.000000,64.000000
523,80.000000,68.000000
524,100.000000,68.000000
525,100.000000,68.000000
526,120.000000,66.000000
527,120.000000,68.000000
528,120.000000,84.000000
529,120.000000,68.000000
530,140.000000,70.000000
531,140.000000,70.000000
532,140.000000,74.000000
533,140.000000,72.000000
534,140.000000,70.000000
535,160.000000,70.000000
536,160.000000,72.000000
537,200.000000,72.000000
538,180.000000,72.000000
539,180.000000,74.000000
540,200.000000,74.000000
541,200.000000,74.000000
542,220.000000,76.000000
543,240.000000,74.000000
544,260.000000,76.000000
545,240.000000,76.000000
546,240.000000,76.000000
547,240.000000,78.000000
548,240.000000,78.000000
549,240.000000,80.000000
550,260.000000,78.000000
551,260.000000,72.000000
552,260.000000,80.000000
553,240.000000,76.000000
554,280.000000,80.000000
555,280.000000,80.000000
556,280.000000,80.000000
557,280.000000,80.000000
558,300.000000,82.000000
559,300.000000,82.000000
560,280.000000,82.000000
561,320.000000,82.000000
562,320.000000,82.000000
563,300.000000,82.000000
564,320.000000,84.000000
565,340.000000,86.000000
566,340.000000,84.000000
567,340.000000,84.000000
568,320.000000,86.000000
569,340.000000,86.000000
570,320.000000,80.000000
571,320.000000,86.000000
572,320.000000,86.000000
573,320.000000,86.000000
574,320.000000,86.000000
575,340.000000,86.000000
576,340.000000,88.000000
577,340.000000,88.000000
578,340.000000,90.000000
579,360.000000,90.000000
580,340.000000,90.000000
581,360.000000,90.000000
582,380.000000,92.000000
583,380.000000,90.000000
584,400.000000,90.000000
585,400.000000,90.000000
586,420.000000,90.000000
587,400.000000,92.000000
588,420.000000,92.000000
589,420.000000,68.000000
590,460.000000,92.000000
591,440.000000,94.000000
592,480.000000,94.000000
593,460.000000,92.000000
594,460.000000,94.000000
595,460.000000,94.000000
596,460.000000,96.000000
597,480.000000,96.000000
598,480.000000,94.000000
599,460.000000,96.000000
600,460.000000,94.000000
601,460.000000,94.000000
602,460.000000,96.000000
603,460.000000,96.000000
604,460.000000,96.000000
605,460.000000,94.000000
606,460.000000,96.000000
607,460.000000,96.000000
608,460.000000,96.000000
609,480.000000,96.000000
610,480.000000,98.000000
611,460.000000,98.000000
612,460.000000,106.000000
613,480.000000,96.000000
614,460.000000,96.000000
615,460.000000,96.000000
616,480.000000,96.000000
617,480.000000,96.000000
618,480.000000,98.000000
619,500.000000,98.000000
620,480.000000,96.000000
621,460.000000,98.000000
622,480.000000,98.000000
623,480.000000,98.000000
624,480.000000,98.000000
625,480.000000,98.000000
626,500.000000,98.000000
627,500.000000,98.000000
628,520.000000,96.000000
629,520.000000,86.000000
630,500.000000,98.000000
631,500.000000,102.000000
632,520.000000,98.000000
633,520.000000,96.000000
634,520.000000,96.000000
635,520.000000,96.000000
636,520.000000,100.000000
637,520.000000,98.000000
638,560.000000,98.000000
639,540.000000,98.000000
640,540.000000,98.000000
641,540.000000,98.000000
642,560.000000,96.000000
643,560.000000,98.000000
644,560.000000,98.000000
645,560.000000,98.000000
646,560.000000,100.000000
647,580.000000,98.000000
648,580.000000,98.000000
649,580.000000,98.000000
650,580.000000,116.000000
651,600.000000,98.000000
652,600.000000,92.000000
653,580.000000,96.000000
654,600.000000,102.000000
655,580.000000,98.000000
656,560.000000,98.000000
657,560.000000,96.000000
658,600.000000,100.000000
659,580.000000,98.000000
660,580.000000,98.000000
661,580.000000,98.000000
662,560.000000,96.000000
663,580.000000,96.000000
664,580.000000,96.000000
665,560.000000,96.000000
666,580.000000,96.000000
667,580.000000,96.000000
668,560.000000,96.000000
669,600.000000,98.000000
670,580.000000,96.000000
671,580.000000,92.000000
672,560.000000,96.000000
673,560.000000,90.000000
674,560.000000,96.000000
675,560.000000,98.000000
676,580.000000,96.000000
677,580.000000,96.000000
678,560.000000,94.000000
679,580.000000,96.000000
680,580.000000,96.000000
681,600.000000,94.000000
682,580.000000,94.000000
683,600.000000,92.000000
684,620.000000,94.000000
685,620.000000,94.000000
686,620.000000,94.000000
687,600.000000,94.000000
688,600.000000,92.000000
689,600.000000,94.000000
690,620.000000,112.000000
691,620.000000,92.000000
692,640.000000,90.000000
693,640.000000,92.000000
694,640.000000,96.000000
695,640.000000,92.000000
696,640.000000,92.000000
697,640.000000,92.000000
698,640.000000,92.000000
699,640.000000,92.000000
700,640.000000,92.000000
701,620.000000,88.000000
702,620.000000,88.000000
703,620.000000,88.000000
704,620.000000,90.000000
705,620.000000,88.000000
706,600.000000,88.000000
707,600.000000,88.000000
708,600.000000,90.000000
709,600.000000,88.000000
710,620.000000,88.000000
711,600.000000,80.000000
712,580.000000,88.000000
713,600.000000,94.000000
714,580.000000,86.000000
715,580.000000,78.000000
716,580.000000,88.000000
717,580.000000,86.000000
718,580.000000,86.000000
719,580.000000,86.000000
720,580.000000,84.000000
721,560.000000,84.000000
722,560.000000,82.000000
723,560.000000,84.000000
724,560.000000,82.000000
725,560.000000,84.000000
726,540.000000,82.000000
727,560.000000,82.000000
728,560.000000,82.000000
729,560.000000,80.000000
730,560.000000,80.000000
731,560.000000,80.000000
732,580.000000,82.000000
733,560.000000,82.000000
734,560.000000,76.000000
735,560.000000,78.000000
736,540.000000,74.000000
737,560.000000,78.000000
738,580.000000,78.000000
739,560.000000,78.000000
740,560.000000,78.000000
741,560.000000,78.000000
742,560.000000,74.000000
743,580.000000,76.000000
744,560.000000,76.000000
745,600.000000,76.000000
746,560.000000,74.000000
747,580.000000,74.000000
748,580.000000,74.000000
749,560.000000,74.000000
750,580.000000,72.000000
751,580.000000,64.000000
752,580.000000,72.000000
753,580.000000,72.000000
754,560.000000,72.000000
755,580.000000,74.000000
756,560.000000,72.000000
757,560.000000,72.000000
758,560.000000,70.000000
759,560.000000,68.000000
