lab2/data_45_044.csv

Channel              :,CH1,CH2
Frequency            :,443.4Hz,269.2Hz
Period               :,2.255ms,3.714ms
PK-PK                :,108.8mV,312.0mV
Probe attenuation    :,1X,1X
Voltage per ADC value:,0.050000mV,0.250000mV
Time interval        :,4.00000uS,4.00000uS

index,CH1_Voltage(mV),CH2_Voltage(mV)
1,-18.400000,120.000000
2,-18.400000,120.000000
3,-14.400000,120.000000
4,-19.200001,120.000000
5,-24.799999,124.000000
6,-20.799999,120.000000
7,-8.000000,120.000000
8,-14.400000,132.000000
9,-26.400000,120.000000
10,-20.000000,120.000000
11,-15.200000,120.000000
12,-29.600000,120.000000
13,-30.400000,116.000000
14,-17.600000,112.000000
15,-14.400000,116.000000
16,-21.600000,116.000000
17,-14.400000,116.000000
18,-12.000000,116.000000
19,-22.400000,116.000000
20,-27.200001,112.000000
21,-20.000000,112.000000
22,-8.000000,112.000000
23,-18.400000,116.000000
24,-20.799999,112.000000
25,-23.200001,112.000000
26,-21.600000,108.000000
27,-13.600000,112.000000
28,-13.600000,112.000000
29,-21.600000,112.000000
30,-26.400000,112.000000
31,-12.800000,108.000000
32,-7.200000,108.000000
33,-20.000000,108.000000
34,-17.600000,108.000000
35,-8.000000,108.000000
36,-0.800000,108.000000
37,-8.800000,108.000000
38,-20.000000,112.000000
39,-17.600000,104.000000
40,-18.400000,104.000000
41,-18.400000,108.000000
42,-17.600000,104.000000
43,-15.200000,104.000000
44,-16.799999,104.000000
45,-14.400000,104.000000
46,-5.600000,104.000000
47,-13.600000,104.000000
48,-20.000000,100.000000
49,-10.400000,100.000000
50,-3.200000,100.000000
51,-13.600000,100.000000
52,-20.000000,100.000000
53,-19.200001,100.000000
54,-13.600000,96.000000
55,-20.799999,100.000000
56,-18.400000,100.000000
57,-12.000000,96.000000
58,-13.600000,96.000000
59,-17.600000,96.000000
60,-13.600000,96.000000
61,-8.000000,96.000000
62,-11.200000,96.000000
63,-20.799999,92.000000
64,-8.800000,92.000000
65,-11.200000,96.000000
66,-17.600000,88.000000
67,-16.799999,100.000000
68,-17.600000,88.000000
69,-9.600000,88.000000
70,-14.400000,88.000000
71,-14.400000,88.000000
72,-14.400000,88.000000
73,-21.600000,88.000000
74,-16.799999,84.000000
75,-16.799999,88.000000
76,-15.200000,84.000000
77,-16.799999,84.000000
78,-13.600000,84.000000
79,-5.600000,76.000000
80,-6.400000,80.000000
81,-10.400000,80.000000
82,-13.600000,80.000000
83,-9.600000,80.000000
84,-14.400000,80.000000
85,-23.200001,80.000000
86,-17.600000,80.000000
87,-20.799999,76.000000
88,-26.400000,80.000000
89,-25.600000,76.000000
90,-20.799999,72.000000
91,-11.200000,76.000000
92,-3.200000,76.000000
93,-9.600000,76.000000
94,-9.600000,68.000000
95,1.600000,72.000000
96,-5.600000,80.000000
97,-13.600000,72.000000
98,-14.400000,72.000000
99,-18.400000,68.000000
100,-18.400000,68.000000
101,-20.000000,68.000000
102,-16.799999,68.000000
103,-28.799999,68.000000
104,-20.000000,64.000000
105,-12.800000,68.000000
106,-13.600000,64.000000
107,-16.799999,64.000000
108,-12.800000,60.000000
109,-5.600000,60.000000
110,-9.600000,60.000000
111,-13.600000,60.000000
112,-8.000000,60.000000
113,-13.600000,56.000000
114,-20.000000,52.000000
115,-16.799999,56.000000
116,-13.600000,52.000000
117,-19.200001,52.000000
118,-27.200001,52.000000
119,-16.000000,56.000000
120,-16.000000,48.000000
121,-20.799999,52.000000
122,-17.600000,48.000000
123,-16.799999,48.000000
124,-12.000000,48.000000
125,-16.799999,48.000000
126,-10.400000,52.000000
127,-16.000000,48.000000
128,-20.799999,44.000000
129,-14.400000,44.000000
130,-4.800000,40.000000
131,-16.000000,44.000000
132,-26.400000,40.000000
133,-12.000000,40.000000
134,-10.400000,40.000000
135,-20.799999,40.000000
136,-18.400000,40.000000
137,-15.200000,24.000000
138,-18.400000,36.000000
139,-16.799999,36.000000
140,-12.800000,36.000000
141,-12.000000,32.000000
142,-17.600000,32.000000
143,-16.799999,36.000000
144,-7.200000,32.000000
145,-15.200000,28.000000
146,-23.200001,32.000000
147,-23.200001,28.000000
148,-16.799999,28.000000
149,-21.600000,24.000000
150,-16.799999,28.000000
151,-11.200000,24.000000
152,-19.200001,24.000000
153,-24.799999,24.000000
154,-9.600000,20.000000
155,-13.600000,36.000000
156,-20.799999,20.000000
157,-23.200001,16.000000
158,-18.400000,20.000000
159,-12.000000,16.000000
160,-19.200001,16.000000
161,-25.600000,16.000000
162,-20.000000,16.000000
163,-15.200000,16.000000
164,-16.799999,12.000000
165,-23.200001,12.000000
166,-20.000000,12.000000
167,-21.600000,4.000000
168,-20.000000,12.000000
169,-20.000000,8.000000
170,-32.000000,8.000000
171,-21.600000,8.000000
172,-16.000000,8.000000
173,-12.000000,4.000000
174,-11.200000,8.000000
175,-16.000000,4.000000
176,-12.800000,4.000000
177,-18.400000,4.000000
178,-17.600000,-8.000000
179,-21.600000,0.000000
180,-20.799999,0.000000
181,-20.000000,0.000000
182,-24.799999,0.000000
183,-16.799999,-4.000000
184,-12.000000,0.000000
185,-20.000000,-4.000000
186,-21.600000,-4.000000
187,-15.200000,-8.000000
188,-4.000000,-4.000000
189,-14.400000,-8.000000
190,-32.000000,-8.000000
191,-22.400000,-8.000000
192,-20.000000,-8.000000
193,-20.000000,-12.000000
194,-22.400000,-12.000000
195,-17.600000,-12.000000
196,-16.000000,-20.000000
197,-20.000000,-16.000000
198,-12.000000,-16.000000
199,-12.800000,-16.000000
200,-20.000000,-16.000000
201,-19.200001,-20.000000
202,-25.600000,-20.000000
203,-23.200001,-20.000000
204,-21.600000,-20.000000
205,-25.600000,-20.000000
206,-30.400000,-24.000000
207,-25.600000,-24.000000
208,-17.600000,-28.000000
209,-12.000000,-28.000000
210,-17.600000,-28.000000
211,-22.400000,-28.000000
212,-27.200001,-32.000000
213,-23.200001,-28.000000
214,-22.400000,-28.000000
215,-27.200001,-32.000000
216,-26.400000,-32.000000
217,-24.000000,-32.000000
218,-15.200000,-32.000000
219,-20.799999,-32.000000
220,-28.000000,-32.000000
221,-24.799999,-36.000000
222,-22.400000,-36.000000
223,-24.799999,-36.000000
224,-24.799999,-40.000000
225,-20.000000,-60.000000
226,-30.400000,-40.000000
227,-35.200001,-40.000000
228,-20.799999,-40.000000
229,-14.400000,-40.000000
230,-26.400000,-44.000000
231,-32.000000,-44.000000
232,-24.799999,-44.000000
233,-16.799999,-44.000000
234,-23.200001,-48.000000
235,-31.200001,-48.000000
236,-27.200001,-48.000000
237,-26.400000,-52.000000
238,-23.200001,-48.000000
239,-20.799999,-52.000000
240,-26.400000,-52.000000
241,-26.400000,-52.000000
242,-29.600000,-52.000000
243,-20.799999,-48.000000
244,-24.000000,-52.000000
245,-29.600000,-56.000000
246,-28.000000,-56.000000
247,-28.000000,-60.000000
248,-30.400000,-60.000000
249,-34.400002,-56.000000
250,-26.400000,-60.000000
251,-20.000000,-60.000000
252,-23.200001,-64.000000
253,-25.600000,-64.000000
254,-25.600000,-64.000000
255,-23.200001,-72.000000
256,-35.200001,-64.000000
257,-40.799999,-68.000000
258,-26.400000,-68.000000
259,-32.799999,-68.000000
260,-39.200001,-68.000000
261,-32.000000,-68.000000
262,-22.400000,-72.000000
263,-29.600000,-72.000000
264,-39.200001,-72.000000
265,-23.200001,-68.000000
266,-16.799999,-76.000000
267,-31.200001,-72.000000
268,-35.200001,-76.000000
269,-28.000000,-76.000000
270,-19.200001,-76.000000
271,-33.599998,-76.000000
272,-36.799999,-80.000000
273,-24.000000,-76.000000
274,-28.000000,-80.000000
275,-34.400002,-76.000000
276,-28.799999,-80.000000
277,-31.200001,-80.000000
278,-33.599998,-76.000000
279,-35.200001,-80.000000
280,-22.400000,-80.000000
281,-25.600000,-80.000000
282,-36.000000,-84.000000
283,-32.000000,-88.000000
284,-32.000000,-92.000000
285,-35.200001,-84.000000
286,-37.599998,-88.000000
287,-34.400002,-88.000000
288,-30.400000,-88.000000
289,-30.400000,-88.000000
290,-40.000000,-88.000000
291,-31.200001,-92.000000
292,-29.600000,-92.000000
293,-46.400002,-92.000000
294,-43.200001,-92.000000
295,-22.400000,-92.000000
296,-15.200000,-92.000000
297,-30.400000,-92.000000
298,-27.200001,-96.000000
299,-16.799999,-96.000000
300,-26.400000,-96.000000
301,-34.400002,-96.000000
302,-30.400000,-96.000000
303,-21.600000,-96.000000
304,-30.400000,-96.000000
305,-34.400002,-96.000000
306,-26.400000,-100.000000
307,-24.000000,-100.000000
308,-31.200001,-100.000000
309,-27.200001,-104.000000
310,-20.799999,-100.000000
311,-23.200001,-104.000000
312,-44.000000,-100.000000
313,-36.799999,-120.000000
314,-20.799999,-104.000000
315,-28.000000,-104.000000
316,-30.400000,-104.000000
317,-36.799999,-104.000000
318,-29.600000,-108.000000
319,-32.799999,-108.000000
320,-36.799999,-108.000000
321,-27.200001,-104.000000
322,-29.600000,-108.000000
323,-30.400000,-108.000000
324,-32.000000,-108.000000
325,-27.200001,-104.000000
326,-34.400002,-112.000000
327,-48.000000,-108.000000
328,-34.400002,-112.000000
329,-31.200001,-112.000000
330,-41.599998,-116.000000
331,-39.200001,-116.000000
332,-29.600000,-112.000000
333,-31.200001,-112.000000
334,-37.599998,-116.000000
335,-28.799999,-116.000000
336,-20.000000,-112.000000
337,-38.400002,-112.000000
338,-42.400002,-116.000000
339,-39.200001,-116.000000
340,-37.599998,-116.000000
341,-41.599998,-116.000000
342,-46.400002,-116.000000
343,-32.799999,-116.000000
344,-32.000000,-120.000000
345,-40.000000,-116.000000
346,-42.400002,-120.000000
347,-31.200001,-120.000000
348,-26.400000,-120.000000
349,-42.400002,-124.000000
350,-40.799999,-124.000000
351,-27.200001,-120.000000
352,-25.600000,-124.000000
353,-37.599998,-120.000000
354,-36.000000,-96.000000
355,-28.799999,-120.000000
356,-36.799999,-124.000000
357,-44.799999,-124.000000
358,-32.799999,-124.000000
359,-27.200001,-124.000000
360,-43.200001,-128.000000
361,-47.200001,-124.000000
362,-37.599998,-124.000000
363,-28.000000,-124.000000
364,-32.000000,-124.000000
365,-33.599998,-128.000000
366,-32.799999,-124.000000
367,-27.200001,-124.000000
368,-28.799999,-124.000000
369,-36.000000,-124.000000
370,-32.799999,-128.000000
371,-37.599998,-124.000000
372,-37.599998,-124.000000
373,-34.400002,-128.000000
374,-34.400002,-128.000000
375,-36.000000,-128.000000
376,-51.200001,-128.000000
377,-43.200001,-128.000000
378,-28.000000,-132.000000
379,-28.799999,-128.000000
380,-33.599998,-128.000000
381,-30.400000,-128.000000
382,-27.200001,-132.000000
383,-33.599998,-128.000000
384,-33.599998,-132.000000
385,-36.799999,-128.000000
386,-45.599998,-132.000000
387,-38.400002,-128.000000
388,-35.200001,-132.000000
389,-42.400002,-128.000000
390,-43.200001,-132.000000
391,-40.799999,-132.000000
392,-44.000000,-132.000000
393,-36.799999,-132.000000
394,-25.600000,-132.000000
395,-36.000000,-124.000000
396,-38.400002,-132.000000
397,-29.600000,-132.000000
398,-31.200001,-132.000000
399,-36.799999,-132.000000
400,-39.200001,-132.000000
401,-40.799999,-116.000000
402,-40.000000,-132.000000
403,-44.000000,-132.000000
404,-51.200001,-128.000000
405,-48.799999,-132.000000
406,-38.400002,-132.000000
407,-33.599998,-136.000000
408,-33.599998,-132.000000
409,-42.400002,-132.000000
410,-38.400002,-132.000000
411,-42.400002,-132.000000
412,-44.799999,-132.000000
413,-36.799999,-136.000000
414,-34.400002,-132.000000
415,-42.400002,-132.000000
416,-40.799999,-128.000000
417,-36.799999,-132.000000
418,-40.000000,-132.000000
419,-48.000000,-136.000000
420,-45.599998,-132.000000
421,-41.599998,-132.000000
422,-41.599998,-132.000000
423,-40.799999,-132.000000
424,-47.200001,-132.000000
425,-48.000000,-136.000000
426,-36.000000,-132.000000
427,-42.400002,-132.000000
428,-42.400002,-132.000000
429,-40.799999,-128.000000
430,-44.000000,-128.000000
431,-44.799999,-124.000000
432,-43.200001,-132.000000
433,-41.599998,-132.000000
434,-51.200001,-128.000000
435,-46.400002,-132.000000
436,-40.799999,-132.000000
437,-40.000000,-128.000000
438,-48.000000,-128.000000
439,-53.599998,-128.000000
440,-51.200001,-128.000000
441,-49.599998,-132.000000
442,-48.000000,-136.000000
443,-43.200001,-128.000000
444,-48.000000,-128.000000
445,-48.000000,-128.000000
446,-40.000000,-124.000000
447,-44.799999,-128.000000
448,-46.400002,-128.000000
449,-49.599998,-128.000000
450,-44.799999,-128.000000
451,-41.599998,-124.000000
452,-50.400002,-128.000000
453,-54.400002,-124.000000
454,-58.400002,-128.000000
455,-50.400002,-128.000000
456,-52.000000,-128.000000
457,-50.400002,-124.000000
458,-41.599998,-128.000000
459,-44.799999,-124.000000
460,-47.200001,-116.000000
461,-50.400002,-120.000000
462,-44.799999,-124.000000
463,-45.599998,-124.000000
464,-55.200001,-124.000000
465,-42.400002,-120.000000
466,-40.799999,-124.000000
467,-45.599998,-124.000000
468,-52.000000,-124.000000
469,-57.599998,-120.000000
470,-48.000000,-120.000000
471,-51.200001,-120.000000
472,-54.400002,-128.000000
473,-48.000000,-124.000000
474,-50.400002,-120.000000
475,-48.000000,-120.000000
476,-48.000000,-120.000000
477,-41.599998,-116.000000
478,-44.000000,-120.000000
479,-54.400002,-120.000000
480,-48.799999,-116.000000
481,-42.400002,-116.000000
482,-54.400002,-116.000000
483,-64.000000,-124.000000
484,-56.799999,-116.000000
485,-49.599998,-116.000000
486,-53.599998,-116.000000
487,-59.200001,-112.000000
488,-53.599998,-116.000000
489,-52.000000,-108.000000
490,-49.599998,-116.000000
491,-49.599998,-116.000000
492,-49.599998,-112.000000
493,-43.200001,-112.000000
494,-47.200001,-112.000000
495,-47.200001,-108.000000
496,-44.799999,-108.000000
497,-47.200001,-108.000000
498,-61.599998,-108.000000
499,-62.400002,-108.000000
500,-48.000000,-108.000000
501,-49.599998,-112.000000
502,-63.200001,-108.000000
503,-60.799999,-104.000000
504,-51.200001,-108.000000
505,-46.400002,-104.000000
506,-52.799999,-104.000000
507,-48.799999,-104.000000
508,-44.000000,-104.000000
509,-45.599998,-108.000000
510,-47.200001,-100.000000
511,-48.799999,-104.000000
512,-52.000000,-100.000000
513,-60.799999,-100.000000
514,-60.000000,-104.000000
515,-48.799999,-100.000000
516,-54.400002,-100.000000
517,-68.000000,-100.000000
518,-68.800003,-100.000000
519,-53.599998,-104.000000
520,-52.799999,-96.000000
521,-58.400002,-100.000000
522,-57.599998,-96.000000
523,-48.000000,-96.000000
524,-44.799999,-96.000000
525,-53.599998,-92.000000
526,-57.599998,-92.000000
527,-53.599998,-92.000000
528,-51.200001,-92.000000
529,-52.799999,-92.000000
530,-52.799999,-116.000000
531,-60.000000,-92.000000
532,-61.599998,-92.000000
533,-63.200001,-88.000000
534,-54.400002,-88.000000
535,-52.000000,-88.000000
536,-54.400002,-88.000000
537,-56.000000,-88.000000
538,-49.599998,-88.000000
539,-44.799999,-88.000000
540,-57.599998,-88.000000
541,-57.599998,-84.000000
542,-51.200001,-80.000000
543,-48.000000,-84.000000
544,-46.400002,-84.000000
545,-52.000000,-84.000000
546,-55.200001,-80.000000
547,-52.799999,-80.000000
548,-53.599998,-84.000000
549,-53.599998,-80.000000
550,-59.200001,-80.000000
551,-57.599998,-80.000000
552,-67.199997,-76.000000
553,-59.200001,-76.000000
554,-54.400002,-72.000000
555,-58.400002,-76.000000
556,-61.599998,-76.000000
557,-44.799999,-76.000000
558,-38.400002,-76.000000
559,-51.200001,-68.000000
560,-56.000000,-72.000000
561,-58.400002,-72.000000
562,-52.799999,-72.000000
563,-51.200001,-68.000000
564,-58.400002,-68.000000
565,-60.799999,-68.000000
566,-54.400002,-68.000000
567,-56.000000,-68.000000
568,-59.200001,-64.000000
569,-62.400002,-64.000000
570,-60.000000,-64.000000
571,-58.400002,-32.000000
572,-56.799999,-64.000000
573,-49.599998,-60.000000
574,-53.599998,-60.000000
575,-64.800003,-60.000000
576,-49.599998,-56.000000
577,-48.000000,-64.000000
578,-44.799999,-56.000000
579,-55.200001,-56.000000
580,-58.400002,-56.000000
581,-56.799999,-56.000000
582,-59.200001,-52.000000
583,-68.000000,-48.000000
584,-65.599998,-52.000000
585,-56.000000,-52.000000
586,-56.799999,-48.000000
587,-56.000000,-48.000000
588,-48.000000,-48.000000
589,-50.400002,-52.000000
590,-57.599998,-48.000000
591,-50.400002,-44.000000
592,-42.400002,-44.000000
593,-46.400002,-44.000000
594,-56.799999,-44.000000
595,-57.599998,-40.000000
596,-55.200001,-40.000000
597,-54.400002,-40.000000
598,-59.200001,-40.000000
599,-66.400002,-44.000000
600,-54.400002,-36.000000
601,-51.200001,-32.000000
602,-61.599998,-36.000000
603,-62.400002,-36.000000
604,-56.799999,-32.000000
605,-56.000000,-32.000000
606,-51.200001,-32.000000
607,-46.400002,-36.000000
608,-44.799999,-32.000000
609,-54.400002,-32.000000
610,-55.200001,-32.000000
611,-52.799999,-28.000000
612,-51.200001,-28.000000
613,-60.799999,-24.000000
614,-59.200001,-28.000000
615,-52.799999,-24.000000
616,-44.000000,-24.000000
617,-53.599998,-20.000000
618,-61.599998,-12.000000
619,-50.400002,-20.000000
620,-42.400002,-20.000000
621,-48.799999,-20.000000
622,-49.599998,-20.000000
623,-51.200001,-16.000000
624,-58.400002,-20.000000
625,-59.200001,-12.000000
626,-52.799999,-16.000000
627,-44.799999,-12.000000
628,-55.200001,-16.000000
629,-58.400002,-12.000000
630,-48.000000,-12.000000
631,-49.599998,-12.000000
632,-60.799999,-8.000000
633,-68.000000,-12.000000
634,-57.599998,-8.000000
635,-44.000000,-8.000000
636,-60.000000,-8.000000
637,-61.599998,-4.000000
638,-51.200001,-4.000000
639,-45.599998,-4.000000
640,-52.000000,-4.000000
641,-46.400002,-4.000000
642,-47.200001,0.000000
643,-55.200001,-4.000000
644,-60.799999,0.000000
645,-60.799999,0.000000
646,-52.799999,4.000000
647,-57.599998,4.000000
648,-60.799999,4.000000
649,-56.000000,4.000000
650,-46.400002,4.000000
651,-64.000000,4.000000
652,-64.800003,4.000000
653,-44.000000,8.000000
654,-39.200001,4.000000
655,-52.799999,8.000000
656,-57.599998,8.000000
657,-47.200001,12.000000
658,-52.000000,12.000000
659,-65.599998,24.000000
660,-60.799999,16.000000
661,-51.200001,12.000000
662,-51.200001,16.000000
663,-60.799999,16.000000
664,-56.799999,16.000000
665,-45.599998,20.000000
666,-61.599998,16.000000
667,-68.000000,20.000000
668,-44.799999,24.000000
669,-40.799999,24.000000
670,-51.200001,20.000000
671,-48.799999,24.000000
672,-39.200001,24.000000
673,-36.799999,24.000000
674,-49.599998,24.000000
675,-42.400002,28.000000
676,-39.200001,24.000000
677,-45.599998,20.000000
678,-55.200001,32.000000
679,-56.799999,28.000000
680,-48.000000,32.000000
681,-56.000000,32.000000
682,-54.400002,32.000000
683,-40.799999,36.000000
684,-38.400002,32.000000
685,-45.599998,36.000000
686,-48.000000,36.000000
687,-40.799999,36.000000
688,-38.400002,36.000000
689,-44.799999,40.000000
690,-37.599998,36.000000
691,-36.799999,40.000000
692,-46.400002,44.000000
693,-52.000000,44.000000
694,-56.799999,40.000000
695,-55.200001,40.000000
696,-50.400002,44.000000
697,-50.400002,44.000000
698,-45.599998,44.000000
699,-57.599998,48.000000
700,-55.200001,48.000000
701,-49.599998,48.000000
702,-44.799999,52.000000
703,-52.000000,52.000000
704,-49.599998,52.000000
705,-41.599998,52.000000
706,-40.799999,68.000000
707,-42.400002,56.000000
708,-41.599998,56.000000
709,-41.599998,56.000000
710,-37.599998,56.000000
711,-39.200001,60.000000
712,-48.799999,56.000000
713,-42.400002,60.000000
714,-44.000000,60.000000
715,-49.599998,60.000000
716,-48.000000,64.000000
717,-52.799999,60.000000
718,-54.400002,64.000000
719,-52.799999,64.000000
720,-45.599998,64.000000
721,-48.000000,64.000000
722,-46.400002,64.000000
723,-36.000000,68.000000
724,-38.400002,64.000000
725,-41.599998,68.000000
726,-45.599998,68.000000
727,-46.400002,68.000000
728,-40.799999,72.000000
729,-40.799999,72.000000
730,-44.000000,72.000000
731,-43.200001,72.000000
732,-42.400002,72.000000
733,-32.799999,76.000000
734,-29.600000,76.000000
735,-35.200001,76.000000
736,-37.599998,84.000000
737,-38.400002,80.000000
738,-33.599998,76.000000
739,-35.200001,80.000000
740,-35.200001,80.000000
741,-40.799999,80.000000
742,-41.599998,80.000000
743,-40.000000,80.000000
744,-42.400002,84.000000
745,-48.799999,84.000000
746,-51.200001,84.000000
747,-38.400002,84.000000
748,-32.000000,84.000000
749,-37.599998,84.000000
750,-37.599998,88.000000
751,-32.799999,84.000000
752,-40.000000,88.000000
753,-44.000000,88.000000
754,-44.000000,88.000000
755,-30.400000,88.000000
756,-36.000000,92.000000
757,-37.599998,92.000000
758,-28.799999,92.000000
759,-37.599998,92.000000
760,-44.000000,92.000000
761,-35.200001,96.000000
762,-24.799999,92.000000
763,-34.400002,96.000000
764,-42.400002,96.000000
765,-35.200001,104.000000
