lab2/data_45_054.csv

Channel              :,CH1,CH2
Frequency            :,  ?,  ?
Period               :,  ?,  ?
PK-PK                :,824.0mV,108.0mV
Probe attenuation    :,1X,1X
Voltage per ADC value:,0.500000mV,0.050000mV
Time interval        :,2000.00000uS,2000.00000uS

index,CH1_Voltage(mV),CH2_Voltage(mV)
1,312.000000,16.799999
2,312.000000,16.799999
3,328.000000,16.799999
4,312.000000,16.000000
5,304.000000,16.799999
6,336.000000,18.400000
7,328.000000,14.400000
8,320.000000,15.200000
9,312.000000,16.000000
10,328.000000,13.600000
11,352.000000,13.600000
12,336.000000,14.400000
13,320.000000,14.400000
14,320.000000,13.600000
15,328.000000,12.800000
16,328.000000,13.600000
17,328.000000,8.800000
18,328.000000,12.800000
19,328.000000,13.600000
20,336.000000,12.800000
21,352.000000,14.400000
22,352.000000,12.000000
23,344.000000,12.800000
24,336.000000,12.000000
25,328.000000,11.200000
26,344.000000,12.000000
27,344.000000,10.400000
28,336.000000,11.200000
29,328.000000,11.200000
30,344.000000,10.400000
31,352.000000,10.400000
32,352.000000,9.600000
33,328.000000,9.600000
34,320.000000,8.800000
35,336.000000,-4.800000
36,336.000000,8.000000
37,344.000000,8.800000
38,336.000000,8.000000
39,328.000000,8.800000
40,336.000000,7.200000
41,336.000000,7.200000
42,336.000000,8.000000
43,344.000000,8.800000
44,328.000000,5.600000
45,328.000000,5.600000
46,336.000000,6.400000
47,344.000000,5.600000
48,344.000000,4.800000
49,320.000000,4.800000
50,344.000000,4.000000
51,352.000000,6.400000
52,328.000000,4.800000
53,328.000000,4.800000
54,312.000000,4.000000
55,328.000000,3.200000
56,320.000000,2.400000
57,344.000000,0.000000
58,320.000000,0.800000
59,328.000000,3.200000
60,320.000000,1.600000
61,320.000000,6.400000
62,320.000000,3.200000
63,320.000000,1.600000
64,312.000000,1.600000
65,312.000000,0.800000
66,320.000000,1.600000
67,320.000000,1.600000
68,304.000000,4.000000
69,304.000000,-0.800000
70,312.000000,0.000000
71,312.000000,0.800000
72,296.000000,-1.600000
73,296.000000,-1.600000
74,296.000000,0.000000
75,296.000000,-0.800000
76,304.000000,0.000000
77,312.000000,-2.400000
78,304.000000,-2.400000
79,288.000000,-1.600000
80,296.000000,-3.200000
81,288.000000,-4.000000
82,296.000000,-3.200000
83,280.000000,-5.600000
84,272.000000,-3.200000
85,280.000000,-2.400000
86,280.000000,-4.000000
87,280.000000,-4.800000
88,288.000000,-4.000000
89,264.000000,-5.600000
90,280.000000,-4.000000
91,272.000000,-5.600000
92,264.000000,-5.600000
93,248.000000,-5.600000
94,256.000000,-8.000000
95,256.000000,-8.000000
96,256.000000,-7.200000
97,248.000000,-7.200000
98,240.000000,-7.200000
99,232.000000,-7.200000
100,248.000000,-8.000000
101,256.000000,-8.000000
102,248.000000,-8.800000
103,232.000000,-8.800000
104,224.000000,-8.800000
105,216.000000,-9.600000
106,232.000000,-10.400000
107,216.000000,-9.600000
108,224.000000,-10.400000
109,200.000000,-9.600000
110,216.000000,-9.600000
111,216.000000,-10.400000
112,208.000000,-11.200000
113,200.000000,-11.200000
114,192.000000,-11.200000
115,192.000000,-12.000000
116,208.000000,-11.200000
117,184.000000,-13.600000
118,192.000000,-12.000000
119,168.000000,-12.000000
120,176.000000,-12.800000
121,184.000000,-13.600000
122,176.000000,-13.600000
123,168.000000,-14.400000
124,152.000000,-13.600000
125,152.000000,-13.600000
126,168.000000,-14.400000
127,152.000000,-17.600000
128,144.000000,-14.400000
129,144.000000,-13.600000
130,136.000000,-16.000000
131,152.000000,-14.400000
132,144.000000,-15.200000
133,128.000000,-16.000000
134,128.000000,-14.400000
135,128.000000,-17.600000
136,112.000000,-16.799999
137,112.000000,-16.799999
138,120.000000,-16.799999
139,112.000000,-16.799999
140,112.000000,-17.600000
141,120.000000,-17.600000
142,96.000000,-16.000000
143,96.000000,-17.600000
144,80.000000,-17.600000
145,80.000000,-18.400000
146,88.000000,-19.200001
147,96.000000,-19.200001
148,72.000000,-20.000000
149,72.000000,-17.600000
150,64.000000,-19.200001
151,64.000000,-19.200001
152,56.000000,-20.000000
153,40.000000,-20.000000
154,48.000000,-20.799999
155,32.000000,-20.000000
156,40.000000,-24.799999
157,32.000000,-20.799999
158,24.000000,-20.799999
159,0.000000,-20.000000
160,8.000000,-28.799999
161,24.000000,-21.600000
162,16.000000,-21.600000
163,8.000000,-21.600000
164,-16.000000,-21.600000
165,0.000000,-23.200001
166,0.000000,-22.400000
167,0.000000,-20.000000
168,-8.000000,-23.200001
169,-32.000000,-22.400000
170,-16.000000,-23.200001
171,-24.000000,-20.799999
172,-40.000000,-22.400000
173,-48.000000,-23.200001
174,-48.000000,-21.600000
175,-48.000000,-22.400000
176,-56.000000,-25.600000
177,-64.000000,-23.200001
178,-64.000000,-28.799999
179,-64.000000,-24.799999
180,-64.000000,-24.000000
181,-72.000000,-24.000000
182,-64.000000,-26.400000
183,-80.000000,-24.000000
184,-88.000000,-24.799999
185,-104.000000,-24.000000
186,-88.000000,-23.200001
187,-88.000000,-25.600000
188,-104.000000,-24.000000
189,-128.000000,-9.600000
190,-112.000000,-24.799999
191,-112.000000,-25.600000
192,-128.000000,-24.799999
193,-128.000000,-23.200001
194,-144.000000,-25.600000
195,-144.000000,-24.799999
196,-136.000000,-26.400000
197,-120.000000,-24.799999
198,-152.000000,-24.799999
199,-176.000000,-26.400000
200,-160.000000,3.200000
201,-144.000000,-26.400000
202,-160.000000,-24.000000
203,-168.000000,-24.000000
204,-192.000000,-25.600000
205,-176.000000,-24.799999
206,-184.000000,-26.400000
207,-184.000000,-25.600000
208,-208.000000,-25.600000
209,-208.000000,-27.200001
210,-200.000000,-26.400000
211,-192.000000,-28.799999
212,-216.000000,-26.400000
213,-216.000000,-24.799999
214,-224.000000,-26.400000
215,-224.000000,-28.000000
216,-224.000000,-24.799999
217,-224.000000,-27.200001
218,-232.000000,-26.400000
219,-232.000000,-27.200001
220,-232.000000,-26.400000
221,-224.000000,-24.799999
222,-248.000000,-24.799999
223,-256.000000,-26.400000
224,-264.000000,-24.799999
225,-256.000000,-25.600000
226,-264.000000,-30.400000
227,-272.000000,-26.400000
228,-272.000000,-26.400000
229,-288.000000,-25.600000
230,-280.000000,-26.400000
231,-280.000000,-25.600000
232,-288.000000,-25.600000
233,-288.000000,-25.600000
234,-304.000000,-25.600000
235,-320.000000,-24.799999
236,-296.000000,-25.600000
237,-304.000000,-12.800000
238,-312.000000,-24.799999
239,-312.000000,-24.799999
240,-312.000000,-26.400000
241,-312.000000,-24.799999
242,-320.000000,-24.799999
243,-328.000000,-24.799999
244,-344.000000,-24.000000
245,-336.000000,-24.799999
246,-344.000000,-24.000000
247,-336.000000,-24.000000
248,-336.000000,-31.200001
249,-352.000000,-24.799999
250,-336.000000,-25.600000
251,-320.000000,-24.000000
252,-352.000000,-20.799999
253,-368.000000,-24.000000
254,-376.000000,-23.200001
255,-360.000000,-23.200001
256,-376.000000,-23.200001
257,-360.000000,-23.200001
258,-376.000000,-24.000000
259,-392.000000,-26.400000
260,-368.000000,-24.000000
261,-360.000000,-23.200001
262,-376.000000,-21.600000
263,-384.000000,-22.400000
264,-392.000000,-23.200001
265,-384.000000,-21.600000
266,-376.000000,-22.400000
267,-384.000000,-22.400000
268,-400.000000,-21.600000
269,-408.000000,-21.600000
270,-400.000000,-19.200001
271,-400.000000,-20.799999
272,-416.000000,-20.799999
273,-408.000000,-21.600000
274,-408.000000,-22.400000
275,-424.000000,-20.000000
276,-400.000000,-19.200001
277,-416.000000,-20.000000
278,-416.000000,-19.200001
279,-416.000000,-19.200001
280,-408.000000,-20.000000
281,-408.000000,-16.799999
282,-424.000000,-20.000000
283,-424.000000,-18.400000
284,-432.000000,-18.400000
285,-424.000000,-20.000000
286,-424.000000,-17.600000
287,-424.000000,-18.400000
288,-432.000000,-16.799999
289,-432.000000,-16.000000
290,-432.000000,-16.799999
291,-424.000000,-17.600000
292,-440.000000,-15.200000
293,-432.000000,-15.200000
294,-432.000000,-17.600000
295,-448.000000,-16.000000
296,-448.000000,-16.000000
297,-424.000000,-16.000000
298,-448.000000,-14.400000
299,-448.000000,-15.200000
300,-440.000000,-14.400000
301,-432.000000,-14.400000
302,-440.000000,-14.400000
303,-456.000000,-12.800000
304,-448.000000,-13.600000
305,-448.000000,-12.800000
306,-448.000000,-12.800000
307,-432.000000,-12.000000
308,-448.000000,-12.800000
309,-448.000000,-12.000000
310,-448.000000,-11.200000
311,-432.000000,-12.000000
312,-448.000000,-9.600000
313,-448.000000,-11.200000
314,-448.000000,-16.000000
315,-456.000000,-8.800000
316,-440.000000,-9.600000
317,-432.000000,-8.800000
318,-432.000000,-9.600000
319,-448.000000,-8.000000
320,-448.000000,-9.600000
321,-432.000000,-7.200000
322,-440.000000,-8.000000
323,-440.000000,-6.400000
324,-448.000000,-6.400000
325,-440.000000,-8.000000
326,-440.000000,-6.400000
327,-432.000000,-6.400000
328,-440.000000,-5.600000
329,-448.000000,-6.400000
330,-432.000000,-6.400000
331,-416.000000,-4.000000
332,-440.000000,-4.000000
333,-432.000000,-4.800000
334,-432.000000,-3.200000
335,-424.000000,-3.200000
336,-416.000000,-6.400000
337,-424.000000,-4.800000
338,-416.000000,-3.200000
339,-424.000000,-0.800000
340,-424.000000,-1.600000
341,-408.000000,-2.400000
342,-424.000000,-0.800000
343,-424.000000,-1.600000
344,-416.000000,0.000000
345,-416.000000,0.000000
346,-408.000000,-0.800000
347,-416.000000,-5.600000
348,-408.000000,0.000000
349,-408.000000,0.800000
350,-400.000000,1.600000
351,-400.000000,0.800000
352,-408.000000,1.600000
353,-392.000000,3.200000
354,-392.000000,1.600000
355,-392.000000,2.400000
356,-392.000000,4.000000
357,-392.000000,4.000000
358,-392.000000,8.000000
359,-392.000000,4.800000
360,-376.000000,4.000000
361,-368.000000,5.600000
362,-376.000000,4.000000
363,-376.000000,4.800000
364,-384.000000,6.400000
365,-376.000000,7.200000
366,-360.000000,5.600000
367,-360.000000,6.400000
368,-360.000000,6.400000
369,-368.000000,1.600000
370,-352.000000,8.000000
371,-352.000000,7.200000
372,-360.000000,8.800000
373,-360.000000,8.800000
374,-344.000000,7.200000
375,-336.000000,8.800000
376,-344.000000,1.600000
377,-328.000000,8.000000
378,-328.000000,11.200000
379,-328.000000,10.400000
380,-328.000000,4.800000
381,-328.000000,12.800000
382,-304.000000,11.200000
383,-328.000000,12.000000
384,-312.000000,12.000000
385,-312.000000,10.400000
386,-304.000000,12.000000
387,-296.000000,15.200000
388,-304.000000,11.200000
389,-296.000000,14.400000
390,-288.000000,12.000000
391,-280.000000,7.200000
392,-280.000000,14.400000
393,-280.000000,14.400000
394,-288.000000,15.200000
395,-280.000000,15.200000
396,-256.000000,14.400000
397,-264.000000,15.200000
398,-256.000000,4.000000
399,-256.000000,16.000000
400,-232.000000,16.799999
401,-240.000000,16.000000
402,-248.000000,17.600000
403,-248.000000,17.600000
404,-232.000000,17.600000
405,-224.000000,16.799999
406,-216.000000,19.200001
407,-208.000000,16.799999
408,-216.000000,18.400000
409,-224.000000,8.800000
410,-208.000000,16.799999
411,-192.000000,18.400000
412,-208.000000,20.000000
413,-200.000000,22.400000
414,-208.000000,19.200001
415,-184.000000,17.600000
416,-176.000000,19.200001
417,-184.000000,20.000000
418,-184.000000,19.200001
419,-184.000000,20.000000
420,-168.000000,0.000000
421,-144.000000,20.000000
422,-160.000000,20.799999
423,-160.000000,21.600000
424,-160.000000,24.000000
425,-144.000000,22.400000
426,-136.000000,21.600000
427,-128.000000,21.600000
428,-136.000000,22.400000
429,-128.000000,20.799999
430,-112.000000,21.600000
431,-120.000000,-0.800000
432,-112.000000,21.600000
433,-112.000000,22.400000
434,-104.000000,21.600000
435,-104.000000,24.000000
436,-96.000000,23.200001
437,-88.000000,22.400000
438,-96.000000,23.200001
439,-104.000000,22.400000
440,-80.000000,23.200001
441,-64.000000,23.200001
442,-72.000000,36.799999
443,-64.000000,24.000000
444,-72.000000,24.799999
445,-64.000000,24.000000
446,-48.000000,21.600000
447,-56.000000,25.600000
448,-48.000000,24.799999
449,-56.000000,24.000000
450,-24.000000,24.799999
451,-16.000000,24.000000
452,-32.000000,24.799999
453,-24.000000,32.799999
454,-24.000000,24.799999
455,-8.000000,25.600000
456,0.000000,24.799999
457,8.000000,24.000000
458,0.000000,25.600000
459,0.000000,26.400000
460,16.000000,24.799999
461,40.000000,26.400000
462,32.000000,26.400000
463,16.000000,25.600000
464,16.000000,31.200001
465,16.000000,24.000000
466,56.000000,26.400000
467,56.000000,27.200001
468,48.000000,22.400000
469,48.000000,27.200001
470,56.000000,26.400000
471,64.000000,26.400000
472,64.000000,26.400000
473,64.000000,24.799999
474,64.000000,25.600000
475,72.000000,24.799999
476,88.000000,24.000000
477,96.000000,25.600000
478,80.000000,25.600000
479,96.000000,27.200001
480,104.000000,27.200001
481,104.000000,26.400000
482,104.000000,25.600000
483,104.000000,27.200001
484,120.000000,25.600000
485,120.000000,24.799999
486,136.000000,27.200001
487,128.000000,25.600000
488,128.000000,24.799999
489,136.000000,24.799999
490,144.000000,19.200001
491,152.000000,24.799999
492,136.000000,24.000000
493,136.000000,25.600000
494,144.000000,26.400000
495,160.000000,25.600000
496,168.000000,25.600000
497,176.000000,21.600000
498,160.000000,24.799999
499,160.000000,23.200001
500,184.000000,24.799999
501,192.000000,20.799999
502,184.000000,24.799999
503,176.000000,25.600000
504,192.000000,24.000000
505,200.000000,24.000000
506,200.000000,23.200001
507,192.000000,23.200001
508,184.000000,23.200001
509,208.000000,23.200001
510,216.000000,24.000000
511,224.000000,24.000000
512,208.000000,24.000000
513,208.000000,23.200001
514,216.000000,24.000000
515,208.000000,22.400000
516,232.000000,24.799999
517,240.000000,24.000000
518,232.000000,22.400000
519,232.000000,21.600000
520,248.000000,21.600000
521,256.000000,21.600000
522,240.000000,21.600000
523,248.000000,23.200001
524,248.000000,22.400000
525,264.000000,21.600000
526,264.000000,22.400000
527,256.000000,20.799999
528,264.000000,22.400000
529,256.000000,21.600000
530,272.000000,28.000000
531,280.000000,20.799999
532,272.000000,20.799999
533,264.000000,21.600000
534,256.000000,21.600000
535,288.000000,20.000000
536,272.000000,20.799999
537,288.000000,20.000000
538,272.000000,19.200001
539,280.000000,20.799999
540,288.000000,17.600000
541,296.000000,12.800000
542,288.000000,20.000000
543,288.000000,19.200001
544,288.000000,17.600000
545,296.000000,20.000000
546,312.000000,17.600000
547,304.000000,19.200001
548,296.000000,49.599998
549,296.000000,17.600000
550,304.000000,18.400000
551,328.000000,17.600000
552,304.000000,20.000000
553,296.000000,17.600000
554,304.000000,17.600000
555,320.000000,16.799999
556,320.000000,16.799999
557,312.000000,16.000000
558,304.000000,16.799999
559,312.000000,20.799999
560,328.000000,14.400000
561,344.000000,15.200000
562,320.000000,14.400000
563,312.000000,8.800000
564,312.000000,14.400000
565,328.000000,15.200000
566,344.000000,15.200000
567,328.000000,16.799999
568,320.000000,13.600000
569,328.000000,13.600000
570,352.000000,8.000000
571,336.000000,13.600000
572,328.000000,12.800000
573,320.000000,13.600000
574,328.000000,12.800000
575,328.000000,12.800000
576,344.000000,12.800000
577,336.000000,12.000000
578,336.000000,11.200000
579,336.000000,11.200000
580,344.000000,10.400000
581,360.000000,9.600000
582,336.000000,11.200000
583,328.000000,11.200000
584,336.000000,9.600000
585,320.000000,9.600000
586,336.000000,8.800000
587,336.000000,8.800000
588,328.000000,10.400000
589,336.000000,8.000000
590,352.000000,8.000000
591,344.000000,8.000000
592,344.000000,8.000000
593,320.000000,8.800000
594,336.000000,7.200000
595,336.000000,8.800000
596,336.000000,8.800000
597,336.000000,6.400000
598,328.000000,6.400000
599,336.000000,16.000000
600,352.000000,4.800000
601,336.000000,5.600000
602,320.000000,5.600000
603,328.000000,2.400000
604,328.000000,5.600000
605,328.000000,5.600000
606,336.000000,4.800000
607,336.000000,5.600000
608,320.000000,4.800000
609,320.000000,4.000000
610,344.000000,7.200000
611,336.000000,4.000000
612,320.000000,2.400000
613,312.000000,1.600000
614,312.000000,2.400000
615,312.000000,2.400000
616,336.000000,2.400000
617,312.000000,2.400000
618,312.000000,1.600000
619,312.000000,0.800000
620,304.000000,0.000000
621,320.000000,5.600000
622,304.000000,1.600000
623,312.000000,0.000000
624,312.000000,0.800000
625,312.000000,0.000000
626,320.000000,0.000000
627,304.000000,0.000000
628,296.000000,28.799999
629,304.000000,-2.400000
630,312.000000,-0.800000
631,304.000000,-0.800000
632,288.000000,0.800000
633,280.000000,-2.400000
634,288.000000,-3.200000
635,296.000000,-3.200000
636,304.000000,-3.200000
637,304.000000,-3.200000
638,280.000000,-2.400000
639,264.000000,-0.800000
640,288.000000,-4.000000
641,288.000000,-3.200000
642,280.000000,-3.200000
643,264.000000,-7.200000
644,248.000000,-5.600000
645,248.000000,-5.600000
646,272.000000,-4.800000
647,272.000000,-6.400000
648,256.000000,-5.600000
649,256.000000,-7.200000
650,272.000000,-10.400000
651,264.000000,-6.400000
652,264.000000,-7.200000
653,240.000000,-7.200000
654,232.000000,-7.200000
655,248.000000,-8.000000
656,256.000000,-6.400000
657,248.000000,15.200000
658,232.000000,-8.800000
659,232.000000,-8.800000
660,232.000000,-9.600000
661,240.000000,-5.600000
662,216.000000,-8.800000
663,216.000000,-9.600000
664,224.000000,-10.400000
665,208.000000,-8.800000
666,216.000000,-11.200000
667,216.000000,-10.400000
668,208.000000,-13.600000
669,200.000000,-12.000000
670,208.000000,-12.000000
671,200.000000,-12.000000
672,184.000000,-12.800000
673,184.000000,-12.000000
674,176.000000,-11.200000
675,176.000000,-12.000000
676,176.000000,-13.600000
677,184.000000,-15.200000
678,168.000000,-14.400000
679,168.000000,-16.799999
680,184.000000,-13.600000
681,184.000000,-14.400000
682,168.000000,-14.400000
683,144.000000,-13.600000
684,152.000000,-15.200000
685,144.000000,-16.000000
686,152.000000,-20.799999
687,136.000000,-16.799999
688,128.000000,-16.000000
689,128.000000,-16.799999
690,128.000000,-23.200001
691,128.000000,-16.799999
692,120.000000,-17.600000
693,120.000000,-15.200000
694,120.000000,-16.799999
695,96.000000,-17.600000
696,112.000000,-18.400000
697,96.000000,-19.200001
698,88.000000,-20.799999
699,88.000000,-19.200001
700,96.000000,-18.400000
701,96.000000,-16.799999
702,88.000000,-16.799999
703,64.000000,-18.400000
704,64.000000,-20.000000
705,64.000000,-19.200001
706,72.000000,-21.600000
707,64.000000,-18.400000
708,48.000000,-19.200001
709,64.000000,-18.400000
710,48.000000,-19.200001
711,56.000000,-21.600000
712,24.000000,-22.400000
713,24.000000,-22.400000
714,24.000000,-20.799999
715,16.000000,-19.200001
716,24.000000,-20.000000
717,8.000000,-21.600000
718,-8.000000,-21.600000
719,0.000000,-26.400000
720,16.000000,-22.400000
721,24.000000,-21.600000
722,-8.000000,-21.600000
723,-16.000000,-21.600000
724,-16.000000,-22.400000
725,-16.000000,-22.400000
726,-16.000000,-28.799999
727,-16.000000,-21.600000
728,-48.000000,-24.000000
729,-40.000000,-23.200001
730,-16.000000,-22.400000
731,-40.000000,-24.000000
732,-48.000000,-22.400000
733,-64.000000,-16.799999
734,-80.000000,-24.799999
735,-72.000000,-24.000000
736,-64.000000,-24.000000
737,-72.000000,-19.200001
738,-96.000000,-24.000000
739,-88.000000,-23.200001
740,-80.000000,-24.000000
741,-80.000000,-22.400000
742,-104.000000,-24.000000
743,-120.000000,-24.000000
744,-96.000000,-24.799999
745,-104.000000,-25.600000
746,-128.000000,-24.000000
747,-120.000000,-24.799999
748,-136.000000,-25.600000
749,-128.000000,-24.799999
750,-120.000000,-24.799999
751,-128.000000,-24.000000
752,-144.000000,-24.799999
753,-160.000000,-26.400000
754,-168.000000,-26.400000
755,-152.000000,-24.000000
756,-152.000000,-25.600000
757,-160.000000,-26.400000
758,-176.000000,-26.400000
759,-176.000000,-24.799999
760,-168.000000,-26.400000
761,-176.000000,-26.400000
762,-176.000000,-28.000000
763,-200.000000,-26.400000
764,-208.000000,-27.200001
765,-192.000000,-27.200001
766,-192.000000,-27.200001
767,-208.000000,-26.400000
768,-216.000000,-24.799999
769,-216.000000,-25.600000
770,-208.000000,-26.400000
771,-216.000000,-25.600000
772,-216.000000,-25.600000
773,-248.000000,-31.200001
774,-232.000000,-26.400000
775,-248.000000,-26.400000
776,-240.000000,-26.400000
777,-240.000000,-24.799999
