lab2/data_45_017.csv

Channel              :,CH1,CH2
Frequency            :,44.95Hz,44.95Hz
Period               :,22.25ms,22.25ms
PK-PK                :,2.160V,584.0mV
Probe attenuation    :,1X,1X
Voltage per ADC value:,1.250000mV,0.250000mV
Time interval        :,40.00000uS,40.00000uS

index,CH1_Voltage(mV),CH2_Voltage(mV)
1,580.000000,260.000000
2,580.000000,260.000000
3,620.000000,264.000000
4,640.000000,264.000000
5,660.000000,264.000000
6,660.000000,264.000000
7,680.000000,268.000000
8,660.000000,268.000000
9,680.000000,268.000000
10,660.000000,268.000000
11,700.000000,268.000000
12,700.000000,272.000000
13,720.000000,272.000000
14,740.000000,272.000000
15,720.000000,276.000000
16,740.000000,276.000000
17,740.000000,276.000000
18,740.000000,276.000000
19,760.000000,276.000000
20,780.000000,280.000000
21,780.000000,280.000000
22,800.000000,280.000000
23,780.000000,280.000000
24,820.000000,280.000000
25,800.000000,280.000000
26,840.000000,276.000000
27,840.000000,284.000000
28,820.000000,280.000000
29,860.000000,284.000000
30,840.000000,280.000000
31,860.000000,280.000000
32,840.000000,284.000000
33,860.000000,312.000000
34,880.000000,284.000000
35,860.000000,284.000000
36,860.000000,288.000000
37,880.000000,280.000000
38,920.000000,284.000000
39,880.000000,284.000000
40,860.000000,280.000000
41,880.000000,280.000000
42,900.000000,280.000000
43,880.000000,288.000000
44,920.000000,280.000000
45,920.000000,276.000000
46,920.000000,280.000000
47,920.000000,280.000000
48,920.000000,276.000000
49,920.000000,276.000000
50,940.000000,276.000000
51,920.000000,276.000000
52,920.000000,276.000000
53,940.000000,272.000000
54,960.000000,272.000000
55,940.000000,272.000000
56,940.000000,272.000000
57,960.000000,272.000000
58,940.000000,268.000000
59,960.000000,268.000000
60,940.000000,272.000000
61,940.000000,268.000000
62,940.000000,264.000000
63,980.000000,256.000000
64,940.000000,260.000000
65,940.000000,260.000000
66,980.000000,256.000000
67,940.000000,256.000000
68,940.000000,256.000000
69,940.000000,256.000000
70,960.000000,248.000000
71,960.000000,248.000000
72,960.000000,248.000000
73,980.000000,248.000000
74,980.000000,248.000000
75,980.000000,244.000000
76,960.000000,240.000000
77,960.000000,228.000000
78,960.000000,240.000000
79,960.000000,236.000000
80,940.000000,232.000000
81,940.000000,232.000000
82,960.000000,228.000000
83,960.000000,228.000000
84,940.000000,224.000000
85,940.000000,224.000000
86,940.000000,224.000000
87,940.000000,220.000000
88,940.000000,216.000000
89,920.000000,216.000000
90,920.000000,212.000000
91,920.000000,212.000000
92,940.000000,212.000000
93,920.000000,204.000000
94,900.000000,208.000000
95,920.000000,204.000000
96,880.000000,200.000000
97,880.000000,192.000000
98,920.000000,196.000000
99,880.000000,192.000000
100,880.000000,188.000000
101,880.000000,188.000000
102,880.000000,184.000000
103,880.000000,184.000000
104,860.000000,196.000000
105,860.000000,180.000000
106,860.000000,176.000000
107,860.000000,176.000000
108,840.000000,168.000000
109,840.000000,168.000000
110,820.000000,168.000000
111,820.000000,164.000000
112,820.000000,160.000000
113,820.000000,160.000000
114,820.000000,156.000000
115,780.000000,152.000000
116,800.000000,152.000000
117,780.000000,152.000000
118,780.000000,148.000000
119,780.000000,144.000000
120,740.000000,140.000000
121,780.000000,136.000000
122,760.000000,136.000000
123,740.000000,132.000000
124,740.000000,136.000000
125,720.000000,132.000000
126,720.000000,128.000000
127,720.000000,124.000000
128,700.000000,120.000000
129,700.000000,116.000000
130,680.000000,116.000000
131,680.000000,108.000000
132,700.000000,112.000000
133,660.000000,104.000000
134,660.000000,104.000000
135,640.000000,104.000000
136,660.000000,100.000000
137,640.000000,100.000000
138,640.000000,96.000000
139,620.000000,92.000000
140,640.000000,92.000000
141,600.000000,92.000000
142,600.000000,84.000000
143,620.000000,80.000000
144,580.000000,84.000000
145,580.000000,80.000000
146,560.000000,76.000000
147,540.000000,76.000000
148,540.000000,48.000000
149,520.000000,68.000000
150,520.000000,68.000000
151,500.000000,56.000000
152,500.000000,64.000000
153,500.000000,60.000000
154,460.000000,60.000000
155,480.000000,52.000000
156,460.000000,48.000000
157,460.000000,48.000000
158,460.000000,48.000000
159,460.000000,40.000000
160,420.000000,40.000000
161,420.000000,36.000000
162,400.000000,36.000000
163,400.000000,32.000000
164,400.000000,28.000000
165,380.000000,24.000000
166,360.000000,24.000000
167,340.000000,20.000000
168,320.000000,20.000000
169,320.000000,16.000000
170,340.000000,16.000000
171,320.000000,8.000000
172,300.000000,8.000000
173,280.000000,8.000000
174,280.000000,4.000000
175,280.000000,4.000000
176,280.000000,-4.000000
177,260.000000,-4.000000
178,260.000000,-8.000000
179,220.000000,-4.000000
180,240.000000,-12.000000
181,220.000000,-12.000000
182,220.000000,-12.000000
183,200.000000,-16.000000
184,180.000000,-20.000000
185,180.000000,-16.000000
186,140.000000,-28.000000
187,160.000000,-28.000000
188,160.000000,-28.000000
189,120.000000,-32.000000
190,120.000000,-36.000000
191,120.000000,-36.000000
192,80.000000,-40.000000
193,80.000000,-44.000000
194,80.000000,-48.000000
195,60.000000,-44.000000
196,40.000000,-52.000000
197,40.000000,-56.000000
198,20.000000,-56.000000
199,0.000000,-60.000000
200,-20.000000,-64.000000
201,-20.000000,-64.000000
202,-20.000000,-64.000000
203,-40.000000,-68.000000
204,-40.000000,-68.000000
205,-60.000000,-72.000000
206,-80.000000,-72.000000
207,-80.000000,-76.000000
208,-100.000000,-80.000000
209,-100.000000,-84.000000
210,-100.000000,-80.000000
211,-120.000000,-84.000000
212,-140.000000,-88.000000
213,-160.000000,-92.000000
214,-160.000000,-92.000000
215,-180.000000,-96.000000
216,-180.000000,-96.000000
217,-220.000000,-100.000000
218,-200.000000,-104.000000
219,-220.000000,-104.000000
220,-220.000000,-104.000000
221,-240.000000,-112.000000
222,-240.000000,-112.000000
223,-260.000000,-112.000000
224,-280.000000,-116.000000
225,-280.000000,-116.000000
226,-300.000000,-120.000000
227,-300.000000,-120.000000
228,-300.000000,-120.000000
229,-320.000000,-128.000000
230,-340.000000,-128.000000
231,-340.000000,-128.000000
232,-340.000000,-132.000000
233,-360.000000,-132.000000
234,-340.000000,-136.000000
235,-380.000000,-140.000000
236,-380.000000,-148.000000
237,-380.000000,-144.000000
238,-400.000000,-144.000000
239,-380.000000,-152.000000
240,-420.000000,-148.000000
241,-440.000000,-152.000000
242,-440.000000,-152.000000
243,-460.000000,-156.000000
244,-460.000000,-160.000000
245,-480.000000,-160.000000
246,-480.000000,-160.000000
247,-480.000000,-164.000000
248,-500.000000,-164.000000
249,-520.000000,-168.000000
250,-520.000000,-172.000000
251,-540.000000,-168.000000
252,-560.000000,-172.000000
253,-560.000000,-172.000000
254,-560.000000,-176.000000
255,-560.000000,-180.000000
256,-600.000000,-184.000000
257,-580.000000,-184.000000
258,-600.000000,-184.000000
259,-600.000000,-184.000000
260,-640.000000,-188.000000
261,-620.000000,-192.000000
262,-620.000000,-192.000000
263,-640.000000,-184.000000
264,-660.000000,-196.000000
265,-640.000000,-196.000000
266,-680.000000,-196.000000
267,-680.000000,-200.000000
268,-680.000000,-200.000000
269,-700.000000,-200.000000
270,-700.000000,-204.000000
271,-720.000000,-204.000000
272,-720.000000,-208.000000
273,-740.000000,-212.000000
274,-720.000000,-208.000000
275,-740.000000,-212.000000
276,-760.000000,-212.000000
277,-760.000000,-216.000000
278,-760.000000,-220.000000
279,-760.000000,-220.000000
280,-780.000000,-220.000000
281,-800.000000,-220.000000
282,-800.000000,-224.000000
283,-820.000000,-228.000000
284,-820.000000,-224.000000
285,-800.000000,-228.000000
286,-840.000000,-228.000000
287,-840.000000,-228.000000
288,-820.000000,-232.000000
289,-840.000000,-232.000000
290,-860.000000,-236.000000
291,-880.000000,-232.000000
292,-880.000000,-236.000000
293,-860.000000,-240.000000
294,-860.000000,-236.000000
295,-880.000000,-240.000000
296,-880.000000,-240.000000
297,-880.000000,-240.000000
298,-900.000000,-240.000000
299,-900.000000,-240.000000
300,-920.000000,-248.000000
301,-920.000000,-244.000000
302,-900.000000,-248.000000
303,-940.000000,-248.000000
304,-940.000000,-248.000000
305,-940.000000,-248.000000
306,-960.000000,-252.000000
307,-960.000000,-268.000000
308,-960.000000,-248.000000
309,-940.000000,-252.000000
310,-960.000000,-252.000000
311,-960.000000,-252.000000
312,-980.000000,-252.000000
313,-980.000000,-252.000000
314,-980.000000,-256.000000
315,-980.000000,-256.000000
316,-1000.000000,-256.000000
317,-1020.000000,-256.000000
318,-1000.000000,-256.000000
319,-1000.000000,-256.000000
320,-1000.000000,-260.000000
321,-1000.000000,-256.000000
322,-1000.000000,-256.000000
323,-1000.000000,-260.000000
324,-1020.000000,-260.000000
325,-1020.000000,-260.000000
326,-1000.000000,-260.000000
327,-1000.000000,-256.000000
328,-1040.000000,-260.000000
329,-1040.000000,-260.000000
330,-1060.000000,-256.000000
331,-1040.000000,-260.000000
332,-1020.000000,-260.000000
333,-1040.000000,-260.000000
334,-1040.000000,-256.000000
335,-1060.000000,-260.000000
336,-1040.000000,-260.000000
337,-1060.000000,-260.000000
338,-1040.000000,-260.000000
339,-1060.000000,-256.000000
340,-1060.000000,-260.000000
341,-1040.000000,-260.000000
342,-1080.000000,-260.000000
343,-1080.000000,-256.000000
344,-1080.000000,-244.000000
345,-1060.000000,-256.000000
346,-1080.000000,-256.000000
347,-1060.000000,-256.000000
348,-1060.000000,-256.000000
349,-1080.000000,-256.000000
350,-1080.000000,-256.000000
351,-1080.000000,-260.000000
352,-1040.000000,-256.000000
353,-1060.000000,-252.000000
354,-1060.000000,-256.000000
355,-1060.000000,-252.000000
356,-1060.000000,-252.000000
357,-1080.000000,-248.000000
358,-1060.000000,-248.000000
359,-1060.000000,-248.000000
360,-1060.000000,-244.000000
361,-1100.000000,-244.000000
362,-1060.000000,-244.000000
363,-1060.000000,-244.000000
364,-1100.000000,-244.000000
365,-1060.000000,-240.000000
366,-1080.000000,-240.000000
367,-1080.000000,-240.000000
368,-1060.000000,-236.000000
369,-1060.000000,-232.000000
370,-1060.000000,-236.000000
371,-1060.000000,-236.000000
372,-1080.000000,-232.000000
373,-1060.000000,-228.000000
374,-1060.000000,-228.000000
375,-1080.000000,-228.000000
376,-1060.000000,-224.000000
377,-1060.000000,-224.000000
378,-1080.000000,-220.000000
379,-1080.000000,-220.000000
380,-1060.000000,-216.000000
381,-1060.000000,-220.000000
382,-1060.000000,-216.000000
383,-1040.000000,-212.000000
384,-1040.000000,-212.000000
385,-1040.000000,-212.000000
386,-1040.000000,-208.000000
387,-1040.000000,-208.000000
388,-1020.000000,-208.000000
389,-1040.000000,-204.000000
390,-1040.000000,-200.000000
391,-1040.000000,-200.000000
392,-1040.000000,-200.000000
393,-1040.000000,-196.000000
394,-1000.000000,-192.000000
395,-1000.000000,-184.000000
396,-1000.000000,-188.000000
397,-1020.000000,-184.000000
398,-1020.000000,-184.000000
399,-1000.000000,-180.000000
400,-1000.000000,-176.000000
401,-980.000000,-176.000000
402,-960.000000,-172.000000
403,-1000.000000,-172.000000
404,-980.000000,-172.000000
405,-980.000000,-164.000000
406,-960.000000,-164.000000
407,-960.000000,-164.000000
408,-960.000000,-160.000000
409,-960.000000,-156.000000
410,-920.000000,-152.000000
411,-920.000000,-152.000000
412,-920.000000,-148.000000
413,-920.000000,-148.000000
414,-920.000000,-144.000000
415,-920.000000,-144.000000
416,-900.000000,-140.000000
417,-920.000000,-136.000000
418,-880.000000,-132.000000
419,-860.000000,-132.000000
420,-880.000000,-128.000000
421,-860.000000,-124.000000
422,-860.000000,-116.000000
423,-860.000000,-120.000000
424,-880.000000,-112.000000
425,-860.000000,-108.000000
426,-840.000000,-108.000000
427,-820.000000,-108.000000
428,-800.000000,-104.000000
429,-800.000000,-100.000000
430,-800.000000,-100.000000
431,-820.000000,-96.000000
432,-780.000000,-96.000000
433,-800.000000,-88.000000
434,-760.000000,-88.000000
435,-760.000000,-84.000000
436,-760.000000,-80.000000
437,-760.000000,-76.000000
438,-740.000000,-72.000000
439,-720.000000,-64.000000
440,-720.000000,-68.000000
441,-700.000000,-64.000000
442,-720.000000,-60.000000
443,-700.000000,-60.000000
444,-700.000000,-52.000000
445,-680.000000,-52.000000
446,-680.000000,-48.000000
447,-680.000000,-48.000000
448,-680.000000,-44.000000
449,-660.000000,-44.000000
450,-640.000000,-36.000000
451,-640.000000,-32.000000
452,-660.000000,-32.000000
453,-620.000000,-28.000000
454,-600.000000,-24.000000
455,-600.000000,-20.000000
456,-580.000000,-16.000000
457,-560.000000,-16.000000
458,-560.000000,-12.000000
459,-560.000000,-16.000000
460,-540.000000,-8.000000
461,-520.000000,-4.000000
462,-540.000000,0.000000
463,-520.000000,0.000000
464,-500.000000,4.000000
465,-500.000000,8.000000
466,-480.000000,28.000000
467,-460.000000,16.000000
468,-460.000000,16.000000
469,-440.000000,24.000000
470,-440.000000,28.000000
471,-420.000000,28.000000
472,-440.000000,28.000000
473,-400.000000,32.000000
474,-400.000000,36.000000
475,-380.000000,40.000000
476,-380.000000,44.000000
477,-360.000000,48.000000
478,-340.000000,48.000000
479,-340.000000,52.000000
480,-320.000000,56.000000
481,-320.000000,60.000000
482,-300.000000,64.000000
483,-300.000000,68.000000
484,-280.000000,72.000000
485,-260.000000,76.000000
486,-260.000000,84.000000
487,-260.000000,80.000000
488,-240.000000,84.000000
489,-220.000000,88.000000
490,-200.000000,92.000000
491,-180.000000,92.000000
492,-180.000000,96.000000
493,-140.000000,100.000000
494,-160.000000,104.000000
495,-120.000000,108.000000
496,-140.000000,108.000000
497,-100.000000,112.000000
498,-80.000000,116.000000
499,-60.000000,120.000000
500,-20.000000,124.000000
501,-40.000000,124.000000
502,-20.000000,128.000000
503,20.000000,136.000000
504,0.000000,136.000000
505,40.000000,136.000000
506,40.000000,140.000000
507,80.000000,140.000000
508,80.000000,144.000000
509,80.000000,148.000000
510,100.000000,132.000000
511,120.000000,156.000000
512,120.000000,156.000000
513,140.000000,152.000000
514,140.000000,164.000000
515,180.000000,164.000000
516,200.000000,168.000000
517,200.000000,168.000000
518,200.000000,172.000000
519,220.000000,176.000000
520,220.000000,180.000000
521,240.000000,180.000000
522,240.000000,184.000000
523,260.000000,188.000000
524,260.000000,192.000000
525,260.000000,192.000000
526,320.000000,196.000000
527,340.000000,200.000000
528,340.000000,200.000000
529,340.000000,204.000000
530,340.000000,204.000000
531,400.000000,212.000000
532,400.000000,212.000000
533,400.000000,212.000000
534,440.000000,212.000000
535,420.000000,216.000000
536,440.000000,220.000000
537,440.000000,224.000000
538,460.000000,220.000000
539,460.000000,224.000000
540,500.000000,228.000000
541,500.000000,228.000000
542,480.000000,232.000000
543,520.000000,232.000000
544,520.000000,236.000000
545,540.000000,240.000000
546,560.000000,240.000000
547,560.000000,240.000000
548,560.000000,244.000000
549,600.000000,248.000000
550,600.000000,252.000000
551,600.000000,248.000000
552,600.000000,252.000000
553,600.000000,252.000000
554,640.000000,280.000000
555,640.000000,256.000000
556,660.000000,256.000000
557,660.000000,256.000000
558,680.000000,260.000000
559,700.000000,264.000000
560,700.000000,264.000000
561,700.000000,268.000000
562,700.000000,264.000000
563,720.000000,268.000000
564,740.000000,268.000000
565,740.000000,272.000000
566,740.000000,268.000000
567,720.000000,268.000000
568,760.000000,272.000000
569,780.000000,276.000000
570,780.000000,272.000000
571,760.000000,276.000000
572,780.000000,276.000000
573,780.000000,276.000000
574,820.000000,276.000000
575,780.000000,276.000000
576,800.000000,276.000000
577,820.000000,280.000000
578,820.000000,276.000000
579,820.000000,280.000000
580,820.000000,280.000000
581,840.000000,272.000000
582,860.000000,284.000000
583,840.000000,280.000000
584,860.000000,276.000000
585,880.000000,284.000000
586,860.000000,280.000000
587,860.000000,280.000000
588,880.000000,284.000000
589,860.000000,284.000000
590,880.000000,284.000000
591,880.000000,280.000000
592,880.000000,284.000000
593,900.000000,280.000000
594,900.000000,284.000000
595,920.000000,280.000000
596,900.000000,284.000000
597,920.000000,280.000000
598,920.000000,268.000000
599,920.000000,280.000000
600,920.000000,280.000000
601,920.000000,276.000000
602,920.000000,280.000000
603,920.000000,276.000000
604,940.000000,276.000000
605,940.000000,276.000000
606,940.000000,276.000000
607,940.000000,276.000000
608,920.000000,272.000000
609,940.000000,272.000000
610,920.000000,272.000000
611,940.000000,272.000000
612,920.000000,272.000000
613,940.000000,268.000000
614,940.000000,268.000000
615,960.000000,268.000000
616,920.000000,264.000000
617,920.000000,264.000000
618,940.000000,260.000000
619,940.000000,260.000000
620,940.000000,260.000000
621,920.000000,260.000000
622,940.000000,256.000000
623,960.000000,260.000000
624,940.000000,252.000000
625,940.000000,268.000000
626,940.000000,248.000000
627,960.000000,252.000000
628,940.000000,256.000000
629,940.000000,244.000000
630,940.000000,244.000000
631,920.000000,248.000000
632,940.000000,240.000000
633,940.000000,240.000000
634,940.000000,236.000000
635,940.000000,240.000000
636,900.000000,236.000000
637,920.000000,232.000000
638,920.000000,228.000000
639,920.000000,228.000000
640,920.000000,228.000000
641,900.000000,224.000000
642,920.000000,220.000000
643,900.000000,216.000000
644,880.000000,220.000000
645,920.000000,216.000000
646,900.000000,212.000000
647,900.000000,212.000000
648,900.000000,208.000000
649,880.000000,208.000000
650,880.000000,204.000000
651,880.000000,200.000000
652,860.000000,192.000000
653,880.000000,196.000000
654,880.000000,196.000000
655,880.000000,192.000000
656,860.000000,192.000000
657,860.000000,188.000000
658,860.000000,184.000000
659,840.000000,184.000000
660,820.000000,180.000000
661,840.000000,176.000000
662,820.000000,172.000000
663,820.000000,176.000000
664,820.000000,168.000000
665,800.000000,168.000000
666,800.000000,164.000000
667,800.000000,164.000000
668,780.000000,156.000000
669,800.000000,140.000000
670,760.000000,156.000000
671,760.000000,152.000000
672,760.000000,148.000000
673,760.000000,148.000000
674,760.000000,148.000000
675,760.000000,144.000000
676,720.000000,140.000000
677,740.000000,136.000000
678,740.000000,136.000000
679,720.000000,132.000000
680,720.000000,132.000000
681,720.000000,128.000000
682,700.000000,124.000000
683,680.000000,124.000000
684,680.000000,120.000000
685,680.000000,120.000000
686,660.000000,116.000000
687,660.000000,112.000000
688,660.000000,108.000000
689,660.000000,108.000000
690,640.000000,104.000000
691,620.000000,104.000000
692,620.000000,100.000000
693,600.000000,100.000000
694,600.000000,96.000000
695,580.000000,92.000000
696,600.000000,92.000000
697,560.000000,88.000000
698,540.000000,84.000000
699,560.000000,84.000000
700,540.000000,84.000000
701,520.000000,80.000000
702,540.000000,76.000000
703,520.000000,76.000000
704,520.000000,68.000000
705,480.000000,68.000000
706,480.000000,76.000000
707,460.000000,60.000000
708,460.000000,56.000000
709,460.000000,56.000000
710,460.000000,56.000000
711,460.000000,52.000000
712,440.000000,48.000000
713,440.000000,36.000000
714,440.000000,44.000000
715,400.000000,40.000000
716,420.000000,32.000000
717,380.000000,40.000000
718,380.000000,36.000000
719,400.000000,36.000000
720,360.000000,28.000000
721,360.000000,28.000000
722,380.000000,24.000000
723,340.000000,24.000000
724,340.000000,20.000000
725,320.000000,16.000000
726,300.000000,12.000000
727,320.000000,12.000000
728,300.000000,8.000000
729,300.000000,4.000000
730,280.000000,0.000000
731,260.000000,0.000000
732,260.000000,0.000000
733,240.000000,-8.000000
734,240.000000,-8.000000
735,240.000000,-8.000000
736,220.000000,-12.000000
737,200.000000,-16.000000
738,180.000000,-20.000000
739,180.000000,-20.000000
740,180.000000,-24.000000
741,140.000000,-24.000000
742,160.000000,-28.000000
743,140.000000,-32.000000
744,120.000000,-32.000000
