lab2/data_45_029.csv

Channel              :,CH1,CH2
Frequency            :,110.1Hz,109.9Hz
Period               :,9.086ms,9.100ms
PK-PK                :,648.0mV,520.0mV
Probe attenuation    :,1X,1X
Voltage per ADC value:,0.500000mV,0.500000mV
Time interval        :,10.00000uS,10.00000uS

index,CH1_Voltage(mV),CH2_Voltage(mV)
1,200.000000,192.000000
2,200.000000,192.000000
3,200.000000,192.000000
4,208.000000,192.000000
5,192.000000,192.000000
6,208.000000,192.000000
7,192.000000,184.000000
8,200.000000,184.000000
9,208.000000,184.000000
10,200.000000,192.000000
11,208.000000,184.000000
12,208.000000,184.000000
13,200.000000,184.000000
14,208.000000,184.000000
15,208.000000,184.000000
16,208.000000,184.000000
17,208.000000,184.000000
18,200.000000,176.000000
19,200.000000,168.000000
20,208.000000,176.000000
21,208.000000,176.000000
22,208.000000,176.000000
23,200.000000,176.000000
24,208.000000,168.000000
25,216.000000,176.000000
26,208.000000,160.000000
27,200.000000,168.000000
28,208.000000,168.000000
29,208.000000,168.000000
30,200.000000,168.000000
31,208.000000,160.000000
32,216.000000,160.000000
33,200.000000,160.000000
34,208.000000,160.000000
35,208.000000,160.000000
36,200.000000,160.000000
37,200.000000,160.000000
38,216.000000,144.000000
39,200.000000,152.000000
40,208.000000,152.000000
41,200.000000,152.000000
42,200.000000,152.000000
43,200.000000,152.000000
44,208.000000,152.000000
45,208.000000,144.000000
46,200.000000,144.000000
47,208.000000,144.000000
48,200.000000,144.000000
49,208.000000,144.000000
50,192.000000,144.000000
51,200.000000,144.000000
52,200.000000,136.000000
53,200.000000,136.000000
54,200.000000,136.000000
55,208.000000,136.000000
56,208.000000,136.000000
57,192.000000,128.000000
58,200.000000,128.000000
59,192.000000,136.000000
60,192.000000,128.000000
61,192.000000,128.000000
62,208.000000,128.000000
63,192.000000,128.000000
64,184.000000,128.000000
65,192.000000,120.000000
66,208.000000,120.000000
67,192.000000,120.000000
68,184.000000,120.000000
69,208.000000,112.000000
70,192.000000,112.000000
71,184.000000,112.000000
72,192.000000,112.000000
73,192.000000,112.000000
74,184.000000,112.000000
75,184.000000,112.000000
76,184.000000,104.000000
77,176.000000,96.000000
78,184.000000,96.000000
79,184.000000,104.000000
80,184.000000,96.000000
81,176.000000,96.000000
82,176.000000,96.000000
83,184.000000,96.000000
84,176.000000,96.000000
85,176.000000,88.000000
86,168.000000,96.000000
87,176.000000,96.000000
88,176.000000,88.000000
89,168.000000,88.000000
90,176.000000,80.000000
91,184.000000,80.000000
92,168.000000,72.000000
93,176.000000,80.000000
94,160.000000,112.000000
95,168.000000,80.000000
96,160.000000,72.000000
97,160.000000,72.000000
98,160.000000,72.000000
99,160.000000,72.000000
100,168.000000,64.000000
101,152.000000,64.000000
102,160.000000,64.000000
103,160.000000,64.000000
104,160.000000,64.000000
105,160.000000,64.000000
106,160.000000,64.000000
107,160.000000,56.000000
108,152.000000,64.000000
109,144.000000,56.000000
110,144.000000,56.000000
111,152.000000,48.000000
112,160.000000,48.000000
113,136.000000,56.000000
114,144.000000,48.000000
115,152.000000,48.000000
116,144.000000,40.000000
117,136.000000,48.000000
118,136.000000,40.000000
119,144.000000,40.000000
120,136.000000,32.000000
121,136.000000,40.000000
122,136.000000,32.000000
123,136.000000,32.000000
124,136.000000,32.000000
125,128.000000,32.000000
126,128.000000,24.000000
127,120.000000,24.000000
128,128.000000,24.000000
129,136.000000,24.000000
130,136.000000,24.000000
131,120.000000,16.000000
132,112.000000,16.000000
133,120.000000,16.000000
134,120.000000,16.000000
135,112.000000,16.000000
136,112.000000,16.000000
137,112.000000,8.000000
138,112.000000,8.000000
139,112.000000,8.000000
140,120.000000,8.000000
141,104.000000,0.000000
142,120.000000,0.000000
143,112.000000,0.000000
144,96.000000,0.000000
145,96.000000,0.000000
146,96.000000,-8.000000
147,96.000000,-8.000000
148,96.000000,-8.000000
149,104.000000,-8.000000
150,104.000000,-8.000000
151,88.000000,-8.000000
152,96.000000,-8.000000
153,96.000000,-16.000000
154,96.000000,-16.000000
155,96.000000,-32.000000
156,80.000000,-24.000000
157,80.000000,-16.000000
158,88.000000,-24.000000
159,88.000000,-24.000000
160,80.000000,-32.000000
161,72.000000,-24.000000
162,72.000000,-32.000000
163,80.000000,-32.000000
164,80.000000,-32.000000
165,64.000000,-40.000000
166,72.000000,-32.000000
167,72.000000,-40.000000
168,64.000000,-40.000000
169,64.000000,-40.000000
170,56.000000,-40.000000
171,64.000000,-40.000000
172,72.000000,-48.000000
173,72.000000,-48.000000
174,56.000000,-48.000000
175,48.000000,-48.000000
176,64.000000,-56.000000
177,56.000000,-56.000000
178,48.000000,-56.000000
179,48.000000,-48.000000
180,40.000000,-56.000000
181,40.000000,-56.000000
182,40.000000,-56.000000
183,32.000000,-64.000000
184,32.000000,-64.000000
185,32.000000,-64.000000
186,24.000000,-64.000000
187,32.000000,-72.000000
188,24.000000,-64.000000
189,16.000000,-72.000000
190,16.000000,-72.000000
191,16.000000,-72.000000
192,16.000000,-80.000000
193,24.000000,-80.000000
194,8.000000,-80.000000
195,8.000000,-80.000000
196,8.000000,-80.000000
197,8.000000,-88.000000
198,8.000000,-88.000000
199,8.000000,-88.000000
200,0.000000,-88.000000
201,-8.000000,-88.000000
202,0.000000,-88.000000
203,0.000000,-88.000000
204,-8.000000,-96.000000
205,-8.000000,-96.000000
206,-8.000000,-96.000000
207,-16.000000,-96.000000
208,-16.000000,-96.000000
209,-8.000000,-96.000000
210,-24.000000,-104.000000
211,-16.000000,-104.000000
212,-24.000000,-104.000000
213,-24.000000,-104.000000
214,-24.000000,-112.000000
215,-32.000000,-104.000000
216,-32.000000,-96.000000
217,-32.000000,-112.000000
218,-32.000000,-120.000000
219,-40.000000,-120.000000
220,-40.000000,-120.000000
221,-48.000000,-120.000000
222,-48.000000,-120.000000
223,-32.000000,-136.000000
224,-48.000000,-120.000000
225,-40.000000,-120.000000
226,-56.000000,-128.000000
227,-56.000000,-128.000000
228,-48.000000,-120.000000
229,-56.000000,-128.000000
230,-56.000000,-136.000000
231,-72.000000,-128.000000
232,-56.000000,-136.000000
233,-64.000000,-136.000000
234,-64.000000,-136.000000
235,-64.000000,-136.000000
236,-72.000000,-144.000000
237,-80.000000,-144.000000
238,-72.000000,-144.000000
239,-80.000000,-144.000000
240,-80.000000,-144.000000
241,-96.000000,-144.000000
242,-80.000000,-144.000000
243,-80.000000,-144.000000
244,-88.000000,-152.000000
245,-88.000000,-152.000000
246,-96.000000,-152.000000
247,-96.000000,-160.000000
248,-88.000000,-152.000000
249,-96.000000,-160.000000
250,-104.000000,-152.000000
251,-104.000000,-160.000000
252,-104.000000,-160.000000
253,-120.000000,-160.000000
254,-104.000000,-160.000000
255,-104.000000,-160.000000
256,-104.000000,-168.000000
257,-120.000000,-168.000000
258,-120.000000,-160.000000
259,-120.000000,-168.000000
260,-120.000000,-168.000000
261,-120.000000,-168.000000
262,-128.000000,-168.000000
263,-128.000000,-168.000000
264,-128.000000,-168.000000
265,-136.000000,-176.000000
266,-128.000000,-176.000000
267,-136.000000,-176.000000
268,-152.000000,-176.000000
269,-144.000000,-176.000000
270,-136.000000,-184.000000
271,-144.000000,-184.000000
272,-144.000000,-176.000000
273,-152.000000,-184.000000
274,-144.000000,-184.000000
275,-152.000000,-184.000000
276,-152.000000,-184.000000
277,-168.000000,-192.000000
278,-160.000000,-184.000000
279,-168.000000,-192.000000
280,-160.000000,-192.000000
281,-152.000000,-192.000000
282,-160.000000,-192.000000
283,-176.000000,-192.000000
284,-168.000000,-208.000000
285,-168.000000,-192.000000
286,-168.000000,-192.000000
287,-168.000000,-192.000000
288,-168.000000,-200.000000
289,-184.000000,-200.000000
290,-184.000000,-192.000000
291,-184.000000,-200.000000
292,-176.000000,-200.000000
293,-176.000000,-200.000000
294,-184.000000,-208.000000
295,-200.000000,-208.000000
296,-184.000000,-208.000000
297,-192.000000,-200.000000
298,-192.000000,-200.000000
299,-192.000000,-208.000000
300,-200.000000,-208.000000
301,-200.000000,-208.000000
302,-200.000000,-208.000000
303,-192.000000,-208.000000
304,-200.000000,-208.000000
305,-208.000000,-208.000000
306,-216.000000,-208.000000
307,-208.000000,-208.000000
308,-216.000000,-216.000000
309,-216.000000,-208.000000
310,-208.000000,-208.000000
311,-216.000000,-216.000000
312,-232.000000,-208.000000
313,-216.000000,-216.000000
314,-216.000000,-216.000000
315,-216.000000,-216.000000
316,-224.000000,-216.000000
317,-232.000000,-208.000000
318,-224.000000,-216.000000
319,-232.000000,-216.000000
320,-232.000000,-216.000000
321,-224.000000,-216.000000
322,-232.000000,-216.000000
323,-240.000000,-216.000000
324,-240.000000,-216.000000
325,-232.000000,-224.000000
326,-256.000000,-224.000000
327,-248.000000,-224.000000
328,-240.000000,-224.000000
329,-256.000000,-224.000000
330,-248.000000,-224.000000
331,-248.000000,-224.000000
332,-248.000000,-224.000000
333,-248.000000,-224.000000
334,-256.000000,-224.000000
335,-256.000000,-224.000000
336,-248.000000,-224.000000
337,-256.000000,-224.000000
338,-272.000000,-224.000000
339,-264.000000,-232.000000
340,-264.000000,-232.000000
341,-264.000000,-224.000000
342,-256.000000,-224.000000
343,-264.000000,-224.000000
344,-272.000000,-232.000000
345,-272.000000,-208.000000
346,-280.000000,-232.000000
347,-280.000000,-232.000000
348,-264.000000,-232.000000
349,-272.000000,-232.000000
350,-280.000000,-232.000000
351,-280.000000,-232.000000
352,-288.000000,-216.000000
353,-288.000000,-232.000000
354,-280.000000,-232.000000
355,-280.000000,-240.000000
356,-288.000000,-232.000000
357,-296.000000,-232.000000
358,-304.000000,-232.000000
359,-296.000000,-232.000000
360,-288.000000,-232.000000
361,-296.000000,-232.000000
362,-296.000000,-232.000000
363,-296.000000,-232.000000
364,-304.000000,-232.000000
365,-304.000000,-232.000000
366,-296.000000,-240.000000
367,-304.000000,-232.000000
368,-304.000000,-240.000000
369,-296.000000,-240.000000
370,-312.000000,-232.000000
371,-304.000000,-232.000000
372,-312.000000,-232.000000
373,-312.000000,-232.000000
374,-304.000000,-232.000000
375,-312.000000,-240.000000
376,-320.000000,-232.000000
377,-320.000000,-232.000000
378,-328.000000,-240.000000
379,-320.000000,-232.000000
380,-312.000000,-232.000000
381,-320.000000,-232.000000
382,-320.000000,-232.000000
383,-320.000000,-232.000000
384,-328.000000,-232.000000
385,-336.000000,-240.000000
386,-320.000000,-232.000000
387,-328.000000,-232.000000
388,-328.000000,-232.000000
389,-320.000000,-232.000000
390,-328.000000,-232.000000
391,-328.000000,-232.000000
392,-328.000000,-232.000000
393,-344.000000,-232.000000
394,-336.000000,-232.000000
395,-328.000000,-232.000000
396,-336.000000,-232.000000
397,-328.000000,-224.000000
398,-336.000000,-232.000000
399,-352.000000,-240.000000
400,-344.000000,-232.000000
401,-328.000000,-232.000000
402,-344.000000,-232.000000
403,-344.000000,-232.000000
404,-336.000000,-232.000000
405,-344.000000,-232.000000
406,-344.000000,-232.000000
407,-344.000000,-232.000000
408,-344.000000,-224.000000
409,-344.000000,-232.000000
410,-344.000000,-232.000000
411,-352.000000,-224.000000
412,-344.000000,-224.000000
413,-352.000000,-248.000000
414,-360.000000,-224.000000
415,-344.000000,-224.000000
416,-360.000000,-224.000000
417,-352.000000,-224.000000
418,-360.000000,-232.000000
419,-360.000000,-224.000000
420,-352.000000,-224.000000
421,-352.000000,-224.000000
422,-368.000000,-224.000000
423,-360.000000,-216.000000
424,-360.000000,-224.000000
425,-360.000000,-232.000000
426,-360.000000,-216.000000
427,-352.000000,-216.000000
428,-368.000000,-216.000000
429,-368.000000,-216.000000
430,-368.000000,-216.000000
431,-368.000000,-216.000000
432,-368.000000,-224.000000
433,-360.000000,-216.000000
434,-376.000000,-216.000000
435,-376.000000,-216.000000
436,-368.000000,-216.000000
437,-368.000000,-216.000000
438,-376.000000,-208.000000
439,-368.000000,-208.000000
440,-384.000000,-208.000000
441,-376.000000,-208.000000
442,-384.000000,-208.000000
443,-376.000000,-208.000000
444,-384.000000,-208.000000
445,-376.000000,-208.000000
446,-384.000000,-200.000000
447,-384.000000,-208.000000
448,-384.000000,-208.000000
449,-384.000000,-200.000000
450,-376.000000,-208.000000
451,-384.000000,-208.000000
452,-392.000000,-208.000000
453,-384.000000,-200.000000
454,-384.000000,-192.000000
455,-384.000000,-192.000000
456,-376.000000,-200.000000
457,-384.000000,-200.000000
458,-392.000000,-192.000000
459,-384.000000,-192.000000
460,-384.000000,-192.000000
461,-376.000000,-192.000000
462,-384.000000,-192.000000
463,-400.000000,-192.000000
464,-392.000000,-192.000000
465,-384.000000,-192.000000
466,-384.000000,-192.000000
467,-376.000000,-184.000000
468,-376.000000,-184.000000
469,-384.000000,-184.000000
470,-384.000000,-184.000000
471,-392.000000,-184.000000
472,-376.000000,-184.000000
473,-376.000000,-184.000000
474,-384.000000,-168.000000
475,-400.000000,-184.000000
476,-384.000000,-184.000000
477,-392.000000,-176.000000
478,-384.000000,-176.000000
479,-384.000000,-176.000000
480,-376.000000,-168.000000
481,-392.000000,-176.000000
482,-392.000000,-176.000000
483,-392.000000,-176.000000
484,-392.000000,-168.000000
485,-368.000000,-168.000000
486,-384.000000,-168.000000
487,-384.000000,-168.000000
488,-400.000000,-168.000000
489,-392.000000,-168.000000
490,-384.000000,-168.000000
491,-368.000000,-168.000000
492,-376.000000,-160.000000
493,-376.000000,-160.000000
494,-384.000000,-152.000000
495,-384.000000,-160.000000
496,-384.000000,-160.000000
497,-384.000000,-152.000000
498,-376.000000,-152.000000
499,-376.000000,-152.000000
500,-368.000000,-152.000000
501,-392.000000,-152.000000
502,-384.000000,-152.000000
503,-376.000000,-152.000000
504,-384.000000,-144.000000
505,-368.000000,-152.000000
506,-376.000000,-144.000000
507,-384.000000,-144.000000
508,-376.000000,-144.000000
509,-376.000000,-144.000000
510,-376.000000,-144.000000
511,-376.000000,-136.000000
512,-376.000000,-136.000000
513,-360.000000,-136.000000
514,-376.000000,-144.000000
515,-376.000000,-136.000000
516,-384.000000,-136.000000
517,-376.000000,-136.000000
518,-384.000000,-128.000000
519,-368.000000,-128.000000
520,-368.000000,-128.000000
521,-376.000000,-120.000000
522,-360.000000,-128.000000
523,-376.000000,-128.000000
524,-376.000000,-128.000000
525,-360.000000,-112.000000
526,-368.000000,-120.000000
527,-360.000000,-120.000000
528,-368.000000,-120.000000
529,-368.000000,-112.000000
530,-368.000000,-120.000000
531,-368.000000,-112.000000
532,-360.000000,-112.000000
533,-360.000000,-112.000000
534,-360.000000,-104.000000
535,-360.000000,-112.000000
536,-360.000000,-104.000000
537,-352.000000,-104.000000
538,-360.000000,-104.000000
539,-352.000000,-96.000000
540,-352.000000,-96.000000
541,-360.000000,-96.000000
542,-360.000000,-112.000000
543,-352.000000,-88.000000
544,-360.000000,-88.000000
545,-352.000000,-88.000000
546,-352.000000,-88.000000
547,-360.000000,-88.000000
548,-352.000000,-88.000000
549,-352.000000,-80.000000
550,-360.000000,-80.000000
551,-344.000000,-80.000000
552,-352.000000,-80.000000
553,-352.000000,-72.000000
554,-344.000000,-80.000000
555,-344.000000,-72.000000
556,-336.000000,-72.000000
557,-344.000000,-72.000000
558,-344.000000,-72.000000
559,-344.000000,-72.000000
560,-344.000000,-64.000000
561,-336.000000,-72.000000
562,-344.000000,-64.000000
563,-328.000000,-64.000000
564,-336.000000,-64.000000
565,-344.000000,-64.000000
566,-336.000000,-56.000000
567,-328.000000,-56.000000
568,-336.000000,-56.000000
569,-336.000000,-56.000000
570,-328.000000,-56.000000
571,-328.000000,-56.000000
572,-320.000000,-48.000000
573,-328.000000,-48.000000
574,-336.000000,-48.000000
575,-320.000000,-40.000000
576,-320.000000,-40.000000
577,-312.000000,-40.000000
578,-328.000000,-40.000000
579,-320.000000,-40.000000
580,-320.000000,-40.000000
581,-320.000000,-40.000000
582,-312.000000,-32.000000
583,-304.000000,-24.000000
584,-312.000000,-32.000000
585,-312.000000,-32.000000
586,-312.000000,-24.000000
587,-304.000000,-32.000000
588,-304.000000,-24.000000
589,-288.000000,-24.000000
590,-304.000000,-24.000000
591,-304.000000,-24.000000
592,-288.000000,-16.000000
593,-296.000000,-16.000000
594,-296.000000,-16.000000
595,-288.000000,-16.000000
596,-296.000000,-8.000000
597,-296.000000,-8.000000
598,-280.000000,-8.000000
599,-288.000000,-8.000000
600,-280.000000,0.000000
601,-272.000000,0.000000
602,-288.000000,0.000000
603,-280.000000,8.000000
604,-272.000000,0.000000
605,-280.000000,0.000000
606,-280.000000,0.000000
607,-272.000000,8.000000
608,-272.000000,8.000000
609,-280.000000,8.000000
610,-264.000000,32.000000
611,-272.000000,16.000000
612,-264.000000,16.000000
613,-272.000000,16.000000
614,-272.000000,16.000000
615,-264.000000,16.000000
616,-264.000000,24.000000
617,-256.000000,16.000000
618,-264.000000,24.000000
619,-256.000000,24.000000
620,-256.000000,24.000000
621,-256.000000,24.000000
622,-248.000000,24.000000
623,-256.000000,32.000000
624,-248.000000,32.000000
625,-248.000000,32.000000
626,-240.000000,32.000000
627,-248.000000,40.000000
628,-240.000000,32.000000
629,-232.000000,40.000000
630,-232.000000,40.000000
631,-232.000000,40.000000
632,-232.000000,48.000000
633,-232.000000,48.000000
634,-232.000000,48.000000
635,-224.000000,48.000000
636,-232.000000,48.000000
637,-208.000000,48.000000
638,-224.000000,56.000000
639,-224.000000,56.000000
640,-208.000000,56.000000
641,-208.000000,56.000000
642,-224.000000,56.000000
643,-216.000000,72.000000
644,-208.000000,56.000000
645,-208.000000,64.000000
646,-192.000000,72.000000
647,-208.000000,64.000000
648,-208.000000,72.000000
649,-184.000000,72.000000
650,-200.000000,72.000000
651,-192.000000,72.000000
652,-176.000000,72.000000
653,-184.000000,72.000000
654,-192.000000,80.000000
655,-184.000000,80.000000
656,-184.000000,80.000000
657,-184.000000,80.000000
658,-176.000000,80.000000
659,-176.000000,80.000000
660,-184.000000,88.000000
661,-168.000000,88.000000
662,-176.000000,88.000000
663,-176.000000,88.000000
664,-168.000000,88.000000
665,-168.000000,96.000000
666,-160.000000,96.000000
667,-160.000000,96.000000
668,-160.000000,96.000000
669,-160.000000,96.000000
670,-160.000000,96.000000
671,-152.000000,80.000000
672,-152.000000,104.000000
673,-144.000000,112.000000
674,-152.000000,104.000000
675,-152.000000,112.000000
676,-152.000000,104.000000
677,-152.000000,112.000000
678,-136.000000,112.000000
679,-136.000000,112.000000
680,-136.000000,120.000000
681,-128.000000,120.000000
682,-136.000000,120.000000
683,-136.000000,112.000000
684,-144.000000,120.000000
685,-128.000000,120.000000
686,-128.000000,128.000000
687,-120.000000,128.000000
688,-136.000000,128.000000
689,-128.000000,128.000000
690,-120.000000,136.000000
691,-120.000000,136.000000
692,-120.000000,136.000000
693,-112.000000,136.000000
694,-112.000000,136.000000
695,-112.000000,136.000000
696,-104.000000,136.000000
697,-104.000000,136.000000
698,-112.000000,136.000000
699,-112.000000,144.000000
700,-104.000000,144.000000
701,-96.000000,144.000000
702,-104.000000,144.000000
703,-96.000000,144.000000
704,-96.000000,160.000000
705,-96.000000,152.000000
706,-80.000000,152.000000
707,-88.000000,152.000000
708,-80.000000,152.000000
709,-80.000000,152.000000
710,-72.000000,152.000000
711,-80.000000,160.000000
712,-80.000000,160.000000
713,-64.000000,160.000000
714,-72.000000,160.000000
715,-64.000000,160.000000
716,-56.000000,160.000000
717,-64.000000,168.000000
718,-56.000000,168.000000
719,-56.000000,168.000000
720,-64.000000,168.000000
721,-56.000000,168.000000
722,-56.000000,168.000000
723,-48.000000,168.000000
724,-40.000000,176.000000
725,-40.000000,176.000000
726,-48.000000,168.000000
727,-48.000000,176.000000
728,-40.000000,176.000000
729,-40.000000,176.000000
730,-32.000000,176.000000
731,-40.000000,176.000000
732,-40.000000,192.000000
733,-24.000000,184.000000
734,-32.000000,184.000000
735,-32.000000,176.000000
736,-24.000000,184.000000
737,-32.000000,184.000000
738,-24.000000,184.000000
739,-16.000000,184.000000
740,-32.000000,184.000000
