lab2/data_45_016.csv

Channel              :,CH1,CH2
Frequency            :,40.00Hz,40.03Hz
Period               :,25.00ms,24.98ms
PK-PK                :,1.980V,496.0mV
Probe attenuation    :,1X,1X
Voltage per ADC value:,1.250000mV,0.250000mV
Time interval        :,40.00000uS,40.00000uS

index,CH1_Voltage(mV),CH2_Voltage(mV)
1,240.000000,0.000000
2,240.000000,0.000000
3,220.000000,0.000000
4,240.000000,0.000000
5,240.000000,-4.000000
6,220.000000,-4.000000
7,240.000000,-4.000000
8,200.000000,-8.000000
9,200.000000,-12.000000
10,200.000000,-12.000000
11,200.000000,-12.000000
12,160.000000,-12.000000
13,160.000000,-20.000000
14,160.000000,-20.000000
15,160.000000,-20.000000
16,140.000000,-24.000000
17,140.000000,-24.000000
18,140.000000,-28.000000
19,120.000000,-28.000000
20,120.000000,-32.000000
21,100.000000,-28.000000
22,80.000000,-32.000000
23,60.000000,-36.000000
24,80.000000,-36.000000
25,40.000000,-36.000000
26,60.000000,-40.000000
27,60.000000,-40.000000
28,20.000000,-40.000000
29,40.000000,-48.000000
30,40.000000,-44.000000
31,20.000000,-52.000000
32,20.000000,-48.000000
33,0.000000,-52.000000
34,0.000000,-52.000000
35,-20.000000,-56.000000
36,-20.000000,-56.000000
37,-20.000000,-60.000000
38,-40.000000,-56.000000
39,-20.000000,-60.000000
40,-60.000000,-60.000000
41,-60.000000,-64.000000
42,-40.000000,-68.000000
43,-40.000000,-68.000000
44,-60.000000,-68.000000
45,-60.000000,-72.000000
46,-100.000000,-72.000000
47,-100.000000,-72.000000
48,-80.000000,-80.000000
49,-100.000000,-76.000000
50,-120.000000,-76.000000
51,-100.000000,-80.000000
52,-120.000000,-80.000000
53,-120.000000,-84.000000
54,-120.000000,-84.000000
55,-140.000000,-84.000000
56,-160.000000,-88.000000
57,-140.000000,-92.000000
58,-160.000000,-92.000000
59,-160.000000,-92.000000
60,-160.000000,-92.000000
61,-180.000000,-96.000000
62,-180.000000,-96.000000
63,-180.000000,-100.000000
64,-220.000000,-100.000000
65,-240.000000,-128.000000
66,-220.000000,-104.000000
67,-240.000000,-104.000000
68,-240.000000,-116.000000
69,-240.000000,-104.000000
70,-260.000000,-108.000000
71,-260.000000,-112.000000
72,-280.000000,-112.000000
73,-280.000000,-116.000000
74,-300.000000,-116.000000
75,-300.000000,-120.000000
76,-300.000000,-120.000000
77,-300.000000,-120.000000
78,-340.000000,-124.000000
79,-340.000000,-124.000000
80,-380.000000,-124.000000
81,-360.000000,-128.000000
82,-360.000000,-128.000000
83,-380.000000,-128.000000
84,-380.000000,-132.000000
85,-380.000000,-132.000000
86,-400.000000,-136.000000
87,-400.000000,-136.000000
88,-420.000000,-140.000000
89,-380.000000,-140.000000
90,-420.000000,-140.000000
91,-420.000000,-140.000000
92,-420.000000,-144.000000
93,-460.000000,-144.000000
94,-460.000000,-148.000000
95,-460.000000,-148.000000
96,-440.000000,-148.000000
97,-460.000000,-152.000000
98,-500.000000,-152.000000
99,-500.000000,-152.000000
100,-500.000000,-152.000000
101,-520.000000,-156.000000
102,-500.000000,-160.000000
103,-540.000000,-160.000000
104,-540.000000,-160.000000
105,-520.000000,-160.000000
106,-520.000000,-164.000000
107,-560.000000,-164.000000
108,-560.000000,-168.000000
109,-580.000000,-180.000000
110,-560.000000,-168.000000
111,-580.000000,-168.000000
112,-580.000000,-172.000000
113,-600.000000,-172.000000
114,-620.000000,-172.000000
115,-620.000000,-176.000000
116,-620.000000,-172.000000
117,-640.000000,-176.000000
118,-640.000000,-180.000000
119,-660.000000,-180.000000
120,-660.000000,-180.000000
121,-660.000000,-180.000000
122,-680.000000,-184.000000
123,-680.000000,-184.000000
124,-700.000000,-184.000000
125,-700.000000,-184.000000
126,-720.000000,-184.000000
127,-700.000000,-188.000000
128,-720.000000,-188.000000
129,-740.000000,-200.000000
130,-740.000000,-192.000000
131,-760.000000,-192.000000
132,-740.000000,-192.000000
133,-760.000000,-196.000000
134,-760.000000,-196.000000
135,-760.000000,-196.000000
136,-780.000000,-212.000000
137,-800.000000,-200.000000
138,-780.000000,-200.000000
139,-780.000000,-204.000000
140,-800.000000,-200.000000
141,-800.000000,-200.000000
142,-820.000000,-204.000000
143,-840.000000,-204.000000
144,-820.000000,-204.000000
145,-840.000000,-204.000000
146,-820.000000,-204.000000
147,-840.000000,-208.000000
148,-860.000000,-208.000000
149,-860.000000,-208.000000
150,-840.000000,-208.000000
151,-880.000000,-208.000000
152,-860.000000,-208.000000
153,-880.000000,-208.000000
154,-880.000000,-212.000000
155,-880.000000,-212.000000
156,-880.000000,-212.000000
157,-900.000000,-212.000000
158,-920.000000,-212.000000
159,-900.000000,-212.000000
160,-900.000000,-212.000000
161,-900.000000,-212.000000
162,-900.000000,-216.000000
163,-900.000000,-212.000000
164,-920.000000,-216.000000
165,-920.000000,-216.000000
166,-920.000000,-216.000000
167,-940.000000,-216.000000
168,-920.000000,-216.000000
169,-940.000000,-220.000000
170,-960.000000,-220.000000
171,-960.000000,-220.000000
172,-960.000000,-216.000000
173,-960.000000,-220.000000
174,-960.000000,-220.000000
175,-980.000000,-220.000000
176,-980.000000,-216.000000
177,-960.000000,-220.000000
178,-980.000000,-220.000000
179,-980.000000,-220.000000
180,-1000.000000,-192.000000
181,-980.000000,-220.000000
182,-1000.000000,-220.000000
183,-980.000000,-216.000000
184,-1000.000000,-220.000000
185,-1020.000000,-220.000000
186,-980.000000,-220.000000
187,-1000.000000,-220.000000
188,-1020.000000,-220.000000
189,-1020.000000,-220.000000
190,-1020.000000,-216.000000
191,-1000.000000,-220.000000
192,-1000.000000,-216.000000
193,-1040.000000,-216.000000
194,-1040.000000,-216.000000
195,-1020.000000,-220.000000
196,-1020.000000,-220.000000
197,-1020.000000,-216.000000
198,-1020.000000,-216.000000
199,-1020.000000,-212.000000
200,-1040.000000,-220.000000
201,-1040.000000,-216.000000
202,-1040.000000,-216.000000
203,-1060.000000,-216.000000
204,-1060.000000,-216.000000
205,-1060.000000,-212.000000
206,-1060.000000,-216.000000
207,-1060.000000,-204.000000
208,-1060.000000,-208.000000
209,-1060.000000,-208.000000
210,-1060.000000,-204.000000
211,-1040.000000,-208.000000
212,-1060.000000,-208.000000
213,-1060.000000,-208.000000
214,-1060.000000,-208.000000
215,-1060.000000,-204.000000
216,-1040.000000,-204.000000
217,-1060.000000,-208.000000
218,-1060.000000,-204.000000
219,-1060.000000,-200.000000
220,-1060.000000,-204.000000
221,-1040.000000,-200.000000
222,-1060.000000,-200.000000
223,-1060.000000,-200.000000
224,-1060.000000,-196.000000
225,-1060.000000,-196.000000
226,-1060.000000,-192.000000
227,-1060.000000,-192.000000
228,-1040.000000,-192.000000
229,-1060.000000,-192.000000
230,-1020.000000,-188.000000
231,-1040.000000,-192.000000
232,-1040.000000,-188.000000
233,-1040.000000,-184.000000
234,-1040.000000,-188.000000
235,-1040.000000,-184.000000
236,-1040.000000,-180.000000
237,-1040.000000,-184.000000
238,-1060.000000,-180.000000
239,-1020.000000,-176.000000
240,-1020.000000,-176.000000
241,-1020.000000,-176.000000
242,-1000.000000,-172.000000
243,-1000.000000,-168.000000
244,-980.000000,-176.000000
245,-1000.000000,-168.000000
246,-980.000000,-168.000000
247,-980.000000,-164.000000
248,-980.000000,-164.000000
249,-1000.000000,-160.000000
250,-980.000000,-160.000000
251,-980.000000,-176.000000
252,-980.000000,-156.000000
253,-960.000000,-152.000000
254,-960.000000,-160.000000
255,-940.000000,-152.000000
256,-960.000000,-148.000000
257,-940.000000,-148.000000
258,-940.000000,-144.000000
259,-940.000000,-144.000000
260,-940.000000,-140.000000
261,-940.000000,-140.000000
262,-940.000000,-136.000000
263,-940.000000,-136.000000
264,-940.000000,-136.000000
265,-900.000000,-128.000000
266,-900.000000,-128.000000
267,-880.000000,-128.000000
268,-900.000000,-124.000000
269,-900.000000,-124.000000
270,-880.000000,-120.000000
271,-880.000000,-120.000000
272,-900.000000,-120.000000
273,-860.000000,-112.000000
274,-860.000000,-112.000000
275,-840.000000,-112.000000
276,-820.000000,-108.000000
277,-820.000000,-108.000000
278,-800.000000,-108.000000
279,-820.000000,-100.000000
280,-800.000000,-96.000000
281,-800.000000,-100.000000
282,-780.000000,-92.000000
283,-780.000000,-92.000000
284,-800.000000,-92.000000
285,-780.000000,-88.000000
286,-760.000000,-84.000000
287,-760.000000,-84.000000
288,-740.000000,-84.000000
289,-720.000000,-80.000000
290,-740.000000,-76.000000
291,-720.000000,-72.000000
292,-720.000000,-72.000000
293,-700.000000,-72.000000
294,-700.000000,-68.000000
295,-700.000000,-76.000000
296,-700.000000,-64.000000
297,-680.000000,-60.000000
298,-660.000000,-60.000000
299,-680.000000,-56.000000
300,-660.000000,-48.000000
301,-640.000000,-52.000000
302,-640.000000,-48.000000
303,-620.000000,-48.000000
304,-600.000000,-40.000000
305,-580.000000,-40.000000
306,-580.000000,-36.000000
307,-600.000000,-36.000000
308,-560.000000,-36.000000
309,-560.000000,-32.000000
310,-560.000000,-28.000000
311,-560.000000,-28.000000
312,-540.000000,-28.000000
313,-500.000000,-20.000000
314,-500.000000,-20.000000
315,-480.000000,-24.000000
316,-460.000000,-16.000000
317,-460.000000,-12.000000
318,-440.000000,-8.000000
319,-480.000000,-8.000000
320,-440.000000,-4.000000
321,-440.000000,-4.000000
322,-420.000000,-4.000000
323,-420.000000,0.000000
324,-420.000000,4.000000
325,-400.000000,8.000000
326,-380.000000,8.000000
327,-380.000000,12.000000
328,-360.000000,16.000000
329,-360.000000,16.000000
330,-340.000000,16.000000
331,-320.000000,20.000000
332,-340.000000,20.000000
333,-340.000000,24.000000
334,-300.000000,32.000000
335,-280.000000,32.000000
336,-300.000000,32.000000
337,-280.000000,36.000000
338,-280.000000,36.000000
339,-280.000000,40.000000
340,-240.000000,44.000000
341,-260.000000,48.000000
342,-260.000000,52.000000
343,-240.000000,52.000000
344,-220.000000,52.000000
345,-220.000000,60.000000
346,-180.000000,60.000000
347,-180.000000,60.000000
348,-160.000000,64.000000
349,-140.000000,64.000000
350,-140.000000,68.000000
351,-140.000000,72.000000
352,-120.000000,76.000000
353,-120.000000,80.000000
354,-100.000000,80.000000
355,-80.000000,84.000000
356,-80.000000,84.000000
357,-80.000000,88.000000
358,-40.000000,88.000000
359,-60.000000,104.000000
360,-40.000000,92.000000
361,-20.000000,92.000000
362,0.000000,100.000000
363,-20.000000,100.000000
364,20.000000,104.000000
365,0.000000,104.000000
366,40.000000,108.000000
367,60.000000,108.000000
368,60.000000,108.000000
369,60.000000,116.000000
370,80.000000,116.000000
371,120.000000,116.000000
372,100.000000,120.000000
373,120.000000,120.000000
374,140.000000,124.000000
375,120.000000,128.000000
376,160.000000,132.000000
377,140.000000,128.000000
378,180.000000,132.000000
379,180.000000,136.000000
380,200.000000,140.000000
381,180.000000,140.000000
382,200.000000,140.000000
383,200.000000,144.000000
384,240.000000,144.000000
385,260.000000,148.000000
386,240.000000,148.000000
387,240.000000,152.000000
388,260.000000,156.000000
389,260.000000,152.000000
390,260.000000,156.000000
391,280.000000,156.000000
392,280.000000,160.000000
393,280.000000,164.000000
394,320.000000,168.000000
395,320.000000,164.000000
396,340.000000,168.000000
397,340.000000,168.000000
398,320.000000,172.000000
399,360.000000,172.000000
400,360.000000,176.000000
401,380.000000,180.000000
402,400.000000,176.000000
403,380.000000,176.000000
404,400.000000,184.000000
405,400.000000,184.000000
406,420.000000,184.000000
407,400.000000,188.000000
408,420.000000,188.000000
409,440.000000,188.000000
410,440.000000,196.000000
411,460.000000,192.000000
412,480.000000,192.000000
413,460.000000,192.000000
414,500.000000,196.000000
415,500.000000,196.000000
416,500.000000,204.000000
417,500.000000,200.000000
418,520.000000,204.000000
419,520.000000,204.000000
420,520.000000,200.000000
421,520.000000,204.000000
422,540.000000,204.000000
423,560.000000,208.000000
424,560.000000,212.000000
425,580.000000,212.000000
426,560.000000,212.000000
427,600.000000,212.000000
428,580.000000,212.000000
429,580.000000,216.000000
430,600.000000,212.000000
431,600.000000,216.000000
432,620.000000,220.000000
433,620.000000,220.000000
434,620.000000,220.000000
435,600.000000,220.000000
436,620.000000,220.000000
437,640.000000,228.000000
438,620.000000,224.000000
439,660.000000,220.000000
440,660.000000,224.000000
441,660.000000,228.000000
442,680.000000,228.000000
443,660.000000,228.000000
444,680.000000,228.000000
445,700.000000,228.000000
446,680.000000,228.000000
447,680.000000,232.000000
448,700.000000,232.000000
449,700.000000,232.000000
450,720.000000,228.000000
451,700.000000,232.000000
452,720.000000,232.000000
453,720.000000,232.000000
454,700.000000,228.000000
455,720.000000,232.000000
456,740.000000,232.000000
457,740.000000,232.000000
458,720.000000,232.000000
459,740.000000,232.000000
460,740.000000,232.000000
461,720.000000,228.000000
462,760.000000,232.000000
463,740.000000,232.000000
464,740.000000,232.000000
465,740.000000,232.000000
466,780.000000,232.000000
467,780.000000,228.000000
468,780.000000,232.000000
469,780.000000,236.000000
470,760.000000,232.000000
471,780.000000,232.000000
472,780.000000,232.000000
473,800.000000,228.000000
474,800.000000,228.000000
475,800.000000,232.000000
476,800.000000,228.000000
477,780.000000,228.000000
478,800.000000,228.000000
479,800.000000,228.000000
480,780.000000,224.000000
481,800.000000,220.000000
482,800.000000,228.000000
483,820.000000,224.000000
484,820.000000,220.000000
485,820.000000,224.000000
486,820.000000,224.000000
487,820.000000,220.000000
488,840.000000,220.000000
489,820.000000,220.000000
490,840.000000,220.000000
491,840.000000,220.000000
492,820.000000,216.000000
493,840.000000,216.000000
494,840.000000,212.000000
495,820.000000,216.000000
496,860.000000,216.000000
497,820.000000,212.000000
498,840.000000,212.000000
499,840.000000,212.000000
500,840.000000,212.000000
501,840.000000,204.000000
502,840.000000,208.000000
503,820.000000,208.000000
504,860.000000,204.000000
505,880.000000,204.000000
506,860.000000,200.000000
507,840.000000,204.000000
508,840.000000,212.000000
509,860.000000,200.000000
510,840.000000,196.000000
511,860.000000,200.000000
512,860.000000,196.000000
513,860.000000,196.000000
514,860.000000,196.000000
515,860.000000,192.000000
516,860.000000,188.000000
517,840.000000,188.000000
518,860.000000,188.000000
519,840.000000,184.000000
520,860.000000,184.000000
521,860.000000,180.000000
522,840.000000,180.000000
523,860.000000,176.000000
524,840.000000,176.000000
525,840.000000,176.000000
526,820.000000,180.000000
527,840.000000,176.000000
528,840.000000,176.000000
529,820.000000,172.000000
530,840.000000,168.000000
531,860.000000,168.000000
532,840.000000,164.000000
533,820.000000,164.000000
534,820.000000,164.000000
535,840.000000,164.000000
536,840.000000,156.000000
537,820.000000,156.000000
538,820.000000,156.000000
539,840.000000,156.000000
540,800.000000,152.000000
541,820.000000,152.000000
542,800.000000,152.000000
543,780.000000,148.000000
544,780.000000,148.000000
545,800.000000,156.000000
546,800.000000,144.000000
547,820.000000,144.000000
548,800.000000,140.000000
549,760.000000,140.000000
550,780.000000,136.000000
551,780.000000,136.000000
552,780.000000,140.000000
553,780.000000,132.000000
554,780.000000,132.000000
555,760.000000,128.000000
556,760.000000,128.000000
557,760.000000,128.000000
558,760.000000,124.000000
559,760.000000,120.000000
560,780.000000,120.000000
561,740.000000,120.000000
562,740.000000,120.000000
563,740.000000,116.000000
564,780.000000,112.000000
565,740.000000,112.000000
566,740.000000,108.000000
567,740.000000,108.000000
568,720.000000,104.000000
569,700.000000,104.000000
570,720.000000,104.000000
571,700.000000,100.000000
572,680.000000,100.000000
573,680.000000,100.000000
574,680.000000,96.000000
575,660.000000,96.000000
576,640.000000,92.000000
577,640.000000,92.000000
578,660.000000,84.000000
579,660.000000,88.000000
580,660.000000,88.000000
581,640.000000,84.000000
582,620.000000,80.000000
583,620.000000,80.000000
584,620.000000,80.000000
585,600.000000,76.000000
586,580.000000,76.000000
587,560.000000,72.000000
588,580.000000,68.000000
589,580.000000,64.000000
590,580.000000,68.000000
591,540.000000,64.000000
592,560.000000,68.000000
593,540.000000,60.000000
594,540.000000,60.000000
595,540.000000,56.000000
596,500.000000,56.000000
597,520.000000,52.000000
598,520.000000,52.000000
599,500.000000,48.000000
600,500.000000,48.000000
601,500.000000,48.000000
602,500.000000,44.000000
603,480.000000,48.000000
604,480.000000,40.000000
605,460.000000,36.000000
606,440.000000,36.000000
607,460.000000,32.000000
608,440.000000,32.000000
609,420.000000,28.000000
610,400.000000,32.000000
611,400.000000,28.000000
612,420.000000,28.000000
613,380.000000,24.000000
614,400.000000,24.000000
615,400.000000,24.000000
616,380.000000,16.000000
617,360.000000,16.000000
618,360.000000,16.000000
619,360.000000,16.000000
620,340.000000,12.000000
621,320.000000,12.000000
622,320.000000,8.000000
623,300.000000,24.000000
624,320.000000,8.000000
625,300.000000,4.000000
626,280.000000,8.000000
627,280.000000,4.000000
628,240.000000,0.000000
629,260.000000,0.000000
630,240.000000,-4.000000
631,240.000000,-4.000000
632,220.000000,-4.000000
633,200.000000,-8.000000
634,200.000000,-12.000000
635,200.000000,-12.000000
636,160.000000,-16.000000
637,180.000000,-12.000000
638,180.000000,-16.000000
639,180.000000,-20.000000
640,160.000000,-20.000000
641,160.000000,-20.000000
642,140.000000,-24.000000
643,140.000000,-24.000000
644,120.000000,-28.000000
645,100.000000,-28.000000
646,100.000000,-32.000000
647,80.000000,-32.000000
648,60.000000,-32.000000
649,80.000000,-36.000000
650,80.000000,-36.000000
651,20.000000,-40.000000
652,20.000000,-44.000000
653,40.000000,-44.000000
654,0.000000,-44.000000
655,20.000000,-44.000000
656,20.000000,-44.000000
657,-20.000000,-48.000000
658,-20.000000,-52.000000
659,0.000000,-52.000000
660,-40.000000,-56.000000
661,-40.000000,-56.000000
662,-20.000000,-60.000000
663,-60.000000,-56.000000
664,-60.000000,-60.000000
665,-40.000000,-64.000000
666,-80.000000,-64.000000
667,-80.000000,-64.000000
668,-100.000000,-68.000000
669,-120.000000,-72.000000
670,-80.000000,-72.000000
671,-100.000000,-72.000000
672,-140.000000,-72.000000
673,-140.000000,-76.000000
674,-140.000000,-76.000000
675,-180.000000,-80.000000
676,-160.000000,-84.000000
677,-180.000000,-80.000000
678,-180.000000,-84.000000
679,-200.000000,-84.000000
680,-200.000000,-84.000000
681,-200.000000,-88.000000
682,-220.000000,-88.000000
683,-240.000000,-92.000000
684,-260.000000,-92.000000
685,-260.000000,-96.000000
686,-260.000000,-92.000000
687,-240.000000,-104.000000
688,-260.000000,-100.000000
689,-280.000000,-100.000000
690,-300.000000,-104.000000
691,-280.000000,-104.000000
692,-300.000000,-104.000000
693,-300.000000,-108.000000
694,-340.000000,-96.000000
695,-340.000000,-112.000000
696,-320.000000,-112.000000
697,-360.000000,-112.000000
698,-360.000000,-112.000000
699,-380.000000,-112.000000
700,-380.000000,-120.000000
701,-380.000000,-120.000000
702,-380.000000,-120.000000
703,-420.000000,-124.000000
704,-420.000000,-124.000000
705,-420.000000,-128.000000
706,-440.000000,-124.000000
707,-460.000000,-132.000000
708,-460.000000,-132.000000
709,-460.000000,-132.000000
710,-480.000000,-132.000000
711,-460.000000,-132.000000
712,-500.000000,-136.000000
713,-480.000000,-136.000000
714,-520.000000,-136.000000
715,-520.000000,-140.000000
716,-540.000000,-140.000000
717,-540.000000,-144.000000
718,-560.000000,-144.000000
719,-520.000000,-144.000000
720,-560.000000,-148.000000
721,-540.000000,-148.000000
722,-540.000000,-152.000000
723,-560.000000,-152.000000
724,-560.000000,-152.000000
725,-600.000000,-152.000000
726,-580.000000,-156.000000
727,-600.000000,-156.000000
728,-600.000000,-156.000000
729,-620.000000,-160.000000
730,-640.000000,-160.000000
731,-620.000000,-148.000000
732,-640.000000,-164.000000
733,-660.000000,-164.000000
734,-640.000000,-168.000000
735,-640.000000,-168.000000
736,-680.000000,-172.000000
737,-660.000000,-168.000000
738,-660.000000,-176.000000
739,-660.000000,-172.000000
740,-680.000000,-176.000000
