lab2/data_45_034.csv

Channel              :,CH1,CH2
Frequency            :,170.0Hz,170.0Hz
Period               :,5.883ms,5.883ms
PK-PK                :,194.0mV,356.0mV
Probe attenuation    :,1X,1X
Voltage per ADC value:,0.125000mV,0.250000mV
Time interval        :,10.00000uS,10.00000uS

index,CH1_Voltage(mV),CH2_Voltage(mV)
1,-44.000000,136.000000
2,-44.000000,136.000000
3,-36.000000,136.000000
4,-48.000000,136.000000
5,-48.000000,136.000000
6,-34.000000,136.000000
7,-40.000000,140.000000
8,-44.000000,140.000000
9,-36.000000,140.000000
10,-36.000000,140.000000
11,-48.000000,140.000000
12,-36.000000,140.000000
13,-28.000000,140.000000
14,-34.000000,140.000000
15,-36.000000,144.000000
16,-42.000000,144.000000
17,-32.000000,144.000000
18,-34.000000,148.000000
19,-30.000000,144.000000
20,-24.000000,144.000000
21,-20.000000,140.000000
22,-36.000000,148.000000
23,-36.000000,148.000000
24,-34.000000,148.000000
25,-28.000000,148.000000
26,-26.000000,148.000000
27,-22.000000,148.000000
28,-32.000000,144.000000
29,-28.000000,148.000000
30,-28.000000,152.000000
31,-30.000000,148.000000
32,-18.000000,148.000000
33,-18.000000,152.000000
34,-18.000000,148.000000
35,-28.000000,148.000000
36,-26.000000,152.000000
37,-16.000000,152.000000
38,-16.000000,152.000000
39,-28.000000,152.000000
40,-18.000000,152.000000
41,-8.000000,152.000000
42,-22.000000,144.000000
43,-18.000000,152.000000
44,-6.000000,152.000000
45,-14.000000,152.000000
46,-14.000000,152.000000
47,-4.000000,148.000000
48,-14.000000,152.000000
49,-10.000000,148.000000
50,2.000000,148.000000
51,-10.000000,152.000000
52,-10.000000,152.000000
53,-6.000000,148.000000
54,-6.000000,152.000000
55,-2.000000,152.000000
56,0.000000,144.000000
57,-10.000000,148.000000
58,-8.000000,148.000000
59,-12.000000,148.000000
60,2.000000,148.000000
61,4.000000,148.000000
62,4.000000,148.000000
63,-2.000000,148.000000
64,0.000000,148.000000
65,-6.000000,148.000000
66,-4.000000,148.000000
67,6.000000,148.000000
68,2.000000,144.000000
69,10.000000,148.000000
70,-2.000000,144.000000
71,-6.000000,148.000000
72,-4.000000,144.000000
73,14.000000,144.000000
74,6.000000,144.000000
75,14.000000,140.000000
76,6.000000,144.000000
77,2.000000,144.000000
78,6.000000,144.000000
79,10.000000,144.000000
80,12.000000,144.000000
81,16.000000,144.000000
82,16.000000,140.000000
83,6.000000,140.000000
84,8.000000,140.000000
85,12.000000,140.000000
86,18.000000,140.000000
87,14.000000,140.000000
88,10.000000,136.000000
89,4.000000,136.000000
90,12.000000,136.000000
91,12.000000,136.000000
92,16.000000,136.000000
93,22.000000,132.000000
94,16.000000,136.000000
95,24.000000,132.000000
96,8.000000,128.000000
97,12.000000,132.000000
98,8.000000,132.000000
99,16.000000,128.000000
100,20.000000,128.000000
101,10.000000,124.000000
102,16.000000,124.000000
103,14.000000,128.000000
104,24.000000,124.000000
105,22.000000,124.000000
106,24.000000,120.000000
107,12.000000,120.000000
108,14.000000,120.000000
109,18.000000,120.000000
110,30.000000,116.000000
111,16.000000,116.000000
112,24.000000,120.000000
113,22.000000,112.000000
114,24.000000,112.000000
115,22.000000,112.000000
116,22.000000,112.000000
117,22.000000,112.000000
118,18.000000,112.000000
119,28.000000,108.000000
120,14.000000,108.000000
121,28.000000,108.000000
122,12.000000,108.000000
123,26.000000,104.000000
124,22.000000,96.000000
125,18.000000,100.000000
126,36.000000,100.000000
127,30.000000,100.000000
128,20.000000,100.000000
129,14.000000,92.000000
130,16.000000,96.000000
131,14.000000,92.000000
132,30.000000,92.000000
133,26.000000,92.000000
134,30.000000,92.000000
135,16.000000,92.000000
136,18.000000,80.000000
137,14.000000,88.000000
138,24.000000,88.000000
139,24.000000,84.000000
140,18.000000,80.000000
141,26.000000,84.000000
142,16.000000,80.000000
143,20.000000,80.000000
144,20.000000,80.000000
145,24.000000,76.000000
146,20.000000,76.000000
147,20.000000,72.000000
148,18.000000,72.000000
149,20.000000,72.000000
150,24.000000,68.000000
151,14.000000,68.000000
152,16.000000,68.000000
153,24.000000,64.000000
154,28.000000,64.000000
155,20.000000,60.000000
156,24.000000,60.000000
157,12.000000,72.000000
158,28.000000,56.000000
159,14.000000,56.000000
160,18.000000,56.000000
161,34.000000,52.000000
162,26.000000,52.000000
163,18.000000,48.000000
164,20.000000,48.000000
165,12.000000,48.000000
166,20.000000,44.000000
167,30.000000,44.000000
168,20.000000,44.000000
169,20.000000,40.000000
170,20.000000,36.000000
171,10.000000,40.000000
172,10.000000,36.000000
173,18.000000,32.000000
174,24.000000,32.000000
175,22.000000,32.000000
176,24.000000,28.000000
177,12.000000,28.000000
178,10.000000,28.000000
179,16.000000,24.000000
180,22.000000,24.000000
181,20.000000,20.000000
182,14.000000,20.000000
183,4.000000,16.000000
184,4.000000,16.000000
185,12.000000,28.000000
186,10.000000,12.000000
187,16.000000,12.000000
188,10.000000,8.000000
189,8.000000,8.000000
190,14.000000,4.000000
191,6.000000,4.000000
192,8.000000,32.000000
193,16.000000,4.000000
194,4.000000,0.000000
195,0.000000,-4.000000
196,10.000000,-4.000000
197,6.000000,0.000000
198,18.000000,-4.000000
199,20.000000,-8.000000
200,2.000000,-8.000000
201,-8.000000,-12.000000
202,6.000000,-12.000000
203,8.000000,-16.000000
204,18.000000,-16.000000
205,8.000000,-16.000000
206,2.000000,-20.000000
207,2.000000,-20.000000
208,4.000000,-24.000000
209,-4.000000,-24.000000
210,8.000000,-24.000000
211,10.000000,-24.000000
212,0.000000,-28.000000
213,4.000000,-28.000000
214,-2.000000,-28.000000
215,4.000000,-36.000000
216,6.000000,-36.000000
217,-2.000000,-36.000000
218,12.000000,-40.000000
219,2.000000,-40.000000
220,0.000000,-40.000000
221,-10.000000,-44.000000
222,-2.000000,-44.000000
223,-6.000000,-44.000000
224,-2.000000,-48.000000
225,4.000000,-40.000000
226,-12.000000,-52.000000
227,-10.000000,-52.000000
228,-6.000000,-56.000000
229,-18.000000,-56.000000
230,-2.000000,-56.000000
231,-4.000000,-60.000000
232,-16.000000,-60.000000
233,-2.000000,-60.000000
234,-6.000000,-64.000000
235,-10.000000,-68.000000
236,-18.000000,-68.000000
237,-20.000000,-68.000000
238,-24.000000,-72.000000
239,-12.000000,-68.000000
240,-12.000000,-72.000000
241,-16.000000,-76.000000
242,-18.000000,-76.000000
243,-20.000000,-76.000000
244,-14.000000,-80.000000
245,-24.000000,-80.000000
246,-8.000000,-80.000000
247,-22.000000,-84.000000
248,-22.000000,-84.000000
249,-30.000000,-88.000000
250,-18.000000,-88.000000
251,-24.000000,-88.000000
252,-26.000000,-88.000000
253,-24.000000,-88.000000
254,-26.000000,-92.000000
255,-24.000000,-92.000000
256,-12.000000,-92.000000
257,-22.000000,-92.000000
258,-34.000000,-96.000000
259,-20.000000,-100.000000
260,-30.000000,-96.000000
261,-20.000000,-100.000000
262,-18.000000,-100.000000
263,-32.000000,-100.000000
264,-26.000000,-104.000000
265,-30.000000,-100.000000
266,-30.000000,-104.000000
267,-30.000000,-108.000000
268,-14.000000,-108.000000
269,-32.000000,-108.000000
270,-28.000000,-112.000000
271,-36.000000,-112.000000
272,-32.000000,-112.000000
273,-26.000000,-112.000000
274,-36.000000,-116.000000
275,-42.000000,-116.000000
276,-36.000000,-116.000000
277,-46.000000,-120.000000
278,-34.000000,-120.000000
279,-34.000000,-120.000000
280,-34.000000,-120.000000
281,-52.000000,-124.000000
282,-46.000000,-124.000000
283,-36.000000,-124.000000
284,-38.000000,-124.000000
285,-44.000000,-128.000000
286,-64.000000,-132.000000
287,-46.000000,-128.000000
288,-42.000000,-128.000000
289,-38.000000,-132.000000
290,-46.000000,-128.000000
291,-50.000000,-132.000000
292,-60.000000,-132.000000
293,-44.000000,-140.000000
294,-52.000000,-136.000000
295,-56.000000,-136.000000
296,-60.000000,-132.000000
297,-54.000000,-136.000000
298,-58.000000,-136.000000
299,-40.000000,-140.000000
300,-54.000000,-140.000000
301,-48.000000,-140.000000
302,-54.000000,-140.000000
303,-50.000000,-140.000000
304,-46.000000,-140.000000
305,-64.000000,-140.000000
306,-56.000000,-144.000000
307,-60.000000,-140.000000
308,-52.000000,-144.000000
309,-60.000000,-144.000000
310,-60.000000,-144.000000
311,-68.000000,-144.000000
312,-60.000000,-144.000000
313,-62.000000,-144.000000
314,-60.000000,-148.000000
315,-74.000000,-148.000000
316,-72.000000,-144.000000
317,-60.000000,-152.000000
318,-68.000000,-152.000000
319,-64.000000,-148.000000
320,-66.000000,-148.000000
321,-60.000000,-176.000000
322,-72.000000,-152.000000
323,-76.000000,-152.000000
324,-70.000000,-152.000000
325,-72.000000,-152.000000
326,-68.000000,-152.000000
327,-82.000000,-152.000000
328,-68.000000,-152.000000
329,-76.000000,-152.000000
330,-80.000000,-152.000000
331,-82.000000,-156.000000
332,-86.000000,-152.000000
333,-78.000000,-152.000000
334,-58.000000,-152.000000
335,-72.000000,-152.000000
336,-84.000000,-152.000000
337,-68.000000,-156.000000
338,-72.000000,-152.000000
339,-64.000000,-152.000000
340,-74.000000,-152.000000
341,-80.000000,-152.000000
342,-80.000000,-152.000000
343,-78.000000,-156.000000
344,-70.000000,-152.000000
345,-90.000000,-152.000000
346,-80.000000,-152.000000
347,-74.000000,-152.000000
348,-78.000000,-152.000000
349,-86.000000,-152.000000
350,-88.000000,-152.000000
351,-86.000000,-152.000000
352,-76.000000,-152.000000
353,-84.000000,-152.000000
354,-90.000000,-160.000000
355,-80.000000,-152.000000
356,-96.000000,-152.000000
357,-88.000000,-152.000000
358,-86.000000,-148.000000
359,-88.000000,-148.000000
360,-84.000000,-148.000000
361,-88.000000,-152.000000
362,-84.000000,-148.000000
363,-98.000000,-148.000000
364,-82.000000,-148.000000
365,-80.000000,-148.000000
366,-92.000000,-148.000000
367,-88.000000,-148.000000
368,-80.000000,-148.000000
369,-90.000000,-144.000000
370,-82.000000,-144.000000
371,-84.000000,-144.000000
372,-84.000000,-144.000000
373,-98.000000,-144.000000
374,-90.000000,-144.000000
375,-90.000000,-144.000000
376,-92.000000,-144.000000
377,-90.000000,-140.000000
378,-90.000000,-140.000000
379,-88.000000,-140.000000
380,-98.000000,-136.000000
381,-86.000000,-140.000000
382,-98.000000,-144.000000
383,-98.000000,-136.000000
384,-94.000000,-136.000000
385,-92.000000,-136.000000
386,-104.000000,-136.000000
387,-86.000000,-132.000000
388,-94.000000,-136.000000
389,-108.000000,-152.000000
390,-102.000000,-132.000000
391,-94.000000,-132.000000
392,-104.000000,-132.000000
393,-102.000000,-132.000000
394,-108.000000,-132.000000
395,-90.000000,-128.000000
396,-94.000000,-128.000000
397,-100.000000,-128.000000
398,-106.000000,-124.000000
399,-106.000000,-124.000000
400,-108.000000,-124.000000
401,-100.000000,-116.000000
402,-114.000000,-124.000000
403,-104.000000,-120.000000
404,-106.000000,-120.000000
405,-106.000000,-120.000000
406,-102.000000,-120.000000
407,-108.000000,-116.000000
408,-98.000000,-116.000000
409,-102.000000,-116.000000
410,-108.000000,-112.000000
411,-104.000000,-112.000000
412,-108.000000,-112.000000
413,-110.000000,-108.000000
414,-116.000000,-108.000000
415,-106.000000,-108.000000
416,-102.000000,-108.000000
417,-116.000000,-104.000000
418,-110.000000,-104.000000
419,-108.000000,-100.000000
420,-96.000000,-100.000000
421,-112.000000,-100.000000
422,-114.000000,-100.000000
423,-116.000000,-96.000000
424,-108.000000,-96.000000
425,-118.000000,-92.000000
426,-126.000000,-92.000000
427,-106.000000,-92.000000
428,-106.000000,-88.000000
429,-110.000000,-92.000000
430,-114.000000,-88.000000
431,-112.000000,-88.000000
432,-120.000000,-88.000000
433,-110.000000,-84.000000
434,-102.000000,-80.000000
435,-126.000000,-84.000000
436,-122.000000,-80.000000
437,-112.000000,-80.000000
438,-112.000000,-80.000000
439,-112.000000,-76.000000
440,-108.000000,-72.000000
441,-126.000000,-72.000000
442,-106.000000,-72.000000
443,-114.000000,-76.000000
444,-114.000000,-68.000000
445,-102.000000,-64.000000
446,-108.000000,-68.000000
447,-130.000000,-64.000000
448,-104.000000,-64.000000
449,-104.000000,-64.000000
450,-120.000000,-60.000000
451,-102.000000,-60.000000
452,-100.000000,-56.000000
453,-108.000000,-56.000000
454,-106.000000,-52.000000
455,-102.000000,-56.000000
456,-122.000000,-48.000000
457,-106.000000,-52.000000
458,-106.000000,-48.000000
459,-96.000000,-48.000000
460,-108.000000,-44.000000
461,-100.000000,-44.000000
462,-112.000000,-44.000000
463,-106.000000,-40.000000
464,-110.000000,-36.000000
465,-108.000000,-36.000000
466,-102.000000,-36.000000
467,-108.000000,-36.000000
468,-98.000000,-32.000000
469,-108.000000,-40.000000
470,-100.000000,-28.000000
471,-102.000000,-28.000000
472,-110.000000,-28.000000
473,-100.000000,-24.000000
474,-106.000000,-20.000000
475,-102.000000,-20.000000
476,-110.000000,-20.000000
477,-96.000000,-16.000000
478,-114.000000,-16.000000
479,-102.000000,-12.000000
480,-98.000000,-12.000000
481,-94.000000,-12.000000
482,-102.000000,-12.000000
483,-104.000000,-8.000000
484,-98.000000,-4.000000
485,-108.000000,-4.000000
486,-96.000000,-4.000000
487,-98.000000,0.000000
488,-90.000000,0.000000
489,-100.000000,0.000000
490,-94.000000,16.000000
491,-88.000000,4.000000
492,-92.000000,8.000000
493,-104.000000,8.000000
494,-94.000000,8.000000
495,-98.000000,12.000000
496,-98.000000,12.000000
497,-94.000000,12.000000
498,-100.000000,16.000000
499,-90.000000,20.000000
500,-90.000000,20.000000
501,-90.000000,20.000000
502,-98.000000,24.000000
503,-96.000000,24.000000
504,-78.000000,28.000000
505,-84.000000,28.000000
506,-84.000000,28.000000
507,-76.000000,28.000000
508,-88.000000,32.000000
509,-92.000000,32.000000
510,-92.000000,36.000000
511,-86.000000,40.000000
512,-92.000000,40.000000
513,-80.000000,40.000000
514,-90.000000,40.000000
515,-92.000000,44.000000
516,-66.000000,44.000000
517,-86.000000,48.000000
518,-80.000000,56.000000
519,-76.000000,48.000000
520,-82.000000,52.000000
521,-76.000000,52.000000
522,-82.000000,52.000000
523,-78.000000,52.000000
524,-78.000000,56.000000
525,-82.000000,84.000000
526,-70.000000,60.000000
527,-66.000000,60.000000
528,-72.000000,64.000000
529,-68.000000,68.000000
530,-68.000000,64.000000
531,-84.000000,68.000000
532,-68.000000,72.000000
533,-88.000000,68.000000
534,-74.000000,72.000000
535,-66.000000,72.000000
536,-72.000000,76.000000
537,-64.000000,72.000000
538,-62.000000,80.000000
539,-72.000000,80.000000
540,-70.000000,80.000000
541,-68.000000,80.000000
542,-74.000000,84.000000
543,-64.000000,84.000000
544,-60.000000,84.000000
545,-56.000000,88.000000
546,-52.000000,88.000000
547,-60.000000,88.000000
548,-62.000000,92.000000
549,-64.000000,92.000000
550,-54.000000,96.000000
551,-50.000000,92.000000
552,-52.000000,96.000000
553,-52.000000,100.000000
554,-50.000000,100.000000
555,-46.000000,100.000000
556,-56.000000,104.000000
557,-48.000000,104.000000
558,-62.000000,108.000000
559,-56.000000,104.000000
560,-46.000000,104.000000
561,-52.000000,108.000000
562,-44.000000,108.000000
563,-50.000000,108.000000
564,-46.000000,108.000000
565,-48.000000,112.000000
566,-56.000000,112.000000
567,-48.000000,112.000000
568,-58.000000,116.000000
569,-48.000000,116.000000
570,-40.000000,116.000000
571,-54.000000,116.000000
572,-38.000000,124.000000
573,-40.000000,120.000000
574,-48.000000,120.000000
575,-34.000000,124.000000
576,-42.000000,124.000000
577,-38.000000,124.000000
578,-44.000000,124.000000
579,-46.000000,128.000000
580,-36.000000,128.000000
581,-38.000000,128.000000
582,-32.000000,128.000000
583,-36.000000,132.000000
584,-42.000000,132.000000
585,-30.000000,128.000000
586,-34.000000,148.000000
587,-40.000000,132.000000
588,-34.000000,132.000000
589,-28.000000,136.000000
590,-28.000000,136.000000
591,-34.000000,132.000000
592,-36.000000,136.000000
593,-32.000000,164.000000
594,-26.000000,140.000000
595,-34.000000,140.000000
596,-32.000000,136.000000
597,-38.000000,140.000000
598,-36.000000,148.000000
599,-16.000000,140.000000
600,-32.000000,140.000000
601,-26.000000,144.000000
602,-16.000000,144.000000
603,-28.000000,144.000000
604,-30.000000,144.000000
605,-26.000000,148.000000
606,-26.000000,144.000000
607,-26.000000,144.000000
608,-22.000000,148.000000
609,-18.000000,148.000000
610,-28.000000,148.000000
611,-6.000000,148.000000
612,-16.000000,152.000000
613,-22.000000,148.000000
614,-20.000000,148.000000
615,-18.000000,148.000000
616,-24.000000,148.000000
617,-14.000000,152.000000
618,-20.000000,152.000000
619,-22.000000,148.000000
620,8.000000,152.000000
621,-4.000000,148.000000
622,-10.000000,152.000000
623,-6.000000,152.000000
624,-12.000000,152.000000
625,-10.000000,152.000000
626,4.000000,152.000000
627,-4.000000,152.000000
628,-6.000000,152.000000
629,6.000000,152.000000
630,2.000000,152.000000
631,-6.000000,156.000000
632,-4.000000,152.000000
633,-4.000000,152.000000
634,4.000000,152.000000
635,2.000000,152.000000
636,2.000000,152.000000
637,-2.000000,152.000000
638,0.000000,152.000000
639,0.000000,152.000000
640,-6.000000,152.000000
641,0.000000,152.000000
642,2.000000,152.000000
643,4.000000,152.000000
644,4.000000,152.000000
645,6.000000,152.000000
646,6.000000,152.000000
647,6.000000,152.000000
648,8.000000,152.000000
649,0.000000,152.000000
650,2.000000,148.000000
651,4.000000,148.000000
652,10.000000,152.000000
653,10.000000,148.000000
654,4.000000,124.000000
655,10.000000,148.000000
656,4.000000,148.000000
657,16.000000,148.000000
658,6.000000,148.000000
659,14.000000,148.000000
660,6.000000,148.000000
661,14.000000,136.000000
662,8.000000,144.000000
663,10.000000,144.000000
664,20.000000,144.000000
665,12.000000,144.000000
666,12.000000,152.000000
667,20.000000,144.000000
668,18.000000,144.000000
669,14.000000,144.000000
670,20.000000,144.000000
671,26.000000,144.000000
672,10.000000,140.000000
673,16.000000,144.000000
674,12.000000,140.000000
675,18.000000,140.000000
676,16.000000,140.000000
677,4.000000,140.000000
678,18.000000,136.000000
679,26.000000,136.000000
680,12.000000,136.000000
681,20.000000,136.000000
682,30.000000,136.000000
683,8.000000,132.000000
684,20.000000,132.000000
685,28.000000,132.000000
686,2.000000,132.000000
687,18.000000,124.000000
688,30.000000,132.000000
689,26.000000,128.000000
690,16.000000,128.000000
691,26.000000,128.000000
692,20.000000,124.000000
693,32.000000,124.000000
694,22.000000,128.000000
695,24.000000,120.000000
696,26.000000,120.000000
697,18.000000,120.000000
698,26.000000,120.000000
699,34.000000,120.000000
700,16.000000,116.000000
701,18.000000,116.000000
702,30.000000,116.000000
703,30.000000,116.000000
704,24.000000,112.000000
705,22.000000,112.000000
706,28.000000,112.000000
707,24.000000,108.000000
708,24.000000,108.000000
709,22.000000,108.000000
710,38.000000,108.000000
711,22.000000,104.000000
712,22.000000,104.000000
713,22.000000,100.000000
714,28.000000,100.000000
715,30.000000,96.000000
716,30.000000,100.000000
717,30.000000,96.000000
718,32.000000,96.000000
719,32.000000,96.000000
720,28.000000,96.000000
721,22.000000,92.000000
722,26.000000,68.000000
723,16.000000,92.000000
724,28.000000,92.000000
725,30.000000,88.000000
726,22.000000,88.000000
727,24.000000,80.000000
728,22.000000,84.000000
729,32.000000,80.000000
730,28.000000,80.000000
731,26.000000,80.000000
732,24.000000,80.000000
733,32.000000,80.000000
734,32.000000,72.000000
735,16.000000,76.000000
736,18.000000,72.000000
737,16.000000,72.000000
738,26.000000,68.000000
739,32.000000,68.000000
740,32.000000,68.000000
741,16.000000,60.000000
742,30.000000,64.000000
743,30.000000,64.000000
744,22.000000,64.000000
745,24.000000,60.000000
746,34.000000,60.000000
747,18.000000,60.000000
748,20.000000,56.000000
749,20.000000,56.000000
750,18.000000,52.000000
751,22.000000,52.000000
752,30.000000,48.000000
753,30.000000,48.000000
754,22.000000,44.000000
755,30.000000,48.000000
756,18.000000,44.000000
757,18.000000,40.000000
758,24.000000,40.000000
759,16.000000,36.000000
760,14.000000,36.000000
761,20.000000,32.000000
762,22.000000,24.000000
763,22.000000,32.000000
764,16.000000,28.000000
765,26.000000,28.000000
766,20.000000,28.000000
767,8.000000,24.000000
768,20.000000,20.000000
769,22.000000,20.000000
770,16.000000,20.000000
771,14.000000,20.000000
772,14.000000,16.000000
773,12.000000,16.000000
774,14.000000,12.000000
775,16.000000,12.000000
