lab2/data_45_039.csv

Channel              :,CH1,CH2
Frequency            :,220.1Hz,220.1Hz
Period               :,4.544ms,4.544ms
PK-PK                :,132.0mV,308.0mV
Probe attenuation    :,1X,1X
Voltage per ADC value:,0.125000mV,0.250000mV
Time interval        :,10.00000uS,10.00000uS

index,CH1_Voltage(mV),CH2_Voltage(mV)
1,-24.000000,-112.000000
2,-24.000000,-112.000000
3,-30.000000,-112.000000
4,-32.000000,-116.000000
5,-44.000000,-116.000000
6,-28.000000,-116.000000
7,-32.000000,-116.000000
8,-38.000000,-120.000000
9,-48.000000,-120.000000
10,-32.000000,-112.000000
11,-32.000000,-124.000000
12,-46.000000,-120.000000
13,-46.000000,-124.000000
14,-56.000000,-120.000000
15,-26.000000,-124.000000
16,-36.000000,-120.000000
17,-40.000000,-108.000000
18,-42.000000,-124.000000
19,-34.000000,-124.000000
20,-32.000000,-128.000000
21,-42.000000,-128.000000
22,-44.000000,-128.000000
23,-42.000000,-124.000000
24,-42.000000,-124.000000
25,-50.000000,-128.000000
26,-32.000000,-128.000000
27,-46.000000,-128.000000
28,-40.000000,-128.000000
29,-56.000000,-136.000000
30,-50.000000,-128.000000
31,-48.000000,-128.000000
32,-46.000000,-128.000000
33,-50.000000,-128.000000
34,-58.000000,-128.000000
35,-40.000000,-128.000000
36,-36.000000,-132.000000
37,-54.000000,-128.000000
38,-56.000000,-128.000000
39,-42.000000,-132.000000
40,-38.000000,-128.000000
41,-54.000000,-128.000000
42,-50.000000,-128.000000
43,-44.000000,-128.000000
44,-54.000000,-124.000000
45,-50.000000,-132.000000
46,-58.000000,-128.000000
47,-54.000000,-128.000000
48,-58.000000,-128.000000
49,-54.000000,-128.000000
50,-52.000000,-120.000000
51,-50.000000,-128.000000
52,-58.000000,-128.000000
53,-66.000000,-124.000000
54,-54.000000,-128.000000
55,-56.000000,-128.000000
56,-56.000000,-124.000000
57,-54.000000,-124.000000
58,-50.000000,-124.000000
59,-68.000000,-120.000000
60,-60.000000,-120.000000
61,-46.000000,-124.000000
62,-52.000000,-120.000000
63,-56.000000,-120.000000
64,-56.000000,-116.000000
65,-68.000000,-120.000000
66,-66.000000,-120.000000
67,-66.000000,-116.000000
68,-52.000000,-120.000000
69,-62.000000,-120.000000
70,-58.000000,-120.000000
71,-54.000000,-112.000000
72,-64.000000,-116.000000
73,-62.000000,-116.000000
74,-58.000000,-116.000000
75,-58.000000,-116.000000
76,-66.000000,-108.000000
77,-48.000000,-112.000000
78,-72.000000,-96.000000
79,-64.000000,-108.000000
80,-54.000000,-108.000000
81,-64.000000,-108.000000
82,-60.000000,-104.000000
83,-72.000000,-108.000000
84,-58.000000,-104.000000
85,-64.000000,-80.000000
86,-68.000000,-104.000000
87,-60.000000,-100.000000
88,-64.000000,-100.000000
89,-78.000000,-100.000000
90,-50.000000,-100.000000
91,-56.000000,-96.000000
92,-72.000000,-92.000000
93,-70.000000,-96.000000
94,-56.000000,-92.000000
95,-54.000000,-92.000000
96,-64.000000,-92.000000
97,-60.000000,-96.000000
98,-64.000000,-88.000000
99,-56.000000,-84.000000
100,-66.000000,-84.000000
101,-70.000000,-84.000000
102,-56.000000,-84.000000
103,-60.000000,-84.000000
104,-72.000000,-80.000000
105,-56.000000,-80.000000
106,-70.000000,-76.000000
107,-64.000000,-76.000000
108,-56.000000,-76.000000
109,-60.000000,-72.000000
110,-70.000000,-68.000000
111,-66.000000,-72.000000
112,-56.000000,-68.000000
113,-62.000000,-68.000000
114,-64.000000,-68.000000
115,-56.000000,-64.000000
116,-56.000000,-60.000000
117,-64.000000,-60.000000
118,-58.000000,-48.000000
119,-68.000000,-56.000000
120,-68.000000,-56.000000
121,-58.000000,-56.000000
122,-58.000000,-52.000000
123,-64.000000,-48.000000
124,-58.000000,-52.000000
125,-68.000000,-44.000000
126,-62.000000,-48.000000
127,-66.000000,-48.000000
128,-58.000000,-44.000000
129,-64.000000,-40.000000
130,-68.000000,-36.000000
131,-52.000000,-40.000000
132,-64.000000,-36.000000
133,-80.000000,-36.000000
134,-68.000000,-32.000000
135,-70.000000,-32.000000
136,-68.000000,-32.000000
137,-64.000000,-28.000000
138,-66.000000,-28.000000
139,-60.000000,-24.000000
140,-72.000000,-24.000000
141,-62.000000,-20.000000
142,-64.000000,-20.000000
143,-58.000000,-16.000000
144,-72.000000,-12.000000
145,-62.000000,-12.000000
146,-58.000000,4.000000
147,-72.000000,-12.000000
148,-60.000000,-8.000000
149,-64.000000,-4.000000
150,-56.000000,-4.000000
151,-70.000000,-4.000000
152,-64.000000,-4.000000
153,-54.000000,16.000000
154,-62.000000,0.000000
155,-66.000000,4.000000
156,-56.000000,4.000000
157,-62.000000,8.000000
158,-60.000000,16.000000
159,-52.000000,12.000000
160,-56.000000,12.000000
161,-60.000000,16.000000
162,-56.000000,16.000000
163,-70.000000,16.000000
164,-58.000000,16.000000
165,-58.000000,24.000000
166,-62.000000,24.000000
167,-64.000000,24.000000
168,-58.000000,24.000000
169,-40.000000,28.000000
170,-66.000000,32.000000
171,-58.000000,32.000000
172,-56.000000,36.000000
173,-58.000000,36.000000
174,-62.000000,36.000000
175,-50.000000,36.000000
176,-58.000000,40.000000
177,-58.000000,40.000000
178,-42.000000,44.000000
179,-56.000000,40.000000
180,-58.000000,48.000000
181,-54.000000,48.000000
182,-54.000000,48.000000
183,-58.000000,52.000000
184,-46.000000,52.000000
185,-46.000000,56.000000
186,-58.000000,56.000000
187,-54.000000,56.000000
188,-54.000000,56.000000
189,-66.000000,60.000000
190,-48.000000,60.000000
191,-54.000000,64.000000
192,-52.000000,64.000000
193,-46.000000,68.000000
194,-34.000000,68.000000
195,-64.000000,68.000000
196,-42.000000,72.000000
197,-40.000000,72.000000
198,-46.000000,76.000000
199,-44.000000,76.000000
200,-42.000000,80.000000
201,-36.000000,76.000000
202,-44.000000,80.000000
203,-38.000000,80.000000
204,-54.000000,84.000000
205,-36.000000,84.000000
206,-38.000000,84.000000
207,-44.000000,88.000000
208,-36.000000,84.000000
209,-40.000000,88.000000
210,-40.000000,88.000000
211,-40.000000,92.000000
212,-24.000000,96.000000
213,-44.000000,92.000000
214,-52.000000,96.000000
215,-32.000000,96.000000
216,-38.000000,96.000000
217,-40.000000,100.000000
218,-38.000000,100.000000
219,-34.000000,100.000000
220,-38.000000,100.000000
221,-32.000000,92.000000
222,-40.000000,104.000000
223,-32.000000,104.000000
224,-36.000000,104.000000
225,-32.000000,104.000000
226,-36.000000,108.000000
227,-42.000000,104.000000
228,-38.000000,108.000000
229,-26.000000,108.000000
230,-28.000000,112.000000
231,-28.000000,112.000000
232,-24.000000,112.000000
233,-34.000000,116.000000
234,-32.000000,112.000000
235,-30.000000,116.000000
236,-24.000000,112.000000
237,-34.000000,116.000000
238,-22.000000,116.000000
239,-32.000000,116.000000
240,-28.000000,120.000000
241,-20.000000,120.000000
242,-20.000000,116.000000
243,-34.000000,120.000000
244,-26.000000,120.000000
245,-24.000000,120.000000
246,-36.000000,124.000000
247,-14.000000,124.000000
248,-30.000000,124.000000
249,-28.000000,120.000000
250,-10.000000,124.000000
251,-18.000000,124.000000
252,-32.000000,124.000000
253,-16.000000,124.000000
254,-18.000000,136.000000
255,-26.000000,124.000000
256,-12.000000,124.000000
257,-14.000000,128.000000
258,-22.000000,124.000000
259,-16.000000,124.000000
260,-8.000000,124.000000
261,-22.000000,128.000000
262,-8.000000,124.000000
263,-12.000000,128.000000
264,-26.000000,124.000000
265,-16.000000,124.000000
266,-14.000000,128.000000
267,-24.000000,124.000000
268,-12.000000,132.000000
269,-16.000000,124.000000
270,-20.000000,128.000000
271,-18.000000,128.000000
272,-16.000000,124.000000
273,-4.000000,124.000000
274,-16.000000,124.000000
275,-14.000000,124.000000
276,-8.000000,124.000000
277,-24.000000,124.000000
278,-20.000000,124.000000
279,-12.000000,120.000000
280,-4.000000,128.000000
281,0.000000,124.000000
282,4.000000,140.000000
283,-12.000000,120.000000
284,-4.000000,120.000000
285,-4.000000,124.000000
286,-2.000000,120.000000
287,-6.000000,120.000000
288,-16.000000,120.000000
289,6.000000,124.000000
290,-6.000000,120.000000
291,0.000000,120.000000
292,0.000000,116.000000
293,2.000000,120.000000
294,-4.000000,124.000000
295,6.000000,116.000000
296,-14.000000,116.000000
297,-10.000000,116.000000
298,0.000000,112.000000
299,8.000000,112.000000
300,2.000000,112.000000
301,10.000000,116.000000
302,-8.000000,112.000000
303,-2.000000,112.000000
304,14.000000,108.000000
305,6.000000,108.000000
306,4.000000,108.000000
307,-6.000000,104.000000
308,12.000000,108.000000
309,6.000000,104.000000
310,6.000000,104.000000
311,-6.000000,104.000000
312,12.000000,100.000000
313,6.000000,100.000000
314,-6.000000,100.000000
315,2.000000,96.000000
316,2.000000,96.000000
317,12.000000,96.000000
318,12.000000,96.000000
319,8.000000,92.000000
320,8.000000,92.000000
321,4.000000,92.000000
322,-6.000000,88.000000
323,0.000000,92.000000
324,-2.000000,88.000000
325,0.000000,88.000000
326,2.000000,84.000000
327,8.000000,84.000000
328,10.000000,84.000000
329,0.000000,80.000000
330,14.000000,76.000000
331,-2.000000,80.000000
332,-6.000000,80.000000
333,10.000000,76.000000
334,4.000000,80.000000
335,-14.000000,72.000000
336,-2.000000,76.000000
337,20.000000,68.000000
338,-4.000000,68.000000
339,-4.000000,64.000000
340,4.000000,68.000000
341,22.000000,64.000000
342,-2.000000,64.000000
343,8.000000,64.000000
344,6.000000,56.000000
345,-4.000000,60.000000
346,6.000000,56.000000
347,14.000000,56.000000
348,0.000000,52.000000
349,-8.000000,52.000000
350,14.000000,40.000000
351,12.000000,48.000000
352,10.000000,48.000000
353,4.000000,40.000000
354,8.000000,44.000000
355,20.000000,44.000000
356,6.000000,40.000000
357,2.000000,24.000000
358,6.000000,36.000000
359,4.000000,32.000000
360,2.000000,32.000000
361,10.000000,32.000000
362,10.000000,32.000000
363,8.000000,28.000000
364,4.000000,28.000000
365,6.000000,28.000000
366,16.000000,24.000000
367,14.000000,20.000000
368,-4.000000,20.000000
369,6.000000,20.000000
370,0.000000,16.000000
371,0.000000,12.000000
372,-6.000000,12.000000
373,2.000000,8.000000
374,14.000000,8.000000
375,6.000000,8.000000
376,-4.000000,8.000000
377,6.000000,4.000000
378,10.000000,4.000000
379,-4.000000,0.000000
380,-8.000000,0.000000
381,2.000000,0.000000
382,2.000000,-4.000000
383,10.000000,-8.000000
384,-14.000000,-8.000000
385,-8.000000,-8.000000
386,12.000000,-12.000000
387,4.000000,-12.000000
388,-6.000000,-12.000000
389,-8.000000,-16.000000
390,8.000000,-16.000000
391,8.000000,-20.000000
392,-2.000000,-20.000000
393,-8.000000,-24.000000
394,-6.000000,-24.000000
395,-10.000000,-24.000000
396,-12.000000,-28.000000
397,-6.000000,-28.000000
398,-4.000000,-32.000000
399,6.000000,-36.000000
400,-4.000000,-32.000000
401,0.000000,-36.000000
402,-2.000000,-36.000000
403,-8.000000,-40.000000
404,-8.000000,-40.000000
405,-10.000000,-48.000000
406,0.000000,-48.000000
407,0.000000,-48.000000
408,-12.000000,-48.000000
409,-18.000000,-52.000000
410,-2.000000,-52.000000
411,-10.000000,-52.000000
412,-18.000000,-56.000000
413,-8.000000,-56.000000
414,-10.000000,-60.000000
415,-12.000000,-64.000000
416,-12.000000,-60.000000
417,-14.000000,-64.000000
418,-20.000000,-76.000000
419,-6.000000,-68.000000
420,-16.000000,-68.000000
421,-22.000000,-72.000000
422,-18.000000,-72.000000
423,-6.000000,-76.000000
424,-14.000000,-72.000000
425,-16.000000,-88.000000
426,-8.000000,-80.000000
427,-14.000000,-80.000000
428,-20.000000,-80.000000
429,-10.000000,-80.000000
430,-16.000000,-80.000000
431,-16.000000,-84.000000
432,-14.000000,-84.000000
433,-22.000000,-84.000000
434,-26.000000,-88.000000
435,-22.000000,-92.000000
436,-18.000000,-92.000000
437,-26.000000,-92.000000
438,-22.000000,-96.000000
439,-18.000000,-96.000000
440,-22.000000,-96.000000
441,-30.000000,-96.000000
442,-26.000000,-96.000000
443,-36.000000,-96.000000
444,-26.000000,-96.000000
445,-34.000000,-100.000000
446,-30.000000,-104.000000
447,-30.000000,-100.000000
448,-38.000000,-104.000000
449,-22.000000,-104.000000
450,-18.000000,-108.000000
451,-46.000000,-112.000000
452,-38.000000,-108.000000
453,-38.000000,-112.000000
454,-40.000000,-112.000000
455,-32.000000,-112.000000
456,-38.000000,-112.000000
457,-44.000000,-112.000000
458,-36.000000,-116.000000
459,-38.000000,-112.000000
460,-40.000000,-116.000000
461,-38.000000,-116.000000
462,-44.000000,-116.000000
463,-36.000000,-116.000000
464,-38.000000,-116.000000
465,-44.000000,-120.000000
466,-46.000000,-120.000000
467,-34.000000,-120.000000
468,-38.000000,-120.000000
469,-52.000000,-120.000000
470,-40.000000,-124.000000
471,-46.000000,-124.000000
472,-44.000000,-120.000000
473,-40.000000,-124.000000
474,-42.000000,-124.000000
475,-42.000000,-124.000000
476,-52.000000,-124.000000
477,-50.000000,-128.000000
478,-56.000000,-124.000000
479,-50.000000,-124.000000
480,-50.000000,-128.000000
481,-60.000000,-124.000000
482,-56.000000,-124.000000
483,-56.000000,-128.000000
484,-40.000000,-128.000000
485,-48.000000,-124.000000
486,-52.000000,-148.000000
487,-54.000000,-128.000000
488,-46.000000,-128.000000
489,-58.000000,-128.000000
490,-44.000000,-132.000000
491,-50.000000,-128.000000
492,-58.000000,-128.000000
493,-50.000000,-140.000000
494,-54.000000,-128.000000
495,-58.000000,-128.000000
496,-66.000000,-128.000000
497,-58.000000,-124.000000
498,-60.000000,-124.000000
499,-44.000000,-128.000000
500,-56.000000,-128.000000
501,-70.000000,-128.000000
502,-70.000000,-128.000000
503,-62.000000,-128.000000
504,-54.000000,-128.000000
505,-62.000000,-124.000000
506,-62.000000,-128.000000
507,-76.000000,-128.000000
508,-64.000000,-128.000000
509,-58.000000,-128.000000
510,-60.000000,-124.000000
511,-62.000000,-124.000000
512,-72.000000,-124.000000
513,-70.000000,-124.000000
514,-56.000000,-124.000000
515,-66.000000,-124.000000
516,-72.000000,-120.000000
517,-68.000000,-120.000000
518,-62.000000,-120.000000
519,-52.000000,-128.000000
520,-56.000000,-120.000000
521,-70.000000,-120.000000
522,-74.000000,-116.000000
523,-62.000000,-116.000000
524,-58.000000,-116.000000
525,-68.000000,-116.000000
526,-72.000000,-120.000000
527,-68.000000,-116.000000
528,-70.000000,-112.000000
529,-62.000000,-112.000000
530,-66.000000,-116.000000
531,-58.000000,-112.000000
532,-78.000000,-112.000000
533,-70.000000,-112.000000
534,-70.000000,-108.000000
535,-66.000000,-108.000000
536,-66.000000,-108.000000
537,-72.000000,-104.000000
538,-74.000000,-104.000000
539,-72.000000,-104.000000
540,-70.000000,-104.000000
541,-68.000000,-104.000000
542,-78.000000,-100.000000
543,-78.000000,-100.000000
544,-72.000000,-96.000000
545,-74.000000,-100.000000
546,-72.000000,-96.000000
547,-78.000000,-96.000000
548,-76.000000,-92.000000
549,-74.000000,-92.000000
550,-70.000000,-92.000000
551,-74.000000,-92.000000
552,-82.000000,-88.000000
553,-78.000000,-92.000000
554,-76.000000,-112.000000
555,-78.000000,-84.000000
556,-76.000000,-84.000000
557,-78.000000,-84.000000
558,-78.000000,-80.000000
559,-80.000000,-80.000000
560,-80.000000,-80.000000
561,-76.000000,-84.000000
562,-82.000000,-76.000000
563,-90.000000,-72.000000
564,-84.000000,-72.000000
565,-72.000000,-72.000000
566,-76.000000,-64.000000
567,-86.000000,-68.000000
568,-84.000000,-64.000000
569,-76.000000,-64.000000
570,-80.000000,-64.000000
571,-78.000000,-60.000000
572,-84.000000,-60.000000
573,-76.000000,-56.000000
574,-78.000000,-60.000000
575,-92.000000,-52.000000
576,-68.000000,-52.000000
577,-78.000000,-52.000000
578,-76.000000,-52.000000
579,-90.000000,-48.000000
580,-88.000000,-48.000000
581,-90.000000,-44.000000
582,-82.000000,-44.000000
583,-80.000000,-40.000000
584,-78.000000,-40.000000
585,-84.000000,-36.000000
586,-94.000000,-36.000000
587,-90.000000,-36.000000
588,-80.000000,-32.000000
589,-88.000000,-32.000000
590,-84.000000,-32.000000
591,-84.000000,-28.000000
592,-84.000000,-28.000000
593,-88.000000,-24.000000
594,-80.000000,-16.000000
595,-74.000000,-20.000000
596,-80.000000,-16.000000
597,-84.000000,-16.000000
598,-88.000000,-16.000000
599,-82.000000,-16.000000
600,-74.000000,-16.000000
601,-80.000000,-8.000000
602,-78.000000,-8.000000
603,-80.000000,-8.000000
604,-92.000000,-4.000000
605,-86.000000,-4.000000
606,-82.000000,-4.000000
607,-82.000000,0.000000
608,-74.000000,0.000000
609,-74.000000,0.000000
610,-82.000000,4.000000
611,-78.000000,4.000000
612,-86.000000,8.000000
613,-88.000000,8.000000
614,-74.000000,12.000000
615,-78.000000,16.000000
616,-80.000000,16.000000
617,-82.000000,16.000000
618,-86.000000,20.000000
619,-82.000000,16.000000
620,-76.000000,24.000000
621,-72.000000,24.000000
622,-74.000000,8.000000
623,-72.000000,24.000000
624,-82.000000,28.000000
625,-84.000000,28.000000
626,-66.000000,32.000000
627,-74.000000,32.000000
628,-76.000000,36.000000
629,-68.000000,20.000000
630,-72.000000,36.000000
631,-78.000000,40.000000
632,-68.000000,40.000000
633,-72.000000,44.000000
634,-64.000000,52.000000
635,-64.000000,44.000000
636,-80.000000,48.000000
637,-76.000000,48.000000
638,-60.000000,52.000000
639,-66.000000,52.000000
640,-64.000000,52.000000
641,-60.000000,60.000000
642,-74.000000,60.000000
643,-72.000000,60.000000
644,-62.000000,60.000000
645,-58.000000,64.000000
646,-62.000000,64.000000
647,-56.000000,68.000000
648,-70.000000,68.000000
649,-68.000000,72.000000
650,-62.000000,72.000000
651,-58.000000,72.000000
652,-48.000000,76.000000
653,-54.000000,76.000000
654,-58.000000,80.000000
655,-56.000000,72.000000
656,-52.000000,80.000000
657,-56.000000,80.000000
658,-46.000000,80.000000
659,-50.000000,84.000000
660,-62.000000,84.000000
661,-58.000000,84.000000
662,-54.000000,80.000000
663,-52.000000,88.000000
664,-52.000000,88.000000
665,-50.000000,92.000000
666,-54.000000,92.000000
667,-56.000000,92.000000
668,-52.000000,92.000000
669,-54.000000,92.000000
670,-46.000000,96.000000
671,-50.000000,96.000000
672,-44.000000,100.000000
673,-46.000000,96.000000
674,-52.000000,100.000000
675,-42.000000,100.000000
676,-42.000000,104.000000
677,-48.000000,104.000000
678,-50.000000,108.000000
679,-44.000000,108.000000
680,-42.000000,108.000000
681,-46.000000,104.000000
682,-42.000000,108.000000
683,-50.000000,104.000000
684,-50.000000,112.000000
685,-44.000000,112.000000
686,-40.000000,112.000000
687,-52.000000,112.000000
688,-46.000000,116.000000
689,-40.000000,116.000000
690,-44.000000,88.000000
691,-44.000000,116.000000
692,-42.000000,116.000000
693,-40.000000,116.000000
694,-42.000000,120.000000
695,-46.000000,116.000000
696,-44.000000,120.000000
697,-42.000000,120.000000
698,-40.000000,120.000000
699,-42.000000,120.000000
700,-38.000000,120.000000
701,-48.000000,120.000000
702,-42.000000,128.000000
703,-36.000000,120.000000
704,-44.000000,124.000000
705,-34.000000,120.000000
706,-44.000000,124.000000
707,-54.000000,124.000000
708,-46.000000,124.000000
709,-34.000000,128.000000
710,-42.000000,124.000000
711,-30.000000,124.000000
712,-34.000000,124.000000
713,-34.000000,124.000000
714,-32.000000,128.000000
715,-34.000000,124.000000
716,-30.000000,128.000000
717,-30.000000,128.000000
718,-34.000000,124.000000
719,-26.000000,124.000000
720,-36.000000,124.000000
721,-40.000000,124.000000
722,-26.000000,124.000000
723,-36.000000,120.000000
724,-28.000000,128.000000
725,-24.000000,124.000000
726,-32.000000,124.000000
727,-30.000000,128.000000
728,-32.000000,124.000000
729,-30.000000,124.000000
730,-22.000000,120.000000
731,-26.000000,124.000000
732,-34.000000,128.000000
733,-34.000000,124.000000
734,-24.000000,124.000000
735,-18.000000,124.000000
736,-14.000000,124.000000
737,-22.000000,120.000000
738,-20.000000,120.000000
739,-20.000000,124.000000
740,-32.000000,120.000000
741,-10.000000,120.000000
742,-26.000000,120.000000
743,-24.000000,120.000000
744,-26.000000,116.000000
745,-20.000000,116.000000
746,-12.000000,116.000000
747,-30.000000,120.000000
748,-18.000000,116.000000
749,-22.000000,116.000000
750,-18.000000,116.000000
751,-2.000000,108.000000
752,-12.000000,112.000000
753,-20.000000,116.000000
754,-12.000000,112.000000
755,-16.000000,112.000000
756,-18.000000,112.000000
757,-10.000000,108.000000
758,2.000000,84.000000
759,-22.000000,104.000000
760,-20.000000,108.000000
761,-18.000000,104.000000
762,-10.000000,104.000000
763,-12.000000,104.000000
764,0.000000,104.000000
765,-4.000000,96.000000
766,-16.000000,100.000000
767,-20.000000,100.000000
768,-14.000000,100.000000
769,-6.000000,96.000000
770,-10.000000,104.000000
771,-8.000000,96.000000
