lab2/data_45_003.csv

Channel              :,CH1,CH2
Frequency            :,  ?,  ?
Period               :,  ?,  ?
PK-PK                :,1.460V,226.0mV
Probe attenuation    :,1X,1X
Voltage per ADC value:,1.250000mV,0.125000mV
Time interval        :,200.00000uS,200.00000uS

index,CH1_Voltage(mV),CH2_Voltage(mV)
1,-720.000000,-92.000000
2,-720.000000,-92.000000
3,-720.000000,-94.000000
4,-720.000000,-94.000000
5,-740.000000,-92.000000
6,-720.000000,-92.000000
7,-720.000000,-92.000000
8,-700.000000,-90.000000
9,-720.000000,-96.000000
10,-760.000000,-92.000000
11,-740.000000,-94.000000
12,-720.000000,-92.000000
13,-740.000000,-86.000000
14,-740.000000,-90.000000
15,-740.000000,-94.000000
16,-740.000000,-92.000000
17,-740.000000,-94.000000
18,-760.000000,-92.000000
19,-740.000000,-96.000000
20,-740.000000,-92.000000
21,-780.000000,-92.000000
22,-760.000000,-90.000000
23,-780.000000,-92.000000
24,-780.000000,-92.000000
25,-780.000000,-92.000000
26,-780.000000,-92.000000
27,-800.000000,-92.000000
28,-800.000000,-94.000000
29,-800.000000,-88.000000
30,-800.000000,-90.000000
31,-820.000000,-90.000000
32,-800.000000,-92.000000
33,-780.000000,-90.000000
34,-800.000000,-88.000000
35,-780.000000,-90.000000
36,-780.000000,-88.000000
37,-780.000000,-90.000000
38,-780.000000,-92.000000
39,-780.000000,-92.000000
40,-780.000000,-92.000000
41,-780.000000,-90.000000
42,-760.000000,-88.000000
43,-780.000000,-88.000000
44,-760.000000,-90.000000
45,-780.000000,-88.000000
46,-740.000000,-90.000000
47,-740.000000,-88.000000
48,-740.000000,-88.000000
49,-780.000000,-90.000000
50,-740.000000,-90.000000
51,-740.000000,-90.000000
52,-740.000000,-88.000000
53,-760.000000,-88.000000
54,-760.000000,-88.000000
55,-720.000000,-82.000000
56,-760.000000,-88.000000
57,-760.000000,-90.000000
58,-760.000000,-88.000000
59,-760.000000,-90.000000
60,-780.000000,-88.000000
61,-760.000000,-90.000000
62,-760.000000,-86.000000
63,-780.000000,-86.000000
64,-780.000000,-86.000000
65,-800.000000,-86.000000
66,-800.000000,-86.000000
67,-800.000000,-86.000000
68,-800.000000,-86.000000
69,-780.000000,-86.000000
70,-800.000000,-86.000000
71,-820.000000,-84.000000
72,-820.000000,-84.000000
73,-820.000000,-84.000000
74,-840.000000,-84.000000
75,-820.000000,-86.000000
76,-840.000000,-84.000000
77,-820.000000,-84.000000
78,-820.000000,-84.000000
79,-840.000000,-82.000000
80,-840.000000,-86.000000
81,-840.000000,-82.000000
82,-800.000000,-88.000000
83,-840.000000,-82.000000
84,-820.000000,-82.000000
85,-820.000000,-82.000000
86,-820.000000,-84.000000
87,-820.000000,-82.000000
88,-820.000000,-84.000000
89,-820.000000,-82.000000
90,-820.000000,-82.000000
91,-800.000000,-82.000000
92,-820.000000,-80.000000
93,-820.000000,-80.000000
94,-780.000000,-80.000000
95,-800.000000,-78.000000
96,-800.000000,-80.000000
97,-800.000000,-78.000000
98,-780.000000,-80.000000
99,-780.000000,-82.000000
100,-780.000000,-80.000000
101,-800.000000,-84.000000
102,-800.000000,-78.000000
103,-780.000000,-80.000000
104,-780.000000,-80.000000
105,-780.000000,-78.000000
106,-780.000000,-78.000000
107,-760.000000,-78.000000
108,-760.000000,-78.000000
109,-800.000000,-78.000000
110,-760.000000,-78.000000
111,-760.000000,-78.000000
112,-760.000000,-78.000000
113,-780.000000,-78.000000
114,-780.000000,-76.000000
115,-760.000000,-76.000000
116,-780.000000,-76.000000
117,-780.000000,-76.000000
118,-760.000000,-78.000000
119,-800.000000,-76.000000
120,-800.000000,-76.000000
121,-800.000000,-74.000000
122,-800.000000,-82.000000
123,-780.000000,-74.000000
124,-800.000000,-70.000000
125,-820.000000,-72.000000
126,-800.000000,-74.000000
127,-840.000000,-72.000000
128,-820.000000,-74.000000
129,-820.000000,-74.000000
130,-840.000000,-72.000000
131,-820.000000,-72.000000
132,-840.000000,-72.000000
133,-800.000000,-72.000000
134,-780.000000,-70.000000
135,-780.000000,-70.000000
136,-800.000000,-72.000000
137,-800.000000,-70.000000
138,-780.000000,-70.000000
139,-780.000000,-66.000000
140,-780.000000,-70.000000
141,-780.000000,-72.000000
142,-760.000000,-68.000000
143,-780.000000,-72.000000
144,-760.000000,-70.000000
145,-760.000000,-72.000000
146,-760.000000,-68.000000
147,-760.000000,-68.000000
148,-760.000000,-66.000000
149,-740.000000,-68.000000
150,-720.000000,-66.000000
151,-760.000000,-68.000000
152,-740.000000,-66.000000
153,-740.000000,-64.000000
154,-740.000000,-66.000000
155,-740.000000,-64.000000
156,-740.000000,-64.000000
157,-740.000000,-64.000000
158,-740.000000,-64.000000
159,-740.000000,-64.000000
160,-740.000000,-62.000000
161,-760.000000,-60.000000
162,-760.000000,-64.000000
163,-760.000000,-64.000000
164,-760.000000,-66.000000
165,-740.000000,-62.000000
166,-780.000000,-64.000000
167,-760.000000,-60.000000
168,-780.000000,-60.000000
169,-780.000000,-62.000000
170,-760.000000,-62.000000
171,-760.000000,-62.000000
172,-780.000000,-62.000000
173,-780.000000,-60.000000
174,-800.000000,-62.000000
175,-780.000000,-60.000000
176,-780.000000,-60.000000
177,-780.000000,-60.000000
178,-780.000000,-58.000000
179,-780.000000,-60.000000
180,-780.000000,-58.000000
181,-760.000000,-60.000000
182,-780.000000,-58.000000
183,-760.000000,-56.000000
184,-780.000000,-58.000000
185,-780.000000,-58.000000
186,-780.000000,-56.000000
187,-760.000000,-56.000000
188,-760.000000,-54.000000
189,-760.000000,-52.000000
190,-760.000000,-54.000000
191,-740.000000,-54.000000
192,-740.000000,-54.000000
193,-740.000000,-54.000000
194,-740.000000,-54.000000
195,-740.000000,-54.000000
196,-720.000000,-54.000000
197,-740.000000,-54.000000
198,-720.000000,-52.000000
199,-720.000000,-50.000000
200,-740.000000,-52.000000
201,-720.000000,-50.000000
202,-720.000000,-48.000000
203,-760.000000,-50.000000
204,-700.000000,-56.000000
205,-700.000000,-52.000000
206,-720.000000,-52.000000
207,-700.000000,-50.000000
208,-680.000000,-46.000000
209,-700.000000,-48.000000
210,-720.000000,-46.000000
211,-700.000000,-46.000000
212,-700.000000,-48.000000
213,-700.000000,-48.000000
214,-700.000000,-48.000000
215,-700.000000,-46.000000
216,-720.000000,-46.000000
217,-680.000000,-46.000000
218,-680.000000,-46.000000
219,-720.000000,-44.000000
220,-700.000000,-44.000000
221,-700.000000,-44.000000
222,-700.000000,-46.000000
223,-680.000000,-38.000000
224,-720.000000,-44.000000
225,-700.000000,-44.000000
226,-700.000000,-40.000000
227,-720.000000,-48.000000
228,-700.000000,-42.000000
229,-720.000000,-38.000000
230,-720.000000,-40.000000
231,-700.000000,-42.000000
232,-700.000000,-40.000000
233,-720.000000,-38.000000
234,-700.000000,-38.000000
235,-680.000000,-40.000000
236,-680.000000,-38.000000
237,-700.000000,-36.000000
238,-680.000000,-40.000000
239,-680.000000,-36.000000
240,-640.000000,-36.000000
241,-640.000000,-36.000000
242,-660.000000,-36.000000
243,-640.000000,-36.000000
244,-660.000000,-36.000000
245,-640.000000,-36.000000
246,-640.000000,-40.000000
247,-640.000000,-34.000000
248,-640.000000,-34.000000
249,-620.000000,-34.000000
250,-620.000000,-32.000000
251,-640.000000,-32.000000
252,-640.000000,-32.000000
253,-620.000000,-32.000000
254,-620.000000,-32.000000
255,-620.000000,-30.000000
256,-620.000000,-32.000000
257,-640.000000,-30.000000
258,-620.000000,-30.000000
259,-620.000000,-30.000000
260,-620.000000,-30.000000
261,-640.000000,-28.000000
262,-620.000000,-26.000000
263,-620.000000,-30.000000
264,-620.000000,-28.000000
265,-620.000000,-26.000000
266,-620.000000,-26.000000
267,-620.000000,-32.000000
268,-640.000000,-26.000000
269,-640.000000,-30.000000
270,-640.000000,-24.000000
271,-620.000000,-24.000000
272,-640.000000,-24.000000
273,-620.000000,-22.000000
274,-660.000000,-22.000000
275,-640.000000,-22.000000
276,-620.000000,-22.000000
277,-660.000000,-24.000000
278,-640.000000,-22.000000
279,-640.000000,-20.000000
280,-640.000000,-22.000000
281,-620.000000,-22.000000
282,-620.000000,-20.000000
283,-620.000000,-20.000000
284,-600.000000,-20.000000
285,-620.000000,-20.000000
286,-620.000000,-18.000000
287,-600.000000,-18.000000
288,-600.000000,-18.000000
289,-600.000000,-18.000000
290,-600.000000,-18.000000
291,-600.000000,-18.000000
292,-580.000000,-14.000000
293,-560.000000,-16.000000
294,-580.000000,-18.000000
295,-560.000000,-14.000000
296,-560.000000,-14.000000
297,-560.000000,-12.000000
298,-560.000000,-14.000000
299,-560.000000,-14.000000
300,-560.000000,-12.000000
301,-560.000000,-12.000000
302,-540.000000,-12.000000
303,-520.000000,-12.000000
304,-540.000000,-12.000000
305,-520.000000,-12.000000
306,-520.000000,-10.000000
307,-520.000000,-10.000000
308,-520.000000,-10.000000
309,-520.000000,-16.000000
310,-540.000000,-10.000000
311,-540.000000,-12.000000
312,-540.000000,-10.000000
313,-540.000000,-2.000000
314,-540.000000,-8.000000
315,-540.000000,-8.000000
316,-500.000000,-6.000000
317,-500.000000,-6.000000
318,-520.000000,-8.000000
319,-520.000000,-6.000000
320,-540.000000,-4.000000
321,-520.000000,-6.000000
322,-520.000000,-4.000000
323,-520.000000,-6.000000
324,-520.000000,-2.000000
325,-520.000000,-4.000000
326,-540.000000,-2.000000
327,-520.000000,-4.000000
328,-520.000000,-2.000000
329,-500.000000,-2.000000
330,-520.000000,-4.000000
331,-500.000000,0.000000
332,-520.000000,-6.000000
333,-520.000000,0.000000
334,-500.000000,4.000000
335,-500.000000,0.000000
336,-520.000000,0.000000
337,-500.000000,2.000000
338,-480.000000,2.000000
339,-460.000000,2.000000
340,-480.000000,2.000000
341,-460.000000,4.000000
342,-460.000000,4.000000
343,-480.000000,4.000000
344,-460.000000,2.000000
345,-440.000000,4.000000
346,-460.000000,4.000000
347,-440.000000,4.000000
348,-440.000000,4.000000
349,-420.000000,6.000000
350,-440.000000,6.000000
351,-440.000000,0.000000
352,-420.000000,8.000000
353,-420.000000,2.000000
354,-420.000000,6.000000
355,-420.000000,10.000000
356,-400.000000,6.000000
357,-380.000000,10.000000
358,-400.000000,8.000000
359,-420.000000,8.000000
360,-420.000000,8.000000
361,-420.000000,10.000000
362,-420.000000,10.000000
363,-400.000000,10.000000
364,-440.000000,12.000000
365,-420.000000,12.000000
366,-420.000000,12.000000
367,-420.000000,12.000000
368,-420.000000,12.000000
369,-420.000000,12.000000
370,-420.000000,14.000000
371,-420.000000,12.000000
372,-420.000000,8.000000
373,-420.000000,14.000000
374,-420.000000,12.000000
375,-400.000000,12.000000
376,-420.000000,18.000000
377,-440.000000,16.000000
378,-420.000000,14.000000
379,-400.000000,16.000000
380,-400.000000,16.000000
381,-400.000000,14.000000
382,-400.000000,16.000000
383,-380.000000,16.000000
384,-380.000000,16.000000
385,-400.000000,18.000000
386,-400.000000,20.000000
387,-380.000000,18.000000
388,-360.000000,20.000000
389,-380.000000,18.000000
390,-380.000000,18.000000
391,-340.000000,20.000000
392,-360.000000,20.000000
393,-340.000000,18.000000
394,-340.000000,20.000000
395,-340.000000,18.000000
396,-320.000000,20.000000
397,-340.000000,28.000000
398,-320.000000,22.000000
399,-320.000000,22.000000
400,-320.000000,24.000000
401,-320.000000,22.000000
402,-300.000000,24.000000
403,-300.000000,24.000000
404,-300.000000,24.000000
405,-280.000000,26.000000
406,-280.000000,24.000000
407,-300.000000,26.000000
408,-300.000000,24.000000
409,-280.000000,28.000000
410,-280.000000,26.000000
411,-260.000000,28.000000
412,-280.000000,28.000000
413,-260.000000,28.000000
414,-280.000000,28.000000
415,-280.000000,28.000000
416,-280.000000,24.000000
417,-280.000000,30.000000
418,-280.000000,34.000000
419,-280.000000,30.000000
420,-280.000000,28.000000
421,-280.000000,30.000000
422,-300.000000,32.000000
423,-280.000000,30.000000
424,-280.000000,32.000000
425,-280.000000,32.000000
426,-260.000000,32.000000
427,-280.000000,30.000000
428,-300.000000,34.000000
429,-280.000000,30.000000
430,-280.000000,32.000000
431,-300.000000,34.000000
432,-240.000000,34.000000
433,-260.000000,34.000000
434,-240.000000,34.000000
435,-240.000000,32.000000
436,-240.000000,36.000000
437,-240.000000,28.000000
438,-220.000000,36.000000
439,-220.000000,40.000000
440,-240.000000,36.000000
441,-200.000000,36.000000
442,-200.000000,38.000000
443,-200.000000,36.000000
444,-180.000000,38.000000
445,-180.000000,36.000000
446,-160.000000,38.000000
447,-160.000000,36.000000
448,-160.000000,38.000000
449,-160.000000,40.000000
450,-160.000000,40.000000
451,-160.000000,40.000000
452,-140.000000,40.000000
453,-160.000000,42.000000
454,-160.000000,42.000000
455,-160.000000,40.000000
456,-160.000000,34.000000
457,-160.000000,42.000000
458,-160.000000,40.000000
459,-140.000000,42.000000
460,-140.000000,48.000000
461,-160.000000,44.000000
462,-160.000000,44.000000
463,-160.000000,44.000000
464,-160.000000,44.000000
465,-160.000000,44.000000
466,-160.000000,44.000000
467,-160.000000,44.000000
468,-140.000000,44.000000
469,-160.000000,46.000000
470,-120.000000,46.000000
471,-140.000000,44.000000
472,-140.000000,46.000000
473,-160.000000,46.000000
474,-140.000000,48.000000
475,-160.000000,46.000000
476,-140.000000,48.000000
477,-120.000000,42.000000
478,-140.000000,46.000000
479,-160.000000,42.000000
480,-160.000000,48.000000
481,-160.000000,54.000000
482,-140.000000,48.000000
483,-140.000000,50.000000
484,-140.000000,50.000000
485,-120.000000,50.000000
486,-100.000000,50.000000
487,-100.000000,50.000000
488,-100.000000,50.000000
489,-100.000000,50.000000
490,-120.000000,50.000000
491,-80.000000,52.000000
492,-120.000000,50.000000
493,-80.000000,50.000000
494,-100.000000,48.000000
495,-100.000000,50.000000
496,-60.000000,54.000000
497,-40.000000,54.000000
498,-60.000000,54.000000
499,-60.000000,54.000000
500,-40.000000,50.000000
501,-40.000000,52.000000
502,-60.000000,60.000000
503,-20.000000,52.000000
504,0.000000,54.000000
505,-20.000000,56.000000
506,-20.000000,54.000000
507,-20.000000,56.000000
508,-40.000000,56.000000
509,-40.000000,54.000000
510,0.000000,54.000000
511,0.000000,56.000000
512,0.000000,56.000000
513,-40.000000,56.000000
514,0.000000,56.000000
515,0.000000,58.000000
516,-20.000000,56.000000
517,0.000000,56.000000
518,-20.000000,58.000000
519,0.000000,60.000000
520,0.000000,58.000000
521,-20.000000,62.000000
522,-20.000000,58.000000
523,-20.000000,62.000000
524,-40.000000,58.000000
525,-20.000000,58.000000
526,-20.000000,60.000000
527,0.000000,62.000000
528,-20.000000,60.000000
529,-20.000000,60.000000
530,-20.000000,60.000000
531,-20.000000,60.000000
532,-20.000000,62.000000
533,0.000000,60.000000
534,20.000000,60.000000
535,40.000000,62.000000
536,40.000000,60.000000
537,20.000000,62.000000
538,60.000000,60.000000
539,60.000000,62.000000
540,60.000000,64.000000
541,40.000000,64.000000
542,80.000000,60.000000
543,80.000000,62.000000
544,100.000000,62.000000
545,100.000000,62.000000
546,100.000000,64.000000
547,100.000000,64.000000
548,120.000000,66.000000
549,100.000000,64.000000
550,120.000000,64.000000
551,100.000000,64.000000
552,120.000000,62.000000
553,120.000000,64.000000
554,100.000000,64.000000
555,120.000000,66.000000
556,100.000000,64.000000
557,100.000000,66.000000
558,100.000000,64.000000
559,100.000000,66.000000
560,120.000000,66.000000
561,120.000000,68.000000
562,120.000000,64.000000
563,100.000000,74.000000
564,120.000000,66.000000
565,100.000000,68.000000
566,80.000000,68.000000
567,100.000000,68.000000
568,100.000000,68.000000
569,120.000000,68.000000
570,100.000000,68.000000
571,120.000000,68.000000
572,100.000000,68.000000
573,100.000000,70.000000
574,120.000000,68.000000
575,80.000000,70.000000
576,100.000000,70.000000
577,120.000000,68.000000
578,100.000000,68.000000
579,100.000000,68.000000
580,100.000000,72.000000
581,100.000000,70.000000
582,100.000000,70.000000
583,80.000000,70.000000
584,120.000000,68.000000
585,120.000000,70.000000
586,120.000000,74.000000
587,140.000000,70.000000
588,160.000000,70.000000
589,160.000000,72.000000
590,160.000000,72.000000
591,160.000000,72.000000
592,160.000000,70.000000
593,180.000000,72.000000
594,200.000000,72.000000
595,200.000000,74.000000
596,180.000000,72.000000
597,180.000000,74.000000
598,200.000000,72.000000
599,220.000000,70.000000
600,220.000000,72.000000
601,220.000000,74.000000
602,200.000000,74.000000
603,200.000000,76.000000
604,240.000000,74.000000
605,200.000000,84.000000
606,200.000000,72.000000
607,240.000000,70.000000
608,240.000000,74.000000
609,220.000000,74.000000
610,220.000000,72.000000
611,220.000000,74.000000
612,240.000000,76.000000
613,220.000000,74.000000
614,220.000000,74.000000
615,220.000000,74.000000
616,240.000000,76.000000
617,220.000000,76.000000
618,240.000000,76.000000
619,240.000000,76.000000
620,220.000000,76.000000
621,240.000000,78.000000
622,240.000000,76.000000
623,220.000000,76.000000
624,240.000000,78.000000
625,220.000000,78.000000
626,220.000000,86.000000
627,240.000000,76.000000
628,240.000000,74.000000
629,220.000000,76.000000
630,220.000000,74.000000
631,220.000000,76.000000
632,240.000000,78.000000
633,240.000000,76.000000
634,280.000000,76.000000
635,240.000000,76.000000
636,260.000000,76.000000
637,280.000000,78.000000
638,280.000000,78.000000
639,280.000000,78.000000
640,300.000000,80.000000
641,280.000000,78.000000
642,280.000000,76.000000
643,320.000000,78.000000
644,320.000000,78.000000
645,340.000000,80.000000
646,300.000000,78.000000
647,340.000000,92.000000
648,340.000000,80.000000
649,320.000000,70.000000
650,340.000000,76.000000
651,340.000000,78.000000
652,340.000000,80.000000
653,320.000000,80.000000
654,340.000000,78.000000
655,320.000000,78.000000
656,340.000000,78.000000
657,320.000000,78.000000
658,320.000000,78.000000
659,340.000000,80.000000
660,320.000000,78.000000
661,320.000000,80.000000
662,320.000000,78.000000
663,320.000000,78.000000
664,320.000000,80.000000
665,340.000000,80.000000
666,320.000000,80.000000
667,320.000000,82.000000
668,300.000000,92.000000
669,340.000000,80.000000
670,320.000000,74.000000
671,320.000000,80.000000
672,300.000000,78.000000
673,300.000000,78.000000
674,320.000000,82.000000
675,320.000000,80.000000
676,320.000000,80.000000
677,340.000000,80.000000
678,300.000000,80.000000
679,320.000000,80.000000
680,320.000000,80.000000
681,320.000000,80.000000
682,340.000000,82.000000
683,340.000000,80.000000
684,320.000000,80.000000
685,340.000000,82.000000
686,340.000000,80.000000
687,340.000000,80.000000
688,340.000000,82.000000
689,340.000000,86.000000
690,360.000000,80.000000
691,340.000000,76.000000
692,360.000000,80.000000
693,380.000000,80.000000
694,380.000000,80.000000
695,380.000000,84.000000
696,380.000000,82.000000
697,400.000000,82.000000
698,400.000000,82.000000
699,400.000000,82.000000
700,380.000000,80.000000
701,380.000000,82.000000
702,400.000000,82.000000
703,400.000000,80.000000
704,420.000000,80.000000
705,420.000000,82.000000
706,420.000000,82.000000
707,420.000000,82.000000
708,400.000000,76.000000
709,420.000000,84.000000
710,420.000000,78.000000
711,420.000000,82.000000
712,420.000000,76.000000
713,420.000000,84.000000
714,420.000000,82.000000
715,440.000000,82.000000
716,420.000000,82.000000
717,420.000000,82.000000
718,440.000000,80.000000
719,420.000000,82.000000
720,420.000000,80.000000
721,420.000000,82.000000
722,420.000000,80.000000
723,400.000000,82.000000
724,400.000000,82.000000
725,420.000000,82.000000
726,400.000000,82.000000
727,420.000000,80.000000
728,420.000000,84.000000
729,400.000000,76.000000
730,400.000000,80.000000
731,420.000000,78.000000
732,400.000000,82.000000
733,420.000000,84.000000
734,420.000000,82.000000
735,440.000000,82.000000
736,420.000000,82.000000
737,440.000000,84.000000
738,440.000000,84.000000
739,440.000000,82.000000
740,460.000000,82.000000
741,460.000000,82.000000
742,460.000000,82.000000
743,460.000000,82.000000
744,480.000000,82.000000
745,480.000000,82.000000
746,520.000000,82.000000
747,500.000000,80.000000
748,520.000000,82.000000
749,480.000000,82.000000
750,520.000000,86.000000
751,500.000000,82.000000
752,500.000000,80.000000
753,520.000000,80.000000
754,520.000000,80.000000
755,500.000000,82.000000
756,500.000000,80.000000
757,480.000000,82.000000
758,500.000000,82.000000
759,500.000000,82.000000
760,500.000000,80.000000
761,480.000000,82.000000
762,480.000000,82.000000
763,500.000000,82.000000
