lab2/data_45_004.csv

Channel              :,CH1,CH2
Frequency            :,  ?,  ?
Period               :,  ?,  ?
PK-PK                :,1.540V,244.0mV
Probe attenuation    :,1X,1X
Voltage per ADC value:,1.250000mV,0.125000mV
Time interval        :,200.00000uS,200.00000uS

index,CH1_Voltage(mV),CH2_Voltage(mV)
1,220.000000,8.000000
2,220.000000,8.000000
3,200.000000,0.000000
4,200.000000,-2.000000
5,180.000000,-2.000000
6,160.000000,2.000000
7,180.000000,-4.000000
8,160.000000,-6.000000
9,180.000000,-4.000000
10,160.000000,-4.000000
11,180.000000,-6.000000
12,160.000000,-4.000000
13,160.000000,-6.000000
14,160.000000,-8.000000
15,160.000000,-8.000000
16,140.000000,-10.000000
17,120.000000,-10.000000
18,120.000000,-8.000000
19,120.000000,-8.000000
20,100.000000,-10.000000
21,140.000000,-8.000000
22,140.000000,-10.000000
23,120.000000,-26.000000
24,120.000000,-10.000000
25,140.000000,-12.000000
26,120.000000,-10.000000
27,120.000000,-10.000000
28,100.000000,-14.000000
29,120.000000,-16.000000
30,100.000000,-16.000000
31,100.000000,-14.000000
32,120.000000,-16.000000
33,100.000000,-16.000000
34,80.000000,-16.000000
35,140.000000,-16.000000
36,120.000000,-18.000000
37,100.000000,-16.000000
38,100.000000,-18.000000
39,100.000000,-16.000000
40,100.000000,-18.000000
41,100.000000,-18.000000
42,120.000000,-18.000000
43,80.000000,-18.000000
44,80.000000,-38.000000
45,80.000000,-20.000000
46,80.000000,-22.000000
47,80.000000,-20.000000
48,100.000000,-22.000000
49,80.000000,-24.000000
50,80.000000,-24.000000
51,80.000000,-26.000000
52,40.000000,-22.000000
53,60.000000,-26.000000
54,60.000000,-26.000000
55,80.000000,-26.000000
56,60.000000,-26.000000
57,60.000000,-26.000000
58,20.000000,-26.000000
59,20.000000,-28.000000
60,40.000000,-28.000000
61,20.000000,-28.000000
62,0.000000,-30.000000
63,-20.000000,-28.000000
64,-20.000000,-28.000000
65,0.000000,-56.000000
66,-20.000000,-30.000000
67,-20.000000,-32.000000
68,-40.000000,-32.000000
69,-40.000000,-28.000000
70,-80.000000,-32.000000
71,-60.000000,-36.000000
72,-40.000000,-36.000000
73,-80.000000,-34.000000
74,-60.000000,-34.000000
75,-40.000000,-36.000000
76,-60.000000,-36.000000
77,-60.000000,-36.000000
78,-40.000000,-34.000000
79,-40.000000,-34.000000
80,-40.000000,-36.000000
81,-60.000000,-38.000000
82,-40.000000,-38.000000
83,-60.000000,-38.000000
84,-60.000000,-38.000000
85,-60.000000,-40.000000
86,-20.000000,-56.000000
87,-60.000000,-40.000000
88,-60.000000,-36.000000
89,-60.000000,-42.000000
90,-80.000000,-42.000000
91,-60.000000,-40.000000
92,-40.000000,-40.000000
93,-60.000000,-44.000000
94,-80.000000,-42.000000
95,-100.000000,-42.000000
96,-80.000000,-44.000000
97,-120.000000,-44.000000
98,-100.000000,-44.000000
99,-100.000000,-46.000000
100,-80.000000,-44.000000
101,-100.000000,-46.000000
102,-100.000000,-46.000000
103,-120.000000,-46.000000
104,-140.000000,-46.000000
105,-140.000000,-46.000000
106,-140.000000,-48.000000
107,-140.000000,-36.000000
108,-160.000000,-46.000000
109,-160.000000,-54.000000
110,-160.000000,-48.000000
111,-180.000000,-46.000000
112,-160.000000,-50.000000
113,-180.000000,-50.000000
114,-200.000000,-50.000000
115,-180.000000,-52.000000
116,-220.000000,-52.000000
117,-240.000000,-52.000000
118,-200.000000,-52.000000
119,-220.000000,-54.000000
120,-240.000000,-52.000000
121,-240.000000,-52.000000
122,-240.000000,-54.000000
123,-220.000000,-52.000000
124,-240.000000,-56.000000
125,-240.000000,-56.000000
126,-240.000000,-54.000000
127,-240.000000,-58.000000
128,-240.000000,-50.000000
129,-260.000000,-56.000000
130,-240.000000,-62.000000
131,-260.000000,-58.000000
132,-260.000000,-58.000000
133,-260.000000,-60.000000
134,-260.000000,-58.000000
135,-240.000000,-58.000000
136,-260.000000,-58.000000
137,-220.000000,-60.000000
138,-240.000000,-62.000000
139,-240.000000,-60.000000
140,-260.000000,-60.000000
141,-240.000000,-62.000000
142,-260.000000,-62.000000
143,-260.000000,-62.000000
144,-260.000000,-64.000000
145,-260.000000,-62.000000
146,-280.000000,-64.000000
147,-260.000000,-64.000000
148,-280.000000,-64.000000
149,-280.000000,-60.000000
150,-280.000000,-64.000000
151,-300.000000,-70.000000
152,-300.000000,-66.000000
153,-300.000000,-62.000000
154,-300.000000,-66.000000
155,-300.000000,-66.000000
156,-300.000000,-66.000000
157,-300.000000,-68.000000
158,-300.000000,-68.000000
159,-300.000000,-68.000000
160,-320.000000,-68.000000
161,-320.000000,-70.000000
162,-360.000000,-70.000000
163,-340.000000,-68.000000
164,-360.000000,-70.000000
165,-380.000000,-72.000000
166,-360.000000,-70.000000
167,-380.000000,-72.000000
168,-380.000000,-70.000000
169,-380.000000,-70.000000
170,-400.000000,-70.000000
171,-400.000000,-72.000000
172,-400.000000,-78.000000
173,-400.000000,-74.000000
174,-420.000000,-76.000000
175,-420.000000,-72.000000
176,-420.000000,-74.000000
177,-420.000000,-74.000000
178,-380.000000,-74.000000
179,-420.000000,-76.000000
180,-400.000000,-76.000000
181,-420.000000,-78.000000
182,-420.000000,-76.000000
183,-380.000000,-76.000000
184,-380.000000,-76.000000
185,-420.000000,-78.000000
186,-400.000000,-78.000000
187,-380.000000,-78.000000
188,-360.000000,-80.000000
189,-380.000000,-78.000000
190,-380.000000,-78.000000
191,-380.000000,-80.000000
192,-380.000000,-80.000000
193,-420.000000,-86.000000
194,-400.000000,-80.000000
195,-420.000000,-80.000000
196,-420.000000,-80.000000
197,-420.000000,-80.000000
198,-420.000000,-84.000000
199,-440.000000,-82.000000
200,-460.000000,-82.000000
201,-440.000000,-84.000000
202,-460.000000,-84.000000
203,-480.000000,-82.000000
204,-480.000000,-82.000000
205,-480.000000,-82.000000
206,-500.000000,-84.000000
207,-480.000000,-86.000000
208,-520.000000,-86.000000
209,-500.000000,-86.000000
210,-500.000000,-86.000000
211,-520.000000,-86.000000
212,-520.000000,-94.000000
213,-520.000000,-86.000000
214,-520.000000,-76.000000
215,-560.000000,-88.000000
216,-540.000000,-92.000000
217,-560.000000,-88.000000
218,-580.000000,-88.000000
219,-560.000000,-92.000000
220,-560.000000,-88.000000
221,-580.000000,-90.000000
222,-580.000000,-90.000000
223,-560.000000,-88.000000
224,-580.000000,-92.000000
225,-580.000000,-90.000000
226,-580.000000,-92.000000
227,-580.000000,-90.000000
228,-580.000000,-92.000000
229,-600.000000,-92.000000
230,-580.000000,-92.000000
231,-600.000000,-92.000000
232,-580.000000,-92.000000
233,-620.000000,-90.000000
234,-600.000000,-92.000000
235,-580.000000,-84.000000
236,-580.000000,-94.000000
237,-560.000000,-100.000000
238,-600.000000,-92.000000
239,-580.000000,-94.000000
240,-580.000000,-94.000000
241,-580.000000,-94.000000
242,-580.000000,-98.000000
243,-560.000000,-94.000000
244,-560.000000,-96.000000
245,-580.000000,-96.000000
246,-580.000000,-98.000000
247,-600.000000,-96.000000
248,-580.000000,-98.000000
249,-580.000000,-98.000000
250,-600.000000,-96.000000
251,-580.000000,-96.000000
252,-600.000000,-94.000000
253,-600.000000,-98.000000
254,-620.000000,-94.000000
255,-640.000000,-98.000000
256,-620.000000,-84.000000
257,-640.000000,-98.000000
258,-660.000000,-104.000000
259,-600.000000,-98.000000
260,-620.000000,-98.000000
261,-640.000000,-100.000000
262,-640.000000,-98.000000
263,-660.000000,-98.000000
264,-680.000000,-98.000000
265,-680.000000,-98.000000
266,-680.000000,-100.000000
267,-700.000000,-98.000000
268,-680.000000,-100.000000
269,-700.000000,-100.000000
270,-700.000000,-100.000000
271,-700.000000,-100.000000
272,-680.000000,-100.000000
273,-680.000000,-100.000000
274,-700.000000,-102.000000
275,-720.000000,-98.000000
276,-720.000000,-100.000000
277,-680.000000,-96.000000
278,-700.000000,-104.000000
279,-700.000000,-106.000000
280,-680.000000,-102.000000
281,-680.000000,-102.000000
282,-680.000000,-102.000000
283,-700.000000,-102.000000
284,-680.000000,-104.000000
285,-660.000000,-102.000000
286,-700.000000,-102.000000
287,-660.000000,-104.000000
288,-680.000000,-102.000000
289,-660.000000,-102.000000
290,-680.000000,-102.000000
291,-660.000000,-102.000000
292,-680.000000,-104.000000
293,-680.000000,-104.000000
294,-680.000000,-102.000000
295,-700.000000,-102.000000
296,-680.000000,-102.000000
297,-700.000000,-102.000000
298,-700.000000,-104.000000
299,-700.000000,-102.000000
300,-700.000000,-100.000000
301,-720.000000,-104.000000
302,-740.000000,-102.000000
303,-740.000000,-102.000000
304,-720.000000,-104.000000
305,-760.000000,-104.000000
306,-780.000000,-104.000000
307,-780.000000,-104.000000
308,-780.000000,-106.000000
309,-740.000000,-104.000000
310,-740.000000,-102.000000
311,-780.000000,-106.000000
312,-800.000000,-106.000000
313,-760.000000,-106.000000
314,-800.000000,-106.000000
315,-800.000000,-104.000000
316,-780.000000,-104.000000
317,-780.000000,-102.000000
318,-800.000000,-104.000000
319,-800.000000,-104.000000
320,-820.000000,-104.000000
321,-820.000000,-104.000000
322,-800.000000,-104.000000
323,-800.000000,-104.000000
324,-800.000000,-104.000000
325,-800.000000,-106.000000
326,-820.000000,-106.000000
327,-780.000000,-104.000000
328,-800.000000,-104.000000
329,-780.000000,-104.000000
330,-800.000000,-104.000000
331,-780.000000,-104.000000
332,-800.000000,-102.000000
333,-800.000000,-104.000000
334,-800.000000,-104.000000
335,-800.000000,-106.000000
336,-780.000000,-104.000000
337,-780.000000,-106.000000
338,-800.000000,-102.000000
339,-820.000000,-104.000000
340,-780.000000,-106.000000
341,-800.000000,-104.000000
342,-780.000000,-100.000000
343,-780.000000,-106.000000
344,-780.000000,-104.000000
345,-780.000000,-104.000000
346,-780.000000,-100.000000
347,-800.000000,-104.000000
348,-780.000000,-104.000000
349,-800.000000,-106.000000
350,-780.000000,-104.000000
351,-800.000000,-104.000000
352,-780.000000,-104.000000
353,-780.000000,-102.000000
354,-780.000000,-102.000000
355,-780.000000,-102.000000
356,-800.000000,-102.000000
357,-800.000000,-102.000000
358,-780.000000,-102.000000
359,-800.000000,-102.000000
360,-820.000000,-102.000000
361,-820.000000,-106.000000
362,-800.000000,-102.000000
363,-800.000000,-96.000000
364,-820.000000,-102.000000
365,-840.000000,-102.000000
366,-820.000000,-102.000000
367,-840.000000,-100.000000
368,-820.000000,-102.000000
369,-860.000000,-100.000000
370,-820.000000,-100.000000
371,-840.000000,-102.000000
372,-840.000000,-100.000000
373,-840.000000,-100.000000
374,-840.000000,-102.000000
375,-840.000000,-100.000000
376,-820.000000,-100.000000
377,-840.000000,-100.000000
378,-820.000000,-98.000000
379,-820.000000,-98.000000
380,-820.000000,-104.000000
381,-820.000000,-98.000000
382,-820.000000,-104.000000
383,-820.000000,-98.000000
384,-800.000000,-100.000000
385,-800.000000,-98.000000
386,-780.000000,-98.000000
387,-780.000000,-100.000000
388,-800.000000,-98.000000
389,-800.000000,-98.000000
390,-800.000000,-96.000000
391,-800.000000,-98.000000
392,-800.000000,-96.000000
393,-780.000000,-98.000000
394,-780.000000,-94.000000
395,-800.000000,-96.000000
396,-820.000000,-94.000000
397,-800.000000,-96.000000
398,-800.000000,-94.000000
399,-800.000000,-96.000000
400,-800.000000,-96.000000
401,-800.000000,-98.000000
402,-800.000000,-94.000000
403,-820.000000,-98.000000
404,-820.000000,-94.000000
405,-840.000000,-88.000000
406,-820.000000,-94.000000
407,-820.000000,-92.000000
408,-840.000000,-92.000000
409,-820.000000,-92.000000
410,-840.000000,-90.000000
411,-840.000000,-92.000000
412,-820.000000,-92.000000
413,-820.000000,-92.000000
414,-860.000000,-90.000000
415,-820.000000,-90.000000
416,-860.000000,-88.000000
417,-840.000000,-90.000000
418,-840.000000,-88.000000
419,-840.000000,-90.000000
420,-860.000000,-84.000000
421,-860.000000,-88.000000
422,-840.000000,-90.000000
423,-840.000000,-86.000000
424,-840.000000,-90.000000
425,-840.000000,-88.000000
426,-820.000000,-86.000000
427,-840.000000,-86.000000
428,-820.000000,-84.000000
429,-860.000000,-86.000000
430,-840.000000,-84.000000
431,-840.000000,-84.000000
432,-840.000000,-84.000000
433,-820.000000,-86.000000
434,-800.000000,-84.000000
435,-800.000000,-84.000000
436,-800.000000,-82.000000
437,-800.000000,-82.000000
438,-780.000000,-82.000000
439,-800.000000,-82.000000
440,-760.000000,-82.000000
441,-780.000000,-76.000000
442,-800.000000,-80.000000
443,-780.000000,-82.000000
444,-780.000000,-80.000000
445,-780.000000,-82.000000
446,-780.000000,-80.000000
447,-760.000000,-78.000000
448,-780.000000,-78.000000
449,-780.000000,-78.000000
450,-780.000000,-78.000000
451,-780.000000,-78.000000
452,-780.000000,-76.000000
453,-780.000000,-76.000000
454,-780.000000,-76.000000
455,-780.000000,-76.000000
456,-760.000000,-76.000000
457,-780.000000,-74.000000
458,-760.000000,-74.000000
459,-760.000000,-72.000000
460,-780.000000,-72.000000
461,-780.000000,-72.000000
462,-780.000000,-74.000000
463,-780.000000,-72.000000
464,-780.000000,-70.000000
465,-780.000000,-70.000000
466,-800.000000,-70.000000
467,-780.000000,-70.000000
468,-780.000000,-72.000000
469,-800.000000,-68.000000
470,-800.000000,-68.000000
471,-800.000000,-68.000000
472,-780.000000,-68.000000
473,-800.000000,-68.000000
474,-780.000000,-68.000000
475,-780.000000,-66.000000
476,-780.000000,-62.000000
477,-780.000000,-66.000000
478,-780.000000,-64.000000
479,-780.000000,-64.000000
480,-760.000000,-64.000000
481,-760.000000,-64.000000
482,-740.000000,-64.000000
483,-720.000000,-66.000000
484,-740.000000,-62.000000
485,-740.000000,-56.000000
486,-720.000000,-60.000000
487,-720.000000,-62.000000
488,-720.000000,-58.000000
489,-700.000000,-62.000000
490,-700.000000,-58.000000
491,-700.000000,-58.000000
492,-700.000000,-58.000000
493,-680.000000,-58.000000
494,-700.000000,-58.000000
495,-680.000000,-56.000000
496,-680.000000,-54.000000
497,-700.000000,-54.000000
498,-700.000000,-54.000000
499,-700.000000,-54.000000
500,-660.000000,-52.000000
501,-680.000000,-52.000000
502,-700.000000,-52.000000
503,-680.000000,-52.000000
504,-660.000000,-44.000000
505,-680.000000,-52.000000
506,-700.000000,-46.000000
507,-700.000000,-48.000000
508,-700.000000,-50.000000
509,-680.000000,-48.000000
510,-680.000000,-52.000000
511,-680.000000,-48.000000
512,-680.000000,-46.000000
513,-660.000000,-48.000000
514,-660.000000,-46.000000
515,-700.000000,-44.000000
516,-700.000000,-44.000000
517,-700.000000,-44.000000
518,-700.000000,-46.000000
519,-700.000000,-42.000000
520,-700.000000,-44.000000
521,-700.000000,-40.000000
522,-700.000000,-42.000000
523,-680.000000,-42.000000
524,-680.000000,-42.000000
525,-680.000000,-50.000000
526,-680.000000,-40.000000
527,-660.000000,-36.000000
528,-660.000000,-38.000000
529,-660.000000,-38.000000
530,-660.000000,-38.000000
531,-640.000000,-38.000000
532,-640.000000,-36.000000
533,-660.000000,-36.000000
534,-660.000000,-36.000000
535,-620.000000,-34.000000
536,-600.000000,-36.000000
537,-600.000000,-34.000000
538,-640.000000,-32.000000
539,-620.000000,-32.000000
540,-640.000000,-32.000000
541,-600.000000,-30.000000
542,-620.000000,-30.000000
543,-600.000000,-30.000000
544,-600.000000,-30.000000
545,-580.000000,-32.000000
546,-580.000000,-22.000000
547,-560.000000,-28.000000
548,-560.000000,-22.000000
549,-560.000000,-24.000000
550,-580.000000,-24.000000
551,-560.000000,-28.000000
552,-580.000000,-26.000000
553,-580.000000,-24.000000
554,-540.000000,-22.000000
555,-560.000000,-22.000000
556,-560.000000,-22.000000
557,-540.000000,-22.000000
558,-540.000000,-22.000000
559,-540.000000,-20.000000
560,-560.000000,-20.000000
561,-540.000000,-18.000000
562,-540.000000,-18.000000
563,-560.000000,-18.000000
564,-560.000000,-18.000000
565,-540.000000,-16.000000
566,-580.000000,-18.000000
567,-540.000000,-18.000000
568,-560.000000,-16.000000
569,-560.000000,-14.000000
570,-560.000000,-18.000000
571,-560.000000,-10.000000
572,-540.000000,-14.000000
573,-520.000000,-12.000000
574,-560.000000,-10.000000
575,-540.000000,-12.000000
576,-540.000000,-12.000000
577,-500.000000,-10.000000
578,-520.000000,-8.000000
579,-520.000000,-10.000000
580,-500.000000,-8.000000
581,-500.000000,-8.000000
582,-480.000000,-8.000000
583,-480.000000,-8.000000
584,-460.000000,-6.000000
585,-460.000000,-6.000000
586,-480.000000,-6.000000
587,-440.000000,-4.000000
588,-420.000000,-16.000000
589,-440.000000,-2.000000
590,-420.000000,-4.000000
591,-400.000000,-4.000000
592,-400.000000,2.000000
593,-420.000000,-2.000000
594,-400.000000,-4.000000
595,-420.000000,0.000000
596,-380.000000,-2.000000
597,-380.000000,0.000000
598,-380.000000,2.000000
599,-400.000000,2.000000
600,-400.000000,2.000000
601,-420.000000,4.000000
602,-400.000000,2.000000
603,-400.000000,4.000000
604,-400.000000,6.000000
605,-380.000000,4.000000
606,-400.000000,4.000000
607,-400.000000,6.000000
608,-380.000000,6.000000
609,-400.000000,-6.000000
610,-380.000000,8.000000
611,-380.000000,8.000000
612,-400.000000,6.000000
613,-380.000000,12.000000
614,-420.000000,8.000000
615,-400.000000,8.000000
616,-400.000000,12.000000
617,-360.000000,10.000000
618,-380.000000,10.000000
619,-380.000000,12.000000
620,-400.000000,14.000000
621,-380.000000,12.000000
622,-360.000000,12.000000
623,-360.000000,12.000000
624,-360.000000,14.000000
625,-340.000000,14.000000
626,-360.000000,14.000000
627,-360.000000,18.000000
628,-340.000000,16.000000
629,-360.000000,18.000000
630,-340.000000,10.000000
631,-340.000000,20.000000
632,-340.000000,22.000000
633,-320.000000,18.000000
634,-300.000000,18.000000
635,-280.000000,20.000000
636,-280.000000,20.000000
637,-300.000000,22.000000
638,-300.000000,22.000000
639,-280.000000,20.000000
640,-280.000000,22.000000
641,-300.000000,22.000000
642,-280.000000,24.000000
643,-280.000000,20.000000
644,-260.000000,24.000000
645,-220.000000,28.000000
646,-240.000000,26.000000
647,-260.000000,26.000000
648,-220.000000,28.000000
649,-220.000000,24.000000
650,-220.000000,28.000000
651,-220.000000,4.000000
652,-220.000000,28.000000
653,-240.000000,30.000000
654,-220.000000,28.000000
655,-220.000000,26.000000
656,-200.000000,30.000000
657,-220.000000,30.000000
658,-200.000000,32.000000
659,-200.000000,32.000000
660,-200.000000,34.000000
661,-220.000000,32.000000
662,-200.000000,34.000000
663,-200.000000,34.000000
664,-220.000000,34.000000
665,-220.000000,34.000000
666,-240.000000,36.000000
667,-220.000000,36.000000
668,-220.000000,36.000000
669,-200.000000,36.000000
670,-200.000000,36.000000
671,-200.000000,36.000000
672,-180.000000,56.000000
673,-220.000000,38.000000
674,-200.000000,40.000000
675,-180.000000,38.000000
676,-180.000000,40.000000
677,-140.000000,40.000000
678,-140.000000,40.000000
679,-140.000000,42.000000
680,-100.000000,44.000000
681,-120.000000,42.000000
682,-140.000000,42.000000
683,-100.000000,42.000000
684,-100.000000,42.000000
685,-100.000000,44.000000
686,-80.000000,44.000000
687,-60.000000,44.000000
688,-60.000000,46.000000
689,-80.000000,44.000000
690,-60.000000,44.000000
691,-40.000000,48.000000
692,-40.000000,46.000000
693,-60.000000,58.000000
694,-60.000000,48.000000
695,-20.000000,48.000000
696,-40.000000,50.000000
697,-20.000000,52.000000
698,-40.000000,48.000000
699,-40.000000,50.000000
700,-40.000000,50.000000
701,-40.000000,52.000000
702,-60.000000,50.000000
703,-20.000000,52.000000
704,-40.000000,50.000000
705,-40.000000,50.000000
706,-20.000000,52.000000
707,-40.000000,54.000000
708,-40.000000,52.000000
709,-40.000000,52.000000
710,-40.000000,54.000000
711,-20.000000,54.000000
712,-20.000000,54.000000
713,-20.000000,54.000000
714,-60.000000,66.000000
715,-40.000000,58.000000
716,-40.000000,54.000000
717,-20.000000,56.000000
718,-40.000000,58.000000
719,-20.000000,58.000000
720,-20.000000,56.000000
721,0.000000,60.000000
722,20.000000,60.000000
723,0.000000,60.000000
724,0.000000,58.000000
725,20.000000,58.000000
726,20.000000,58.000000
727,0.000000,60.000000
728,40.000000,62.000000
729,20.000000,60.000000
730,40.000000,60.000000
731,60.000000,60.000000
732,40.000000,60.000000
733,60.000000,62.000000
734,80.000000,62.000000
735,60.000000,72.000000
736,80.000000,64.000000
737,60.000000,60.000000
738,80.000000,62.000000
739,80.000000,68.000000
740,100.000000,64.000000
741,60.000000,66.000000
742,100.000000,66.000000
743,100.000000,66.000000
744,100.000000,66.000000
