lab2_frequencies/0.4Hz.csv

Channel              :,CH1,CH2
Frequency            :,  ?,  ?
Period               :,  ?,  ?
PK-PK                :,334.0mV,66.00mV
Probe attenuation    :,1X,1X
Voltage per ADC value:,0.125000mV,0.025000mV
Time interval        :,4000.00000uS,4000.00000uS

index,CH1_Voltage(mV),CH2_Voltage(mV)
1,-56.000000,19.200001
2,-56.000000,19.200001
3,-52.000000,-2.000000
4,-48.000000,-2.400000
5,-46.000000,-0.400000
6,-52.000000,-1.600000
7,-44.000000,-1.200000
8,-44.000000,-1.600000
9,-58.000000,-24.000000
10,-52.000000,-1.200000
11,-72.000000,-1.200000
12,-52.000000,-0.400000
13,-52.000000,-2.000000
14,-60.000000,-1.200000
15,-54.000000,-2.000000
16,-72.000000,-8.400000
17,-38.000000,-1.600000
18,-56.000000,-1.600000
19,-46.000000,-1.600000
20,-52.000000,-2.000000
21,-74.000000,-2.000000
22,-64.000000,-0.800000
23,-98.000000,-4.400000
24,-70.000000,-2.000000
25,-44.000000,-0.400000
26,-152.000000,-1.200000
27,-88.000000,-2.400000
28,-120.000000,-2.000000
29,-62.000000,-1.200000
30,-86.000000,-2.400000
31,-180.000000,-0.800000
32,-222.000000,-0.800000
33,-170.000000,-2.000000
34,-98.000000,-1.600000
35,-60.000000,-1.200000
36,-68.000000,-1.600000
37,-62.000000,0.000000
38,-62.000000,-2.000000
39,-64.000000,0.400000
40,-66.000000,-0.800000
41,-66.000000,-0.800000
42,-66.000000,-0.800000
43,-74.000000,0.000000
44,-62.000000,-2.800000
45,-70.000000,-0.400000
46,-76.000000,-0.400000
47,-66.000000,-1.600000
48,-68.000000,-0.400000
49,-66.000000,-1.600000
50,-62.000000,-1.200000
51,-72.000000,-1.600000
52,-60.000000,-0.400000
53,-76.000000,-2.000000
54,-64.000000,0.000000
55,-62.000000,-0.400000
56,-72.000000,-1.600000
57,-72.000000,-0.400000
58,-72.000000,-0.400000
59,-62.000000,-1.200000
60,-66.000000,0.400000
61,-80.000000,-1.600000
62,-68.000000,0.000000
63,-74.000000,-0.800000
64,-84.000000,-0.800000
65,-70.000000,-4.000000
66,-86.000000,-0.400000
67,-66.000000,-1.200000
68,-84.000000,-0.400000
69,-60.000000,-0.400000
70,-78.000000,-2.400000
71,-78.000000,-0.400000
72,-62.000000,-6.400000
73,-78.000000,-0.400000
74,-80.000000,-0.800000
75,-66.000000,-0.400000
76,-86.000000,0.400000
77,-78.000000,0.000000
78,-78.000000,0.000000
79,-62.000000,3.600000
80,-74.000000,0.000000
81,-82.000000,-0.400000
82,-74.000000,-0.800000
83,-72.000000,-1.200000
84,-80.000000,-1.200000
85,-80.000000,-0.400000
86,-84.000000,-1.200000
87,-70.000000,-0.400000
88,-88.000000,-1.200000
89,-70.000000,-0.400000
90,-74.000000,0.400000
91,-76.000000,0.400000
92,-78.000000,-0.400000
93,-74.000000,-0.400000
94,-86.000000,-0.400000
95,-68.000000,0.000000
96,-90.000000,-1.200000
97,-90.000000,1.200000
98,-84.000000,-1.200000
99,-68.000000,-1.200000
100,-80.000000,-6.000000
101,-84.000000,0.000000
102,-80.000000,0.800000
103,-76.000000,-0.800000
104,-64.000000,-0.400000
105,-80.000000,-0.400000
106,-78.000000,-0.400000
107,-72.000000,0.800000
108,-78.000000,-2.000000
109,-70.000000,1.200000
110,-72.000000,0.000000
111,-94.000000,-1.200000
112,-74.000000,0.400000
113,-72.000000,-0.800000
114,-80.000000,-7.200000
115,-80.000000,0.000000
116,-78.000000,0.800000
117,-70.000000,0.800000
118,-80.000000,-0.400000
119,-76.000000,0.400000
120,-82.000000,0.400000
121,-86.000000,25.200001
122,-68.000000,1.600000
123,-80.000000,-3.200000
124,-64.000000,0.000000
125,-74.000000,-0.400000
126,-80.000000,-0.400000
127,-80.000000,-0.400000
128,-82.000000,-0.400000
129,-76.000000,0.800000
130,-76.000000,-2.800000
131,-86.000000,0.400000
132,-68.000000,-0.400000
133,-72.000000,-0.800000
134,-72.000000,0.800000
135,-70.000000,0.400000
136,-98.000000,-0.400000
137,-68.000000,-5.600000
138,-72.000000,0.000000
139,-80.000000,1.200000
140,-72.000000,0.400000
141,-92.000000,0.800000
142,-80.000000,0.000000
143,-72.000000,-0.400000
144,-78.000000,0.800000
145,-66.000000,0.400000
146,-92.000000,0.800000
147,-64.000000,0.800000
148,-74.000000,-0.400000
149,-78.000000,0.400000
150,-80.000000,0.000000
151,-74.000000,10.000000
152,-74.000000,-0.800000
153,-70.000000,1.200000
154,-62.000000,0.800000
155,-74.000000,0.000000
156,-78.000000,0.800000
157,-82.000000,0.800000
158,-82.000000,0.000000
159,-72.000000,0.400000
160,-74.000000,-6.400000
161,-76.000000,0.800000
162,-72.000000,0.000000
163,-72.000000,1.200000
164,-74.000000,1.200000
165,-62.000000,1.200000
166,-86.000000,1.200000
167,-56.000000,1.200000
168,-72.000000,0.800000
169,-78.000000,1.600000
170,-70.000000,0.000000
171,-90.000000,0.800000
172,-74.000000,1.600000
173,-80.000000,1.200000
174,-62.000000,4.000000
175,-68.000000,0.400000
176,-76.000000,1.200000
177,-66.000000,0.400000
178,-78.000000,1.600000
179,-58.000000,0.400000
180,-56.000000,0.400000
181,-72.000000,6.000000
182,-56.000000,0.800000
183,-56.000000,-1.200000
184,-62.000000,1.600000
185,-56.000000,0.000000
186,-66.000000,2.400000
187,-60.000000,0.400000
188,-60.000000,2.000000
189,-48.000000,1.600000
190,-66.000000,0.400000
191,-68.000000,2.000000
192,-62.000000,1.600000
193,-66.000000,1.600000
194,-64.000000,2.000000
195,-62.000000,1.200000
196,-66.000000,1.600000
197,-54.000000,-5.200000
198,-64.000000,1.200000
199,-56.000000,1.600000
200,-56.000000,1.200000
201,-62.000000,2.800000
202,-46.000000,0.800000
203,-70.000000,0.800000
204,-52.000000,2.800000
205,-52.000000,1.200000
206,-66.000000,0.400000
207,-60.000000,2.000000
208,-52.000000,0.400000
209,-56.000000,0.800000
210,-46.000000,1.200000
211,-66.000000,-1.200000
212,-50.000000,1.600000
213,-60.000000,1.200000
214,-62.000000,2.800000
215,-52.000000,1.200000
216,-60.000000,1.200000
217,-54.000000,2.400000
218,-52.000000,1.600000
219,-46.000000,2.400000
220,-44.000000,2.400000
221,-56.000000,2.000000
222,-34.000000,1.600000
223,-58.000000,1.600000
224,-46.000000,2.000000
225,-54.000000,2.400000
226,-50.000000,2.000000
227,-44.000000,-3.200000
228,-50.000000,2.400000
229,-46.000000,2.400000
230,-48.000000,1.200000
231,-54.000000,0.400000
232,-48.000000,1.600000
233,-40.000000,1.600000
234,-42.000000,-2.400000
235,-46.000000,2.400000
236,-52.000000,1.200000
237,-42.000000,1.600000
238,-42.000000,1.600000
239,-40.000000,1.600000
240,-36.000000,1.200000
241,-58.000000,-15.600000
242,-40.000000,1.600000
243,-46.000000,1.600000
244,-44.000000,2.000000
245,-40.000000,1.200000
246,-44.000000,2.000000
247,-38.000000,1.600000
248,-38.000000,1.600000
249,-38.000000,1.600000
250,-40.000000,4.800000
251,-34.000000,1.600000
252,-32.000000,1.200000
253,-34.000000,2.400000
254,-24.000000,2.400000
255,-36.000000,2.400000
256,-32.000000,2.000000
257,-26.000000,-1.600000
258,-34.000000,2.800000
259,-34.000000,1.600000
260,-38.000000,1.600000
261,-40.000000,2.000000
262,-30.000000,1.600000
263,-26.000000,2.400000
264,-34.000000,0.400000
265,-32.000000,0.800000
266,-36.000000,3.200000
267,-32.000000,2.000000
268,-28.000000,2.400000
269,-16.000000,1.200000
270,-20.000000,2.400000
271,-32.000000,0.000000
272,-18.000000,2.000000
273,-26.000000,2.000000
274,-16.000000,2.000000
275,-26.000000,1.600000
276,-22.000000,1.600000
277,-8.000000,1.200000
278,-18.000000,12.000000
279,-20.000000,2.000000
280,-22.000000,2.400000
281,-32.000000,1.200000
282,-22.000000,2.800000
283,-18.000000,0.800000
284,-16.000000,1.600000
285,-12.000000,-2.400000
286,-30.000000,2.400000
287,10.000000,3.200000
288,-18.000000,2.400000
289,-12.000000,2.000000
290,-12.000000,1.600000
291,-22.000000,0.800000
292,-14.000000,-2.000000
293,-12.000000,0.400000
294,-16.000000,2.000000
295,-14.000000,2.000000
296,-10.000000,2.800000
297,-14.000000,1.600000
298,-18.000000,1.600000
299,4.000000,4.800000
300,-8.000000,1.600000
301,-16.000000,2.400000
302,-4.000000,1.600000
303,-6.000000,2.400000
304,-2.000000,1.200000
305,-6.000000,1.600000
306,-14.000000,2.800000
307,4.000000,2.000000
308,4.000000,2.400000
309,8.000000,2.400000
310,-4.000000,2.400000
311,-8.000000,1.600000
312,10.000000,2.000000
313,-4.000000,6.400000
314,2.000000,1.200000
315,8.000000,2.800000
316,-8.000000,1.200000
317,14.000000,1.200000
318,-6.000000,0.800000
319,2.000000,0.000000
320,10.000000,-3.200000
321,-4.000000,1.600000
322,16.000000,2.400000
323,12.000000,1.600000
324,10.000000,1.600000
325,2.000000,1.600000
326,4.000000,1.200000
327,8.000000,-10.400000
328,4.000000,0.800000
329,12.000000,-0.800000
330,22.000000,1.600000
331,6.000000,2.000000
332,30.000000,2.000000
333,2.000000,2.000000
334,24.000000,6.800000
335,16.000000,2.800000
336,20.000000,-1.600000
337,18.000000,1.200000
338,8.000000,2.000000
339,30.000000,2.000000
340,20.000000,2.000000
341,8.000000,2.000000
342,22.000000,2.000000
343,20.000000,0.800000
344,40.000000,2.000000
345,36.000000,1.600000
346,16.000000,2.000000
347,42.000000,3.200000
348,30.000000,1.600000
349,38.000000,2.000000
350,34.000000,-1.600000
351,8.000000,2.000000
352,28.000000,2.000000
353,34.000000,1.200000
354,32.000000,1.600000
355,36.000000,1.200000
356,30.000000,0.800000
357,32.000000,3.200000
358,30.000000,1.600000
359,36.000000,2.400000
360,40.000000,1.200000
361,26.000000,1.600000
362,42.000000,1.600000
363,46.000000,2.400000
364,38.000000,1.200000
365,34.000000,2.400000
366,32.000000,4.800000
367,28.000000,1.600000
368,40.000000,2.800000
369,40.000000,1.600000
370,52.000000,2.000000
371,36.000000,1.200000
372,46.000000,2.400000
373,34.000000,4.800000
374,52.000000,1.600000
375,40.000000,1.200000
376,34.000000,1.200000
377,46.000000,0.800000
378,40.000000,1.200000
379,52.000000,0.800000
380,50.000000,1.200000
381,48.000000,1.600000
382,68.000000,3.600000
383,46.000000,2.400000
384,52.000000,2.400000
385,50.000000,1.200000
386,46.000000,1.200000
387,58.000000,0.400000
388,38.000000,0.400000
389,68.000000,6.800000
390,44.000000,0.000000
391,40.000000,0.800000
392,62.000000,1.200000
393,52.000000,0.800000
394,68.000000,1.200000
395,50.000000,1.600000
396,56.000000,1.600000
397,64.000000,1.600000
398,44.000000,4.000000
399,64.000000,0.800000
400,48.000000,2.400000
401,48.000000,2.000000
402,68.000000,1.600000
403,48.000000,1.200000
404,66.000000,1.200000
405,56.000000,0.400000
406,48.000000,0.400000
407,70.000000,0.000000
408,62.000000,0.800000
409,66.000000,0.000000
410,56.000000,1.200000
411,54.000000,1.200000
412,78.000000,1.200000
413,58.000000,1.200000
414,74.000000,-4.800000
415,74.000000,0.400000
416,52.000000,1.600000
417,80.000000,0.800000
418,64.000000,0.800000
419,66.000000,1.200000
420,66.000000,1.200000
421,64.000000,-6.000000
422,80.000000,2.000000
423,62.000000,2.400000
424,82.000000,0.000000
425,68.000000,0.800000
426,68.000000,0.800000
427,78.000000,1.200000
428,78.000000,0.400000
429,76.000000,0.400000
430,72.000000,4.000000
431,66.000000,1.200000
432,76.000000,0.000000
433,66.000000,0.400000
434,80.000000,1.600000
435,76.000000,0.400000
436,66.000000,1.200000
437,92.000000,1.600000
438,68.000000,1.200000
439,96.000000,2.800000
440,74.000000,0.800000
441,72.000000,0.800000
442,76.000000,0.400000
443,78.000000,0.800000
444,74.000000,1.200000
445,90.000000,0.400000
446,70.000000,2.800000
447,78.000000,0.800000
448,68.000000,-1.200000
449,86.000000,0.400000
450,64.000000,-0.800000
451,66.000000,0.800000
452,90.000000,0.800000
453,68.000000,0.000000
454,78.000000,0.800000
455,72.000000,-0.800000
456,78.000000,0.800000
457,94.000000,2.400000
458,78.000000,-0.400000
459,102.000000,0.000000
460,86.000000,0.400000
461,84.000000,0.400000
462,90.000000,3.200000
463,74.000000,1.200000
464,92.000000,1.200000
465,92.000000,0.000000
466,82.000000,1.200000
467,98.000000,0.000000
468,78.000000,0.000000
469,86.000000,0.800000
470,78.000000,0.400000
471,74.000000,2.800000
472,68.000000,0.400000
473,66.000000,0.800000
474,90.000000,-0.400000
475,72.000000,0.800000
476,76.000000,0.400000
477,92.000000,-0.400000
478,76.000000,-5.600000
479,104.000000,0.000000
480,90.000000,1.200000
481,80.000000,0.800000
482,102.000000,-1.200000
483,84.000000,0.400000
484,98.000000,-0.400000
485,82.000000,0.800000
486,86.000000,0.800000
487,92.000000,2.800000
488,84.000000,1.200000
489,102.000000,1.600000
490,92.000000,-0.400000
491,84.000000,0.400000
492,104.000000,0.000000
493,86.000000,-0.400000
494,94.000000,-5.200000
495,82.000000,0.400000
496,66.000000,1.200000
497,88.000000,0.000000
498,70.000000,-1.200000
499,84.000000,0.800000
500,82.000000,0.000000
501,84.000000,0.400000
502,102.000000,0.400000
503,98.000000,-0.800000
504,94.000000,-0.400000
505,102.000000,1.600000
506,88.000000,-0.400000
507,104.000000,0.000000
508,74.000000,-0.800000
509,98.000000,-1.200000
510,100.000000,1.600000
511,100.000000,0.400000
512,94.000000,-2.400000
513,88.000000,0.000000
514,100.000000,-0.400000
515,98.000000,0.400000
516,100.000000,0.800000
517,112.000000,-0.400000
518,90.000000,0.000000
519,82.000000,-0.400000
520,80.000000,-0.400000
521,72.000000,0.400000
522,76.000000,0.400000
523,76.000000,0.800000
524,106.000000,0.400000
525,88.000000,-0.800000
526,76.000000,-2.000000
527,94.000000,-1.200000
528,90.000000,-0.800000
529,106.000000,-0.800000
530,92.000000,-0.800000
531,84.000000,-0.400000
532,100.000000,0.000000
533,92.000000,-0.400000
534,114.000000,-0.400000
535,98.000000,-3.600000
536,100.000000,-0.400000
537,100.000000,0.400000
538,96.000000,-0.400000
539,96.000000,0.000000
540,86.000000,-0.800000
541,68.000000,0.400000
542,92.000000,-2.400000
543,74.000000,0.400000
544,102.000000,-0.400000
545,76.000000,-1.200000
546,92.000000,-0.800000
547,98.000000,-0.800000
548,80.000000,-1.200000
549,94.000000,0.400000
550,84.000000,0.000000
551,76.000000,2.000000
552,90.000000,-1.200000
553,90.000000,0.000000
554,82.000000,-2.000000
555,86.000000,0.400000
556,78.000000,-1.200000
557,100.000000,-0.800000
558,78.000000,1.600000
559,72.000000,-0.400000
560,68.000000,-0.400000
561,66.000000,-0.800000
562,70.000000,-0.800000
563,62.000000,-1.200000
564,88.000000,-0.800000
565,98.000000,29.600000
566,84.000000,-0.400000
567,96.000000,-8.800000
568,92.000000,-0.400000
569,108.000000,0.000000
570,90.000000,-1.200000
571,76.000000,-0.400000
572,94.000000,-0.800000
573,86.000000,-0.800000
574,92.000000,-4.800000
575,82.000000,-0.800000
576,90.000000,-1.200000
577,98.000000,-1.200000
578,76.000000,-1.600000
579,98.000000,-2.000000
580,94.000000,-2.000000
581,74.000000,-3.200000
582,90.000000,-1.600000
583,78.000000,-4.800000
584,100.000000,-1.200000
585,84.000000,-1.200000
586,76.000000,-0.400000
587,104.000000,-1.200000
588,92.000000,-2.400000
589,98.000000,-2.000000
590,86.000000,4.400000
591,78.000000,-2.400000
592,92.000000,-2.000000
593,84.000000,-2.800000
594,106.000000,-1.200000
595,80.000000,-1.600000
596,70.000000,-2.000000
597,88.000000,0.000000
598,82.000000,-1.600000
599,102.000000,-1.200000
600,92.000000,-1.200000
601,86.000000,-2.400000
602,82.000000,-2.000000
603,78.000000,-2.000000
604,92.000000,-2.800000
605,78.000000,0.000000
606,72.000000,-2.800000
607,82.000000,-1.200000
608,82.000000,-0.400000
609,92.000000,-1.200000
610,88.000000,-2.000000
611,84.000000,-1.600000
612,92.000000,-2.400000
613,70.000000,-0.800000
614,100.000000,-2.000000
615,74.000000,-3.600000
616,88.000000,-1.200000
617,72.000000,-2.000000
618,64.000000,-1.200000
619,84.000000,-1.200000
620,88.000000,-2.000000
621,82.000000,-1.600000
622,74.000000,-1.600000
623,74.000000,-1.600000
624,86.000000,-0.400000
625,80.000000,-1.600000
626,68.000000,-2.400000
627,66.000000,-1.600000
628,72.000000,-2.800000
629,80.000000,5.200000
630,64.000000,-2.000000
631,62.000000,-7.200000
632,64.000000,-0.800000
633,62.000000,-2.400000
634,70.000000,-1.600000
635,64.000000,-1.200000
636,48.000000,-1.600000
637,66.000000,-1.600000
638,56.000000,2.400000
639,80.000000,-3.600000
640,56.000000,-3.200000
641,58.000000,-2.000000
642,76.000000,-2.800000
643,60.000000,-1.200000
644,84.000000,-2.400000
645,70.000000,-1.200000
646,54.000000,-1.600000
647,70.000000,-8.000000
648,58.000000,-2.000000
649,64.000000,-1.600000
650,56.000000,-2.400000
651,54.000000,-1.200000
652,70.000000,-1.200000
653,50.000000,-2.400000
654,66.000000,-1.600000
655,58.000000,-1.600000
656,60.000000,-2.400000
657,66.000000,-1.600000
658,64.000000,-1.200000
659,66.000000,-2.400000
660,62.000000,-0.800000
661,56.000000,-1.200000
662,56.000000,-3.200000
663,48.000000,-0.800000
664,58.000000,-2.800000
665,44.000000,-6.000000
666,44.000000,-1.600000
667,50.000000,-1.600000
668,40.000000,-3.200000
669,66.000000,-1.600000
670,56.000000,-1.200000
671,40.000000,-3.600000
672,44.000000,-6.800000
673,38.000000,-2.400000
674,56.000000,-3.600000
675,48.000000,-2.000000
676,44.000000,-2.800000
677,56.000000,-2.000000
678,30.000000,-2.000000
679,56.000000,-3.200000
680,38.000000,-1.600000
681,36.000000,-2.400000
682,48.000000,-3.200000
683,32.000000,-3.200000
684,58.000000,-1.200000
685,42.000000,-2.000000
686,36.000000,-2.000000
687,48.000000,-2.000000
688,44.000000,-2.800000
689,48.000000,-2.000000
690,46.000000,-5.600000
691,28.000000,-2.000000
692,46.000000,-1.600000
693,46.000000,-2.000000
694,56.000000,-2.400000
695,42.000000,-2.400000
696,20.000000,-3.200000
697,46.000000,-1.600000
698,28.000000,-2.400000
699,54.000000,2.800000
700,24.000000,-2.400000
701,22.000000,-1.200000
702,38.000000,-2.000000
703,28.000000,-3.200000
704,38.000000,-2.000000
705,20.000000,-1.600000
706,32.000000,-2.400000
707,30.000000,-1.600000
708,18.000000,-8.400000
709,40.000000,-2.400000
710,28.000000,-2.000000
711,26.000000,-2.400000
712,46.000000,-2.400000
713,16.000000,-2.000000
714,22.000000,-1.600000
715,24.000000,-1.600000
716,8.000000,-1.200000
717,30.000000,-2.400000
718,8.000000,-2.000000
719,34.000000,-1.600000
720,24.000000,-3.200000
721,12.000000,-2.800000
722,34.000000,-2.000000
723,8.000000,-2.800000
724,24.000000,-1.600000
725,10.000000,-2.000000
726,14.000000,-2.400000
727,26.000000,-3.200000
728,0.000000,-1.600000
729,30.000000,-3.200000
730,8.000000,-2.000000
731,8.000000,-2.000000
732,22.000000,-2.800000
733,8.000000,6.400000
734,28.000000,-1.200000
735,2.000000,0.800000
736,-2.000000,-2.000000
737,22.000000,-1.200000
738,16.000000,-1.600000
739,6.000000,-1.600000
740,14.000000,-2.400000
741,4.000000,-2.400000
742,20.000000,-26.799999
743,4.000000,-2.800000
744,10.000000,-10.000000
745,14.000000,-1.600000
746,0.000000,-2.000000
747,14.000000,-2.000000
748,-2.000000,-2.000000
749,2.000000,-2.800000
750,-16.000000,-2.000000
751,0.000000,-9.600000
752,10.000000,-2.000000
753,-12.000000,1.200000
754,10.000000,-2.000000
755,-2.000000,-1.600000
756,0.000000,-1.600000
757,10.000000,-2.800000
758,-16.000000,-2.000000
759,-14.000000,-2.800000
760,-4.000000,-3.600000
761,-16.000000,-3.200000
762,8.000000,-1.200000
763,-20.000000,-1.200000
764,-4.000000,-2.400000
765,-8.000000,-2.000000
766,-14.000000,-2.000000
767,-10.000000,-2.400000
768,-16.000000,-3.600000
769,-12.000000,-4.400000
770,-10.000000,-2.000000
771,-18.000000,-4.000000
772,-6.000000,-2.000000
773,-14.000000,-2.400000
774,2.000000,-2.800000
775,-22.000000,-1.200000
776,-26.000000,-2.000000
777,-4.000000,-1.600000
778,-30.000000,-0.400000
779,0.000000,-3.200000
780,-16.000000,-1.600000
781,-20.000000,-1.200000
782,-4.000000,-2.400000
783,-26.000000,-3.200000
784,-12.000000,-1.200000
785,-22.000000,-2.000000
786,-36.000000,-2.000000
787,-20.000000,0.000000
788,-36.000000,-2.000000
789,-6.000000,-0.400000
790,-38.000000,-1.200000
791,-28.000000,-2.400000
792,-16.000000,-2.000000
793,-36.000000,-1.600000
794,-20.000000,-1.200000
795,-32.000000,-2.800000
796,-40.000000,-0.400000
797,-20.000000,-2.400000
798,-32.000000,-1.600000
799,-16.000000,-2.000000
800,-18.000000,-2.000000
801,-36.000000,-1.600000
802,-32.000000,-0.800000
803,-46.000000,-2.000000
804,-38.000000,-2.000000
805,-42.000000,-0.800000
806,-44.000000,-2.400000
807,-24.000000,-2.000000
808,-38.000000,-2.000000
809,-18.000000,-3.200000
810,-40.000000,-1.200000
811,-38.000000,-1.600000
812,-22.000000,-2.000000
813,-48.000000,-1.600000
814,-22.000000,-7.600000
815,-50.000000,-3.200000
816,-42.000000,-1.200000
817,-42.000000,-1.600000
818,-50.000000,-2.000000
819,-46.000000,-1.600000
820,-52.000000,-0.800000
821,-52.000000,-1.200000
822,-46.000000,-1.600000
823,-60.000000,-6.800000
824,-28.000000,-1.600000
825,-50.000000,-0.400000
826,-42.000000,-1.600000
