lab2_frequencies/0.5Hz.csv

Channel              :,CH1,CH2
Frequency            :,  ?,  ?
Period               :,  ?,  ?
PK-PK                :,440.0mV,70.80mV
Probe attenuation    :,1X,1X
Voltage per ADC value:,0.250000mV,0.025000mV
Time interval        :,4000.00000uS,4000.00000uS

index,CH1_Voltage(mV),CH2_Voltage(mV)
1,-112.000000,0.800000
2,-112.000000,0.800000
3,-112.000000,-1.200000
4,-124.000000,1.600000
5,-112.000000,0.000000
6,-132.000000,2.400000
7,-120.000000,0.400000
8,-120.000000,2.000000
9,-96.000000,1.600000
10,-132.000000,0.400000
11,-136.000000,2.000000
12,-124.000000,1.600000
13,-132.000000,1.600000
14,-128.000000,2.000000
15,-124.000000,1.200000
16,-132.000000,1.600000
17,-108.000000,-5.200000
18,-128.000000,1.200000
19,-112.000000,1.600000
20,-112.000000,1.200000
21,-124.000000,2.800000
22,-92.000000,0.800000
23,-140.000000,0.800000
24,-104.000000,2.800000
25,-104.000000,1.200000
26,-132.000000,0.400000
27,-120.000000,2.000000
28,-104.000000,0.400000
29,-112.000000,0.800000
30,-92.000000,1.200000
31,-132.000000,-1.200000
32,-100.000000,1.600000
33,-120.000000,1.200000
34,-124.000000,2.800000
35,-104.000000,1.200000
36,-120.000000,1.200000
37,-108.000000,2.400000
38,-104.000000,1.600000
39,-92.000000,2.400000
40,-88.000000,2.400000
41,-112.000000,2.000000
42,-68.000000,1.600000
43,-116.000000,1.600000
44,-92.000000,2.000000
45,-108.000000,2.400000
46,-100.000000,2.000000
47,-88.000000,-3.200000
48,-100.000000,2.400000
49,-92.000000,2.400000
50,-96.000000,1.200000
51,-108.000000,0.400000
52,-96.000000,1.600000
53,-80.000000,1.600000
54,-84.000000,-2.400000
55,-92.000000,2.400000
56,-104.000000,1.200000
57,-84.000000,1.600000
58,-84.000000,1.600000
59,-80.000000,1.600000
60,-72.000000,1.200000
61,-116.000000,-15.600000
62,-80.000000,1.600000
63,-92.000000,1.600000
64,-88.000000,2.000000
65,-80.000000,1.200000
66,-88.000000,2.000000
67,-76.000000,1.600000
68,-76.000000,1.600000
69,-76.000000,1.600000
70,-80.000000,4.800000
71,-68.000000,1.600000
72,-64.000000,1.200000
73,-68.000000,2.400000
74,-48.000000,2.400000
75,-72.000000,2.400000
76,-64.000000,2.000000
77,-52.000000,-1.600000
78,-68.000000,2.800000
79,-68.000000,1.600000
80,-76.000000,1.600000
81,-80.000000,2.000000
82,-60.000000,1.600000
83,-52.000000,2.400000
84,-68.000000,0.400000
85,-64.000000,0.800000
86,-72.000000,3.200000
87,-64.000000,2.000000
88,-56.000000,2.400000
89,-32.000000,1.200000
90,-40.000000,2.400000
91,-64.000000,0.000000
92,-36.000000,2.000000
93,-52.000000,2.000000
94,-32.000000,2.000000
95,-52.000000,1.600000
96,-44.000000,1.600000
97,-16.000000,1.200000
98,-36.000000,12.000000
99,-40.000000,2.000000
100,-44.000000,2.400000
101,-64.000000,1.200000
102,-44.000000,2.800000
103,-36.000000,0.800000
104,-32.000000,1.600000
105,-24.000000,-2.400000
106,-60.000000,2.400000
107,20.000000,3.200000
108,-36.000000,2.400000
109,-24.000000,2.000000
110,-24.000000,1.600000
111,-44.000000,0.800000
112,-28.000000,-2.000000
113,-24.000000,0.400000
114,-32.000000,2.000000
115,-28.000000,2.000000
116,-20.000000,2.800000
117,-28.000000,1.600000
118,-36.000000,1.600000
119,8.000000,4.800000
120,-16.000000,1.600000
121,-32.000000,2.400000
122,-8.000000,1.600000
123,-12.000000,2.400000
124,-4.000000,1.200000
125,-12.000000,1.600000
126,-28.000000,2.800000
127,8.000000,2.000000
128,8.000000,2.400000
129,16.000000,2.400000
130,-8.000000,2.400000
131,-16.000000,1.600000
132,20.000000,2.000000
133,-8.000000,6.400000
134,4.000000,1.200000
135,16.000000,2.800000
136,-16.000000,1.200000
137,28.000000,1.200000
138,-12.000000,0.800000
139,4.000000,0.000000
140,20.000000,-3.200000
141,-8.000000,1.600000
142,32.000000,2.400000
143,24.000000,1.600000
144,20.000000,1.600000
145,4.000000,1.600000
146,8.000000,1.200000
147,16.000000,-10.400000
148,8.000000,0.800000
149,24.000000,-0.800000
150,44.000000,1.600000
151,12.000000,2.000000
152,60.000000,2.000000
153,4.000000,2.000000
154,48.000000,6.800000
155,32.000000,2.800000
156,40.000000,-1.600000
157,36.000000,1.200000
158,16.000000,2.000000
159,60.000000,2.000000
160,40.000000,2.000000
161,16.000000,2.000000
162,44.000000,2.000000
163,40.000000,0.800000
164,80.000000,2.000000
165,72.000000,1.600000
166,32.000000,2.000000
167,84.000000,3.200000
168,60.000000,1.600000
169,76.000000,2.000000
170,68.000000,-1.600000
171,16.000000,2.000000
172,56.000000,2.000000
173,68.000000,1.200000
174,64.000000,1.600000
175,72.000000,1.200000
176,60.000000,0.800000
177,64.000000,3.200000
178,60.000000,1.600000
179,72.000000,2.400000
180,80.000000,1.200000
181,52.000000,1.600000
182,84.000000,1.600000
183,92.000000,2.400000
184,76.000000,1.200000
185,68.000000,2.400000
186,64.000000,4.800000
187,56.000000,1.600000
188,80.000000,2.800000
189,80.000000,1.600000
190,104.000000,2.000000
191,72.000000,1.200000
192,92.000000,2.400000
193,68.000000,4.800000
194,104.000000,1.600000
195,80.000000,1.200000
196,68.000000,1.200000
197,92.000000,0.800000
198,80.000000,1.200000
199,104.000000,0.800000
200,100.000000,1.200000
201,96.000000,1.600000
202,136.000000,3.600000
203,92.000000,2.400000
204,104.000000,2.400000
205,100.000000,1.200000
206,92.000000,1.200000
207,116.000000,0.400000
208,76.000000,0.400000
209,136.000000,6.800000
210,88.000000,0.000000
211,80.000000,0.800000
212,124.000000,1.200000
213,104.000000,0.800000
214,136.000000,1.200000
215,100.000000,1.600000
216,112.000000,1.600000
217,128.000000,1.600000
218,88.000000,4.000000
219,128.000000,0.800000
220,96.000000,2.400000
221,96.000000,2.000000
222,136.000000,1.600000
223,96.000000,1.200000
224,132.000000,1.200000
225,112.000000,0.400000
226,96.000000,0.400000
227,140.000000,0.000000
228,124.000000,0.800000
229,132.000000,0.000000
230,112.000000,1.200000
231,108.000000,1.200000
232,156.000000,1.200000
233,116.000000,1.200000
234,148.000000,-4.800000
235,148.000000,0.400000
236,104.000000,1.600000
237,160.000000,0.800000
238,128.000000,0.800000
239,132.000000,1.200000
240,132.000000,1.200000
241,128.000000,-6.000000
242,160.000000,2.000000
243,124.000000,2.400000
244,164.000000,0.000000
245,136.000000,0.800000
246,136.000000,0.800000
247,156.000000,1.200000
248,156.000000,0.400000
249,152.000000,0.400000
250,144.000000,4.000000
251,132.000000,1.200000
252,152.000000,0.000000
253,132.000000,0.400000
254,160.000000,1.600000
255,152.000000,0.400000
256,132.000000,1.200000
257,184.000000,1.600000
258,136.000000,1.200000
259,192.000000,2.800000
260,148.000000,0.800000
261,144.000000,0.800000
262,152.000000,0.400000
263,156.000000,0.800000
264,148.000000,1.200000
265,180.000000,0.400000
266,140.000000,2.800000
267,156.000000,0.800000
268,136.000000,-1.200000
269,172.000000,0.400000
270,128.000000,-0.800000
271,132.000000,0.800000
272,180.000000,0.800000
273,136.000000,0.000000
274,156.000000,0.800000
275,144.000000,-0.800000
276,156.000000,0.800000
277,188.000000,2.400000
278,156.000000,-0.400000
279,204.000000,0.000000
280,172.000000,0.400000
281,168.000000,0.400000
282,180.000000,3.200000
283,148.000000,1.200000
284,184.000000,1.200000
285,184.000000,0.000000
286,164.000000,1.200000
287,196.000000,0.000000
288,156.000000,0.000000
289,172.000000,0.800000
290,156.000000,0.400000
291,148.000000,2.800000
292,136.000000,0.400000
293,132.000000,0.800000
294,180.000000,-0.400000
295,144.000000,0.800000
296,152.000000,0.400000
297,184.000000,-0.400000
298,152.000000,-5.600000
299,208.000000,0.000000
300,180.000000,1.200000
301,160.000000,0.800000
302,204.000000,-1.200000
303,168.000000,0.400000
304,196.000000,-0.400000
305,164.000000,0.800000
306,172.000000,0.800000
307,184.000000,2.800000
308,168.000000,1.200000
309,204.000000,1.600000
310,184.000000,-0.400000
311,168.000000,0.400000
312,208.000000,0.000000
313,172.000000,-0.400000
314,188.000000,-5.200000
315,164.000000,0.400000
316,132.000000,1.200000
317,176.000000,0.000000
318,140.000000,-1.200000
319,168.000000,0.800000
320,164.000000,0.000000
321,168.000000,0.400000
322,204.000000,0.400000
323,196.000000,-0.800000
324,188.000000,-0.400000
325,204.000000,1.600000
326,176.000000,-0.400000
327,208.000000,0.000000
328,148.000000,-0.800000
329,196.000000,-1.200000
330,200.000000,1.600000
331,200.000000,0.400000
332,188.000000,-2.400000
333,176.000000,0.000000
334,200.000000,-0.400000
335,196.000000,0.400000
336,200.000000,0.800000
337,224.000000,-0.400000
338,180.000000,0.000000
339,164.000000,-0.400000
340,160.000000,-0.400000
341,144.000000,0.400000
342,152.000000,0.400000
343,152.000000,0.800000
344,212.000000,0.400000
345,176.000000,-0.800000
346,152.000000,-2.000000
347,188.000000,-1.200000
348,180.000000,-0.800000
349,212.000000,-0.800000
350,184.000000,-0.800000
351,168.000000,-0.400000
352,200.000000,0.000000
353,184.000000,-0.400000
354,228.000000,-0.400000
355,196.000000,-3.600000
356,200.000000,-0.400000
357,200.000000,0.400000
358,192.000000,-0.400000
359,192.000000,0.000000
360,172.000000,-0.800000
361,136.000000,0.400000
362,184.000000,-2.400000
363,148.000000,0.400000
364,204.000000,-0.400000
365,152.000000,-1.200000
366,184.000000,-0.800000
367,196.000000,-0.800000
368,160.000000,-1.200000
369,188.000000,0.400000
370,168.000000,0.000000
371,152.000000,2.000000
372,180.000000,-1.200000
373,180.000000,0.000000
374,164.000000,-2.000000
375,172.000000,0.400000
376,156.000000,-1.200000
377,200.000000,-0.800000
378,156.000000,1.600000
379,144.000000,-0.400000
380,136.000000,-0.400000
381,132.000000,-0.800000
382,140.000000,-0.800000
383,124.000000,-1.200000
384,176.000000,-0.800000
385,196.000000,29.600000
386,168.000000,-0.400000
387,192.000000,-8.800000
388,184.000000,-0.400000
389,216.000000,0.000000
390,180.000000,-1.200000
391,152.000000,-0.400000
392,188.000000,-0.800000
393,172.000000,-0.800000
394,184.000000,-4.800000
395,164.000000,-0.800000
396,180.000000,-1.200000
397,196.000000,-1.200000
398,152.000000,-1.600000
399,196.000000,-2.000000
400,188.000000,-2.000000
401,148.000000,-3.200000
402,180.000000,-1.600000
403,156.000000,-4.800000
404,200.000000,-1.200000
405,168.000000,-1.200000
406,152.000000,-0.400000
407,208.000000,-1.200000
408,184.000000,-2.400000
409,196.000000,-2.000000
410,172.000000,4.400000
411,156.000000,-2.400000
412,184.000000,-2.000000
413,168.000000,-2.800000
414,212.000000,-1.200000
415,160.000000,-1.600000
416,140.000000,-2.000000
417,176.000000,0.000000
418,164.000000,-1.600000
419,204.000000,-1.200000
420,184.000000,-1.200000
421,172.000000,-2.400000
422,164.000000,-2.000000
423,156.000000,-2.000000
424,184.000000,-2.800000
425,156.000000,0.000000
426,144.000000,-2.800000
427,164.000000,-1.200000
428,164.000000,-0.400000
429,184.000000,-1.200000
430,176.000000,-2.000000
431,168.000000,-1.600000
432,184.000000,-2.400000
433,140.000000,-0.800000
434,200.000000,-2.000000
435,148.000000,-3.600000
436,176.000000,-1.200000
437,144.000000,-2.000000
438,128.000000,-1.200000
439,168.000000,-1.200000
440,176.000000,-2.000000
441,164.000000,-1.600000
442,148.000000,-1.600000
443,148.000000,-1.600000
444,172.000000,-0.400000
445,160.000000,-1.600000
446,136.000000,-2.400000
447,132.000000,-1.600000
448,144.000000,-2.800000
449,160.000000,5.200000
450,128.000000,-2.000000
451,124.000000,-7.200000
452,128.000000,-0.800000
453,124.000000,-2.400000
454,140.000000,-1.600000
455,128.000000,-1.200000
456,96.000000,-1.600000
457,132.000000,-1.600000
458,112.000000,2.400000
459,160.000000,-3.600000
460,112.000000,-3.200000
461,116.000000,-2.000000
462,152.000000,-2.800000
463,120.000000,-1.200000
464,168.000000,-2.400000
465,140.000000,-1.200000
466,108.000000,-1.600000
467,140.000000,-8.000000
468,116.000000,-2.000000
469,128.000000,-1.600000
470,112.000000,-2.400000
471,108.000000,-1.200000
472,140.000000,-1.200000
473,100.000000,-2.400000
474,132.000000,-1.600000
475,116.000000,-1.600000
476,120.000000,-2.400000
477,132.000000,-1.600000
478,128.000000,-1.200000
479,132.000000,-2.400000
480,124.000000,-0.800000
481,112.000000,-1.200000
482,112.000000,-3.200000
483,96.000000,-0.800000
484,116.000000,-2.800000
485,88.000000,-6.000000
486,88.000000,-1.600000
487,100.000000,-1.600000
488,80.000000,-3.200000
489,132.000000,-1.600000
490,112.000000,-1.200000
491,80.000000,-3.600000
492,88.000000,-6.800000
493,76.000000,-2.400000
494,112.000000,-3.600000
495,96.000000,-2.000000
496,88.000000,-2.800000
497,112.000000,-2.000000
498,60.000000,-2.000000
499,112.000000,-3.200000
500,76.000000,-1.600000
501,72.000000,-2.400000
502,96.000000,-3.200000
503,64.000000,-3.200000
504,116.000000,-1.200000
505,84.000000,-2.000000
506,72.000000,-2.000000
507,96.000000,-2.000000
508,88.000000,-2.800000
509,96.000000,-2.000000
510,92.000000,-5.600000
511,56.000000,-2.000000
512,92.000000,-1.600000
513,92.000000,-2.000000
514,112.000000,-2.400000
515,84.000000,-2.400000
516,40.000000,-3.200000
517,92.000000,-1.600000
518,56.000000,-2.400000
519,108.000000,2.800000
520,48.000000,-2.400000
521,44.000000,-1.200000
522,76.000000,-2.000000
523,56.000000,-3.200000
524,76.000000,-2.000000
525,40.000000,-1.600000
526,64.000000,-2.400000
527,60.000000,-1.600000
528,36.000000,-8.400000
529,80.000000,-2.400000
530,56.000000,-2.000000
531,52.000000,-2.400000
532,92.000000,-2.400000
533,32.000000,-2.000000
534,44.000000,-1.600000
535,48.000000,-1.600000
536,16.000000,-1.200000
537,60.000000,-2.400000
538,16.000000,-2.000000
539,68.000000,-1.600000
540,48.000000,-3.200000
541,24.000000,-2.800000
542,68.000000,-2.000000
543,16.000000,-2.800000
544,48.000000,-1.600000
545,20.000000,-2.000000
546,28.000000,-2.400000
547,52.000000,-3.200000
548,0.000000,-1.600000
549,60.000000,-3.200000
550,16.000000,-2.000000
551,16.000000,-2.000000
552,44.000000,-2.800000
553,16.000000,6.400000
554,56.000000,-1.200000
555,4.000000,0.800000
556,-4.000000,-2.000000
557,44.000000,-1.200000
558,32.000000,-1.600000
559,12.000000,-1.600000
560,28.000000,-2.400000
561,8.000000,-2.400000
562,40.000000,-26.799999
563,8.000000,-2.800000
564,20.000000,-10.000000
565,28.000000,-1.600000
566,0.000000,-2.000000
567,28.000000,-2.000000
568,-4.000000,-2.000000
569,4.000000,-2.800000
570,-32.000000,-2.000000
571,0.000000,-9.600000
572,20.000000,-2.000000
573,-24.000000,1.200000
574,20.000000,-2.000000
575,-4.000000,-1.600000
576,0.000000,-1.600000
577,20.000000,-2.800000
578,-32.000000,-2.000000
579,-28.000000,-2.800000
580,-8.000000,-3.600000
581,-32.000000,-3.200000
582,16.000000,-1.200000
583,-40.000000,-1.200000
584,-8.000000,-2.400000
585,-16.000000,-2.000000
586,-28.000000,-2.000000
587,-20.000000,-2.400000
588,-32.000000,-3.600000
589,-24.000000,-4.400000
590,-20.000000,-2.000000
591,-36.000000,-4.000000
592,-12.000000,-2.000000
593,-28.000000,-2.400000
594,4.000000,-2.800000
595,-44.000000,-1.200000
596,-52.000000,-2.000000
597,-8.000000,-1.600000
598,-60.000000,-0.400000
599,0.000000,-3.200000
600,-32.000000,-1.600000
601,-40.000000,-1.200000
602,-8.000000,-2.400000
603,-52.000000,-3.200000
604,-24.000000,-1.200000
605,-44.000000,-2.000000
606,-72.000000,-2.000000
607,-40.000000,0.000000
608,-72.000000,-2.000000
609,-12.000000,-0.400000
610,-76.000000,-1.200000
611,-56.000000,-2.400000
612,-32.000000,-2.000000
613,-72.000000,-1.600000
614,-40.000000,-1.200000
615,-64.000000,-2.800000
616,-80.000000,-0.400000
617,-40.000000,-2.400000
618,-64.000000,-1.600000
619,-32.000000,-2.000000
620,-36.000000,-2.000000
621,-72.000000,-1.600000
622,-64.000000,-0.800000
623,-92.000000,-2.000000
624,-76.000000,-2.000000
625,-84.000000,-0.800000
626,-88.000000,-2.400000
627,-48.000000,-2.000000
628,-76.000000,-2.000000
629,-36.000000,-3.200000
630,-80.000000,-1.200000
631,-76.000000,-1.600000
632,-44.000000,-2.000000
633,-96.000000,-1.600000
634,-44.000000,-7.600000
635,-100.000000,-3.200000
636,-84.000000,-1.200000
637,-84.000000,-1.600000
638,-100.000000,-2.000000
639,-92.000000,-1.600000
640,-104.000000,-0.800000
641,-104.000000,-1.200000
642,-92.000000,-1.600000
643,-120.000000,-6.800000
644,-56.000000,-1.600000
645,-100.000000,-0.400000
646,-84.000000,-1.600000
647,-60.000000,-2.800000
648,-88.000000,-2.000000
649,-68.000000,-1.600000
650,-88.000000,-2.000000
651,-96.000000,-1.600000
652,-68.000000,-1.200000
653,-96.000000,-1.200000
654,-68.000000,-1.200000
655,-88.000000,-2.400000
656,-112.000000,-2.800000
657,-96.000000,-2.400000
658,-136.000000,-2.400000
659,-112.000000,-16.799999
660,-100.000000,-0.400000
661,-116.000000,-2.000000
662,-100.000000,0.000000
663,-124.000000,-2.000000
664,-80.000000,-2.400000
665,-132.000000,-1.200000
666,-120.000000,-2.000000
667,-96.000000,-2.800000
668,-112.000000,0.800000
669,-108.000000,-2.800000
670,-96.000000,-3.200000
671,-144.000000,-3.200000
672,-84.000000,-1.600000
673,-140.000000,-0.400000
674,-68.000000,-1.200000
675,-120.000000,-1.600000
676,-120.000000,0.000000
677,-120.000000,-4.400000
678,-132.000000,-1.600000
679,-80.000000,-0.800000
680,-160.000000,-0.800000
681,-120.000000,-1.600000
682,-116.000000,-1.600000
683,-136.000000,-1.600000
684,-92.000000,-0.800000
685,-148.000000,-0.800000
686,-116.000000,3.200000
687,-116.000000,-1.600000
688,-144.000000,-1.200000
689,-84.000000,-2.000000
690,-128.000000,-1.600000
691,-144.000000,-1.600000
692,-144.000000,-2.000000
693,-168.000000,-8.800000
694,-112.000000,-1.200000
695,-140.000000,-2.400000
696,-136.000000,-0.400000
697,-132.000000,-2.400000
698,-144.000000,-1.600000
699,-92.000000,-0.800000
700,-144.000000,-0.800000
701,-144.000000,-1.600000
702,-128.000000,5.200000
703,-144.000000,-2.000000
704,-100.000000,-1.200000
705,-148.000000,-0.800000
706,-132.000000,-0.800000
707,-128.000000,-1.200000
708,-148.000000,-1.200000
709,-132.000000,-8.800000
710,-156.000000,0.400000
711,-148.000000,1.200000
712,-124.000000,-0.800000
713,-156.000000,-1.200000
714,-96.000000,-1.200000
715,-160.000000,-0.400000
716,-160.000000,-0.800000
717,-124.000000,0.000000
718,-152.000000,11.200000
719,-112.000000,0.000000
720,-156.000000,-0.400000
721,-144.000000,-0.800000
722,-140.000000,-1.600000
723,-148.000000,-1.200000
724,-132.000000,-2.000000
725,-184.000000,-4.400000
726,-144.000000,-1.200000
727,-116.000000,-2.400000
728,-160.000000,-0.800000
729,-132.000000,0.000000
730,-156.000000,-0.800000
731,-160.000000,0.000000
732,-108.000000,-1.200000
733,-164.000000,0.800000
734,-140.000000,2.000000
735,-144.000000,-0.400000
736,-168.000000,0.000000
737,-116.000000,-1.200000
738,-148.000000,0.800000
739,-136.000000,-0.800000
740,-168.000000,-0.400000
741,-168.000000,2.400000
742,-128.000000,-0.400000
743,-160.000000,-1.200000
744,-160.000000,-0.800000
745,-148.000000,-0.400000
746,-144.000000,-0.800000
747,-128.000000,-0.800000
748,-176.000000,-10.400000
749,-124.000000,-0.400000
750,-168.000000,3.200000
751,-156.000000,0.000000
752,-156.000000,-0.400000
753,-152.000000,-1.200000
754,-120.000000,0.400000
755,-144.000000,-1.200000
756,-140.000000,-1.200000
757,-144.000000,-4.800000
758,-152.000000,-0.800000
759,-144.000000,-0.400000
760,-152.000000,0.000000
761,-160.000000,0.400000
762,-140.000000,0.000000
763,-156.000000,-0.400000
764,-132.000000,-0.400000
765,-168.000000,0.400000
766,-184.000000,-0.400000
767,-156.000000,0.000000
768,-156.000000,-0.800000
769,-120.000000,-0.400000
770,-148.000000,0.400000
771,-164.000000,-6.000000
772,-160.000000,-1.200000
773,-168.000000,-5.600000
774,-120.000000,0.000000
775,-180.000000,0.400000
776,-148.000000,-0.800000
777,-148.000000,0.000000
778,-180.000000,0.400000
779,-132.000000,0.400000
780,-168.000000,-2.000000
781,-144.000000,-0.400000
782,-148.000000,1.600000
783,-160.000000,-1.200000
784,-116.000000,-0.800000
785,-152.000000,0.000000
786,-156.000000,-0.800000
787,-148.000000,-5.200000
788,-148.000000,-0.800000
789,-132.000000,-3.600000
790,-148.000000,0.800000
791,-132.000000,0.800000
792,-144.000000,0.400000
793,-160.000000,0.400000
794,-120.000000,0.800000
795,-148.000000,0.400000
796,-144.000000,3.600000
797,-152.000000,-0.400000
798,-188.000000,0.000000
799,-108.000000,-0.400000
800,-160.000000,0.800000
801,-140.000000,1.200000
802,-104.000000,-0.400000
803,-156.000000,2.000000
804,-136.000000,1.200000
805,-152.000000,1.600000
806,-148.000000,0.000000
807,-128.000000,1.600000
