lab2_frequencies/0.6Hz.csv

Channel              :,CH1,CH2
Frequency            :,  ?,  ?
Period               :,  ?,  ?
PK-PK                :,548.0mV,80.00mV
Probe attenuation    :,1X,1X
Voltage per ADC value:,0.250000mV,0.025000mV
Time interval        :,2000.00000uS,2000.00000uS

index,CH1_Voltage(mV),CH2_Voltage(mV)
1,-20.000000,-10.800000
2,-20.000000,-10.800000
3,-16.000000,-6.000000
4,-28.000000,-11.200000
5,-20.000000,-11.200000
6,-12.000000,-12.000000
7,-48.000000,-10.800000
8,-48.000000,-9.600000
9,-32.000000,-11.200000
10,-28.000000,-18.799999
11,-24.000000,-10.800000
12,-32.000000,-12.000000
13,-48.000000,-8.400000
14,-44.000000,-9.200000
15,-28.000000,-11.600000
16,-28.000000,-11.600000
17,-40.000000,-10.000000
18,-56.000000,-10.000000
19,-64.000000,-10.800000
20,-44.000000,-14.800000
21,-40.000000,-11.200000
22,-48.000000,-10.400000
23,-52.000000,-12.000000
24,-56.000000,-12.000000
25,-36.000000,-10.800000
26,-44.000000,-9.600000
27,-48.000000,-10.400000
28,-68.000000,-10.000000
29,-76.000000,-11.200000
30,-64.000000,-12.000000
31,-40.000000,-10.800000
32,-60.000000,-10.800000
33,-72.000000,-11.200000
34,-68.000000,-10.400000
35,-56.000000,-10.400000
36,-52.000000,-10.000000
37,-64.000000,-9.600000
38,-72.000000,-9.200000
39,-68.000000,-9.600000
40,-60.000000,-8.800000
41,-68.000000,-10.400000
42,-60.000000,-10.800000
43,-84.000000,-13.600000
44,-76.000000,-8.000000
45,-68.000000,-8.400000
46,-68.000000,-8.800000
47,-80.000000,-9.600000
48,-100.000000,-9.200000
49,-104.000000,-10.000000
50,-88.000000,-8.800000
51,-72.000000,-10.400000
52,-88.000000,-9.200000
53,-96.000000,-14.000000
54,-88.000000,-8.400000
55,-76.000000,-8.400000
56,-76.000000,-8.400000
57,-92.000000,-10.400000
58,-112.000000,-8.400000
59,-92.000000,-8.800000
60,-92.000000,-8.000000
61,-84.000000,-8.400000
62,-92.000000,-8.800000
63,-104.000000,-5.200000
64,-100.000000,-8.800000
65,-84.000000,-9.200000
66,-72.000000,-18.799999
67,-92.000000,-8.400000
68,-116.000000,-8.400000
69,-108.000000,-8.800000
70,-104.000000,-7.200000
71,-96.000000,-7.600000
72,-112.000000,-8.000000
73,-116.000000,-6.400000
74,-96.000000,-8.000000
75,-92.000000,-7.600000
76,-100.000000,-2.800000
77,-112.000000,-7.600000
78,-136.000000,-7.200000
79,-128.000000,-8.400000
80,-124.000000,-6.800000
81,-104.000000,-6.400000
82,-120.000000,-8.000000
83,-124.000000,-1.200000
84,-124.000000,-8.000000
85,-120.000000,-7.200000
86,-96.000000,-5.200000
87,-128.000000,-7.200000
88,-128.000000,-6.800000
89,-128.000000,-7.200000
90,-120.000000,-6.400000
91,-108.000000,-7.200000
92,-124.000000,-6.400000
93,-128.000000,-6.400000
94,-132.000000,-7.200000
95,-108.000000,-6.800000
96,-112.000000,-1.200000
97,-140.000000,-6.000000
98,-140.000000,-6.400000
99,-128.000000,-6.000000
100,-132.000000,-6.800000
101,-108.000000,-5.200000
102,-120.000000,-5.600000
103,-144.000000,-8.800000
104,-144.000000,-6.000000
105,-124.000000,-5.200000
106,-124.000000,-4.800000
107,-140.000000,-4.000000
108,-144.000000,-6.000000
109,-140.000000,-5.200000
110,-124.000000,-5.200000
111,-112.000000,-4.000000
112,-132.000000,-5.600000
113,-132.000000,-4.000000
114,-136.000000,-6.000000
115,-124.000000,-4.800000
116,-120.000000,-4.000000
117,-144.000000,-3.600000
118,-152.000000,-4.400000
119,-144.000000,-3.600000
120,-136.000000,-4.000000
121,-124.000000,-4.400000
122,-132.000000,-3.600000
123,-144.000000,-4.000000
124,-140.000000,-4.000000
125,-128.000000,-4.000000
126,-116.000000,-9.200000
127,-136.000000,-2.400000
128,-152.000000,-3.200000
129,-136.000000,-3.200000
130,-140.000000,-3.600000
131,-124.000000,-3.600000
132,-136.000000,-2.800000
133,-140.000000,-4.000000
134,-144.000000,-3.200000
135,-112.000000,-3.200000
136,-120.000000,-8.400000
137,-128.000000,-1.600000
138,-144.000000,-1.600000
139,-140.000000,-2.000000
140,-136.000000,-2.800000
141,-128.000000,-2.400000
142,-124.000000,-2.800000
143,-140.000000,-1.600000
144,-124.000000,-2.800000
145,-116.000000,-2.400000
146,-120.000000,-5.200000
147,-124.000000,-0.400000
148,-148.000000,-1.600000
149,-144.000000,-1.200000
150,-132.000000,-2.000000
151,-120.000000,0.000000
152,-120.000000,-1.200000
153,-152.000000,-2.000000
154,-140.000000,-1.600000
155,-108.000000,-1.600000
156,-116.000000,-2.000000
157,-136.000000,-1.200000
158,-152.000000,0.400000
159,-152.000000,0.800000
160,-116.000000,-0.400000
161,-120.000000,0.800000
162,-116.000000,-0.400000
163,-148.000000,0.400000
164,-136.000000,-1.200000
165,-128.000000,0.400000
166,-116.000000,-0.400000
167,-116.000000,0.800000
168,-140.000000,0.400000
169,-144.000000,0.000000
170,-132.000000,0.000000
171,-124.000000,1.200000
172,-120.000000,2.000000
173,-136.000000,-0.800000
174,-112.000000,0.000000
175,-116.000000,1.200000
176,-96.000000,0.800000
177,-128.000000,2.000000
178,-132.000000,1.600000
179,-116.000000,1.200000
180,-112.000000,1.200000
181,-100.000000,1.200000
182,-104.000000,2.000000
183,-128.000000,2.000000
184,-108.000000,0.800000
185,-104.000000,1.600000
186,-96.000000,6.400000
187,-120.000000,2.000000
188,-112.000000,1.600000
189,-124.000000,2.800000
190,-112.000000,3.200000
191,-104.000000,4.000000
192,-108.000000,2.400000
193,-116.000000,8.400000
194,-116.000000,3.600000
195,-100.000000,2.400000
196,-92.000000,4.800000
197,-104.000000,3.200000
198,-112.000000,2.800000
199,-112.000000,3.200000
200,-104.000000,4.400000
201,-80.000000,3.200000
202,-84.000000,3.600000
203,-104.000000,7.200000
204,-108.000000,4.000000
205,-96.000000,4.800000
206,-84.000000,-16.400000
207,-96.000000,4.000000
208,-104.000000,3.600000
209,-108.000000,4.000000
210,-104.000000,6.000000
211,-84.000000,4.800000
212,-92.000000,4.800000
213,-104.000000,7.200000
214,-80.000000,4.400000
215,-64.000000,5.200000
216,-72.000000,4.000000
217,-104.000000,4.000000
218,-96.000000,4.000000
219,-100.000000,4.400000
220,-80.000000,6.000000
221,-72.000000,4.800000
222,-80.000000,5.200000
223,-96.000000,4.000000
224,-92.000000,6.000000
225,-48.000000,4.400000
226,-52.000000,5.600000
227,-64.000000,4.000000
228,-76.000000,6.400000
229,-80.000000,5.600000
230,-60.000000,7.200000
231,-52.000000,4.800000
232,-56.000000,5.600000
233,-72.000000,16.400000
234,-64.000000,6.800000
235,-48.000000,6.000000
236,-56.000000,7.200000
237,-60.000000,6.800000
238,-80.000000,7.600000
239,-56.000000,6.800000
240,-56.000000,6.400000
241,-48.000000,7.200000
242,-52.000000,7.600000
243,-56.000000,3.200000
244,-48.000000,7.200000
245,-36.000000,7.600000
246,-36.000000,7.600000
247,-44.000000,6.800000
248,-56.000000,7.600000
249,-48.000000,7.600000
250,-32.000000,8.800000
251,-40.000000,7.200000
252,-44.000000,7.600000
253,-48.000000,9.200000
254,-44.000000,8.000000
255,-24.000000,8.000000
256,-24.000000,8.800000
257,-40.000000,8.000000
258,-44.000000,8.800000
259,-32.000000,7.600000
260,-20.000000,7.600000
261,-12.000000,7.600000
262,-20.000000,8.800000
263,-36.000000,5.200000
264,-28.000000,8.000000
265,-16.000000,7.600000
266,0.000000,8.800000
267,-20.000000,10.000000
268,-32.000000,9.200000
269,-12.000000,8.800000
270,-4.000000,2.800000
271,-8.000000,7.600000
272,-16.000000,8.800000
273,-24.000000,16.000000
274,-4.000000,8.400000
275,0.000000,8.400000
276,20.000000,9.600000
277,-4.000000,10.000000
278,-24.000000,9.200000
279,8.000000,9.600000
280,8.000000,6.800000
281,12.000000,9.200000
282,28.000000,10.000000
283,4.000000,6.800000
284,24.000000,10.000000
285,44.000000,8.800000
286,28.000000,9.600000
287,8.000000,10.800000
288,12.000000,9.200000
289,8.000000,9.600000
290,32.000000,8.800000
291,40.000000,10.800000
292,24.000000,10.400000
293,16.000000,10.400000
294,32.000000,9.200000
295,44.000000,10.000000
296,44.000000,10.000000
297,32.000000,10.800000
298,24.000000,10.400000
299,32.000000,10.000000
300,56.000000,16.000000
301,56.000000,11.600000
302,60.000000,11.600000
303,32.000000,11.200000
304,52.000000,9.600000
305,64.000000,11.200000
306,76.000000,11.200000
307,56.000000,10.000000
308,40.000000,9.600000
309,64.000000,11.200000
310,68.000000,6.400000
311,76.000000,10.800000
312,64.000000,10.800000
313,60.000000,10.400000
314,72.000000,11.600000
315,80.000000,12.000000
316,80.000000,11.600000
317,72.000000,12.400000
318,68.000000,11.200000
319,80.000000,10.400000
320,84.000000,12.800000
321,104.000000,10.400000
322,96.000000,10.000000
323,84.000000,10.800000
324,80.000000,11.600000
325,96.000000,11.200000
326,96.000000,11.600000
327,92.000000,9.200000
328,84.000000,11.200000
329,92.000000,11.600000
330,112.000000,9.600000
331,116.000000,12.000000
332,116.000000,9.600000
333,104.000000,11.600000
334,104.000000,11.600000
335,124.000000,12.400000
336,104.000000,12.000000
337,116.000000,5.600000
338,88.000000,11.200000
339,116.000000,11.200000
340,120.000000,28.799999
341,124.000000,11.600000
342,132.000000,11.200000
343,112.000000,12.400000
344,140.000000,13.600000
345,156.000000,12.000000
346,136.000000,11.200000
347,124.000000,11.200000
348,120.000000,11.600000
349,128.000000,11.200000
350,144.000000,12.800000
351,136.000000,10.800000
352,156.000000,10.800000
353,132.000000,11.200000
354,152.000000,12.000000
355,160.000000,11.600000
356,156.000000,12.400000
357,152.000000,18.400000
358,136.000000,12.800000
359,148.000000,13.200000
360,164.000000,12.000000
361,176.000000,11.200000
362,160.000000,12.400000
363,152.000000,13.200000
364,168.000000,12.400000
365,180.000000,10.800000
366,172.000000,11.600000
367,160.000000,14.800000
368,152.000000,12.400000
369,172.000000,12.000000
370,164.000000,12.000000
371,188.000000,11.200000
372,188.000000,12.000000
373,176.000000,12.400000
374,172.000000,8.800000
375,180.000000,11.600000
376,196.000000,12.400000
377,176.000000,-1.600000
378,180.000000,11.200000
379,164.000000,11.600000
380,200.000000,12.000000
381,200.000000,11.600000
382,196.000000,11.200000
383,196.000000,11.200000
384,204.000000,12.400000
385,220.000000,11.200000
386,208.000000,10.800000
387,192.000000,10.400000
388,184.000000,10.400000
389,196.000000,12.000000
390,212.000000,11.200000
391,224.000000,11.600000
392,224.000000,10.800000
393,196.000000,12.800000
394,212.000000,12.400000
395,232.000000,12.000000
396,232.000000,12.000000
397,216.000000,12.000000
398,208.000000,11.200000
399,224.000000,11.600000
400,208.000000,10.800000
401,232.000000,9.600000
402,248.000000,10.400000
403,212.000000,11.600000
404,232.000000,10.400000
405,248.000000,10.800000
406,244.000000,11.200000
407,232.000000,11.200000
408,228.000000,11.600000
409,244.000000,10.800000
410,252.000000,9.600000
411,256.000000,11.200000
412,252.000000,10.800000
413,244.000000,10.400000
414,268.000000,12.400000
415,268.000000,10.000000
416,272.000000,10.400000
417,236.000000,10.400000
418,240.000000,11.200000
419,260.000000,9.600000
420,256.000000,10.000000
421,268.000000,5.600000
422,260.000000,10.400000
423,256.000000,9.600000
424,256.000000,9.600000
425,268.000000,9.600000
426,280.000000,11.200000
427,264.000000,10.000000
428,272.000000,10.400000
429,256.000000,9.600000
430,268.000000,9.600000
431,280.000000,7.200000
432,284.000000,11.600000
433,268.000000,8.400000
434,256.000000,9.600000
435,284.000000,10.400000
436,296.000000,9.600000
437,276.000000,10.000000
438,264.000000,8.000000
439,276.000000,9.600000
440,284.000000,10.000000
441,284.000000,-2.400000
442,284.000000,8.000000
443,268.000000,9.600000
444,276.000000,8.800000
445,312.000000,10.000000
446,316.000000,9.200000
447,292.000000,8.000000
448,292.000000,21.600000
449,272.000000,10.800000
450,300.000000,9.200000
451,300.000000,9.600000
452,308.000000,8.400000
453,296.000000,9.200000
454,304.000000,8.000000
455,300.000000,7.200000
456,300.000000,8.400000
457,300.000000,8.400000
458,296.000000,3.600000
459,296.000000,9.600000
460,304.000000,8.400000
461,312.000000,8.000000
462,316.000000,8.800000
463,312.000000,8.400000
464,312.000000,7.600000
465,332.000000,10.400000
466,332.000000,8.400000
467,300.000000,8.000000
468,300.000000,10.400000
469,308.000000,7.600000
470,320.000000,7.600000
471,324.000000,8.000000
472,316.000000,8.400000
473,320.000000,7.600000
474,320.000000,8.000000
475,336.000000,4.000000
476,328.000000,8.400000
477,320.000000,8.000000
478,316.000000,7.600000
479,324.000000,6.400000
480,328.000000,7.200000
481,332.000000,7.600000
482,340.000000,3.600000
483,320.000000,6.800000
484,324.000000,7.200000
485,332.000000,0.000000
486,340.000000,6.400000
487,324.000000,6.800000
488,316.000000,6.400000
489,320.000000,6.800000
490,328.000000,6.800000
491,352.000000,6.800000
492,352.000000,3.200000
493,328.000000,7.200000
494,340.000000,6.000000
495,352.000000,6.400000
496,356.000000,6.000000
497,328.000000,6.000000
498,324.000000,6.400000
499,336.000000,6.800000
500,336.000000,5.200000
501,352.000000,5.200000
502,348.000000,10.400000
503,332.000000,6.400000
504,352.000000,4.800000
505,360.000000,5.600000
506,360.000000,6.800000
507,336.000000,5.600000
508,332.000000,5.600000
509,344.000000,6.800000
510,344.000000,6.000000
511,352.000000,5.200000
512,356.000000,-4.000000
513,332.000000,5.200000
514,332.000000,5.600000
515,352.000000,6.000000
516,352.000000,4.800000
517,348.000000,4.000000
518,332.000000,4.000000
519,332.000000,0.800000
520,352.000000,4.000000
521,360.000000,4.800000
522,360.000000,3.600000
523,364.000000,5.200000
524,356.000000,4.800000
525,376.000000,4.400000
526,360.000000,8.800000
527,356.000000,3.600000
528,344.000000,4.000000
529,348.000000,12.800000
530,360.000000,2.800000
531,364.000000,3.200000
532,340.000000,3.200000
533,344.000000,3.600000
534,356.000000,4.000000
535,360.000000,2.400000
536,364.000000,5.600000
537,356.000000,4.400000
538,332.000000,2.800000
539,360.000000,3.600000
540,348.000000,2.400000
541,372.000000,2.800000
542,356.000000,2.800000
543,344.000000,3.200000
544,348.000000,2.400000
545,372.000000,3.200000
546,364.000000,4.400000
547,352.000000,2.400000
548,340.000000,1.600000
549,356.000000,1.600000
550,348.000000,2.800000
551,368.000000,1.600000
552,360.000000,1.200000
553,348.000000,1.200000
554,356.000000,2.000000
555,376.000000,1.600000
556,372.000000,1.200000
557,344.000000,1.600000
558,348.000000,2.000000
559,340.000000,1.600000
560,348.000000,0.800000
561,372.000000,0.800000
562,352.000000,0.800000
563,348.000000,2.000000
564,352.000000,0.800000
565,356.000000,0.800000
566,368.000000,0.800000
567,352.000000,1.200000
568,340.000000,1.200000
569,352.000000,0.400000
570,360.000000,2.800000
571,372.000000,0.800000
572,360.000000,-0.800000
573,352.000000,20.400000
574,344.000000,0.800000
575,360.000000,-0.400000
576,368.000000,0.800000
577,360.000000,0.000000
578,344.000000,0.800000
579,340.000000,0.400000
580,352.000000,13.200000
581,344.000000,0.400000
582,352.000000,-0.800000
583,332.000000,0.800000
584,340.000000,0.400000
585,356.000000,-0.800000
586,344.000000,-0.400000
587,340.000000,-3.200000
588,328.000000,-1.200000
589,328.000000,-0.800000
590,352.000000,-0.800000
591,364.000000,-2.000000
592,344.000000,-1.600000
593,336.000000,-2.400000
594,352.000000,-1.200000
595,372.000000,-2.000000
596,356.000000,-1.200000
597,340.000000,-2.000000
598,324.000000,-1.200000
599,332.000000,-1.600000
600,352.000000,-2.400000
601,348.000000,-2.800000
602,332.000000,-2.000000
603,328.000000,-2.000000
604,320.000000,-2.400000
605,356.000000,-2.800000
606,340.000000,-2.000000
607,332.000000,-4.400000
608,320.000000,-2.800000
609,320.000000,-3.600000
610,332.000000,-2.800000
611,332.000000,-2.400000
612,332.000000,-3.200000
613,316.000000,-2.800000
614,320.000000,-9.600000
615,344.000000,-2.400000
616,352.000000,-3.200000
617,328.000000,-18.400000
618,312.000000,-3.200000
619,304.000000,-4.400000
620,336.000000,-3.600000
621,332.000000,-4.000000
622,324.000000,-5.200000
623,316.000000,-3.200000
624,312.000000,-10.000000
625,344.000000,-3.600000
626,332.000000,-3.600000
627,308.000000,-3.200000
628,316.000000,-4.800000
629,304.000000,-3.600000
630,316.000000,-3.600000
631,328.000000,-4.400000
632,320.000000,-4.800000
633,304.000000,-4.800000
634,312.000000,-6.400000
635,356.000000,-4.400000
636,328.000000,-4.800000
637,308.000000,-5.600000
638,296.000000,-5.200000
639,296.000000,-5.200000
640,320.000000,-5.600000
641,316.000000,-8.000000
642,304.000000,-5.600000
643,284.000000,-4.800000
644,312.000000,4.400000
645,312.000000,-5.600000
646,308.000000,-7.200000
647,304.000000,-6.000000
648,284.000000,-5.200000
649,284.000000,-5.200000
650,292.000000,-7.200000
651,304.000000,-2.000000
652,304.000000,-6.400000
653,280.000000,-6.000000
654,296.000000,-6.000000
655,300.000000,-6.000000
656,296.000000,-5.200000
657,292.000000,-7.200000
658,276.000000,-8.000000
659,276.000000,-7.600000
660,276.000000,-6.400000
661,296.000000,-6.800000
662,272.000000,-6.400000
663,272.000000,-6.800000
664,284.000000,-7.200000
665,304.000000,-6.800000
666,280.000000,-6.400000
667,264.000000,-6.800000
668,268.000000,-7.600000
669,268.000000,-6.800000
670,268.000000,-7.200000
671,272.000000,-8.000000
672,256.000000,-8.000000
673,264.000000,-8.000000
674,264.000000,-8.800000
675,276.000000,-8.400000
676,268.000000,-8.400000
677,248.000000,-8.800000
678,252.000000,-11.600000
679,260.000000,-7.200000
680,264.000000,-8.400000
681,260.000000,-7.600000
682,264.000000,-9.200000
683,240.000000,-7.600000
684,256.000000,-8.400000
685,268.000000,-4.400000
686,248.000000,-8.000000
687,240.000000,-8.800000
688,228.000000,-11.600000
689,224.000000,-8.800000
690,248.000000,-10.000000
691,248.000000,-9.200000
692,240.000000,-8.800000
693,228.000000,-10.000000
694,236.000000,-9.200000
695,244.000000,-8.400000
696,224.000000,-8.400000
697,216.000000,-8.800000
698,216.000000,-9.200000
699,220.000000,-9.600000
700,232.000000,-9.200000
701,224.000000,-10.000000
702,216.000000,-10.000000
703,212.000000,-10.000000
704,228.000000,-8.800000
705,228.000000,-7.200000
706,220.000000,-9.200000
707,200.000000,-9.600000
708,204.000000,-10.000000
709,208.000000,-9.600000
710,204.000000,-9.200000
711,204.000000,-9.600000
712,208.000000,-6.400000
713,188.000000,-10.400000
714,204.000000,-10.000000
715,228.000000,14.000000
716,204.000000,-10.400000
717,188.000000,-9.600000
718,184.000000,-11.200000
719,184.000000,-8.800000
720,204.000000,-11.200000
721,192.000000,-11.200000
722,204.000000,-14.400000
723,176.000000,-9.600000
724,176.000000,-9.200000
725,200.000000,-9.200000
726,184.000000,-10.800000
727,188.000000,-8.400000
728,172.000000,-10.400000
729,160.000000,-7.200000
730,176.000000,-11.200000
731,168.000000,-10.800000
732,164.000000,-1.600000
733,156.000000,-11.200000
734,160.000000,-11.200000
735,188.000000,-10.800000
736,172.000000,-11.200000
737,168.000000,-10.000000
738,156.000000,-11.200000
739,140.000000,-12.000000
740,160.000000,-10.800000
741,148.000000,-10.800000
742,160.000000,-10.800000
743,148.000000,-11.200000
744,156.000000,-10.400000
745,156.000000,-11.600000
746,144.000000,-11.600000
747,140.000000,-12.800000
748,128.000000,-12.000000
749,140.000000,-8.800000
750,148.000000,-11.600000
751,140.000000,-12.000000
752,136.000000,-11.200000
753,120.000000,-10.800000
754,140.000000,-11.200000
755,144.000000,-11.600000
756,140.000000,-9.600000
757,124.000000,-12.000000
758,104.000000,-10.400000
759,116.000000,-10.800000
760,124.000000,-12.000000
761,124.000000,-11.200000
762,120.000000,-11.200000
763,104.000000,-12.400000
764,104.000000,-12.000000
765,120.000000,-10.800000
766,104.000000,-8.400000
767,116.000000,-11.200000
768,84.000000,-12.400000
769,92.000000,-11.200000
770,100.000000,-11.200000
771,108.000000,-12.000000
772,84.000000,-13.200000
773,84.000000,-8.000000
774,88.000000,-12.400000
775,108.000000,-11.200000
776,100.000000,-12.400000
777,80.000000,-13.200000
778,60.000000,-11.600000
779,68.000000,-11.600000
780,80.000000,-12.400000
781,92.000000,-11.600000
782,96.000000,-12.400000
783,68.000000,-13.200000
784,84.000000,-12.000000
785,84.000000,-13.600000
786,76.000000,-11.600000
787,64.000000,-12.400000
788,52.000000,-11.600000
789,68.000000,-11.600000
790,64.000000,-8.800000
791,72.000000,-12.000000
792,52.000000,-11.600000
793,48.000000,14.000000
794,52.000000,-12.400000
795,76.000000,-10.800000
796,56.000000,-11.600000
