lab2_frequencies/0.7Hz.csv

Channel              :,CH1,CH2
Frequency            :,  ?,  ?
Period               :,  ?,  ?
PK-PK                :,664.0mV,86.40mV
Probe attenuation    :,1X,1X
Voltage per ADC value:,0.500000mV,0.050000mV
Time interval        :,2000.00000uS,2000.00000uS

index,CH1_Voltage(mV),CH2_Voltage(mV)
1,-56.000000,-16.799999
2,-56.000000,-16.799999
3,-64.000000,-16.000000
4,-80.000000,-15.200000
5,-72.000000,-16.000000
6,-48.000000,-15.200000
7,-56.000000,-15.200000
8,-80.000000,-16.000000
9,-88.000000,-10.400000
10,-72.000000,-16.799999
11,-64.000000,-16.799999
12,-80.000000,-20.000000
13,-96.000000,-15.200000
14,-104.000000,-15.200000
15,-88.000000,-16.000000
16,-104.000000,-15.200000
17,-88.000000,-16.000000
18,-96.000000,-16.799999
19,-120.000000,-17.600000
20,-96.000000,-16.000000
21,-120.000000,-16.799999
22,-104.000000,-12.000000
23,-120.000000,-14.400000
24,-120.000000,-16.799999
25,-120.000000,-17.600000
26,-136.000000,-16.000000
27,-120.000000,-16.000000
28,-136.000000,-16.000000
29,-144.000000,-17.600000
30,-120.000000,-17.600000
31,-128.000000,-16.799999
32,-128.000000,-10.400000
33,-136.000000,-16.000000
34,-152.000000,-16.799999
35,-136.000000,-16.799999
36,-152.000000,-16.000000
37,-144.000000,-16.000000
38,-144.000000,-16.000000
39,-152.000000,-18.400000
40,-160.000000,-16.000000
41,-152.000000,-16.000000
42,-160.000000,-16.000000
43,-168.000000,-16.000000
44,-176.000000,-16.799999
45,-160.000000,-16.000000
46,-168.000000,-16.000000
47,-168.000000,-16.799999
48,-176.000000,-15.200000
49,-168.000000,-16.799999
50,-184.000000,-16.000000
51,-176.000000,-16.000000
52,-176.000000,-12.800000
53,-192.000000,-15.200000
54,-192.000000,-16.799999
55,-200.000000,-16.000000
56,-192.000000,-16.799999
57,-192.000000,-16.000000
58,-184.000000,-15.200000
59,-200.000000,-16.000000
60,-208.000000,-16.000000
61,-192.000000,-16.799999
62,-208.000000,-12.000000
63,-216.000000,-15.200000
64,-232.000000,-16.000000
65,-224.000000,-15.200000
66,-216.000000,-16.000000
67,-208.000000,-15.200000
68,-216.000000,-14.400000
69,-240.000000,-19.200001
70,-208.000000,-16.000000
71,-208.000000,-16.000000
72,-224.000000,-15.200000
73,-232.000000,-14.400000
74,-248.000000,-16.000000
75,-240.000000,-16.000000
76,-240.000000,-16.000000
77,-232.000000,-14.400000
78,-232.000000,-14.400000
79,-248.000000,-16.000000
80,-240.000000,-16.000000
81,-248.000000,-15.200000
82,-248.000000,-15.200000
83,-256.000000,-15.200000
84,-264.000000,-15.200000
85,-256.000000,-14.400000
86,-256.000000,-15.200000
87,-256.000000,-14.400000
88,-248.000000,-15.200000
89,-272.000000,-15.200000
90,-272.000000,-14.400000
91,-256.000000,-14.400000
92,-264.000000,-16.000000
93,-272.000000,-14.400000
94,-280.000000,-14.400000
95,-272.000000,-14.400000
96,-272.000000,-12.800000
97,-264.000000,-12.000000
98,-280.000000,-14.400000
99,-280.000000,-16.000000
100,-280.000000,-13.600000
101,-272.000000,-13.600000
102,-288.000000,-18.400000
103,-296.000000,-13.600000
104,-296.000000,-13.600000
105,-296.000000,-13.600000
106,-288.000000,-12.800000
107,-288.000000,-12.800000
108,-296.000000,-12.800000
109,-304.000000,-8.800000
110,-296.000000,-12.800000
111,-288.000000,-14.400000
112,-304.000000,-11.200000
113,-296.000000,-12.000000
114,-312.000000,-12.800000
115,-296.000000,-11.200000
116,-296.000000,-12.000000
117,-304.000000,-12.000000
118,-312.000000,-12.000000
119,-320.000000,-14.400000
120,-304.000000,-11.200000
121,-296.000000,-11.200000
122,-312.000000,-17.600000
123,-320.000000,-12.000000
124,-320.000000,-12.800000
125,-320.000000,-12.000000
126,-312.000000,-9.600000
127,-312.000000,-10.400000
128,-320.000000,-10.400000
129,-328.000000,-15.200000
130,-320.000000,-11.200000
131,-312.000000,-9.600000
132,-320.000000,1.600000
133,-328.000000,-11.200000
134,-320.000000,-10.400000
135,-328.000000,-10.400000
136,-320.000000,-9.600000
137,-328.000000,-9.600000
138,-320.000000,-9.600000
139,-336.000000,-12.000000
140,-336.000000,-8.800000
141,-328.000000,-8.800000
142,-328.000000,-20.000000
143,-336.000000,-10.400000
144,-360.000000,-9.600000
145,-344.000000,-8.000000
146,-320.000000,-7.200000
147,-344.000000,-8.800000
148,-344.000000,-8.800000
149,-336.000000,-7.200000
150,-344.000000,-8.000000
151,-328.000000,-8.000000
152,-336.000000,-6.400000
153,-344.000000,-8.800000
154,-352.000000,-8.800000
155,-344.000000,-8.000000
156,-328.000000,-7.200000
157,-336.000000,-8.000000
158,-336.000000,-7.200000
159,-344.000000,-7.200000
160,-336.000000,-6.400000
161,-336.000000,-6.400000
162,-344.000000,-5.600000
163,-336.000000,-5.600000
164,-344.000000,-7.200000
165,-352.000000,-6.400000
166,-336.000000,-7.200000
167,-344.000000,-7.200000
168,-352.000000,-5.600000
169,-344.000000,-8.800000
170,-344.000000,-4.800000
171,-344.000000,-4.000000
172,-344.000000,-4.000000
173,-352.000000,-5.600000
174,-352.000000,-5.600000
175,-344.000000,-4.000000
176,-344.000000,-3.200000
177,-352.000000,-4.800000
178,-344.000000,-4.800000
179,-352.000000,-8.000000
180,-336.000000,-3.200000
181,-328.000000,-3.200000
182,-344.000000,-4.000000
183,-344.000000,-2.400000
184,-344.000000,-3.200000
185,-336.000000,-2.400000
186,-336.000000,-3.200000
187,-352.000000,-3.200000
188,-344.000000,-2.400000
189,-352.000000,0.800000
190,-336.000000,-1.600000
191,-336.000000,-1.600000
192,-328.000000,-2.400000
193,-352.000000,-2.400000
194,-344.000000,-1.600000
195,-344.000000,0.000000
196,-320.000000,-1.600000
197,-328.000000,-0.800000
198,-336.000000,-2.400000
199,-336.000000,0.000000
200,-336.000000,-0.800000
201,-312.000000,-1.600000
202,-328.000000,-0.800000
203,-336.000000,0.000000
204,-352.000000,0.000000
205,-336.000000,0.800000
206,-320.000000,0.000000
207,-328.000000,0.000000
208,-320.000000,0.000000
209,-336.000000,3.200000
210,-336.000000,1.600000
211,-296.000000,0.800000
212,-312.000000,1.600000
213,-312.000000,0.800000
214,-320.000000,1.600000
215,-328.000000,0.000000
216,-304.000000,2.400000
217,-320.000000,0.800000
218,-328.000000,2.400000
219,-320.000000,13.600000
220,-312.000000,3.200000
221,-304.000000,3.200000
222,-304.000000,3.200000
223,-320.000000,2.400000
224,-320.000000,4.000000
225,-312.000000,3.200000
226,-304.000000,3.200000
227,-304.000000,3.200000
228,-312.000000,3.200000
229,-312.000000,9.600000
230,-296.000000,4.000000
231,-296.000000,4.800000
232,-304.000000,4.000000
233,-296.000000,3.200000
234,-312.000000,4.000000
235,-304.000000,4.800000
236,-288.000000,5.600000
237,-288.000000,4.800000
238,-280.000000,4.000000
239,-296.000000,10.400000
240,-288.000000,7.200000
241,-272.000000,5.600000
242,-280.000000,6.400000
243,-280.000000,5.600000
244,-288.000000,4.800000
245,-280.000000,7.200000
246,-280.000000,7.200000
247,-272.000000,5.600000
248,-272.000000,5.600000
249,-272.000000,0.000000
250,-256.000000,6.400000
251,-256.000000,6.400000
252,-264.000000,7.200000
253,-264.000000,6.400000
254,-264.000000,8.000000
255,-256.000000,7.200000
256,-248.000000,10.400000
257,-256.000000,8.000000
258,-256.000000,6.400000
259,-264.000000,7.200000
260,-248.000000,8.000000
261,-232.000000,8.800000
262,-248.000000,8.800000
263,-248.000000,8.000000
264,-240.000000,8.000000
265,-248.000000,8.800000
266,-240.000000,10.400000
267,-232.000000,9.600000
268,-232.000000,8.800000
269,-248.000000,9.600000
270,-232.000000,10.400000
271,-208.000000,8.800000
272,-224.000000,-0.800000
273,-232.000000,10.400000
274,-232.000000,8.800000
275,-216.000000,10.400000
276,-208.000000,10.400000
277,-216.000000,9.600000
278,-208.000000,9.600000
279,-224.000000,14.400000
280,-208.000000,10.400000
281,-192.000000,11.200000
282,-200.000000,14.400000
283,-200.000000,10.400000
284,-208.000000,11.200000
285,-208.000000,11.200000
286,-208.000000,11.200000
287,-200.000000,12.000000
288,-184.000000,11.200000
289,-200.000000,13.600000
290,-168.000000,13.600000
291,-192.000000,12.000000
292,-176.000000,15.200000
293,-192.000000,11.200000
294,-184.000000,12.800000
295,-176.000000,12.000000
296,-160.000000,12.800000
297,-168.000000,12.800000
298,-160.000000,13.600000
299,-168.000000,12.000000
300,-168.000000,12.800000
301,-144.000000,13.600000
302,-160.000000,13.600000
303,-160.000000,12.800000
304,-152.000000,12.800000
305,-160.000000,12.800000
306,-144.000000,13.600000
307,-144.000000,14.400000
308,-152.000000,13.600000
309,-152.000000,11.200000
310,-128.000000,13.600000
311,-128.000000,14.400000
312,-136.000000,18.400000
313,-136.000000,15.200000
314,-136.000000,13.600000
315,-120.000000,14.400000
316,-120.000000,15.200000
317,-112.000000,15.200000
318,-128.000000,14.400000
319,-112.000000,12.000000
320,-104.000000,13.600000
321,-112.000000,13.600000
322,-96.000000,14.400000
323,-120.000000,14.400000
324,-112.000000,14.400000
325,-104.000000,14.400000
326,-96.000000,15.200000
327,-96.000000,15.200000
328,-88.000000,15.200000
329,-88.000000,14.400000
330,-88.000000,14.400000
331,-80.000000,14.400000
332,-72.000000,12.800000
333,-72.000000,15.200000
334,-72.000000,16.000000
335,-72.000000,15.200000
336,-64.000000,15.200000
337,-56.000000,14.400000
338,-64.000000,16.000000
339,-64.000000,15.200000
340,-48.000000,16.000000
341,-48.000000,14.400000
342,-48.000000,13.600000
343,-48.000000,16.000000
344,-56.000000,16.000000
345,-48.000000,16.799999
346,-48.000000,16.799999
347,-32.000000,16.000000
348,-40.000000,16.000000
349,-40.000000,16.000000
350,-40.000000,16.000000
351,-8.000000,16.000000
352,-16.000000,9.600000
353,-32.000000,16.000000
354,-32.000000,16.799999
355,-16.000000,16.000000
356,-8.000000,15.200000
357,-16.000000,16.000000
358,-8.000000,16.000000
359,-8.000000,16.799999
360,-8.000000,16.000000
361,16.000000,15.200000
362,0.000000,16.799999
363,-8.000000,16.799999
364,-8.000000,17.600000
365,8.000000,20.000000
366,16.000000,15.200000
367,8.000000,16.799999
368,16.000000,16.000000
369,16.000000,17.600000
370,24.000000,16.000000
371,40.000000,16.799999
372,32.000000,18.400000
373,24.000000,16.000000
374,24.000000,16.000000
375,40.000000,40.799999
376,56.000000,17.600000
377,48.000000,15.200000
378,48.000000,16.000000
379,32.000000,16.799999
380,56.000000,16.799999
381,72.000000,16.000000
382,64.000000,18.400000
383,64.000000,16.799999
384,56.000000,16.799999
385,48.000000,46.400002
386,72.000000,15.200000
387,72.000000,15.200000
388,80.000000,16.000000
389,64.000000,16.799999
390,80.000000,16.000000
391,88.000000,15.200000
392,88.000000,18.400000
393,80.000000,16.799999
394,80.000000,16.799999
395,80.000000,42.400002
396,96.000000,15.200000
397,88.000000,15.200000
398,88.000000,16.000000
399,88.000000,15.200000
400,96.000000,16.799999
401,112.000000,15.200000
402,104.000000,20.000000
403,96.000000,16.799999
404,96.000000,16.000000
405,104.000000,34.400002
406,112.000000,14.400000
407,120.000000,15.200000
408,112.000000,15.200000
409,120.000000,16.000000
410,128.000000,16.000000
411,128.000000,14.400000
412,136.000000,18.400000
413,128.000000,16.000000
414,112.000000,15.200000
415,128.000000,26.400000
416,144.000000,15.200000
417,136.000000,15.200000
418,136.000000,15.200000
419,144.000000,15.200000
420,144.000000,16.000000
421,152.000000,15.200000
422,144.000000,12.800000
423,152.000000,14.400000
424,152.000000,16.000000
425,160.000000,14.400000
426,168.000000,13.600000
427,160.000000,15.200000
428,160.000000,13.600000
429,152.000000,15.200000
430,184.000000,14.400000
431,184.000000,15.200000
432,160.000000,10.400000
433,152.000000,15.200000
434,168.000000,16.000000
435,176.000000,13.600000
436,176.000000,13.600000
437,184.000000,13.600000
438,168.000000,13.600000
439,176.000000,12.800000
440,184.000000,13.600000
441,200.000000,13.600000
442,184.000000,7.200000
443,192.000000,14.400000
444,184.000000,12.800000
445,184.000000,13.600000
446,200.000000,12.800000
447,200.000000,12.800000
448,184.000000,12.800000
449,192.000000,14.400000
450,200.000000,12.000000
451,208.000000,13.600000
452,208.000000,13.600000
453,200.000000,12.800000
454,192.000000,12.800000
455,208.000000,12.800000
456,208.000000,11.200000
457,224.000000,13.600000
458,208.000000,11.200000
459,208.000000,12.000000
460,208.000000,11.200000
461,216.000000,12.000000
462,224.000000,9.600000
463,208.000000,13.600000
464,208.000000,12.000000
465,216.000000,10.400000
466,224.000000,9.600000
467,232.000000,11.200000
468,216.000000,11.200000
469,216.000000,10.400000
470,216.000000,11.200000
471,240.000000,12.000000
472,224.000000,23.200001
473,224.000000,12.000000
474,216.000000,10.400000
475,232.000000,10.400000
476,232.000000,10.400000
477,240.000000,8.800000
478,248.000000,9.600000
479,232.000000,8.800000
480,248.000000,9.600000
481,248.000000,8.800000
482,232.000000,4.000000
483,240.000000,9.600000
484,240.000000,9.600000
485,256.000000,8.800000
486,240.000000,8.000000
487,248.000000,9.600000
488,248.000000,8.000000
489,240.000000,8.800000
490,256.000000,8.000000
491,256.000000,8.000000
492,256.000000,3.200000
493,248.000000,8.800000
494,240.000000,8.000000
495,248.000000,7.200000
496,264.000000,7.200000
497,256.000000,8.800000
498,248.000000,7.200000
499,248.000000,5.600000
500,264.000000,6.400000
501,264.000000,7.200000
502,256.000000,4.800000
503,256.000000,7.200000
504,248.000000,7.200000
505,240.000000,7.200000
506,256.000000,6.400000
507,256.000000,7.200000
508,256.000000,6.400000
509,256.000000,8.000000
510,264.000000,5.600000
511,264.000000,6.400000
512,248.000000,8.800000
513,256.000000,6.400000
514,248.000000,4.800000
515,256.000000,5.600000
516,264.000000,5.600000
517,264.000000,5.600000
518,256.000000,4.800000
519,256.000000,4.000000
520,256.000000,4.000000
521,272.000000,4.800000
522,264.000000,4.800000
523,256.000000,4.800000
524,240.000000,3.200000
525,272.000000,4.800000
526,264.000000,4.000000
527,272.000000,3.200000
528,248.000000,4.800000
529,264.000000,1.600000
530,272.000000,3.200000
531,272.000000,3.200000
532,248.000000,5.600000
533,248.000000,4.000000
534,256.000000,1.600000
535,264.000000,3.200000
536,264.000000,2.400000
537,264.000000,3.200000
538,256.000000,3.200000
539,264.000000,0.800000
540,256.000000,2.400000
541,272.000000,1.600000
542,256.000000,3.200000
543,240.000000,2.400000
544,240.000000,1.600000
545,256.000000,2.400000
546,264.000000,0.800000
547,256.000000,0.800000
548,248.000000,1.600000
549,240.000000,1.600000
550,264.000000,0.800000
551,272.000000,1.600000
552,256.000000,5.600000
553,248.000000,1.600000
554,240.000000,0.000000
555,256.000000,0.000000
556,256.000000,0.000000
557,256.000000,0.800000
558,256.000000,0.800000
559,240.000000,-2.400000
560,256.000000,0.000000
561,264.000000,0.000000
562,248.000000,-1.600000
563,248.000000,0.000000
564,248.000000,-0.800000
565,240.000000,-0.800000
566,256.000000,-0.800000
567,256.000000,-0.800000
568,248.000000,-0.800000
569,232.000000,-2.400000
570,240.000000,-0.800000
571,256.000000,-1.600000
572,248.000000,0.800000
573,232.000000,-1.600000
574,232.000000,-2.400000
575,240.000000,-2.400000
576,240.000000,-1.600000
577,248.000000,-2.400000
578,224.000000,-2.400000
579,224.000000,-5.600000
580,240.000000,-2.400000
581,224.000000,-2.400000
582,216.000000,-1.600000
583,216.000000,-2.400000
584,224.000000,-2.400000
585,216.000000,-3.200000
586,248.000000,-3.200000
587,216.000000,-3.200000
588,216.000000,-4.000000
589,208.000000,-3.200000
590,224.000000,-3.200000
591,216.000000,-5.600000
592,216.000000,-4.800000
593,208.000000,-4.000000
594,208.000000,-3.200000
595,208.000000,-4.800000
596,216.000000,-4.000000
597,208.000000,-4.000000
598,200.000000,-4.800000
599,192.000000,-6.400000
600,192.000000,-4.800000
601,208.000000,-4.800000
602,192.000000,-6.400000
603,192.000000,-5.600000
604,192.000000,-5.600000
605,208.000000,-6.400000
606,200.000000,-6.400000
607,208.000000,-4.800000
608,192.000000,-5.600000
609,184.000000,-7.200000
610,208.000000,-7.200000
611,200.000000,-6.400000
612,200.000000,-3.200000
613,176.000000,-7.200000
614,176.000000,-7.200000
615,176.000000,-7.200000
616,176.000000,-8.000000
617,184.000000,-7.200000
618,176.000000,-7.200000
619,168.000000,-8.800000
620,176.000000,-7.200000
621,184.000000,-8.800000
622,168.000000,-8.800000
623,160.000000,-8.000000
624,168.000000,-8.800000
625,168.000000,-8.000000
626,168.000000,-8.800000
627,168.000000,-8.000000
628,152.000000,-9.600000
629,160.000000,-7.200000
630,152.000000,-9.600000
631,168.000000,-9.600000
632,160.000000,-4.800000
633,144.000000,-8.000000
634,144.000000,-8.800000
635,136.000000,-9.600000
636,136.000000,-9.600000
637,152.000000,-9.600000
638,136.000000,-9.600000
639,144.000000,-8.000000
640,136.000000,-9.600000
641,136.000000,-10.400000
642,128.000000,-7.200000
643,120.000000,-12.000000
644,112.000000,-10.400000
645,136.000000,-10.400000
646,120.000000,-10.400000
647,120.000000,-9.600000
648,104.000000,-11.200000
649,104.000000,-9.600000
650,112.000000,-10.400000
651,120.000000,-11.200000
652,104.000000,-11.200000
653,96.000000,-10.400000
654,96.000000,-10.400000
655,104.000000,-12.000000
656,96.000000,-11.200000
657,96.000000,-12.000000
658,88.000000,-12.800000
659,88.000000,-11.200000
660,96.000000,-12.000000
661,104.000000,-12.000000
662,80.000000,-12.800000
663,88.000000,-12.000000
664,72.000000,-12.800000
665,72.000000,-12.000000
666,72.000000,-12.800000
667,72.000000,-12.800000
668,72.000000,-12.800000
669,56.000000,-12.000000
670,80.000000,-13.600000
671,72.000000,-14.400000
672,56.000000,-13.600000
673,48.000000,-13.600000
674,40.000000,-12.800000
675,48.000000,-13.600000
676,40.000000,-14.400000
677,56.000000,-13.600000
678,48.000000,-13.600000
679,40.000000,-12.800000
680,32.000000,-14.400000
681,40.000000,-14.400000
682,32.000000,-13.600000
683,24.000000,-13.600000
684,16.000000,-14.400000
685,24.000000,-14.400000
686,32.000000,-14.400000
687,16.000000,-14.400000
688,16.000000,-15.200000
689,0.000000,-14.400000
690,16.000000,-15.200000
691,32.000000,-14.400000
692,0.000000,-11.200000
693,-8.000000,-13.600000
694,-16.000000,-15.200000
695,8.000000,-15.200000
696,8.000000,-15.200000
697,-16.000000,-16.000000
698,-24.000000,-15.200000
699,-16.000000,-15.200000
700,-24.000000,-16.000000
701,-8.000000,-15.200000
702,-16.000000,-12.000000
703,-24.000000,-16.799999
704,-40.000000,-16.000000
705,-32.000000,-16.000000
706,-16.000000,-15.200000
707,-32.000000,-15.200000
708,-40.000000,-16.000000
709,-40.000000,-19.200001
710,-40.000000,-16.000000
711,-40.000000,-16.799999
712,-32.000000,-14.400000
713,-56.000000,-15.200000
714,-72.000000,-16.000000
715,-56.000000,-16.000000
716,-56.000000,-16.799999
717,-56.000000,-15.200000
718,-64.000000,-15.200000
719,-80.000000,-18.400000
720,-64.000000,-16.799999
721,-56.000000,-15.200000
722,-80.000000,-19.200001
723,-88.000000,-15.200000
724,-88.000000,-16.799999
725,-80.000000,-15.200000
726,-80.000000,-15.200000
727,-96.000000,-15.200000
728,-96.000000,-16.799999
729,-96.000000,-16.799999
730,-88.000000,-15.200000
731,-80.000000,-16.000000
732,-88.000000,-8.800000
733,-112.000000,-16.799999
734,-112.000000,-16.799999
735,-104.000000,-17.600000
736,-112.000000,-16.799999
737,-104.000000,-15.200000
738,-112.000000,-16.799999
739,-136.000000,-13.600000
740,-120.000000,-16.000000
741,-120.000000,-16.799999
742,-128.000000,-40.000000
743,-128.000000,-16.799999
744,-128.000000,-16.799999
745,-128.000000,-16.799999
746,-120.000000,-16.000000
747,-152.000000,-16.799999
748,-144.000000,-16.000000
749,-152.000000,-14.400000
750,-144.000000,-16.000000
751,-136.000000,-16.799999
752,-152.000000,12.800000
753,-160.000000,-16.799999
754,-160.000000,-16.000000
755,-160.000000,-17.600000
756,-160.000000,-16.799999
757,-152.000000,-17.600000
758,-176.000000,-16.000000
759,-176.000000,-18.400000
760,-160.000000,-16.799999
761,-160.000000,-16.000000
762,-176.000000,-16.000000
763,-200.000000,-16.799999
764,-184.000000,-16.000000
765,-176.000000,-16.000000
766,-168.000000,-15.200000
767,-192.000000,-17.600000
768,-192.000000,-17.600000
769,-192.000000,-16.000000
770,-184.000000,-15.200000
771,-184.000000,-16.799999
772,-200.000000,-16.799999
773,-208.000000,-16.799999
774,-216.000000,-16.000000
775,-200.000000,-16.000000
776,-208.000000,-16.799999
777,-216.000000,-16.799999
778,-224.000000,-16.799999
