lab2_frequencies/0.8Hz.csv

Channel              :,CH1,CH2
Frequency            :,  ?,  ?
Period               :,  ?,  ?
PK-PK                :,736.0mV,96.00mV
Probe attenuation    :,1X,1X
Voltage per ADC value:,0.500000mV,0.050000mV
Time interval        :,2000.00000uS,2000.00000uS

index,CH1_Voltage(mV),CH2_Voltage(mV)
1,-48.000000,20.000000
2,-48.000000,20.000000
3,-48.000000,20.000000
4,-56.000000,20.000000
5,-32.000000,19.200001
6,-16.000000,17.600000
7,-32.000000,20.799999
8,-40.000000,20.799999
9,-32.000000,20.799999
10,0.000000,20.799999
11,0.000000,20.799999
12,-8.000000,20.799999
13,-24.000000,17.600000
14,-16.000000,20.799999
15,-8.000000,21.600000
16,16.000000,16.000000
17,16.000000,21.600000
18,-8.000000,20.000000
19,8.000000,20.000000
20,16.000000,20.799999
21,24.000000,20.799999
22,24.000000,20.799999
23,16.000000,21.600000
24,24.000000,21.600000
25,32.000000,22.400000
26,56.000000,22.400000
27,48.000000,20.000000
28,32.000000,20.799999
29,56.000000,20.799999
30,64.000000,21.600000
31,64.000000,20.799999
32,56.000000,21.600000
33,56.000000,24.000000
34,56.000000,21.600000
35,80.000000,20.799999
36,72.000000,19.200001
37,88.000000,21.600000
38,72.000000,22.400000
39,80.000000,20.799999
40,104.000000,22.400000
41,104.000000,21.600000
42,96.000000,21.600000
43,88.000000,24.000000
44,112.000000,20.000000
45,96.000000,20.799999
46,112.000000,20.799999
47,136.000000,19.200001
48,96.000000,20.000000
49,104.000000,20.000000
50,128.000000,20.799999
51,128.000000,21.600000
52,136.000000,20.000000
53,120.000000,20.799999
54,136.000000,20.799999
55,136.000000,20.799999
56,144.000000,20.000000
57,144.000000,20.799999
58,152.000000,21.600000
59,136.000000,20.000000
60,152.000000,8.800000
61,160.000000,19.200001
62,152.000000,20.000000
63,144.000000,20.799999
64,160.000000,19.200001
65,176.000000,20.000000
66,184.000000,20.000000
67,168.000000,16.000000
68,168.000000,20.000000
69,168.000000,19.200001
70,192.000000,20.000000
71,192.000000,19.200001
72,176.000000,19.200001
73,176.000000,19.200001
74,192.000000,13.600000
75,192.000000,18.400000
76,200.000000,19.200001
77,192.000000,48.000000
78,192.000000,17.600000
79,200.000000,17.600000
80,208.000000,18.400000
81,208.000000,19.200001
82,208.000000,18.400000
83,200.000000,17.600000
84,208.000000,13.600000
85,216.000000,18.400000
86,224.000000,17.600000
87,208.000000,17.600000
88,216.000000,17.600000
89,224.000000,18.400000
90,240.000000,17.600000
91,240.000000,17.600000
92,224.000000,17.600000
93,216.000000,16.799999
94,216.000000,28.799999
95,232.000000,16.000000
96,240.000000,16.000000
97,240.000000,16.000000
98,240.000000,16.799999
99,232.000000,15.200000
100,256.000000,16.000000
101,256.000000,16.799999
102,248.000000,16.000000
103,248.000000,16.000000
104,248.000000,16.000000
105,256.000000,16.799999
106,256.000000,16.799999
107,264.000000,16.000000
108,248.000000,18.400000
109,248.000000,15.200000
110,280.000000,15.200000
111,272.000000,15.200000
112,264.000000,14.400000
113,264.000000,15.200000
114,264.000000,14.400000
115,272.000000,16.799999
116,280.000000,12.800000
117,280.000000,13.600000
118,264.000000,15.200000
119,272.000000,13.600000
120,288.000000,13.600000
121,288.000000,12.000000
122,280.000000,14.400000
123,272.000000,12.800000
124,280.000000,13.600000
125,296.000000,8.000000
126,288.000000,13.600000
127,288.000000,12.800000
128,280.000000,13.600000
129,288.000000,11.200000
130,304.000000,12.000000
131,296.000000,12.800000
132,296.000000,16.000000
133,288.000000,11.200000
134,288.000000,11.200000
135,296.000000,36.000000
136,296.000000,11.200000
137,296.000000,10.400000
138,296.000000,11.200000
139,288.000000,9.600000
140,304.000000,10.400000
141,312.000000,9.600000
142,296.000000,11.200000
143,296.000000,8.800000
144,288.000000,9.600000
145,304.000000,8.000000
146,304.000000,8.800000
147,304.000000,9.600000
148,304.000000,8.000000
149,296.000000,2.400000
150,312.000000,9.600000
151,312.000000,8.800000
152,304.000000,8.800000
153,280.000000,8.800000
154,296.000000,8.800000
155,304.000000,8.000000
156,320.000000,0.000000
157,304.000000,8.000000
158,288.000000,7.200000
159,304.000000,4.000000
160,328.000000,7.200000
161,320.000000,6.400000
162,304.000000,5.600000
163,288.000000,5.600000
164,296.000000,6.400000
165,304.000000,6.400000
166,304.000000,0.000000
167,304.000000,4.800000
168,288.000000,5.600000
169,304.000000,6.400000
170,296.000000,4.800000
171,304.000000,4.000000
172,296.000000,4.800000
173,296.000000,1.600000
174,296.000000,4.000000
175,296.000000,4.800000
176,304.000000,4.000000
177,312.000000,4.000000
178,296.000000,4.000000
179,312.000000,3.200000
180,312.000000,6.400000
181,312.000000,4.000000
182,296.000000,3.200000
183,288.000000,4.000000
184,296.000000,1.600000
185,304.000000,3.200000
186,296.000000,2.400000
187,296.000000,5.600000
188,296.000000,2.400000
189,296.000000,2.400000
190,312.000000,5.600000
191,296.000000,0.800000
192,280.000000,0.800000
193,280.000000,0.800000
194,280.000000,2.400000
195,296.000000,-0.800000
196,296.000000,0.000000
197,288.000000,-4.000000
198,288.000000,0.000000
199,280.000000,-0.800000
200,296.000000,-0.800000
201,312.000000,-0.800000
202,272.000000,-0.800000
203,272.000000,-0.800000
204,272.000000,4.000000
205,272.000000,-1.600000
206,272.000000,-0.800000
207,280.000000,-2.400000
208,264.000000,-1.600000
209,272.000000,-2.400000
210,280.000000,-4.000000
211,288.000000,-5.600000
212,272.000000,-3.200000
213,264.000000,-2.400000
214,264.000000,-3.200000
215,272.000000,-3.200000
216,272.000000,-4.000000
217,272.000000,-3.200000
218,256.000000,-7.200000
219,256.000000,-3.200000
220,272.000000,-4.800000
221,264.000000,-4.000000
222,240.000000,-4.800000
223,248.000000,-4.000000
224,240.000000,-4.800000
225,240.000000,-3.200000
226,248.000000,-4.800000
227,240.000000,-4.800000
228,224.000000,-5.600000
229,224.000000,-7.200000
230,248.000000,-5.600000
231,248.000000,-5.600000
232,232.000000,-13.600000
233,216.000000,-7.200000
234,216.000000,-7.200000
235,232.000000,-7.200000
236,232.000000,-8.000000
237,224.000000,-8.000000
238,208.000000,-7.200000
239,216.000000,-12.000000
240,224.000000,-8.000000
241,208.000000,-8.000000
242,216.000000,-18.400000
243,192.000000,-8.000000
244,192.000000,-9.600000
245,208.000000,-8.000000
246,200.000000,-8.800000
247,200.000000,-11.200000
248,200.000000,-9.600000
249,192.000000,-28.799999
250,200.000000,-10.400000
251,192.000000,-9.600000
252,184.000000,-10.400000
253,184.000000,-8.800000
254,168.000000,-12.000000
255,184.000000,-11.200000
256,168.000000,-16.799999
257,184.000000,-12.000000
258,168.000000,-10.400000
259,160.000000,-12.000000
260,176.000000,-12.000000
261,168.000000,-12.000000
262,160.000000,-12.000000
263,144.000000,-15.200000
264,152.000000,-12.000000
265,160.000000,-12.800000
266,144.000000,-12.000000
267,160.000000,-12.000000
268,136.000000,-14.400000
269,144.000000,-14.400000
270,152.000000,-16.000000
271,152.000000,-13.600000
272,128.000000,-14.400000
273,128.000000,-14.400000
274,120.000000,-13.600000
275,112.000000,-15.200000
276,136.000000,-14.400000
277,128.000000,-9.600000
278,104.000000,-14.400000
279,104.000000,-14.400000
280,112.000000,-15.200000
281,120.000000,-14.400000
282,88.000000,-16.000000
283,80.000000,-15.200000
284,80.000000,-14.400000
285,88.000000,-14.400000
286,104.000000,-15.200000
287,96.000000,-16.000000
288,80.000000,-16.000000
289,96.000000,-16.799999
290,80.000000,-16.000000
291,88.000000,-16.799999
292,56.000000,-15.200000
293,48.000000,-16.799999
294,48.000000,-18.400000
295,64.000000,-17.600000
296,64.000000,-17.600000
297,48.000000,-17.600000
298,40.000000,-14.400000
299,32.000000,-17.600000
300,48.000000,-18.400000
301,24.000000,-17.600000
302,32.000000,-17.600000
303,16.000000,-18.400000
304,16.000000,-17.600000
305,16.000000,-18.400000
306,24.000000,-17.600000
307,8.000000,-18.400000
308,0.000000,-18.400000
309,8.000000,-17.600000
310,8.000000,-19.200001
311,8.000000,-19.200001
312,-16.000000,-19.200001
313,-16.000000,-17.600000
314,-16.000000,-18.400000
315,-16.000000,-18.400000
316,-16.000000,-20.000000
317,-24.000000,-18.400000
318,-40.000000,-20.000000
319,-32.000000,-20.799999
320,-24.000000,-20.799999
321,-24.000000,-20.000000
322,-40.000000,-20.000000
323,-56.000000,-19.200001
324,-48.000000,-20.000000
325,-56.000000,-20.799999
326,-48.000000,-18.400000
327,-56.000000,-20.799999
328,-72.000000,-20.799999
329,-64.000000,-20.799999
330,-56.000000,-20.000000
331,-72.000000,-20.000000
332,-64.000000,-20.799999
333,-80.000000,-20.000000
334,-88.000000,-21.600000
335,-80.000000,-20.799999
336,-80.000000,-20.799999
337,-80.000000,-20.000000
338,-96.000000,-20.000000
339,-104.000000,-21.600000
340,-88.000000,-20.000000
341,-88.000000,-21.600000
342,-104.000000,-21.600000
343,-112.000000,-21.600000
344,-128.000000,-20.000000
345,-112.000000,-21.600000
346,-120.000000,-21.600000
347,-120.000000,-26.400000
348,-144.000000,-20.000000
349,-120.000000,-21.600000
350,-136.000000,-21.600000
351,-136.000000,-20.799999
352,-144.000000,-22.400000
353,-152.000000,-21.600000
354,-152.000000,-22.400000
355,-136.000000,-21.600000
356,-152.000000,-21.600000
357,-168.000000,-20.799999
358,-160.000000,-22.400000
359,-176.000000,-21.600000
360,-160.000000,-21.600000
361,-168.000000,-19.200001
362,-184.000000,-20.799999
363,-192.000000,-22.400000
364,-192.000000,-21.600000
365,-176.000000,-22.400000
366,-192.000000,-21.600000
367,-208.000000,-21.600000
368,-200.000000,-8.000000
369,-200.000000,-21.600000
370,-208.000000,-20.799999
371,-208.000000,-20.799999
372,-216.000000,-21.600000
373,-224.000000,-21.600000
374,-216.000000,-20.799999
375,-216.000000,-24.799999
376,-224.000000,-22.400000
377,-224.000000,-22.400000
378,-224.000000,-20.799999
379,-232.000000,-22.400000
380,-216.000000,-21.600000
381,-232.000000,-20.799999
382,-248.000000,-17.600000
383,-256.000000,-20.799999
384,-248.000000,-19.200001
385,-248.000000,-20.000000
386,-248.000000,-22.400000
387,-248.000000,-20.799999
388,-256.000000,-20.000000
389,-264.000000,-20.799999
390,-256.000000,-20.799999
391,-248.000000,-19.200001
392,-272.000000,-20.000000
393,-280.000000,-25.600000
394,-272.000000,-20.799999
395,-272.000000,-20.000000
396,-272.000000,-20.000000
397,-272.000000,-20.000000
398,-296.000000,-20.000000
399,-272.000000,-19.200001
400,-280.000000,-16.799999
401,-280.000000,-19.200001
402,-304.000000,-20.799999
403,-312.000000,-20.799999
404,-296.000000,-19.200001
405,-288.000000,-20.000000
406,-296.000000,-19.200001
407,-296.000000,-16.000000
408,-312.000000,-19.200001
409,-312.000000,-18.400000
410,-304.000000,-18.400000
411,-296.000000,-17.600000
412,-312.000000,-18.400000
413,-328.000000,-19.200001
414,-328.000000,-17.600000
415,-328.000000,-19.200001
416,-328.000000,-17.600000
417,-312.000000,-17.600000
418,-328.000000,-18.400000
419,-336.000000,-16.799999
420,-320.000000,-18.400000
421,-320.000000,-13.600000
422,-344.000000,-17.600000
423,-344.000000,-17.600000
424,-344.000000,-16.799999
425,-336.000000,-18.400000
426,-344.000000,-16.799999
427,-328.000000,-18.400000
428,-360.000000,-17.600000
429,-360.000000,-16.000000
430,-344.000000,-17.600000
431,-336.000000,-16.000000
432,-360.000000,-15.200000
433,-368.000000,-16.000000
434,-360.000000,-16.799999
435,-360.000000,-16.000000
436,-344.000000,-16.000000
437,-352.000000,-15.200000
438,-376.000000,-15.200000
439,-368.000000,-15.200000
440,-368.000000,-15.200000
441,-360.000000,-15.200000
442,-368.000000,-15.200000
443,-392.000000,-15.200000
444,-376.000000,-14.400000
445,-368.000000,-14.400000
446,-360.000000,-14.400000
447,-376.000000,-13.600000
448,-376.000000,-13.600000
449,-376.000000,0.800000
450,-376.000000,-13.600000
451,-368.000000,-13.600000
452,-384.000000,-12.000000
453,-392.000000,-14.400000
454,-392.000000,-12.000000
455,-384.000000,-12.000000
456,-368.000000,-10.400000
457,-384.000000,-12.000000
458,-384.000000,-11.200000
459,-376.000000,-12.000000
460,-376.000000,-6.400000
461,-384.000000,-12.000000
462,-392.000000,-11.200000
463,-392.000000,-11.200000
464,-384.000000,-12.000000
465,-392.000000,-9.600000
466,-384.000000,-9.600000
467,-392.000000,-13.600000
468,-400.000000,-10.400000
469,-392.000000,-8.800000
470,-384.000000,-8.800000
471,-384.000000,-8.000000
472,-400.000000,-8.000000
473,-408.000000,-8.800000
474,-392.000000,-7.200000
475,-392.000000,-8.800000
476,-384.000000,-8.000000
477,-392.000000,-8.000000
478,-408.000000,-6.400000
479,-392.000000,-7.200000
480,-384.000000,-7.200000
481,-368.000000,-11.200000
482,-392.000000,-6.400000
483,-400.000000,-5.600000
484,-392.000000,-5.600000
485,-384.000000,-5.600000
486,-384.000000,-6.400000
487,-384.000000,-5.600000
488,-392.000000,-5.600000
489,-392.000000,-4.800000
490,-376.000000,-4.800000
491,-376.000000,-4.000000
492,-384.000000,-4.000000
493,-392.000000,-4.000000
494,-384.000000,-3.200000
495,-368.000000,10.400000
496,-376.000000,-4.000000
497,-368.000000,-4.800000
498,-384.000000,-2.400000
499,-384.000000,-2.400000
500,-360.000000,-2.400000
501,-368.000000,-2.400000
502,-384.000000,-0.800000
503,-392.000000,-1.600000
504,-392.000000,-0.800000
505,-376.000000,-2.400000
506,-368.000000,-6.400000
507,-360.000000,-0.800000
508,-384.000000,0.000000
509,-368.000000,0.000000
510,-360.000000,0.800000
511,-352.000000,0.800000
512,-360.000000,0.000000
513,-368.000000,0.000000
514,-360.000000,0.800000
515,-352.000000,0.800000
516,-352.000000,1.600000
517,-352.000000,0.800000
518,-368.000000,0.000000
519,-360.000000,1.600000
520,-344.000000,4.800000
521,-344.000000,1.600000
522,-344.000000,1.600000
523,-352.000000,2.400000
524,-344.000000,3.200000
525,-336.000000,2.400000
526,-344.000000,3.200000
527,-344.000000,6.400000
528,-352.000000,4.000000
529,-344.000000,4.800000
530,-328.000000,4.000000
531,-320.000000,5.600000
532,-336.000000,4.800000
533,-328.000000,5.600000
534,-328.000000,-4.800000
535,-320.000000,4.800000
536,-312.000000,6.400000
537,-320.000000,5.600000
538,-328.000000,-1.600000
539,-320.000000,6.400000
540,-304.000000,7.200000
541,-304.000000,7.200000
542,-312.000000,6.400000
543,-320.000000,7.200000
544,-312.000000,8.000000
545,-296.000000,6.400000
546,-296.000000,7.200000
547,-296.000000,8.800000
548,-312.000000,8.800000
549,-296.000000,8.800000
550,-288.000000,8.800000
551,-280.000000,8.000000
552,-288.000000,11.200000
553,-296.000000,8.800000
554,-288.000000,8.800000
555,-272.000000,10.400000
556,-272.000000,10.400000
557,-280.000000,9.600000
558,-272.000000,10.400000
559,-264.000000,23.200001
560,-248.000000,10.400000
561,-256.000000,11.200000
562,-256.000000,12.000000
563,-264.000000,9.600000
564,-264.000000,11.200000
565,-256.000000,12.000000
566,-248.000000,12.000000
567,-240.000000,11.200000
568,-248.000000,12.800000
569,-248.000000,13.600000
570,-224.000000,16.000000
571,-232.000000,13.600000
572,-224.000000,13.600000
573,-232.000000,12.800000
574,-224.000000,13.600000
575,-216.000000,13.600000
576,-216.000000,13.600000
577,-208.000000,8.000000
578,-216.000000,14.400000
579,-216.000000,13.600000
580,-184.000000,15.200000
581,-200.000000,15.200000
582,-200.000000,14.400000
583,-200.000000,14.400000
584,-200.000000,10.400000
585,-184.000000,15.200000
586,-176.000000,15.200000
587,-176.000000,16.000000
588,-176.000000,16.000000
589,-176.000000,16.799999
590,-160.000000,16.799999
591,-160.000000,26.400000
592,-168.000000,16.000000
593,-176.000000,16.799999
594,-160.000000,16.799999
595,-144.000000,16.000000
596,-144.000000,17.600000
597,-144.000000,17.600000
598,-160.000000,17.600000
599,-144.000000,16.799999
600,-128.000000,17.600000
601,-128.000000,17.600000
602,-128.000000,16.799999
603,-128.000000,18.400000
604,-136.000000,18.400000
605,-112.000000,17.600000
606,-104.000000,17.600000
607,-120.000000,18.400000
608,-120.000000,17.600000
609,-104.000000,19.200001
610,-96.000000,17.600000
611,-80.000000,17.600000
612,-96.000000,18.400000
613,-104.000000,17.600000
614,-104.000000,17.600000
615,-96.000000,19.200001
616,-88.000000,0.800000
617,-88.000000,17.600000
618,-88.000000,19.200001
619,-80.000000,19.200001
620,-64.000000,16.799999
621,-56.000000,19.200001
622,-64.000000,19.200001
623,-64.000000,20.000000
624,-64.000000,19.200001
625,-64.000000,20.799999
626,-40.000000,20.000000
627,-32.000000,16.799999
628,-40.000000,20.000000
629,-40.000000,20.000000
630,-16.000000,20.000000
631,-24.000000,20.000000
632,-24.000000,20.799999
633,-32.000000,20.799999
634,-24.000000,21.600000
635,-8.000000,20.799999
636,0.000000,20.000000
637,0.000000,20.000000
638,-8.000000,20.000000
639,-8.000000,21.600000
640,8.000000,20.000000
641,16.000000,16.799999
642,8.000000,20.799999
643,16.000000,20.000000
644,24.000000,20.799999
645,24.000000,20.799999
646,16.000000,20.000000
647,24.000000,21.600000
648,16.000000,24.000000
649,40.000000,20.799999
650,48.000000,20.799999
651,56.000000,21.600000
652,32.000000,27.200001
653,40.000000,20.799999
654,48.000000,22.400000
655,64.000000,21.600000
656,72.000000,20.799999
657,72.000000,22.400000
658,64.000000,20.000000
659,72.000000,20.000000
660,104.000000,21.600000
661,72.000000,21.600000
662,72.000000,20.799999
663,80.000000,20.799999
664,80.000000,20.799999
665,96.000000,20.799999
666,104.000000,16.799999
667,96.000000,20.799999
668,88.000000,20.799999
669,112.000000,20.799999
670,120.000000,22.400000
671,112.000000,20.000000
672,104.000000,20.799999
673,104.000000,16.799999
674,120.000000,20.000000
675,136.000000,20.799999
676,128.000000,20.000000
677,128.000000,18.400000
678,120.000000,20.799999
679,136.000000,20.000000
680,152.000000,12.000000
681,144.000000,19.200001
682,136.000000,20.000000
683,136.000000,20.799999
684,136.000000,12.000000
685,152.000000,20.000000
686,152.000000,19.200001
687,136.000000,20.000000
688,160.000000,20.000000
689,160.000000,21.600000
690,176.000000,20.799999
691,176.000000,19.200001
692,160.000000,20.799999
693,176.000000,20.000000
694,176.000000,20.799999
695,192.000000,20.799999
696,184.000000,18.400000
697,184.000000,18.400000
698,184.000000,20.799999
699,192.000000,19.200001
700,192.000000,18.400000
701,200.000000,20.000000
702,200.000000,19.200001
703,192.000000,19.200001
704,192.000000,19.200001
705,208.000000,18.400000
706,208.000000,17.600000
707,208.000000,17.600000
708,200.000000,17.600000
709,216.000000,16.000000
710,216.000000,17.600000
711,216.000000,19.200001
712,208.000000,6.400000
713,208.000000,18.400000
714,224.000000,18.400000
715,224.000000,17.600000
716,232.000000,16.799999
717,232.000000,16.799999
718,224.000000,17.600000
719,232.000000,16.799999
720,248.000000,16.799999
721,248.000000,18.400000
722,240.000000,16.000000
723,232.000000,15.200000
724,248.000000,16.799999
725,240.000000,16.799999
726,248.000000,16.799999
727,248.000000,16.000000
728,248.000000,16.000000
729,264.000000,16.799999
730,272.000000,14.400000
731,264.000000,16.000000
732,256.000000,14.400000
733,248.000000,15.200000
734,264.000000,16.000000
735,272.000000,14.400000
736,272.000000,15.200000
737,280.000000,7.200000
738,264.000000,14.400000
739,272.000000,14.400000
740,280.000000,16.000000
741,272.000000,12.800000
742,272.000000,14.400000
743,264.000000,15.200000
744,272.000000,16.000000
745,280.000000,13.600000
746,288.000000,12.800000
747,272.000000,14.400000
748,288.000000,12.000000
749,288.000000,12.000000
750,288.000000,12.800000
751,288.000000,12.800000
752,280.000000,13.600000
753,288.000000,13.600000
754,288.000000,12.000000
755,288.000000,24.000000
756,296.000000,12.000000
757,288.000000,12.000000
758,288.000000,11.200000
759,296.000000,12.000000
760,296.000000,12.000000
761,304.000000,12.000000
762,288.000000,13.600000
763,280.000000,10.400000
764,304.000000,9.600000
765,304.000000,10.400000
766,304.000000,8.000000
767,296.000000,9.600000
768,288.000000,9.600000
769,296.000000,11.200000
770,312.000000,8.800000
771,304.000000,9.600000
772,304.000000,9.600000
773,288.000000,12.800000
774,312.000000,8.000000
775,312.000000,9.600000
776,312.000000,8.000000
777,296.000000,8.000000
778,296.000000,8.800000
779,288.000000,6.400000
780,296.000000,8.000000
781,328.000000,8.800000
782,304.000000,7.200000
