lab2_frequencies/100Hz.csv

Channel              :,CH1,CH2
Frequency            :,100.0Hz,100.1Hz
Period               :,10.00ms,9.987ms
PK-PK                :,860.0mV,576.0mV
Probe attenuation    :,1X,1X
Voltage per ADC value:,1.250000mV,0.500000mV
Time interval        :,20.00000uS,20.00000uS

index,CH1_Voltage(mV),CH2_Voltage(mV)
1,-560.000000,-200.000000
2,-560.000000,-200.000000
3,-540.000000,-200.000000
4,-560.000000,-192.000000
5,-540.000000,-192.000000
6,-560.000000,-192.000000
7,-540.000000,-184.000000
8,-540.000000,-184.000000
9,-560.000000,-184.000000
10,-520.000000,-176.000000
11,-540.000000,-176.000000
12,-540.000000,-176.000000
13,-540.000000,-176.000000
14,-540.000000,-168.000000
15,-560.000000,-168.000000
16,-540.000000,-160.000000
17,-540.000000,-160.000000
18,-540.000000,-160.000000
19,-540.000000,-152.000000
20,-540.000000,-152.000000
21,-540.000000,-152.000000
22,-540.000000,-144.000000
23,-540.000000,-144.000000
24,-540.000000,-144.000000
25,-520.000000,-144.000000
26,-520.000000,-144.000000
27,-540.000000,-120.000000
28,-520.000000,-128.000000
29,-520.000000,-128.000000
30,-520.000000,-128.000000
31,-520.000000,-120.000000
32,-500.000000,-120.000000
33,-500.000000,-112.000000
34,-500.000000,-112.000000
35,-500.000000,-104.000000
36,-500.000000,-104.000000
37,-500.000000,-104.000000
38,-500.000000,-104.000000
39,-480.000000,-96.000000
40,-500.000000,-88.000000
41,-500.000000,-88.000000
42,-480.000000,-88.000000
43,-500.000000,-80.000000
44,-480.000000,-80.000000
45,-500.000000,-80.000000
46,-480.000000,-72.000000
47,-480.000000,-72.000000
48,-460.000000,-72.000000
49,-460.000000,-64.000000
50,-460.000000,-64.000000
51,-460.000000,-56.000000
52,-460.000000,-56.000000
53,-460.000000,-56.000000
54,-460.000000,-56.000000
55,-460.000000,-48.000000
56,-460.000000,-48.000000
57,-440.000000,-40.000000
58,-460.000000,-40.000000
59,-440.000000,-40.000000
60,-440.000000,-32.000000
61,-440.000000,0.000000
62,-440.000000,-24.000000
63,-420.000000,-24.000000
64,-420.000000,-16.000000
65,-420.000000,-16.000000
66,-400.000000,-8.000000
67,-400.000000,-8.000000
68,-420.000000,-8.000000
69,-380.000000,0.000000
70,-380.000000,0.000000
71,-400.000000,0.000000
72,-400.000000,8.000000
73,-380.000000,8.000000
74,-380.000000,8.000000
75,-380.000000,24.000000
76,-360.000000,24.000000
77,-360.000000,24.000000
78,-360.000000,24.000000
79,-380.000000,32.000000
80,-360.000000,32.000000
81,-360.000000,32.000000
82,-340.000000,40.000000
83,-360.000000,48.000000
84,-340.000000,48.000000
85,-340.000000,48.000000
86,-320.000000,56.000000
87,-320.000000,56.000000
88,-320.000000,64.000000
89,-320.000000,64.000000
90,-300.000000,72.000000
91,-300.000000,72.000000
92,-300.000000,72.000000
93,-300.000000,80.000000
94,-280.000000,80.000000
95,-300.000000,88.000000
96,-280.000000,88.000000
97,-260.000000,88.000000
98,-280.000000,96.000000
99,-240.000000,96.000000
100,-260.000000,96.000000
101,-280.000000,112.000000
102,-240.000000,104.000000
103,-240.000000,104.000000
104,-260.000000,112.000000
105,-220.000000,120.000000
106,-220.000000,120.000000
107,-240.000000,120.000000
108,-240.000000,120.000000
109,-220.000000,120.000000
110,-220.000000,136.000000
111,-220.000000,136.000000
112,-180.000000,136.000000
113,-180.000000,136.000000
114,-200.000000,144.000000
115,-180.000000,144.000000
116,-180.000000,144.000000
117,-180.000000,152.000000
118,-160.000000,152.000000
119,-160.000000,152.000000
120,-140.000000,160.000000
121,-160.000000,160.000000
122,-140.000000,152.000000
123,-160.000000,168.000000
124,-160.000000,176.000000
125,-140.000000,176.000000
126,-120.000000,176.000000
127,-120.000000,176.000000
128,-140.000000,168.000000
129,-120.000000,184.000000
130,-100.000000,184.000000
131,-120.000000,184.000000
132,-100.000000,192.000000
133,-100.000000,184.000000
134,-100.000000,192.000000
135,-80.000000,192.000000
136,-100.000000,200.000000
137,-80.000000,200.000000
138,-80.000000,200.000000
139,-60.000000,200.000000
140,-80.000000,200.000000
141,-80.000000,208.000000
142,-80.000000,216.000000
143,-40.000000,208.000000
144,-40.000000,208.000000
145,-40.000000,208.000000
146,-20.000000,216.000000
147,-20.000000,216.000000
148,-60.000000,216.000000
149,-20.000000,216.000000
150,0.000000,224.000000
151,-20.000000,224.000000
152,0.000000,224.000000
153,0.000000,224.000000
154,0.000000,232.000000
155,0.000000,232.000000
156,20.000000,232.000000
157,40.000000,240.000000
158,20.000000,240.000000
159,40.000000,240.000000
160,40.000000,240.000000
161,40.000000,240.000000
162,40.000000,248.000000
163,40.000000,240.000000
164,40.000000,248.000000
165,60.000000,248.000000
166,60.000000,248.000000
167,60.000000,248.000000
168,80.000000,248.000000
169,60.000000,248.000000
170,80.000000,248.000000
171,80.000000,248.000000
172,80.000000,256.000000
173,80.000000,248.000000
174,100.000000,256.000000
175,100.000000,256.000000
176,100.000000,256.000000
177,120.000000,264.000000
178,100.000000,256.000000
179,120.000000,264.000000
180,120.000000,264.000000
181,120.000000,256.000000
182,120.000000,264.000000
183,140.000000,248.000000
184,140.000000,256.000000
185,140.000000,264.000000
186,140.000000,256.000000
187,160.000000,264.000000
188,160.000000,256.000000
189,160.000000,256.000000
190,180.000000,264.000000
191,180.000000,264.000000
192,160.000000,264.000000
193,180.000000,256.000000
194,200.000000,264.000000
195,160.000000,264.000000
196,160.000000,264.000000
197,200.000000,264.000000
198,180.000000,264.000000
199,200.000000,264.000000
200,200.000000,264.000000
201,200.000000,256.000000
202,200.000000,256.000000
203,220.000000,264.000000
204,200.000000,264.000000
205,200.000000,256.000000
206,220.000000,256.000000
207,220.000000,264.000000
208,220.000000,256.000000
209,220.000000,256.000000
210,220.000000,256.000000
211,220.000000,256.000000
212,240.000000,256.000000
213,220.000000,256.000000
214,220.000000,256.000000
215,240.000000,248.000000
216,220.000000,248.000000
217,240.000000,248.000000
218,240.000000,248.000000
219,220.000000,248.000000
220,260.000000,248.000000
221,240.000000,248.000000
222,240.000000,248.000000
223,240.000000,240.000000
224,260.000000,240.000000
225,240.000000,240.000000
226,260.000000,240.000000
227,240.000000,240.000000
228,260.000000,240.000000
229,240.000000,240.000000
230,260.000000,248.000000
231,260.000000,232.000000
232,260.000000,232.000000
233,260.000000,224.000000
234,260.000000,224.000000
235,260.000000,224.000000
236,260.000000,224.000000
237,240.000000,224.000000
238,260.000000,216.000000
239,260.000000,216.000000
240,260.000000,216.000000
241,260.000000,216.000000
242,260.000000,208.000000
243,260.000000,216.000000
244,280.000000,184.000000
245,280.000000,208.000000
246,260.000000,200.000000
247,260.000000,208.000000
248,280.000000,200.000000
249,260.000000,200.000000
250,260.000000,200.000000
251,280.000000,192.000000
252,260.000000,192.000000
253,260.000000,192.000000
254,260.000000,184.000000
255,260.000000,184.000000
256,260.000000,184.000000
257,260.000000,184.000000
258,260.000000,176.000000
259,260.000000,176.000000
260,260.000000,176.000000
261,260.000000,168.000000
262,280.000000,168.000000
263,260.000000,168.000000
264,260.000000,168.000000
265,260.000000,160.000000
266,240.000000,160.000000
267,260.000000,152.000000
268,260.000000,152.000000
269,260.000000,144.000000
270,260.000000,144.000000
271,260.000000,144.000000
272,260.000000,144.000000
273,260.000000,136.000000
274,240.000000,128.000000
275,240.000000,128.000000
276,240.000000,128.000000
277,240.000000,128.000000
278,240.000000,112.000000
279,240.000000,120.000000
280,240.000000,120.000000
281,240.000000,112.000000
282,220.000000,104.000000
283,240.000000,112.000000
284,220.000000,104.000000
285,240.000000,104.000000
286,220.000000,96.000000
287,220.000000,88.000000
288,240.000000,96.000000
289,220.000000,88.000000
290,220.000000,80.000000
291,200.000000,88.000000
292,200.000000,72.000000
293,220.000000,72.000000
294,200.000000,72.000000
295,180.000000,64.000000
296,200.000000,64.000000
297,180.000000,64.000000
298,180.000000,64.000000
299,180.000000,56.000000
300,180.000000,56.000000
301,180.000000,48.000000
302,180.000000,48.000000
303,180.000000,48.000000
304,180.000000,40.000000
305,160.000000,24.000000
306,160.000000,40.000000
307,160.000000,32.000000
308,140.000000,24.000000
309,160.000000,24.000000
310,140.000000,16.000000
311,140.000000,24.000000
312,140.000000,16.000000
313,140.000000,16.000000
314,120.000000,8.000000
315,120.000000,0.000000
316,100.000000,8.000000
317,100.000000,0.000000
318,100.000000,-8.000000
319,120.000000,-8.000000
320,100.000000,-8.000000
321,80.000000,-16.000000
322,100.000000,-16.000000
323,100.000000,-16.000000
324,80.000000,-24.000000
325,80.000000,-32.000000
326,60.000000,-32.000000
327,80.000000,-40.000000
328,80.000000,-40.000000
329,60.000000,-48.000000
330,60.000000,-48.000000
331,60.000000,-48.000000
332,60.000000,-48.000000
333,40.000000,-56.000000
334,40.000000,-56.000000
335,40.000000,-64.000000
336,40.000000,-56.000000
337,40.000000,-72.000000
338,20.000000,-72.000000
339,20.000000,-64.000000
340,0.000000,-80.000000
341,20.000000,-80.000000
342,0.000000,-80.000000
343,20.000000,-80.000000
344,0.000000,-96.000000
345,0.000000,-88.000000
346,-20.000000,-96.000000
347,-20.000000,-96.000000
348,-20.000000,-104.000000
349,-20.000000,-104.000000
350,-40.000000,-104.000000
351,-20.000000,-112.000000
352,-40.000000,-112.000000
353,-40.000000,-120.000000
354,-60.000000,-120.000000
355,-40.000000,-128.000000
356,-80.000000,-128.000000
357,-60.000000,-128.000000
358,-80.000000,-136.000000
359,-80.000000,-136.000000
360,-80.000000,-144.000000
361,-60.000000,-144.000000
362,-80.000000,-144.000000
363,-100.000000,-144.000000
364,-100.000000,-152.000000
365,-100.000000,-152.000000
366,-100.000000,-144.000000
367,-120.000000,-160.000000
368,-120.000000,-160.000000
369,-140.000000,-160.000000
370,-140.000000,-168.000000
371,-160.000000,-168.000000
372,-160.000000,-160.000000
373,-140.000000,-176.000000
374,-160.000000,-176.000000
375,-160.000000,-176.000000
376,-160.000000,-184.000000
377,-160.000000,-184.000000
378,-160.000000,-184.000000
379,-180.000000,-192.000000
380,-180.000000,-192.000000
381,-200.000000,-192.000000
382,-180.000000,-200.000000
383,-200.000000,-192.000000
384,-200.000000,-192.000000
385,-220.000000,-200.000000
386,-240.000000,-208.000000
387,-220.000000,-208.000000
388,-220.000000,-216.000000
389,-220.000000,-208.000000
390,-240.000000,-216.000000
391,-240.000000,-216.000000
392,-240.000000,-216.000000
393,-240.000000,-216.000000
394,-280.000000,-224.000000
395,-260.000000,-224.000000
396,-260.000000,-232.000000
397,-280.000000,-224.000000
398,-260.000000,-232.000000
399,-280.000000,-232.000000
400,-280.000000,-240.000000
401,-300.000000,-232.000000
402,-300.000000,-240.000000
403,-280.000000,-232.000000
404,-300.000000,-232.000000
405,-300.000000,-240.000000
406,-300.000000,-232.000000
407,-320.000000,-248.000000
408,-320.000000,-248.000000
409,-320.000000,-248.000000
410,-340.000000,-240.000000
411,-320.000000,-248.000000
412,-340.000000,-248.000000
413,-360.000000,-256.000000
414,-340.000000,-256.000000
415,-340.000000,-256.000000
416,-360.000000,-256.000000
417,-360.000000,-256.000000
418,-360.000000,-256.000000
419,-360.000000,-264.000000
420,-380.000000,-256.000000
421,-360.000000,-264.000000
422,-380.000000,-264.000000
423,-360.000000,-264.000000
424,-380.000000,-264.000000
425,-400.000000,-264.000000
426,-400.000000,-272.000000
427,-400.000000,-256.000000
428,-400.000000,-272.000000
429,-400.000000,-264.000000
430,-420.000000,-264.000000
431,-400.000000,-272.000000
432,-420.000000,-272.000000
433,-420.000000,-264.000000
434,-420.000000,-272.000000
435,-420.000000,-272.000000
436,-420.000000,-272.000000
437,-420.000000,-272.000000
438,-420.000000,-272.000000
439,-420.000000,-272.000000
440,-440.000000,-264.000000
441,-440.000000,-272.000000
442,-440.000000,-272.000000
443,-440.000000,-272.000000
444,-460.000000,-272.000000
445,-460.000000,-272.000000
446,-460.000000,-272.000000
447,-440.000000,-272.000000
448,-460.000000,-272.000000
449,-460.000000,-272.000000
450,-480.000000,-272.000000
451,-460.000000,-264.000000
452,-480.000000,-272.000000
453,-480.000000,-272.000000
454,-480.000000,-272.000000
455,-480.000000,-264.000000
456,-480.000000,-264.000000
457,-480.000000,-264.000000
458,-500.000000,-264.000000
459,-480.000000,-264.000000
460,-500.000000,-264.000000
461,-500.000000,-240.000000
462,-500.000000,-264.000000
463,-520.000000,-256.000000
464,-500.000000,-264.000000
465,-520.000000,-256.000000
466,-500.000000,-264.000000
467,-520.000000,-264.000000
468,-520.000000,-256.000000
469,-520.000000,-256.000000
470,-520.000000,-256.000000
471,-520.000000,-256.000000
472,-500.000000,-248.000000
473,-520.000000,-256.000000
474,-520.000000,-256.000000
475,-520.000000,-248.000000
476,-520.000000,-248.000000
477,-520.000000,-248.000000
478,-520.000000,-248.000000
479,-520.000000,-248.000000
480,-540.000000,-240.000000
481,-520.000000,-240.000000
482,-540.000000,-240.000000
483,-540.000000,-240.000000
484,-540.000000,-240.000000
485,-540.000000,-232.000000
486,-520.000000,-232.000000
487,-540.000000,-232.000000
488,-540.000000,-224.000000
489,-540.000000,-224.000000
490,-520.000000,-224.000000
491,-540.000000,-216.000000
492,-540.000000,-224.000000
493,-540.000000,-216.000000
494,-540.000000,-224.000000
495,-540.000000,-216.000000
496,-540.000000,-216.000000
497,-560.000000,-208.000000
498,-540.000000,-208.000000
499,-540.000000,-200.000000
500,-560.000000,-208.000000
501,-540.000000,-200.000000
502,-540.000000,-192.000000
503,-540.000000,-200.000000
504,-560.000000,-192.000000
505,-540.000000,-192.000000
506,-540.000000,-192.000000
507,-540.000000,-192.000000
508,-540.000000,-176.000000
509,-540.000000,-184.000000
510,-540.000000,-184.000000
511,-540.000000,-176.000000
512,-540.000000,-176.000000
513,-540.000000,-176.000000
514,-540.000000,-168.000000
515,-540.000000,-168.000000
516,-520.000000,-168.000000
517,-540.000000,-160.000000
518,-520.000000,-160.000000
519,-540.000000,-152.000000
520,-540.000000,-152.000000
521,-540.000000,-152.000000
522,-520.000000,-160.000000
523,-540.000000,-144.000000
524,-520.000000,-144.000000
525,-520.000000,-136.000000
526,-520.000000,-144.000000
527,-520.000000,-136.000000
528,-520.000000,-144.000000
529,-520.000000,-128.000000
530,-520.000000,-128.000000
531,-500.000000,-120.000000
532,-500.000000,-120.000000
533,-500.000000,-120.000000
534,-500.000000,-112.000000
535,-500.000000,-112.000000
536,-500.000000,-112.000000
537,-500.000000,-104.000000
538,-480.000000,-104.000000
539,-500.000000,-96.000000
540,-480.000000,-96.000000
541,-500.000000,-88.000000
542,-480.000000,-88.000000
543,-480.000000,-88.000000
544,-500.000000,-80.000000
545,-460.000000,-80.000000
546,-480.000000,-72.000000
547,-480.000000,-72.000000
548,-460.000000,-72.000000
549,-460.000000,-72.000000
550,-460.000000,-64.000000
551,-440.000000,-64.000000
552,-460.000000,-56.000000
553,-460.000000,-56.000000
554,-440.000000,-56.000000
555,-440.000000,-48.000000
556,-460.000000,-48.000000
557,-440.000000,-40.000000
558,-440.000000,-32.000000
559,-440.000000,-40.000000
560,-440.000000,-24.000000
561,-420.000000,-32.000000
562,-420.000000,-24.000000
563,-420.000000,-24.000000
564,-420.000000,-16.000000
565,-400.000000,-16.000000
566,-400.000000,-8.000000
567,-400.000000,-8.000000
568,-400.000000,0.000000
569,-400.000000,8.000000
570,-400.000000,0.000000
571,-380.000000,8.000000
572,-380.000000,8.000000
573,-380.000000,8.000000
574,-360.000000,16.000000
575,-380.000000,16.000000
576,-380.000000,24.000000
577,-360.000000,24.000000
578,-380.000000,32.000000
579,-360.000000,24.000000
580,-340.000000,32.000000
581,-360.000000,40.000000
582,-320.000000,40.000000
583,-340.000000,32.000000
584,-340.000000,48.000000
585,-340.000000,48.000000
586,-320.000000,56.000000
587,-340.000000,56.000000
588,-320.000000,64.000000
589,-320.000000,56.000000
590,-320.000000,72.000000
591,-300.000000,72.000000
592,-300.000000,72.000000
593,-300.000000,72.000000
594,-300.000000,80.000000
595,-300.000000,88.000000
596,-300.000000,88.000000
597,-280.000000,88.000000
598,-280.000000,96.000000
599,-280.000000,96.000000
600,-260.000000,88.000000
601,-260.000000,104.000000
602,-260.000000,104.000000
603,-260.000000,112.000000
604,-260.000000,112.000000
605,-240.000000,112.000000
606,-240.000000,112.000000
607,-240.000000,120.000000
608,-240.000000,128.000000
609,-240.000000,128.000000
610,-220.000000,128.000000
611,-220.000000,136.000000
612,-200.000000,136.000000
613,-200.000000,136.000000
614,-200.000000,144.000000
615,-200.000000,144.000000
616,-180.000000,144.000000
617,-180.000000,152.000000
618,-180.000000,152.000000
619,-180.000000,160.000000
620,-180.000000,160.000000
621,-160.000000,160.000000
622,-160.000000,168.000000
623,-140.000000,168.000000
624,-140.000000,168.000000
625,-160.000000,168.000000
626,-140.000000,176.000000
627,-140.000000,176.000000
628,-140.000000,176.000000
629,-120.000000,184.000000
630,-120.000000,192.000000
631,-120.000000,184.000000
632,-100.000000,184.000000
633,-100.000000,192.000000
634,-80.000000,192.000000
635,-80.000000,192.000000
636,-80.000000,192.000000
637,-80.000000,200.000000
638,-80.000000,208.000000
639,-80.000000,200.000000
640,-60.000000,200.000000
641,-60.000000,208.000000
642,-60.000000,208.000000
643,-60.000000,208.000000
644,-40.000000,184.000000
645,-40.000000,216.000000
646,-40.000000,208.000000
647,-40.000000,216.000000
648,-20.000000,224.000000
649,-20.000000,216.000000
650,0.000000,216.000000
651,-20.000000,224.000000
652,0.000000,224.000000
653,0.000000,224.000000
654,0.000000,232.000000
655,0.000000,232.000000
656,20.000000,240.000000
657,20.000000,232.000000
658,0.000000,240.000000
659,20.000000,240.000000
660,40.000000,240.000000
661,40.000000,240.000000
662,40.000000,240.000000
663,40.000000,240.000000
664,60.000000,248.000000
665,40.000000,248.000000
666,60.000000,240.000000
667,60.000000,248.000000
668,60.000000,248.000000
669,60.000000,256.000000
670,60.000000,248.000000
671,80.000000,256.000000
672,100.000000,256.000000
673,100.000000,256.000000
674,100.000000,256.000000
675,100.000000,256.000000
676,100.000000,256.000000
677,100.000000,256.000000
678,120.000000,248.000000
679,120.000000,256.000000
680,120.000000,256.000000
681,120.000000,256.000000
682,120.000000,256.000000
683,140.000000,264.000000
684,120.000000,264.000000
685,120.000000,264.000000
686,160.000000,264.000000
687,140.000000,256.000000
688,160.000000,256.000000
689,160.000000,256.000000
690,160.000000,256.000000
691,160.000000,256.000000
692,140.000000,256.000000
693,180.000000,264.000000
694,180.000000,264.000000
695,160.000000,264.000000
696,180.000000,264.000000
697,180.000000,264.000000
698,180.000000,264.000000
699,200.000000,264.000000
700,200.000000,264.000000
701,180.000000,256.000000
702,200.000000,256.000000
703,180.000000,264.000000
704,180.000000,264.000000
705,200.000000,280.000000
706,200.000000,256.000000
707,200.000000,256.000000
708,220.000000,256.000000
709,200.000000,256.000000
710,220.000000,256.000000
711,200.000000,264.000000
712,220.000000,256.000000
713,220.000000,256.000000
714,240.000000,256.000000
715,220.000000,256.000000
716,240.000000,256.000000
717,240.000000,256.000000
718,240.000000,248.000000
719,240.000000,248.000000
720,220.000000,248.000000
721,240.000000,248.000000
722,220.000000,248.000000
723,240.000000,248.000000
724,240.000000,240.000000
725,240.000000,240.000000
726,260.000000,240.000000
727,240.000000,240.000000
728,240.000000,232.000000
729,260.000000,232.000000
730,260.000000,232.000000
731,240.000000,232.000000
732,240.000000,240.000000
733,240.000000,224.000000
734,240.000000,232.000000
735,260.000000,224.000000
736,260.000000,224.000000
737,260.000000,224.000000
738,260.000000,216.000000
739,260.000000,216.000000
740,260.000000,216.000000
741,260.000000,216.000000
742,240.000000,216.000000
743,260.000000,208.000000
744,260.000000,208.000000
745,260.000000,208.000000
