lab2_frequencies/10Hz.csv

Channel              :,CH1,CH2
Frequency            :,10.01Hz,10.00Hz
Period               :,99.86ms,100.0ms
PK-PK                :,1.600V,284.0mV
Probe attenuation    :,1X,1X
Voltage per ADC value:,1.250000mV,0.250000mV
Time interval        :,100.00000uS,100.00000uS

index,CH1_Voltage(mV),CH2_Voltage(mV)
1,580.000000,100.000000
2,580.000000,100.000000
3,600.000000,100.000000
4,600.000000,100.000000
5,620.000000,100.000000
6,600.000000,100.000000
7,600.000000,96.000000
8,620.000000,100.000000
9,600.000000,100.000000
10,580.000000,96.000000
11,600.000000,100.000000
12,580.000000,96.000000
13,580.000000,100.000000
14,580.000000,96.000000
15,580.000000,100.000000
16,580.000000,96.000000
17,580.000000,96.000000
18,580.000000,96.000000
19,580.000000,96.000000
20,580.000000,100.000000
21,580.000000,96.000000
22,580.000000,100.000000
23,580.000000,96.000000
24,560.000000,96.000000
25,580.000000,96.000000
26,560.000000,96.000000
27,560.000000,96.000000
28,580.000000,92.000000
29,580.000000,96.000000
30,560.000000,92.000000
31,600.000000,92.000000
32,580.000000,92.000000
33,580.000000,92.000000
34,580.000000,92.000000
35,580.000000,92.000000
36,580.000000,92.000000
37,600.000000,92.000000
38,580.000000,92.000000
39,580.000000,92.000000
40,560.000000,88.000000
41,580.000000,88.000000
42,600.000000,92.000000
43,580.000000,88.000000
44,580.000000,88.000000
45,580.000000,88.000000
46,600.000000,88.000000
47,580.000000,92.000000
48,600.000000,88.000000
49,600.000000,88.000000
50,600.000000,88.000000
51,580.000000,88.000000
52,580.000000,88.000000
53,580.000000,88.000000
54,560.000000,84.000000
55,600.000000,84.000000
56,600.000000,88.000000
57,580.000000,84.000000
58,600.000000,84.000000
59,600.000000,84.000000
60,580.000000,84.000000
61,620.000000,84.000000
62,600.000000,84.000000
63,600.000000,84.000000
64,580.000000,96.000000
65,580.000000,80.000000
66,600.000000,84.000000
67,600.000000,84.000000
68,580.000000,76.000000
69,580.000000,80.000000
70,580.000000,84.000000
71,560.000000,84.000000
72,560.000000,80.000000
73,560.000000,80.000000
74,560.000000,80.000000
75,560.000000,80.000000
76,540.000000,80.000000
77,540.000000,80.000000
78,560.000000,80.000000
79,520.000000,56.000000
80,560.000000,76.000000
81,560.000000,80.000000
82,540.000000,76.000000
83,540.000000,76.000000
84,540.000000,76.000000
85,540.000000,76.000000
86,540.000000,76.000000
87,520.000000,76.000000
88,520.000000,76.000000
89,540.000000,76.000000
90,500.000000,72.000000
91,540.000000,76.000000
92,520.000000,72.000000
93,520.000000,76.000000
94,520.000000,76.000000
95,520.000000,72.000000
96,500.000000,76.000000
97,520.000000,72.000000
98,500.000000,88.000000
99,520.000000,68.000000
100,520.000000,68.000000
101,500.000000,68.000000
102,500.000000,68.000000
103,480.000000,68.000000
104,480.000000,68.000000
105,480.000000,68.000000
106,480.000000,72.000000
107,460.000000,64.000000
108,460.000000,68.000000
109,460.000000,64.000000
110,440.000000,64.000000
111,460.000000,64.000000
112,460.000000,64.000000
113,460.000000,60.000000
114,440.000000,64.000000
115,440.000000,64.000000
116,420.000000,60.000000
117,420.000000,60.000000
118,440.000000,60.000000
119,420.000000,60.000000
120,420.000000,60.000000
121,420.000000,60.000000
122,400.000000,56.000000
123,420.000000,60.000000
124,420.000000,56.000000
125,440.000000,56.000000
126,420.000000,56.000000
127,420.000000,56.000000
128,400.000000,56.000000
129,420.000000,52.000000
130,420.000000,52.000000
131,420.000000,56.000000
132,420.000000,52.000000
133,420.000000,52.000000
134,420.000000,52.000000
135,420.000000,52.000000
136,420.000000,48.000000
137,420.000000,52.000000
138,400.000000,48.000000
139,420.000000,48.000000
140,400.000000,48.000000
141,380.000000,48.000000
142,400.000000,48.000000
143,420.000000,48.000000
144,400.000000,40.000000
145,400.000000,44.000000
146,400.000000,48.000000
147,400.000000,44.000000
148,400.000000,40.000000
149,380.000000,44.000000
150,360.000000,44.000000
151,420.000000,44.000000
152,400.000000,44.000000
153,400.000000,40.000000
154,380.000000,40.000000
155,380.000000,40.000000
156,420.000000,40.000000
157,400.000000,40.000000
158,400.000000,40.000000
159,400.000000,44.000000
160,400.000000,36.000000
161,380.000000,36.000000
162,400.000000,36.000000
163,380.000000,36.000000
164,380.000000,32.000000
165,380.000000,36.000000
166,360.000000,36.000000
167,360.000000,32.000000
168,320.000000,36.000000
169,360.000000,32.000000
170,380.000000,32.000000
171,340.000000,32.000000
172,320.000000,28.000000
173,360.000000,32.000000
174,340.000000,28.000000
175,320.000000,28.000000
176,320.000000,28.000000
177,320.000000,28.000000
178,300.000000,4.000000
179,300.000000,24.000000
180,300.000000,28.000000
181,280.000000,24.000000
182,280.000000,24.000000
183,260.000000,24.000000
184,260.000000,24.000000
185,260.000000,20.000000
186,240.000000,24.000000
187,260.000000,20.000000
188,260.000000,20.000000
189,240.000000,20.000000
190,240.000000,20.000000
191,220.000000,20.000000
192,220.000000,16.000000
193,220.000000,16.000000
194,200.000000,16.000000
195,220.000000,16.000000
196,180.000000,16.000000
197,200.000000,12.000000
198,220.000000,16.000000
199,220.000000,16.000000
200,180.000000,12.000000
201,180.000000,16.000000
202,160.000000,12.000000
203,160.000000,12.000000
204,160.000000,12.000000
205,160.000000,12.000000
206,160.000000,12.000000
207,160.000000,8.000000
208,140.000000,8.000000
209,120.000000,4.000000
210,140.000000,8.000000
211,120.000000,8.000000
212,100.000000,8.000000
213,80.000000,4.000000
214,120.000000,4.000000
215,120.000000,4.000000
216,100.000000,4.000000
217,80.000000,4.000000
218,100.000000,4.000000
219,80.000000,0.000000
220,60.000000,0.000000
221,100.000000,-4.000000
222,80.000000,0.000000
223,80.000000,-4.000000
224,60.000000,0.000000
225,60.000000,-4.000000
226,40.000000,-4.000000
227,40.000000,-4.000000
228,40.000000,-4.000000
229,40.000000,-4.000000
230,20.000000,-4.000000
231,40.000000,-8.000000
232,20.000000,-4.000000
233,40.000000,-4.000000
234,20.000000,-8.000000
235,0.000000,-12.000000
236,0.000000,-8.000000
237,20.000000,-12.000000
238,20.000000,-8.000000
239,0.000000,-12.000000
240,20.000000,-12.000000
241,0.000000,-12.000000
242,0.000000,-12.000000
243,0.000000,-16.000000
244,0.000000,-16.000000
245,0.000000,-16.000000
246,20.000000,-16.000000
247,0.000000,-12.000000
248,-20.000000,-20.000000
249,0.000000,-20.000000
250,-20.000000,-20.000000
251,-20.000000,-20.000000
252,-40.000000,-20.000000
253,-40.000000,-24.000000
254,-40.000000,-20.000000
255,-40.000000,-20.000000
256,-60.000000,-20.000000
257,-80.000000,-24.000000
258,-60.000000,-28.000000
259,-60.000000,-28.000000
260,-80.000000,-24.000000
261,-80.000000,-28.000000
262,-60.000000,-32.000000
263,-60.000000,-28.000000
264,-80.000000,-28.000000
265,-80.000000,-28.000000
266,-100.000000,-36.000000
267,-100.000000,-32.000000
268,-100.000000,-32.000000
269,-120.000000,-32.000000
270,-100.000000,-32.000000
271,-100.000000,-32.000000
272,-120.000000,-36.000000
273,-120.000000,-36.000000
274,-140.000000,-36.000000
275,-100.000000,-36.000000
276,-120.000000,-36.000000
277,-140.000000,-52.000000
278,-160.000000,-36.000000
279,-140.000000,-36.000000
280,-140.000000,-40.000000
281,-160.000000,-36.000000
282,-160.000000,-40.000000
283,-160.000000,-40.000000
284,-160.000000,-40.000000
285,-180.000000,-44.000000
286,-160.000000,-40.000000
287,-180.000000,-48.000000
288,-180.000000,-44.000000
289,-220.000000,-48.000000
290,-220.000000,-44.000000
291,-200.000000,-44.000000
292,-240.000000,-48.000000
293,-220.000000,-44.000000
294,-220.000000,-48.000000
295,-220.000000,-48.000000
296,-240.000000,-24.000000
297,-240.000000,-52.000000
298,-240.000000,-48.000000
299,-260.000000,-52.000000
300,-260.000000,-52.000000
301,-280.000000,-52.000000
302,-300.000000,-52.000000
303,-280.000000,-56.000000
304,-280.000000,-52.000000
305,-280.000000,-56.000000
306,-280.000000,-60.000000
307,-300.000000,-60.000000
308,-300.000000,-56.000000
309,-320.000000,-56.000000
310,-320.000000,-60.000000
311,-320.000000,-60.000000
312,-320.000000,-60.000000
313,-360.000000,-64.000000
314,-360.000000,-64.000000
315,-360.000000,-64.000000
316,-360.000000,-64.000000
317,-360.000000,-64.000000
318,-340.000000,-64.000000
319,-360.000000,-68.000000
320,-360.000000,-64.000000
321,-380.000000,-68.000000
322,-380.000000,-68.000000
323,-380.000000,-68.000000
324,-380.000000,-68.000000
325,-400.000000,-68.000000
326,-400.000000,-72.000000
327,-420.000000,-72.000000
328,-400.000000,-72.000000
329,-420.000000,-72.000000
330,-420.000000,-72.000000
331,-400.000000,-72.000000
332,-440.000000,-72.000000
333,-420.000000,-72.000000
334,-400.000000,-72.000000
335,-440.000000,-76.000000
336,-420.000000,-76.000000
337,-420.000000,-76.000000
338,-440.000000,-76.000000
339,-420.000000,-76.000000
340,-460.000000,-80.000000
341,-440.000000,-76.000000
342,-440.000000,-84.000000
343,-460.000000,-80.000000
344,-440.000000,-80.000000
345,-420.000000,-80.000000
346,-420.000000,-80.000000
347,-420.000000,-80.000000
348,-440.000000,-84.000000
349,-460.000000,-80.000000
350,-440.000000,-84.000000
351,-460.000000,-84.000000
352,-460.000000,-84.000000
353,-480.000000,-88.000000
354,-460.000000,-84.000000
355,-460.000000,-84.000000
356,-460.000000,-88.000000
357,-480.000000,-92.000000
358,-480.000000,-92.000000
359,-480.000000,-88.000000
360,-480.000000,-88.000000
361,-480.000000,-84.000000
362,-480.000000,-88.000000
363,-480.000000,-88.000000
364,-480.000000,-96.000000
365,-480.000000,-96.000000
366,-500.000000,-92.000000
367,-500.000000,-96.000000
368,-500.000000,-92.000000
369,-500.000000,-96.000000
370,-520.000000,-92.000000
371,-520.000000,-96.000000
372,-540.000000,-96.000000
373,-540.000000,-96.000000
374,-540.000000,-96.000000
375,-520.000000,-96.000000
376,-580.000000,-112.000000
377,-560.000000,-100.000000
378,-580.000000,-96.000000
379,-580.000000,-100.000000
380,-580.000000,-104.000000
381,-560.000000,-100.000000
382,-580.000000,-100.000000
383,-560.000000,-100.000000
384,-580.000000,-100.000000
385,-580.000000,-100.000000
386,-600.000000,-104.000000
387,-620.000000,-104.000000
388,-620.000000,-104.000000
389,-640.000000,-104.000000
390,-620.000000,-104.000000
391,-660.000000,-104.000000
392,-660.000000,-104.000000
393,-640.000000,-108.000000
394,-640.000000,-108.000000
395,-640.000000,-100.000000
396,-640.000000,-108.000000
397,-660.000000,-108.000000
398,-680.000000,-108.000000
399,-660.000000,-108.000000
400,-680.000000,-108.000000
401,-680.000000,-112.000000
402,-700.000000,-108.000000
403,-700.000000,-108.000000
404,-680.000000,-112.000000
405,-680.000000,-112.000000
406,-700.000000,-112.000000
407,-720.000000,-112.000000
408,-720.000000,-112.000000
409,-720.000000,-112.000000
410,-720.000000,-116.000000
411,-740.000000,-112.000000
412,-760.000000,-116.000000
413,-720.000000,-112.000000
414,-760.000000,-108.000000
415,-760.000000,-116.000000
416,-740.000000,-116.000000
417,-760.000000,-116.000000
418,-760.000000,-112.000000
419,-760.000000,-116.000000
420,-760.000000,-120.000000
421,-760.000000,-116.000000
422,-760.000000,-120.000000
423,-780.000000,-116.000000
424,-760.000000,-120.000000
425,-780.000000,-116.000000
426,-760.000000,-120.000000
427,-780.000000,-120.000000
428,-780.000000,-120.000000
429,-800.000000,-120.000000
430,-780.000000,-120.000000
431,-800.000000,-120.000000
432,-800.000000,-120.000000
433,-800.000000,-120.000000
434,-780.000000,-120.000000
435,-800.000000,-120.000000
436,-800.000000,-120.000000
437,-800.000000,-120.000000
438,-800.000000,-124.000000
439,-820.000000,-120.000000
440,-800.000000,-124.000000
441,-820.000000,-128.000000
442,-800.000000,-120.000000
443,-820.000000,-124.000000
444,-840.000000,-124.000000
445,-800.000000,-120.000000
446,-820.000000,-124.000000
447,-820.000000,-124.000000
448,-800.000000,-124.000000
449,-800.000000,-120.000000
450,-820.000000,-124.000000
451,-800.000000,-124.000000
452,-800.000000,-124.000000
453,-800.000000,-124.000000
454,-820.000000,-124.000000
455,-820.000000,-124.000000
456,-820.000000,-128.000000
457,-780.000000,-124.000000
458,-820.000000,-124.000000
459,-820.000000,-124.000000
460,-820.000000,-112.000000
461,-840.000000,-124.000000
462,-800.000000,-124.000000
463,-800.000000,-124.000000
464,-780.000000,-132.000000
465,-800.000000,-124.000000
466,-800.000000,-128.000000
467,-800.000000,-124.000000
468,-820.000000,-124.000000
469,-800.000000,-124.000000
470,-800.000000,-124.000000
471,-800.000000,-124.000000
472,-820.000000,-124.000000
473,-800.000000,-124.000000
474,-800.000000,-128.000000
475,-800.000000,-152.000000
476,-820.000000,-124.000000
477,-820.000000,-124.000000
478,-820.000000,-128.000000
479,-820.000000,-124.000000
480,-820.000000,-124.000000
481,-820.000000,-124.000000
482,-820.000000,-124.000000
483,-820.000000,-124.000000
484,-800.000000,-124.000000
485,-860.000000,-124.000000
486,-860.000000,-124.000000
487,-840.000000,-124.000000
488,-840.000000,-124.000000
489,-860.000000,-124.000000
490,-840.000000,-128.000000
491,-840.000000,-124.000000
492,-860.000000,-124.000000
493,-840.000000,-120.000000
494,-860.000000,-128.000000
495,-840.000000,-124.000000
496,-860.000000,-124.000000
497,-880.000000,-124.000000
498,-860.000000,-124.000000
499,-860.000000,-124.000000
500,-840.000000,-124.000000
501,-820.000000,-124.000000
502,-840.000000,-116.000000
503,-840.000000,-120.000000
504,-840.000000,-124.000000
505,-860.000000,-120.000000
506,-860.000000,-124.000000
507,-860.000000,-120.000000
508,-860.000000,-120.000000
509,-880.000000,-120.000000
510,-880.000000,-120.000000
511,-900.000000,-120.000000
512,-880.000000,-120.000000
513,-880.000000,-120.000000
514,-880.000000,-120.000000
515,-900.000000,-116.000000
516,-860.000000,-120.000000
517,-880.000000,-124.000000
518,-880.000000,-116.000000
519,-880.000000,-116.000000
520,-880.000000,-116.000000
521,-900.000000,-120.000000
522,-900.000000,-116.000000
523,-880.000000,-116.000000
524,-900.000000,-116.000000
525,-900.000000,-124.000000
526,-880.000000,-116.000000
527,-880.000000,-116.000000
528,-860.000000,-116.000000
529,-860.000000,-112.000000
530,-860.000000,-112.000000
531,-860.000000,-112.000000
532,-860.000000,-112.000000
533,-840.000000,-112.000000
534,-840.000000,-112.000000
535,-860.000000,-112.000000
536,-840.000000,-108.000000
537,-840.000000,-112.000000
538,-860.000000,-108.000000
539,-860.000000,-108.000000
540,-820.000000,-104.000000
541,-840.000000,-108.000000
542,-820.000000,-108.000000
543,-820.000000,-108.000000
544,-820.000000,-104.000000
545,-800.000000,-108.000000
546,-800.000000,-108.000000
547,-800.000000,-108.000000
548,-800.000000,-108.000000
549,-780.000000,-108.000000
550,-800.000000,-104.000000
551,-820.000000,-104.000000
552,-820.000000,-104.000000
553,-780.000000,-104.000000
554,-780.000000,-104.000000
555,-760.000000,-100.000000
556,-760.000000,-100.000000
557,-760.000000,-100.000000
558,-760.000000,-100.000000
559,-740.000000,-104.000000
560,-760.000000,-100.000000
561,-740.000000,-104.000000
562,-740.000000,-96.000000
563,-720.000000,-108.000000
564,-740.000000,-96.000000
565,-780.000000,-100.000000
566,-720.000000,-96.000000
567,-740.000000,-96.000000
568,-740.000000,-96.000000
569,-740.000000,-96.000000
570,-760.000000,-92.000000
571,-760.000000,-92.000000
572,-760.000000,-92.000000
573,-760.000000,-92.000000
574,-740.000000,-116.000000
575,-760.000000,-92.000000
576,-760.000000,-92.000000
577,-760.000000,-92.000000
578,-740.000000,-92.000000
579,-740.000000,-88.000000
580,-740.000000,-88.000000
581,-740.000000,-88.000000
582,-760.000000,-92.000000
583,-760.000000,-88.000000
584,-720.000000,-88.000000
585,-740.000000,-88.000000
586,-720.000000,-80.000000
587,-740.000000,-84.000000
588,-720.000000,-84.000000
589,-720.000000,-84.000000
590,-740.000000,-80.000000
591,-720.000000,-84.000000
592,-700.000000,-84.000000
593,-740.000000,-88.000000
594,-740.000000,-80.000000
595,-740.000000,-80.000000
596,-720.000000,-80.000000
597,-720.000000,-76.000000
598,-720.000000,-80.000000
599,-740.000000,-76.000000
600,-720.000000,-76.000000
601,-720.000000,-72.000000
602,-720.000000,-76.000000
603,-720.000000,-76.000000
604,-700.000000,-72.000000
605,-700.000000,-72.000000
606,-700.000000,-72.000000
607,-700.000000,-72.000000
608,-680.000000,-72.000000
609,-680.000000,-68.000000
610,-720.000000,-72.000000
611,-720.000000,-68.000000
612,-720.000000,-68.000000
613,-700.000000,-68.000000
614,-700.000000,-68.000000
615,-700.000000,-64.000000
616,-700.000000,-68.000000
617,-700.000000,-64.000000
618,-700.000000,-60.000000
619,-680.000000,-60.000000
620,-680.000000,-64.000000
621,-660.000000,-60.000000
622,-660.000000,-60.000000
623,-700.000000,-56.000000
624,-660.000000,-60.000000
625,-680.000000,-60.000000
626,-660.000000,-60.000000
627,-660.000000,-56.000000
628,-660.000000,-52.000000
629,-660.000000,-52.000000
630,-660.000000,-52.000000
631,-660.000000,-52.000000
632,-620.000000,-52.000000
633,-660.000000,-52.000000
634,-620.000000,-52.000000
635,-620.000000,-48.000000
636,-620.000000,-48.000000
637,-620.000000,-48.000000
638,-600.000000,-48.000000
639,-600.000000,-40.000000
640,-600.000000,-44.000000
641,-580.000000,-44.000000
642,-600.000000,-44.000000
643,-580.000000,-36.000000
644,-600.000000,-44.000000
645,-580.000000,-40.000000
646,-580.000000,-40.000000
647,-580.000000,-40.000000
648,-540.000000,-36.000000
649,-560.000000,-36.000000
650,-520.000000,-40.000000
651,-560.000000,-36.000000
652,-520.000000,-36.000000
653,-520.000000,-36.000000
654,-520.000000,-16.000000
655,-520.000000,-32.000000
656,-520.000000,-32.000000
657,-500.000000,-32.000000
658,-500.000000,-40.000000
659,-500.000000,-28.000000
660,-500.000000,-32.000000
661,-460.000000,-28.000000
662,-480.000000,-24.000000
663,-480.000000,-24.000000
664,-480.000000,-24.000000
665,-460.000000,-24.000000
666,-440.000000,-24.000000
667,-460.000000,-24.000000
668,-460.000000,-24.000000
669,-440.000000,-20.000000
670,-440.000000,-20.000000
671,-420.000000,-20.000000
672,-440.000000,-20.000000
673,-440.000000,-12.000000
674,-420.000000,-20.000000
675,-400.000000,-16.000000
676,-420.000000,-16.000000
677,-400.000000,-12.000000
678,-400.000000,-12.000000
679,-380.000000,-16.000000
680,-420.000000,-12.000000
681,-380.000000,-12.000000
682,-380.000000,-12.000000
683,-360.000000,-12.000000
684,-360.000000,-12.000000
685,-360.000000,-8.000000
686,-380.000000,-8.000000
687,-340.000000,-8.000000
688,-360.000000,-4.000000
689,-340.000000,-4.000000
690,-340.000000,-4.000000
691,-340.000000,-4.000000
692,-340.000000,-4.000000
693,-320.000000,-4.000000
694,-300.000000,-4.000000
695,-320.000000,-4.000000
696,-320.000000,0.000000
697,-300.000000,0.000000
698,-300.000000,0.000000
699,-300.000000,0.000000
700,-280.000000,0.000000
701,-300.000000,4.000000
702,-280.000000,4.000000
703,-300.000000,4.000000
704,-280.000000,8.000000
705,-300.000000,8.000000
706,-260.000000,8.000000
707,-260.000000,8.000000
708,-280.000000,8.000000
709,-280.000000,8.000000
710,-280.000000,12.000000
711,-280.000000,12.000000
712,-280.000000,12.000000
713,-260.000000,12.000000
714,-260.000000,12.000000
715,-280.000000,12.000000
716,-260.000000,12.000000
717,-240.000000,16.000000
718,-240.000000,16.000000
719,-220.000000,16.000000
720,-240.000000,16.000000
721,-240.000000,16.000000
722,-240.000000,16.000000
723,-240.000000,24.000000
724,-240.000000,20.000000
725,-240.000000,20.000000
726,-220.000000,20.000000
727,-220.000000,24.000000
728,-220.000000,20.000000
729,-220.000000,24.000000
730,-200.000000,24.000000
731,-160.000000,24.000000
732,-160.000000,24.000000
733,-160.000000,24.000000
734,-160.000000,20.000000
735,-140.000000,28.000000
736,-140.000000,28.000000
737,-140.000000,24.000000
738,-140.000000,32.000000
739,-120.000000,28.000000
740,-100.000000,28.000000
741,-120.000000,28.000000
742,-100.000000,24.000000
743,-60.000000,32.000000
744,-100.000000,32.000000
745,-80.000000,32.000000
746,-80.000000,32.000000
747,-40.000000,32.000000
748,-40.000000,36.000000
749,-20.000000,36.000000
