lab2_frequencies/110Hz.csv

Channel              :,CH1,CH2
Frequency            :,120.1Hz,119.9Hz
Period               :,8.325ms,8.337ms
PK-PK                :,488.0mV,464.0mV
Probe attenuation    :,1X,1X
Voltage per ADC value:,0.500000mV,0.500000mV
Time interval        :,10.00000uS,10.00000uS

index,CH1_Voltage(mV),CH2_Voltage(mV)
1,64.000000,200.000000
2,64.000000,200.000000
3,64.000000,200.000000
4,56.000000,200.000000
5,72.000000,200.000000
6,72.000000,208.000000
7,64.000000,224.000000
8,80.000000,200.000000
9,64.000000,200.000000
10,64.000000,200.000000
11,80.000000,208.000000
12,72.000000,208.000000
13,72.000000,208.000000
14,80.000000,200.000000
15,72.000000,208.000000
16,72.000000,208.000000
17,72.000000,200.000000
18,80.000000,200.000000
19,80.000000,200.000000
20,64.000000,200.000000
21,80.000000,200.000000
22,80.000000,200.000000
23,88.000000,208.000000
24,88.000000,200.000000
25,88.000000,208.000000
26,80.000000,208.000000
27,88.000000,208.000000
28,88.000000,200.000000
29,96.000000,200.000000
30,96.000000,208.000000
31,88.000000,200.000000
32,96.000000,200.000000
33,96.000000,200.000000
34,104.000000,200.000000
35,96.000000,208.000000
36,96.000000,208.000000
37,96.000000,200.000000
38,104.000000,200.000000
39,96.000000,200.000000
40,104.000000,208.000000
41,96.000000,200.000000
42,96.000000,200.000000
43,96.000000,200.000000
44,96.000000,200.000000
45,112.000000,200.000000
46,96.000000,200.000000
47,96.000000,200.000000
48,104.000000,200.000000
49,112.000000,200.000000
50,104.000000,192.000000
51,104.000000,200.000000
52,112.000000,200.000000
53,104.000000,200.000000
54,120.000000,200.000000
55,120.000000,192.000000
56,104.000000,192.000000
57,112.000000,200.000000
58,112.000000,192.000000
59,104.000000,192.000000
60,104.000000,192.000000
61,112.000000,184.000000
62,120.000000,192.000000
63,112.000000,192.000000
64,112.000000,192.000000
65,136.000000,192.000000
66,120.000000,192.000000
67,120.000000,184.000000
68,136.000000,168.000000
69,120.000000,184.000000
70,128.000000,184.000000
71,120.000000,184.000000
72,120.000000,192.000000
73,128.000000,184.000000
74,128.000000,184.000000
75,112.000000,168.000000
76,128.000000,184.000000
77,128.000000,184.000000
78,128.000000,176.000000
79,128.000000,184.000000
80,128.000000,184.000000
81,128.000000,184.000000
82,128.000000,176.000000
83,128.000000,176.000000
84,136.000000,176.000000
85,128.000000,176.000000
86,136.000000,184.000000
87,144.000000,176.000000
88,136.000000,176.000000
89,136.000000,168.000000
90,128.000000,176.000000
91,136.000000,176.000000
92,144.000000,176.000000
93,128.000000,168.000000
94,136.000000,168.000000
95,144.000000,168.000000
96,136.000000,160.000000
97,128.000000,168.000000
98,128.000000,168.000000
99,144.000000,160.000000
100,136.000000,160.000000
101,128.000000,160.000000
102,136.000000,160.000000
103,136.000000,160.000000
104,120.000000,160.000000
105,128.000000,160.000000
106,144.000000,160.000000
107,128.000000,152.000000
108,128.000000,152.000000
109,120.000000,152.000000
110,136.000000,152.000000
111,136.000000,160.000000
112,128.000000,152.000000
113,136.000000,144.000000
114,136.000000,152.000000
115,128.000000,144.000000
116,144.000000,144.000000
117,128.000000,144.000000
118,136.000000,144.000000
119,144.000000,144.000000
120,120.000000,144.000000
121,128.000000,144.000000
122,128.000000,136.000000
123,136.000000,136.000000
124,120.000000,136.000000
125,112.000000,136.000000
126,144.000000,136.000000
127,128.000000,136.000000
128,120.000000,136.000000
129,144.000000,136.000000
130,128.000000,128.000000
131,128.000000,128.000000
132,128.000000,128.000000
133,128.000000,128.000000
134,120.000000,120.000000
135,128.000000,120.000000
136,128.000000,128.000000
137,128.000000,120.000000
138,136.000000,120.000000
139,136.000000,120.000000
140,120.000000,112.000000
141,128.000000,112.000000
142,120.000000,112.000000
143,128.000000,112.000000
144,112.000000,112.000000
145,120.000000,112.000000
146,120.000000,112.000000
147,112.000000,104.000000
148,128.000000,96.000000
149,128.000000,104.000000
150,120.000000,104.000000
151,112.000000,104.000000
152,128.000000,96.000000
153,128.000000,96.000000
154,120.000000,96.000000
155,120.000000,96.000000
156,120.000000,96.000000
157,104.000000,88.000000
158,112.000000,88.000000
159,120.000000,88.000000
160,128.000000,88.000000
161,112.000000,88.000000
162,112.000000,80.000000
163,120.000000,88.000000
164,112.000000,80.000000
165,104.000000,80.000000
166,120.000000,80.000000
167,112.000000,80.000000
168,96.000000,72.000000
169,112.000000,80.000000
170,104.000000,72.000000
171,96.000000,72.000000
172,112.000000,72.000000
173,120.000000,72.000000
174,96.000000,64.000000
175,96.000000,64.000000
176,96.000000,64.000000
177,104.000000,64.000000
178,96.000000,64.000000
179,96.000000,56.000000
180,104.000000,56.000000
181,104.000000,56.000000
182,96.000000,48.000000
183,96.000000,56.000000
184,96.000000,48.000000
185,96.000000,48.000000
186,104.000000,48.000000
187,96.000000,48.000000
188,96.000000,48.000000
189,104.000000,40.000000
190,88.000000,40.000000
191,88.000000,40.000000
192,96.000000,40.000000
193,104.000000,32.000000
194,96.000000,40.000000
195,80.000000,32.000000
196,88.000000,32.000000
197,88.000000,16.000000
198,96.000000,32.000000
199,88.000000,24.000000
200,80.000000,24.000000
201,72.000000,24.000000
202,80.000000,24.000000
203,88.000000,24.000000
204,80.000000,8.000000
205,80.000000,24.000000
206,72.000000,16.000000
207,80.000000,16.000000
208,72.000000,8.000000
209,80.000000,16.000000
210,72.000000,16.000000
211,80.000000,8.000000
212,80.000000,16.000000
213,72.000000,8.000000
214,72.000000,0.000000
215,56.000000,8.000000
216,64.000000,0.000000
217,72.000000,0.000000
218,72.000000,0.000000
219,64.000000,0.000000
220,56.000000,-8.000000
221,64.000000,-8.000000
222,72.000000,-8.000000
223,72.000000,-8.000000
224,48.000000,-16.000000
225,56.000000,-8.000000
226,56.000000,-16.000000
227,56.000000,-16.000000
228,48.000000,-16.000000
229,40.000000,-16.000000
230,48.000000,-24.000000
231,40.000000,-24.000000
232,48.000000,-24.000000
233,48.000000,-24.000000
234,40.000000,-32.000000
235,40.000000,-24.000000
236,48.000000,-24.000000
237,32.000000,-40.000000
238,32.000000,-40.000000
239,32.000000,-32.000000
240,32.000000,-40.000000
241,32.000000,-40.000000
242,40.000000,-40.000000
243,32.000000,-40.000000
244,24.000000,-40.000000
245,32.000000,-40.000000
246,24.000000,-40.000000
247,24.000000,-48.000000
248,24.000000,-48.000000
249,16.000000,-56.000000
250,8.000000,-56.000000
251,24.000000,-56.000000
252,16.000000,-56.000000
253,16.000000,-56.000000
254,16.000000,-56.000000
255,24.000000,-64.000000
256,16.000000,-56.000000
257,16.000000,-64.000000
258,16.000000,-72.000000
259,0.000000,-64.000000
260,0.000000,-64.000000
261,16.000000,-72.000000
262,0.000000,-72.000000
263,-8.000000,-72.000000
264,-8.000000,-72.000000
265,-8.000000,-88.000000
266,-8.000000,-72.000000
267,-8.000000,-80.000000
268,-16.000000,-80.000000
269,-8.000000,-80.000000
270,0.000000,-88.000000
271,-16.000000,-80.000000
272,-24.000000,-80.000000
273,-8.000000,-80.000000
274,-8.000000,-96.000000
275,-24.000000,-88.000000
276,-24.000000,-88.000000
277,-24.000000,-96.000000
278,-16.000000,-96.000000
279,-16.000000,-96.000000
280,-32.000000,-96.000000
281,-32.000000,-96.000000
282,-32.000000,-104.000000
283,-32.000000,-104.000000
284,-24.000000,-104.000000
285,-40.000000,-104.000000
286,-40.000000,-104.000000
287,-32.000000,-104.000000
288,-40.000000,-112.000000
289,-48.000000,-112.000000
290,-48.000000,-112.000000
291,-40.000000,-112.000000
292,-48.000000,-112.000000
293,-40.000000,-120.000000
294,-48.000000,-112.000000
295,-48.000000,-120.000000
296,-40.000000,-120.000000
297,-48.000000,-128.000000
298,-56.000000,-112.000000
299,-56.000000,-120.000000
300,-64.000000,-120.000000
301,-72.000000,-128.000000
302,-64.000000,-128.000000
303,-72.000000,-128.000000
304,-72.000000,-128.000000
305,-64.000000,-128.000000
306,-64.000000,-128.000000
307,-80.000000,-136.000000
308,-80.000000,-128.000000
309,-80.000000,-136.000000
310,-80.000000,-136.000000
311,-80.000000,-136.000000
312,-80.000000,-136.000000
313,-80.000000,-144.000000
314,-80.000000,-144.000000
315,-96.000000,-144.000000
316,-96.000000,-144.000000
317,-88.000000,-152.000000
318,-96.000000,-152.000000
319,-96.000000,-152.000000
320,-96.000000,-152.000000
321,-104.000000,-152.000000
322,-104.000000,-152.000000
323,-88.000000,-152.000000
324,-104.000000,-152.000000
325,-120.000000,-152.000000
326,-112.000000,-160.000000
327,-104.000000,-160.000000
328,-104.000000,-160.000000
329,-104.000000,-160.000000
330,-120.000000,-160.000000
331,-120.000000,-168.000000
332,-120.000000,-160.000000
333,-120.000000,-176.000000
334,-120.000000,-168.000000
335,-136.000000,-168.000000
336,-128.000000,-168.000000
337,-120.000000,-168.000000
338,-128.000000,-168.000000
339,-144.000000,-168.000000
340,-144.000000,-168.000000
341,-136.000000,-168.000000
342,-144.000000,-176.000000
343,-136.000000,-176.000000
344,-136.000000,-176.000000
345,-144.000000,-176.000000
346,-144.000000,-176.000000
347,-152.000000,-176.000000
348,-152.000000,-184.000000
349,-152.000000,-184.000000
350,-152.000000,-184.000000
351,-152.000000,-184.000000
352,-152.000000,-184.000000
353,-160.000000,-184.000000
354,-152.000000,-184.000000
355,-160.000000,-184.000000
356,-160.000000,-184.000000
357,-168.000000,-184.000000
358,-168.000000,-184.000000
359,-160.000000,-192.000000
360,-168.000000,-192.000000
361,-168.000000,-184.000000
362,-168.000000,-192.000000
363,-168.000000,-192.000000
364,-168.000000,-192.000000
365,-176.000000,-192.000000
366,-176.000000,-192.000000
367,-184.000000,-192.000000
368,-184.000000,-192.000000
369,-184.000000,-192.000000
370,-176.000000,-200.000000
371,-184.000000,-192.000000
372,-184.000000,-200.000000
373,-200.000000,-200.000000
374,-192.000000,-200.000000
375,-184.000000,-200.000000
376,-184.000000,-200.000000
377,-192.000000,-200.000000
378,-208.000000,-200.000000
379,-200.000000,-200.000000
380,-200.000000,-208.000000
381,-192.000000,-208.000000
382,-200.000000,-200.000000
383,-208.000000,-200.000000
384,-208.000000,-200.000000
385,-208.000000,-208.000000
386,-208.000000,-200.000000
387,-208.000000,-200.000000
388,-216.000000,-208.000000
389,-216.000000,-208.000000
390,-224.000000,-208.000000
391,-216.000000,-208.000000
392,-208.000000,-208.000000
393,-216.000000,-208.000000
394,-224.000000,-208.000000
395,-224.000000,-208.000000
396,-224.000000,-208.000000
397,-216.000000,-208.000000
398,-224.000000,-208.000000
399,-232.000000,-208.000000
400,-232.000000,-208.000000
401,-224.000000,-208.000000
402,-232.000000,-208.000000
403,-224.000000,-208.000000
404,-232.000000,-208.000000
405,-248.000000,-208.000000
406,-232.000000,-216.000000
407,-240.000000,-216.000000
408,-232.000000,-208.000000
409,-240.000000,-208.000000
410,-240.000000,-208.000000
411,-240.000000,-208.000000
412,-248.000000,-208.000000
413,-240.000000,-208.000000
414,-240.000000,-208.000000
415,-248.000000,-208.000000
416,-256.000000,-216.000000
417,-248.000000,-216.000000
418,-248.000000,-208.000000
419,-256.000000,-216.000000
420,-256.000000,-216.000000
421,-264.000000,-216.000000
422,-256.000000,-208.000000
423,-264.000000,-216.000000
424,-264.000000,-216.000000
425,-256.000000,-208.000000
426,-256.000000,-216.000000
427,-272.000000,-200.000000
428,-264.000000,-216.000000
429,-256.000000,-216.000000
430,-264.000000,-216.000000
431,-264.000000,-216.000000
432,-264.000000,-208.000000
433,-272.000000,-208.000000
434,-272.000000,-208.000000
435,-272.000000,-208.000000
436,-280.000000,-208.000000
437,-272.000000,-216.000000
438,-272.000000,-208.000000
439,-280.000000,-208.000000
440,-280.000000,-208.000000
441,-280.000000,-208.000000
442,-288.000000,-208.000000
443,-288.000000,-216.000000
444,-288.000000,-208.000000
445,-280.000000,-208.000000
446,-280.000000,-216.000000
447,-288.000000,-208.000000
448,-296.000000,-208.000000
449,-296.000000,-208.000000
450,-296.000000,-208.000000
451,-288.000000,-208.000000
452,-288.000000,-208.000000
453,-288.000000,-200.000000
454,-296.000000,-208.000000
455,-296.000000,-232.000000
456,-296.000000,-200.000000
457,-304.000000,-208.000000
458,-304.000000,-208.000000
459,-296.000000,-208.000000
460,-304.000000,-208.000000
461,-296.000000,-208.000000
462,-304.000000,-208.000000
463,-304.000000,-208.000000
464,-304.000000,-200.000000
465,-312.000000,-200.000000
466,-304.000000,-200.000000
467,-304.000000,-200.000000
468,-304.000000,-200.000000
469,-312.000000,-200.000000
470,-304.000000,-200.000000
471,-312.000000,-200.000000
472,-320.000000,-200.000000
473,-312.000000,-200.000000
474,-312.000000,-200.000000
475,-304.000000,-192.000000
476,-304.000000,-192.000000
477,-320.000000,-200.000000
478,-312.000000,-192.000000
479,-312.000000,-192.000000
480,-320.000000,-192.000000
481,-304.000000,-192.000000
482,-304.000000,-192.000000
483,-312.000000,-192.000000
484,-312.000000,-184.000000
485,-312.000000,-192.000000
486,-320.000000,-192.000000
487,-320.000000,-192.000000
488,-320.000000,-192.000000
489,-320.000000,-192.000000
490,-312.000000,-192.000000
491,-320.000000,-184.000000
492,-320.000000,-184.000000
493,-320.000000,-184.000000
494,-328.000000,-184.000000
495,-328.000000,-192.000000
496,-320.000000,-184.000000
497,-320.000000,-184.000000
498,-328.000000,-184.000000
499,-328.000000,-184.000000
500,-320.000000,-184.000000
501,-320.000000,-184.000000
502,-320.000000,-184.000000
503,-320.000000,-176.000000
504,-320.000000,-176.000000
505,-336.000000,-176.000000
506,-336.000000,-176.000000
507,-336.000000,-176.000000
508,-328.000000,-176.000000
509,-320.000000,-176.000000
510,-320.000000,-176.000000
511,-320.000000,-168.000000
512,-336.000000,-168.000000
513,-328.000000,-168.000000
514,-328.000000,-168.000000
515,-328.000000,-168.000000
516,-320.000000,-160.000000
517,-320.000000,-168.000000
518,-336.000000,-168.000000
519,-336.000000,-160.000000
520,-320.000000,-160.000000
521,-320.000000,-168.000000
522,-320.000000,-160.000000
523,-320.000000,-152.000000
524,-336.000000,-160.000000
525,-344.000000,-160.000000
526,-336.000000,-152.000000
527,-328.000000,-152.000000
528,-320.000000,-152.000000
529,-320.000000,-152.000000
530,-336.000000,-152.000000
531,-328.000000,-152.000000
532,-328.000000,-144.000000
533,-336.000000,-152.000000
534,-312.000000,-144.000000
535,-312.000000,-152.000000
536,-328.000000,-144.000000
537,-320.000000,-144.000000
538,-336.000000,-144.000000
539,-336.000000,-144.000000
540,-320.000000,-144.000000
541,-328.000000,-136.000000
542,-328.000000,-144.000000
543,-320.000000,-136.000000
544,-328.000000,-136.000000
545,-328.000000,-136.000000
546,-320.000000,-128.000000
547,-328.000000,-128.000000
548,-320.000000,-128.000000
549,-320.000000,-128.000000
550,-336.000000,-128.000000
551,-320.000000,-128.000000
552,-320.000000,-128.000000
553,-320.000000,-128.000000
554,-320.000000,-128.000000
555,-328.000000,-120.000000
556,-328.000000,-120.000000
557,-312.000000,-120.000000
558,-320.000000,-120.000000
559,-312.000000,-120.000000
560,-312.000000,-112.000000
561,-328.000000,-112.000000
562,-312.000000,-112.000000
563,-312.000000,-112.000000
564,-320.000000,-104.000000
565,-320.000000,-104.000000
566,-320.000000,-112.000000
567,-320.000000,-104.000000
568,-312.000000,-96.000000
569,-312.000000,-104.000000
570,-312.000000,-96.000000
571,-320.000000,-104.000000
572,-320.000000,-96.000000
573,-312.000000,-96.000000
574,-320.000000,-88.000000
575,-320.000000,-96.000000
576,-296.000000,-96.000000
577,-312.000000,-88.000000
578,-312.000000,-88.000000
579,-312.000000,-88.000000
580,-312.000000,-88.000000
581,-296.000000,-80.000000
582,-304.000000,-80.000000
583,-304.000000,-80.000000
584,-296.000000,-64.000000
585,-312.000000,-80.000000
586,-312.000000,-72.000000
587,-304.000000,-80.000000
588,-304.000000,-72.000000
589,-304.000000,-72.000000
590,-296.000000,-72.000000
591,-304.000000,-72.000000
592,-312.000000,-64.000000
593,-296.000000,-64.000000
594,-288.000000,-64.000000
595,-288.000000,-64.000000
596,-288.000000,-56.000000
597,-296.000000,-56.000000
598,-296.000000,-56.000000
599,-280.000000,-64.000000
600,-296.000000,-56.000000
601,-280.000000,-56.000000
602,-272.000000,-56.000000
603,-280.000000,-48.000000
604,-280.000000,-48.000000
605,-280.000000,-48.000000
606,-288.000000,-48.000000
607,-288.000000,-48.000000
608,-272.000000,-40.000000
609,-280.000000,-40.000000
610,-288.000000,-40.000000
611,-272.000000,-40.000000
612,-280.000000,-40.000000
613,-280.000000,-32.000000
614,-280.000000,-40.000000
615,-272.000000,-32.000000
616,-272.000000,-32.000000
617,-280.000000,-40.000000
618,-272.000000,-32.000000
619,-272.000000,-32.000000
620,-272.000000,-24.000000
621,-272.000000,-24.000000
622,-264.000000,-24.000000
623,-272.000000,-24.000000
624,-264.000000,-24.000000
625,-264.000000,-16.000000
626,-272.000000,-24.000000
627,-256.000000,-16.000000
628,-248.000000,-16.000000
629,-256.000000,-16.000000
630,-248.000000,-16.000000
631,-256.000000,-8.000000
632,-248.000000,-8.000000
633,-256.000000,-8.000000
634,-256.000000,-8.000000
635,-248.000000,-8.000000
636,-248.000000,0.000000
637,-256.000000,0.000000
638,-256.000000,0.000000
639,-248.000000,0.000000
640,-256.000000,0.000000
641,-232.000000,8.000000
642,-248.000000,8.000000
643,-248.000000,8.000000
644,-240.000000,8.000000
645,-240.000000,8.000000
646,-256.000000,8.000000
647,-232.000000,16.000000
648,-240.000000,16.000000
649,-232.000000,16.000000
650,-232.000000,24.000000
651,-232.000000,24.000000
652,-232.000000,16.000000
653,-224.000000,24.000000
654,-224.000000,24.000000
655,-240.000000,24.000000
656,-232.000000,24.000000
657,-224.000000,24.000000
658,-232.000000,32.000000
659,-224.000000,32.000000
660,-224.000000,32.000000
661,-224.000000,32.000000
662,-224.000000,32.000000
663,-224.000000,40.000000
664,-216.000000,32.000000
665,-224.000000,40.000000
666,-224.000000,40.000000
667,-208.000000,48.000000
668,-224.000000,48.000000
669,-216.000000,48.000000
670,-216.000000,48.000000
671,-200.000000,48.000000
672,-208.000000,48.000000
673,-208.000000,48.000000
674,-208.000000,48.000000
675,-200.000000,56.000000
676,-192.000000,56.000000
677,-208.000000,56.000000
678,-200.000000,56.000000
679,-192.000000,64.000000
680,-200.000000,64.000000
681,-192.000000,64.000000
682,-184.000000,64.000000
683,-192.000000,64.000000
684,-192.000000,64.000000
685,-184.000000,80.000000
686,-184.000000,72.000000
687,-184.000000,72.000000
688,-176.000000,80.000000
689,-192.000000,72.000000
690,-184.000000,80.000000
691,-168.000000,80.000000
692,-184.000000,88.000000
693,-168.000000,80.000000
694,-168.000000,88.000000
695,-168.000000,88.000000
696,-176.000000,88.000000
697,-168.000000,88.000000
698,-160.000000,88.000000
699,-152.000000,96.000000
700,-160.000000,88.000000
701,-168.000000,88.000000
702,-160.000000,96.000000
703,-168.000000,96.000000
704,-152.000000,96.000000
705,-160.000000,96.000000
706,-144.000000,96.000000
707,-152.000000,104.000000
708,-144.000000,104.000000
709,-152.000000,104.000000
710,-144.000000,104.000000
711,-144.000000,104.000000
712,-144.000000,112.000000
713,-144.000000,128.000000
714,-136.000000,112.000000
715,-152.000000,112.000000
716,-128.000000,112.000000
717,-128.000000,112.000000
718,-144.000000,120.000000
719,-128.000000,120.000000
720,-128.000000,112.000000
721,-128.000000,120.000000
722,-120.000000,120.000000
723,-120.000000,120.000000
724,-128.000000,128.000000
725,-112.000000,128.000000
726,-120.000000,128.000000
727,-120.000000,128.000000
728,-120.000000,128.000000
729,-112.000000,136.000000
730,-104.000000,128.000000
731,-112.000000,128.000000
732,-112.000000,136.000000
733,-120.000000,136.000000
734,-104.000000,136.000000
735,-112.000000,136.000000
736,-96.000000,136.000000
737,-96.000000,144.000000
738,-104.000000,144.000000
739,-112.000000,144.000000
740,-96.000000,144.000000
741,-88.000000,144.000000
742,-104.000000,144.000000
743,-88.000000,152.000000
744,-88.000000,152.000000
745,-96.000000,144.000000
746,-88.000000,144.000000
