lab2_frequencies/1Hz.csv

Channel              :,CH1,CH2
Frequency            :,  ?,  ?
Period               :,  ?,  ?
PK-PK                :,936.0mV,117.6mV
Probe attenuation    :,1X,1X
Voltage per ADC value:,0.500000mV,0.050000mV
Time interval        :,1000.00000uS,1000.00000uS

index,CH1_Voltage(mV),CH2_Voltage(mV)
1,312.000000,26.400000
2,312.000000,26.400000
3,304.000000,25.600000
4,280.000000,23.200001
5,272.000000,23.200001
6,264.000000,24.799999
7,320.000000,24.799999
8,328.000000,24.000000
9,336.000000,21.600000
10,328.000000,24.799999
11,320.000000,25.600000
12,304.000000,24.000000
13,312.000000,26.400000
14,304.000000,24.000000
15,288.000000,23.200001
16,264.000000,25.600000
17,320.000000,25.600000
18,344.000000,25.600000
19,344.000000,24.000000
20,344.000000,24.799999
21,344.000000,23.200001
22,344.000000,17.600000
23,344.000000,23.200001
24,304.000000,22.400000
25,288.000000,22.400000
26,288.000000,24.000000
27,336.000000,22.400000
28,360.000000,21.600000
29,392.000000,23.200001
30,384.000000,22.400000
31,360.000000,22.400000
32,336.000000,22.400000
33,344.000000,22.400000
34,312.000000,21.600000
35,312.000000,18.400000
36,312.000000,22.400000
37,320.000000,20.799999
38,360.000000,21.600000
39,352.000000,21.600000
40,368.000000,20.799999
41,376.000000,20.799999
42,360.000000,22.400000
43,344.000000,20.000000
44,320.000000,19.200001
45,320.000000,21.600000
46,336.000000,20.000000
47,360.000000,20.799999
48,408.000000,20.799999
49,384.000000,20.799999
50,384.000000,20.799999
51,368.000000,20.000000
52,360.000000,20.000000
53,328.000000,18.400000
54,328.000000,19.200001
55,328.000000,17.600000
56,312.000000,19.200001
57,344.000000,19.200001
58,384.000000,20.000000
59,376.000000,18.400000
60,384.000000,16.799999
61,352.000000,19.200001
62,360.000000,19.200001
63,352.000000,18.400000
64,336.000000,17.600000
65,320.000000,18.400000
66,320.000000,19.200001
67,360.000000,17.600000
68,368.000000,17.600000
69,392.000000,17.600000
70,400.000000,16.799999
71,384.000000,19.200001
72,360.000000,17.600000
73,344.000000,16.000000
74,336.000000,20.000000
75,336.000000,18.400000
76,352.000000,15.200000
77,344.000000,15.200000
78,368.000000,17.600000
79,392.000000,12.800000
80,368.000000,15.200000
81,376.000000,16.000000
82,368.000000,16.000000
83,376.000000,14.400000
84,344.000000,16.799999
85,336.000000,15.200000
86,344.000000,14.400000
87,384.000000,12.000000
88,400.000000,15.200000
89,408.000000,14.400000
90,400.000000,14.400000
91,384.000000,14.400000
92,360.000000,12.000000
93,344.000000,13.600000
94,344.000000,15.200000
95,344.000000,12.800000
96,336.000000,13.600000
97,344.000000,12.800000
98,376.000000,12.800000
99,376.000000,12.000000
100,360.000000,15.200000
101,376.000000,12.000000
102,392.000000,12.000000
103,352.000000,12.000000
104,336.000000,12.000000
105,352.000000,7.200000
106,344.000000,12.000000
107,384.000000,12.800000
108,392.000000,12.000000
109,408.000000,10.400000
110,400.000000,11.200000
111,376.000000,12.000000
112,360.000000,9.600000
113,352.000000,7.200000
114,328.000000,11.200000
115,344.000000,9.600000
116,344.000000,10.400000
117,360.000000,10.400000
118,376.000000,10.400000
119,392.000000,9.600000
120,408.000000,11.200000
121,392.000000,9.600000
122,376.000000,9.600000
123,384.000000,8.800000
124,360.000000,8.800000
125,336.000000,8.800000
126,328.000000,3.200000
127,352.000000,8.800000
128,408.000000,7.200000
129,424.000000,7.200000
130,400.000000,9.600000
131,376.000000,5.600000
132,368.000000,8.800000
133,352.000000,9.600000
134,336.000000,8.000000
135,320.000000,5.600000
136,320.000000,8.800000
137,352.000000,7.200000
138,368.000000,5.600000
139,400.000000,1.600000
140,392.000000,7.200000
141,376.000000,4.000000
142,360.000000,6.400000
143,352.000000,6.400000
144,328.000000,4.800000
145,320.000000,5.600000
146,320.000000,5.600000
147,352.000000,4.800000
148,376.000000,4.800000
149,408.000000,4.800000
150,368.000000,4.000000
151,360.000000,4.000000
152,360.000000,-1.600000
153,336.000000,5.600000
154,336.000000,4.000000
155,328.000000,3.200000
156,312.000000,3.200000
157,328.000000,0.800000
158,336.000000,2.400000
159,344.000000,3.200000
160,360.000000,3.200000
161,336.000000,1.600000
162,352.000000,3.200000
163,344.000000,2.400000
164,336.000000,2.400000
165,320.000000,3.200000
166,344.000000,2.400000
167,336.000000,0.000000
168,360.000000,1.600000
169,368.000000,2.400000
170,352.000000,-1.600000
171,336.000000,0.000000
172,320.000000,2.400000
173,304.000000,1.600000
174,312.000000,1.600000
175,336.000000,0.800000
176,328.000000,0.000000
177,312.000000,-0.800000
178,336.000000,-0.800000
179,360.000000,-0.800000
180,336.000000,-1.600000
181,368.000000,-1.600000
182,352.000000,-0.800000
183,336.000000,-4.800000
184,304.000000,-0.800000
185,280.000000,-2.400000
186,296.000000,-2.400000
187,328.000000,-1.600000
188,376.000000,-2.400000
189,360.000000,-1.600000
190,360.000000,-1.600000
191,320.000000,-5.600000
192,320.000000,-0.800000
193,304.000000,-1.600000
194,272.000000,-2.400000
195,272.000000,-3.200000
196,256.000000,-4.000000
197,296.000000,-2.400000
198,320.000000,-2.400000
199,296.000000,-4.800000
200,304.000000,-4.800000
201,320.000000,-2.400000
202,320.000000,-4.800000
203,304.000000,-4.000000
204,280.000000,-5.600000
205,280.000000,-3.200000
206,272.000000,-4.800000
207,304.000000,-4.800000
208,336.000000,-5.600000
209,344.000000,-7.200000
210,328.000000,-6.400000
211,312.000000,-5.600000
212,272.000000,-5.600000
213,264.000000,-8.000000
214,256.000000,-6.400000
215,248.000000,-5.600000
216,272.000000,-6.400000
217,256.000000,-11.200000
218,304.000000,-7.200000
219,312.000000,-8.000000
220,296.000000,-8.000000
221,304.000000,-7.200000
222,280.000000,-10.400000
223,264.000000,-8.800000
224,248.000000,-7.200000
225,224.000000,-9.600000
226,256.000000,-8.000000
227,272.000000,-8.000000
228,296.000000,-8.800000
229,304.000000,-8.800000
230,296.000000,-16.000000
231,272.000000,-8.800000
232,248.000000,-12.000000
233,240.000000,-10.400000
234,224.000000,-9.600000
235,232.000000,-10.400000
236,216.000000,-9.600000
237,224.000000,-9.600000
238,240.000000,-10.400000
239,256.000000,-12.000000
240,272.000000,-8.000000
241,264.000000,-12.000000
242,256.000000,-12.000000
243,232.000000,-12.000000
244,192.000000,-12.800000
245,216.000000,-12.800000
246,224.000000,-12.800000
247,272.000000,-9.600000
248,264.000000,-12.000000
249,280.000000,-12.000000
250,256.000000,-12.800000
251,240.000000,-13.600000
252,224.000000,-13.600000
253,216.000000,-12.000000
254,200.000000,-12.800000
255,184.000000,-13.600000
256,192.000000,-16.799999
257,200.000000,-12.800000
258,208.000000,-14.400000
259,232.000000,-14.400000
260,216.000000,-14.400000
261,216.000000,-16.799999
262,200.000000,-14.400000
263,192.000000,-13.600000
264,184.000000,-15.200000
265,184.000000,-16.000000
266,152.000000,-12.800000
267,192.000000,-14.400000
268,232.000000,-16.000000
269,232.000000,-14.400000
270,208.000000,-16.000000
271,184.000000,-15.200000
272,176.000000,-16.799999
273,160.000000,-16.799999
274,160.000000,-17.600000
275,144.000000,-16.799999
276,144.000000,-16.799999
277,144.000000,-16.799999
278,168.000000,-16.799999
279,168.000000,-18.400000
280,200.000000,-16.799999
281,192.000000,-16.799999
282,168.000000,-20.799999
283,160.000000,-18.400000
284,128.000000,-18.400000
285,128.000000,-18.400000
286,136.000000,-17.600000
287,160.000000,-20.000000
288,168.000000,-18.400000
289,192.000000,-20.000000
290,184.000000,-17.600000
291,160.000000,-17.600000
292,136.000000,-18.400000
293,120.000000,-18.400000
294,104.000000,-21.600000
295,88.000000,-21.600000
296,88.000000,-20.000000
297,96.000000,-20.799999
298,128.000000,-20.799999
299,112.000000,-18.400000
300,120.000000,-20.799999
301,128.000000,-20.000000
302,136.000000,-19.200001
303,112.000000,-20.799999
304,80.000000,-20.799999
305,72.000000,-21.600000
306,96.000000,-20.799999
307,112.000000,-20.799999
308,144.000000,-24.799999
309,160.000000,-21.600000
310,128.000000,-22.400000
311,136.000000,-20.799999
312,112.000000,-20.799999
313,80.000000,-24.799999
314,56.000000,-21.600000
315,48.000000,-22.400000
316,56.000000,-27.200001
317,56.000000,-24.000000
318,80.000000,-21.600000
319,64.000000,-22.400000
320,88.000000,-22.400000
321,80.000000,-28.799999
322,96.000000,-22.400000
323,72.000000,-24.000000
324,40.000000,-24.000000
325,16.000000,-22.400000
326,40.000000,-26.400000
327,64.000000,-24.000000
328,88.000000,-23.200001
329,104.000000,3.200000
330,88.000000,-24.799999
331,72.000000,-22.400000
332,40.000000,-24.799999
333,32.000000,-24.799999
334,16.000000,-19.200001
335,0.000000,-24.000000
336,0.000000,-26.400000
337,16.000000,-24.000000
338,16.000000,-25.600000
339,32.000000,-23.200001
340,40.000000,-24.799999
341,32.000000,-26.400000
342,8.000000,-4.800000
343,8.000000,-26.400000
344,-16.000000,-25.600000
345,-40.000000,-25.600000
346,-40.000000,-27.200001
347,0.000000,-20.000000
348,48.000000,-26.400000
349,24.000000,-27.200001
350,16.000000,-27.200001
351,0.000000,-26.400000
352,-8.000000,-24.799999
353,-40.000000,-26.400000
354,-48.000000,-27.200001
355,-64.000000,-5.600000
356,-64.000000,-28.799999
357,-48.000000,-26.400000
358,-40.000000,-25.600000
359,0.000000,-26.400000
360,0.000000,-30.400000
361,-24.000000,-25.600000
362,0.000000,-28.000000
363,-32.000000,-28.000000
364,-64.000000,-26.400000
365,-72.000000,-27.200001
366,-72.000000,-28.799999
367,-32.000000,-28.000000
368,8.000000,-37.599998
369,0.000000,-27.200001
370,8.000000,-28.000000
371,-32.000000,-28.000000
372,-64.000000,-29.600000
373,-72.000000,-33.599998
374,-88.000000,-28.799999
375,-96.000000,-30.400000
376,-112.000000,-28.799999
377,-112.000000,-28.799999
378,-64.000000,-28.799999
379,-64.000000,-29.600000
380,-72.000000,-28.799999
381,-96.000000,-50.400002
382,-88.000000,-28.799999
383,-88.000000,-28.799999
384,-120.000000,-29.600000
385,-144.000000,-29.600000
386,-128.000000,-30.400000
387,-96.000000,-28.799999
388,-88.000000,-30.400000
389,-72.000000,-28.000000
390,-104.000000,-28.799999
391,-104.000000,-30.400000
392,-112.000000,-29.600000
393,-144.000000,-30.400000
394,-152.000000,-49.599998
395,-168.000000,-29.600000
396,-144.000000,-30.400000
397,-152.000000,-28.799999
398,-128.000000,-32.000000
399,-128.000000,-31.200001
400,-136.000000,-30.400000
401,-136.000000,-30.400000
402,-128.000000,-30.400000
403,-152.000000,-31.200001
404,-168.000000,-32.000000
405,-152.000000,-28.799999
406,-168.000000,-31.200001
407,-176.000000,-40.799999
408,-128.000000,-30.400000
409,-120.000000,-29.600000
410,-136.000000,-29.600000
411,-136.000000,-32.000000
412,-160.000000,-35.200001
413,-192.000000,-30.400000
414,-200.000000,-30.400000
415,-192.000000,-31.200001
416,-216.000000,-31.200001
417,-192.000000,-30.400000
418,-184.000000,-30.400000
419,-168.000000,-30.400000
420,-168.000000,-48.000000
421,-176.000000,-30.400000
422,-184.000000,-32.000000
423,-184.000000,-29.600000
424,-224.000000,-32.000000
425,-224.000000,-32.799999
426,-232.000000,-29.600000
427,-200.000000,-32.000000
428,-168.000000,-32.000000
429,-184.000000,-30.400000
430,-168.000000,-32.799999
431,-216.000000,-32.000000
432,-232.000000,-30.400000
433,-216.000000,-40.799999
434,-240.000000,-32.799999
435,-272.000000,-32.799999
436,-248.000000,-32.000000
437,-240.000000,-31.200001
438,-240.000000,-31.200001
439,-224.000000,-31.200001
440,-240.000000,-32.000000
441,-216.000000,-31.200001
442,-256.000000,-32.000000
443,-232.000000,-31.200001
444,-240.000000,-32.000000
445,-272.000000,-31.200001
446,-272.000000,-16.799999
447,-272.000000,-32.000000
448,-224.000000,-30.400000
449,-200.000000,-31.200001
450,-208.000000,-33.599998
451,-224.000000,-32.799999
452,-248.000000,-32.000000
453,-264.000000,-31.200001
454,-304.000000,-30.400000
455,-304.000000,-30.400000
456,-304.000000,-31.200001
457,-288.000000,-32.000000
458,-288.000000,-31.200001
459,-256.000000,-36.799999
460,-256.000000,-32.000000
461,-272.000000,-31.200001
462,-264.000000,-29.600000
463,-264.000000,-31.200001
464,-312.000000,-28.799999
465,-320.000000,-29.600000
466,-304.000000,-31.200001
467,-288.000000,-30.400000
468,-272.000000,-30.400000
469,-272.000000,-30.400000
470,-256.000000,-32.000000
471,-280.000000,-32.000000
472,-296.000000,-36.000000
473,-304.000000,-31.200001
474,-344.000000,-29.600000
475,-336.000000,-29.600000
476,-336.000000,-32.000000
477,-320.000000,-28.000000
478,-320.000000,-31.200001
479,-320.000000,-30.400000
480,-312.000000,-29.600000
481,-312.000000,-31.200001
482,-312.000000,-29.600000
483,-328.000000,-29.600000
484,-352.000000,-29.600000
485,-368.000000,-28.799999
486,-376.000000,-29.600000
487,-344.000000,-29.600000
488,-304.000000,-29.600000
489,-304.000000,-29.600000
490,-320.000000,-26.400000
491,-328.000000,-29.600000
492,-336.000000,-28.799999
493,-352.000000,-29.600000
494,-360.000000,-28.799999
495,-368.000000,-30.400000
496,-376.000000,-30.400000
497,-376.000000,-28.799999
498,-344.000000,-33.599998
499,-344.000000,-29.600000
500,-336.000000,-28.799999
501,-352.000000,-28.000000
502,-328.000000,-29.600000
503,-368.000000,-28.000000
504,-392.000000,-28.000000
505,-392.000000,-28.799999
506,-400.000000,-29.600000
507,-392.000000,-28.000000
508,-344.000000,-28.000000
509,-336.000000,-28.000000
510,-320.000000,-28.799999
511,-368.000000,-27.200001
512,-376.000000,-27.200001
513,-392.000000,-28.000000
514,-400.000000,-28.000000
515,-392.000000,-28.799999
516,-376.000000,-24.799999
517,-392.000000,-28.000000
518,-400.000000,-27.200001
519,-368.000000,-28.000000
520,-360.000000,-28.000000
521,-368.000000,-26.400000
522,-376.000000,-26.400000
523,-400.000000,-26.400000
524,-432.000000,-24.000000
525,-424.000000,-25.600000
526,-424.000000,-27.200001
527,-392.000000,-27.200001
528,-400.000000,-25.600000
529,-368.000000,-30.400000
530,-376.000000,-27.200001
531,-376.000000,-26.400000
532,-408.000000,-27.200001
533,-424.000000,-26.400000
534,-432.000000,-24.799999
535,-440.000000,-25.600000
536,-440.000000,-25.600000
537,-440.000000,-23.200001
538,-424.000000,-26.400000
539,-392.000000,-25.600000
540,-392.000000,-25.600000
541,-392.000000,-24.799999
542,-416.000000,-25.600000
543,-400.000000,-24.000000
544,-416.000000,-24.799999
545,-432.000000,-24.000000
546,-432.000000,-23.200001
547,-416.000000,-23.200001
548,-384.000000,-22.400000
549,-368.000000,-24.799999
550,-392.000000,-21.600000
551,-392.000000,-23.200001
552,-432.000000,-23.200001
553,-424.000000,-24.000000
554,-432.000000,-24.799999
555,-464.000000,-25.600000
556,-456.000000,-22.400000
557,-472.000000,-23.200001
558,-424.000000,-22.400000
559,-424.000000,-21.600000
560,-424.000000,-20.000000
561,-424.000000,-23.200001
562,-416.000000,-22.400000
563,-424.000000,-20.000000
564,-440.000000,-23.200001
565,-448.000000,-21.600000
566,-456.000000,-20.000000
567,-440.000000,-21.600000
568,-408.000000,-23.200001
569,-392.000000,-20.799999
570,-424.000000,-20.799999
571,-432.000000,-20.000000
572,-448.000000,-20.000000
573,-440.000000,-19.200001
574,-472.000000,-19.200001
575,-456.000000,-19.200001
576,-472.000000,-17.600000
577,-440.000000,-18.400000
578,-448.000000,-20.000000
579,-448.000000,-18.400000
580,-440.000000,-20.000000
581,-432.000000,-17.600000
582,-440.000000,-18.400000
583,-432.000000,-19.200001
584,-456.000000,-19.200001
585,-480.000000,-18.400000
586,-480.000000,-18.400000
587,-448.000000,-19.200001
588,-448.000000,-17.600000
589,-424.000000,-24.000000
590,-400.000000,-17.600000
591,-432.000000,-18.400000
592,-440.000000,-16.000000
593,-448.000000,-16.799999
594,-480.000000,-15.200000
595,-496.000000,-16.799999
596,-488.000000,-16.799999
597,-464.000000,-16.000000
598,-456.000000,-16.799999
599,-432.000000,-15.200000
600,-416.000000,-15.200000
601,-440.000000,-16.799999
602,-440.000000,-4.800000
603,-448.000000,-16.000000
604,-480.000000,-16.000000
605,-480.000000,-15.200000
606,-488.000000,-14.400000
607,-456.000000,-14.400000
608,-440.000000,-13.600000
609,-432.000000,-14.400000
610,-416.000000,-14.400000
611,-432.000000,-14.400000
612,-456.000000,-15.200000
613,-472.000000,-16.000000
614,-480.000000,-12.000000
615,-472.000000,-4.800000
616,-480.000000,-13.600000
617,-488.000000,-12.800000
618,-472.000000,-13.600000
619,-424.000000,-12.000000
620,-440.000000,-12.800000
621,-424.000000,-11.200000
622,-456.000000,-12.800000
623,-440.000000,-10.400000
624,-464.000000,-9.600000
625,-456.000000,-10.400000
626,-456.000000,-11.200000
627,-432.000000,-9.600000
628,-424.000000,-25.600000
629,-376.000000,-8.800000
630,-424.000000,-9.600000
631,-416.000000,-8.800000
632,-424.000000,-9.600000
633,-424.000000,-11.200000
634,-464.000000,-9.600000
635,-456.000000,-8.000000
636,-464.000000,-8.800000
637,-456.000000,-8.000000
638,-448.000000,-9.600000
639,-416.000000,-8.000000
640,-424.000000,-7.200000
641,-424.000000,-26.400000
642,-408.000000,-7.200000
643,-448.000000,-6.400000
644,-464.000000,-5.600000
645,-472.000000,-7.200000
646,-456.000000,-8.000000
647,-432.000000,-5.600000
648,-400.000000,-5.600000
649,-424.000000,-5.600000
650,-392.000000,-4.000000
651,-408.000000,-4.000000
652,-440.000000,-3.200000
653,-448.000000,-3.200000
654,-480.000000,-30.400000
655,-480.000000,-4.800000
656,-440.000000,-3.200000
657,-440.000000,-4.000000
658,-424.000000,-4.000000
659,-400.000000,-6.400000
660,-408.000000,-5.600000
661,-416.000000,-3.200000
662,-400.000000,-2.400000
663,-440.000000,-2.400000
664,-448.000000,-0.800000
665,-448.000000,-2.400000
666,-424.000000,-1.600000
667,-416.000000,4.800000
668,-368.000000,-2.400000
669,-376.000000,-1.600000
670,-368.000000,-1.600000
671,-392.000000,-1.600000
672,-408.000000,8.000000
673,-424.000000,0.800000
674,-424.000000,-0.800000
675,-432.000000,-1.600000
676,-432.000000,1.600000
677,-424.000000,0.800000
678,-424.000000,1.600000
679,-392.000000,1.600000
680,-376.000000,-9.600000
681,-368.000000,-0.800000
682,-392.000000,1.600000
683,-392.000000,2.400000
684,-408.000000,0.800000
685,-432.000000,-0.800000
686,-424.000000,2.400000
687,-384.000000,2.400000
688,-384.000000,1.600000
689,-344.000000,4.800000
690,-352.000000,4.000000
691,-352.000000,3.200000
692,-368.000000,4.000000
693,-384.000000,1.600000
694,-408.000000,3.200000
695,-416.000000,4.800000
696,-392.000000,5.600000
697,-392.000000,4.800000
698,-384.000000,0.800000
699,-360.000000,4.800000
700,-360.000000,5.600000
701,-352.000000,4.800000
702,-360.000000,6.400000
703,-352.000000,3.200000
704,-376.000000,5.600000
705,-384.000000,7.200000
706,-384.000000,4.800000
707,-360.000000,4.000000
708,-328.000000,7.200000
709,-312.000000,6.400000
710,-328.000000,8.000000
711,-328.000000,2.400000
712,-352.000000,9.600000
713,-360.000000,8.000000
714,-368.000000,7.200000
715,-360.000000,7.200000
716,-360.000000,8.800000
717,-360.000000,8.800000
718,-344.000000,9.600000
719,-360.000000,8.800000
720,-336.000000,9.600000
721,-336.000000,9.600000
722,-328.000000,9.600000
723,-336.000000,10.400000
724,-352.000000,9.600000
725,-360.000000,11.200000
726,-344.000000,11.200000
727,-320.000000,10.400000
728,-296.000000,10.400000
729,-272.000000,11.200000
730,-272.000000,12.000000
731,-288.000000,13.600000
732,-304.000000,12.000000
733,-336.000000,10.400000
734,-328.000000,14.400000
735,-336.000000,11.200000
736,-336.000000,12.000000
737,-320.000000,13.600000
738,-288.000000,13.600000
739,-272.000000,12.800000
740,-288.000000,12.800000
741,-264.000000,14.400000
742,-264.000000,17.600000
743,-280.000000,15.200000
744,-296.000000,14.400000
745,-296.000000,15.200000
746,-296.000000,15.200000
747,-288.000000,15.200000
748,-256.000000,15.200000
749,-248.000000,15.200000
750,-240.000000,17.600000
751,-240.000000,15.200000
752,-256.000000,13.600000
753,-272.000000,16.799999
754,-288.000000,16.000000
755,-288.000000,20.799999
756,-280.000000,16.799999
757,-272.000000,18.400000
758,-248.000000,16.000000
759,-232.000000,17.600000
760,-232.000000,16.799999
761,-224.000000,18.400000
762,-232.000000,16.799999
763,-232.000000,17.600000
764,-256.000000,17.600000
765,-280.000000,18.400000
766,-272.000000,16.799999
767,-224.000000,19.200001
768,-208.000000,20.000000
