lab2_frequencies/20Hz.csv

Channel              :,CH1,CH2
Frequency            :,20.00Hz,20.00Hz
Period               :,50.00ms,50.00ms
PK-PK                :,1.580V,320.0mV
Probe attenuation    :,1X,1X
Voltage per ADC value:,1.250000mV,0.250000mV
Time interval        :,100.00000uS,100.00000uS

index,CH1_Voltage(mV),CH2_Voltage(mV)
1,600.000000,116.000000
2,600.000000,116.000000
3,620.000000,116.000000
4,580.000000,116.000000
5,620.000000,120.000000
6,600.000000,116.000000
7,580.000000,116.000000
8,620.000000,124.000000
9,600.000000,116.000000
10,620.000000,120.000000
11,640.000000,120.000000
12,600.000000,120.000000
13,600.000000,120.000000
14,620.000000,120.000000
15,620.000000,116.000000
16,620.000000,124.000000
17,620.000000,120.000000
18,620.000000,120.000000
19,620.000000,120.000000
20,640.000000,120.000000
21,620.000000,120.000000
22,620.000000,120.000000
23,620.000000,120.000000
24,620.000000,120.000000
25,620.000000,120.000000
26,620.000000,120.000000
27,620.000000,120.000000
28,640.000000,124.000000
29,660.000000,120.000000
30,640.000000,120.000000
31,640.000000,104.000000
32,620.000000,120.000000
33,620.000000,120.000000
34,620.000000,120.000000
35,640.000000,120.000000
36,620.000000,120.000000
37,620.000000,120.000000
38,620.000000,116.000000
39,640.000000,116.000000
40,640.000000,116.000000
41,620.000000,116.000000
42,620.000000,116.000000
43,620.000000,120.000000
44,620.000000,116.000000
45,620.000000,116.000000
46,600.000000,120.000000
47,620.000000,116.000000
48,620.000000,112.000000
49,620.000000,116.000000
50,600.000000,116.000000
51,620.000000,112.000000
52,600.000000,112.000000
53,620.000000,112.000000
54,620.000000,104.000000
55,600.000000,112.000000
56,620.000000,112.000000
57,620.000000,112.000000
58,600.000000,108.000000
59,620.000000,112.000000
60,620.000000,112.000000
61,600.000000,108.000000
62,620.000000,104.000000
63,620.000000,108.000000
64,600.000000,108.000000
65,600.000000,104.000000
66,620.000000,104.000000
67,600.000000,108.000000
68,620.000000,108.000000
69,620.000000,104.000000
70,640.000000,104.000000
71,580.000000,108.000000
72,600.000000,104.000000
73,600.000000,104.000000
74,600.000000,104.000000
75,620.000000,100.000000
76,620.000000,100.000000
77,620.000000,100.000000
78,600.000000,100.000000
79,620.000000,100.000000
80,620.000000,96.000000
81,620.000000,100.000000
82,620.000000,96.000000
83,620.000000,96.000000
84,600.000000,96.000000
85,620.000000,88.000000
86,620.000000,92.000000
87,600.000000,92.000000
88,620.000000,92.000000
89,600.000000,92.000000
90,600.000000,92.000000
91,600.000000,88.000000
92,580.000000,92.000000
93,580.000000,88.000000
94,580.000000,88.000000
95,580.000000,88.000000
96,600.000000,84.000000
97,580.000000,88.000000
98,560.000000,84.000000
99,560.000000,84.000000
100,580.000000,84.000000
101,560.000000,84.000000
102,560.000000,80.000000
103,540.000000,84.000000
104,540.000000,96.000000
105,540.000000,80.000000
106,540.000000,76.000000
107,520.000000,76.000000
108,520.000000,76.000000
109,520.000000,76.000000
110,520.000000,76.000000
111,500.000000,72.000000
112,520.000000,76.000000
113,520.000000,72.000000
114,520.000000,72.000000
115,500.000000,72.000000
116,500.000000,68.000000
117,500.000000,68.000000
118,480.000000,64.000000
119,480.000000,64.000000
120,480.000000,64.000000
121,440.000000,60.000000
122,440.000000,60.000000
123,440.000000,60.000000
124,460.000000,56.000000
125,460.000000,56.000000
126,440.000000,60.000000
127,440.000000,48.000000
128,420.000000,52.000000
129,420.000000,56.000000
130,400.000000,52.000000
131,400.000000,52.000000
132,420.000000,48.000000
133,360.000000,48.000000
134,380.000000,48.000000
135,340.000000,44.000000
136,340.000000,44.000000
137,340.000000,40.000000
138,340.000000,40.000000
139,340.000000,44.000000
140,300.000000,36.000000
141,320.000000,36.000000
142,300.000000,36.000000
143,280.000000,36.000000
144,280.000000,32.000000
145,260.000000,32.000000
146,260.000000,32.000000
147,240.000000,32.000000
148,240.000000,28.000000
149,220.000000,28.000000
150,200.000000,12.000000
151,200.000000,24.000000
152,200.000000,24.000000
153,200.000000,20.000000
154,180.000000,12.000000
155,200.000000,16.000000
156,160.000000,20.000000
157,180.000000,16.000000
158,160.000000,12.000000
159,160.000000,12.000000
160,120.000000,12.000000
161,140.000000,12.000000
162,100.000000,4.000000
163,100.000000,8.000000
164,120.000000,4.000000
165,100.000000,4.000000
166,100.000000,4.000000
167,100.000000,0.000000
168,80.000000,0.000000
169,100.000000,0.000000
170,80.000000,-4.000000
171,60.000000,-4.000000
172,40.000000,-4.000000
173,60.000000,-4.000000
174,40.000000,-8.000000
175,60.000000,-12.000000
176,60.000000,-12.000000
177,40.000000,-12.000000
178,0.000000,-16.000000
179,20.000000,-12.000000
180,0.000000,-16.000000
181,-20.000000,-28.000000
182,20.000000,-20.000000
183,-20.000000,-24.000000
184,-20.000000,-28.000000
185,0.000000,-28.000000
186,0.000000,-28.000000
187,-20.000000,-28.000000
188,0.000000,-32.000000
189,-20.000000,-32.000000
190,-20.000000,-36.000000
191,0.000000,-36.000000
192,-40.000000,-36.000000
193,-20.000000,-40.000000
194,-60.000000,-40.000000
195,-60.000000,-44.000000
196,-80.000000,-44.000000
197,-60.000000,-48.000000
198,-100.000000,-48.000000
199,-100.000000,-44.000000
200,-140.000000,-40.000000
201,-120.000000,-52.000000
202,-120.000000,-52.000000
203,-160.000000,-52.000000
204,-180.000000,-52.000000
205,-160.000000,-56.000000
206,-180.000000,-60.000000
207,-180.000000,-60.000000
208,-200.000000,-60.000000
209,-200.000000,-60.000000
210,-220.000000,-68.000000
211,-220.000000,-68.000000
212,-220.000000,-68.000000
213,-260.000000,-68.000000
214,-260.000000,-72.000000
215,-300.000000,-72.000000
216,-280.000000,-76.000000
217,-320.000000,-76.000000
218,-320.000000,-76.000000
219,-320.000000,-80.000000
220,-320.000000,-80.000000
221,-340.000000,-84.000000
222,-340.000000,-84.000000
223,-380.000000,-100.000000
224,-380.000000,-84.000000
225,-420.000000,-88.000000
226,-420.000000,-92.000000
227,-400.000000,-88.000000
228,-420.000000,-92.000000
229,-440.000000,-96.000000
230,-460.000000,-96.000000
231,-480.000000,-96.000000
232,-480.000000,-92.000000
233,-500.000000,-100.000000
234,-500.000000,-100.000000
235,-540.000000,-100.000000
236,-540.000000,-104.000000
237,-540.000000,-104.000000
238,-520.000000,-104.000000
239,-520.000000,-104.000000
240,-580.000000,-108.000000
241,-580.000000,-108.000000
242,-600.000000,-112.000000
243,-620.000000,-108.000000
244,-620.000000,-116.000000
245,-640.000000,-116.000000
246,-640.000000,-112.000000
247,-660.000000,-116.000000
248,-680.000000,-116.000000
249,-660.000000,-124.000000
250,-640.000000,-120.000000
251,-660.000000,-120.000000
252,-700.000000,-124.000000
253,-680.000000,-124.000000
254,-680.000000,-132.000000
255,-700.000000,-124.000000
256,-700.000000,-128.000000
257,-700.000000,-128.000000
258,-720.000000,-124.000000
259,-720.000000,-128.000000
260,-740.000000,-128.000000
261,-700.000000,-132.000000
262,-740.000000,-132.000000
263,-740.000000,-136.000000
264,-760.000000,-136.000000
265,-780.000000,-136.000000
266,-760.000000,-136.000000
267,-780.000000,-140.000000
268,-800.000000,-136.000000
269,-780.000000,-140.000000
270,-760.000000,-140.000000
271,-780.000000,-140.000000
272,-780.000000,-140.000000
273,-780.000000,-140.000000
274,-800.000000,-144.000000
275,-800.000000,-140.000000
276,-800.000000,-140.000000
277,-820.000000,-132.000000
278,-820.000000,-144.000000
279,-820.000000,-144.000000
280,-820.000000,-144.000000
281,-800.000000,-144.000000
282,-820.000000,-144.000000
283,-840.000000,-144.000000
284,-860.000000,-148.000000
285,-840.000000,-144.000000
286,-820.000000,-144.000000
287,-840.000000,-144.000000
288,-840.000000,-148.000000
289,-860.000000,-148.000000
290,-820.000000,-148.000000
291,-840.000000,-144.000000
292,-860.000000,-148.000000
293,-840.000000,-148.000000
294,-840.000000,-144.000000
295,-860.000000,-148.000000
296,-860.000000,-144.000000
297,-860.000000,-148.000000
298,-860.000000,-144.000000
299,-840.000000,-144.000000
300,-880.000000,-144.000000
301,-880.000000,-148.000000
302,-880.000000,-148.000000
303,-880.000000,-144.000000
304,-860.000000,-140.000000
305,-840.000000,-144.000000
306,-840.000000,-148.000000
307,-840.000000,-144.000000
308,-860.000000,-144.000000
309,-840.000000,-144.000000
310,-860.000000,-140.000000
311,-900.000000,-144.000000
312,-860.000000,-140.000000
313,-840.000000,-140.000000
314,-860.000000,-136.000000
315,-800.000000,-140.000000
316,-820.000000,-136.000000
317,-840.000000,-136.000000
318,-840.000000,-136.000000
319,-840.000000,-144.000000
320,-840.000000,-136.000000
321,-860.000000,-132.000000
322,-820.000000,-132.000000
323,-820.000000,-132.000000
324,-820.000000,-132.000000
325,-820.000000,-132.000000
326,-820.000000,-128.000000
327,-820.000000,-128.000000
328,-820.000000,-128.000000
329,-800.000000,-124.000000
330,-840.000000,-124.000000
331,-820.000000,-120.000000
332,-800.000000,-120.000000
333,-820.000000,-124.000000
334,-820.000000,-120.000000
335,-780.000000,-116.000000
336,-780.000000,-116.000000
337,-780.000000,-116.000000
338,-780.000000,-116.000000
339,-780.000000,-116.000000
340,-800.000000,-112.000000
341,-800.000000,-112.000000
342,-800.000000,-120.000000
343,-780.000000,-108.000000
344,-800.000000,-104.000000
345,-800.000000,-100.000000
346,-780.000000,-104.000000
347,-780.000000,-100.000000
348,-760.000000,-96.000000
349,-780.000000,-96.000000
350,-780.000000,-100.000000
351,-780.000000,-92.000000
352,-780.000000,-96.000000
353,-760.000000,-92.000000
354,-780.000000,-96.000000
355,-780.000000,-88.000000
356,-760.000000,-88.000000
357,-740.000000,-84.000000
358,-740.000000,-88.000000
359,-740.000000,-84.000000
360,-740.000000,-80.000000
361,-720.000000,-80.000000
362,-720.000000,-76.000000
363,-720.000000,-76.000000
364,-720.000000,-76.000000
365,-680.000000,-72.000000
366,-660.000000,-68.000000
367,-680.000000,-72.000000
368,-660.000000,-68.000000
369,-640.000000,-64.000000
370,-620.000000,-64.000000
371,-620.000000,-60.000000
372,-580.000000,-60.000000
373,-600.000000,-44.000000
374,-580.000000,-56.000000
375,-580.000000,-52.000000
376,-560.000000,-52.000000
377,-560.000000,-48.000000
378,-560.000000,-44.000000
379,-520.000000,-44.000000
380,-560.000000,-48.000000
381,-540.000000,-40.000000
382,-480.000000,-40.000000
383,-500.000000,-36.000000
384,-480.000000,-36.000000
385,-440.000000,-36.000000
386,-420.000000,-36.000000
387,-460.000000,-32.000000
388,-400.000000,-28.000000
389,-380.000000,-28.000000
390,-400.000000,-28.000000
391,-380.000000,-24.000000
392,-360.000000,-24.000000
393,-360.000000,-20.000000
394,-360.000000,-16.000000
395,-340.000000,-20.000000
396,-320.000000,-16.000000
397,-340.000000,-16.000000
398,-320.000000,-12.000000
399,-300.000000,-12.000000
400,-320.000000,-4.000000
401,-260.000000,-4.000000
402,-240.000000,-4.000000
403,-240.000000,0.000000
404,-220.000000,0.000000
405,-240.000000,4.000000
406,-240.000000,4.000000
407,-200.000000,4.000000
408,-220.000000,8.000000
409,-200.000000,8.000000
410,-200.000000,8.000000
411,-200.000000,12.000000
412,-180.000000,12.000000
413,-180.000000,16.000000
414,-180.000000,16.000000
415,-180.000000,-8.000000
416,-140.000000,20.000000
417,-140.000000,24.000000
418,-140.000000,24.000000
419,-120.000000,28.000000
420,-120.000000,24.000000
421,-100.000000,32.000000
422,-120.000000,32.000000
423,-120.000000,32.000000
424,-100.000000,32.000000
425,-100.000000,32.000000
426,-100.000000,36.000000
427,-60.000000,36.000000
428,-60.000000,40.000000
429,-60.000000,44.000000
430,-40.000000,44.000000
431,-20.000000,44.000000
432,0.000000,44.000000
433,0.000000,48.000000
434,0.000000,48.000000
435,0.000000,52.000000
436,0.000000,52.000000
437,0.000000,56.000000
438,20.000000,80.000000
439,60.000000,56.000000
440,80.000000,60.000000
441,100.000000,60.000000
442,100.000000,64.000000
443,80.000000,64.000000
444,100.000000,64.000000
445,100.000000,68.000000
446,120.000000,60.000000
447,100.000000,72.000000
448,120.000000,72.000000
449,120.000000,76.000000
450,140.000000,76.000000
451,160.000000,72.000000
452,160.000000,76.000000
453,200.000000,80.000000
454,160.000000,80.000000
455,200.000000,80.000000
456,180.000000,80.000000
457,200.000000,80.000000
458,200.000000,84.000000
459,200.000000,84.000000
460,220.000000,88.000000
461,220.000000,88.000000
462,240.000000,84.000000
463,240.000000,88.000000
464,240.000000,88.000000
465,260.000000,92.000000
466,260.000000,92.000000
467,280.000000,92.000000
468,280.000000,92.000000
469,300.000000,100.000000
470,300.000000,96.000000
471,300.000000,96.000000
472,340.000000,96.000000
473,320.000000,100.000000
474,360.000000,100.000000
475,360.000000,100.000000
476,380.000000,96.000000
477,380.000000,104.000000
478,380.000000,104.000000
479,380.000000,104.000000
480,380.000000,104.000000
481,380.000000,104.000000
482,420.000000,104.000000
483,440.000000,104.000000
484,420.000000,104.000000
485,440.000000,108.000000
486,460.000000,108.000000
487,460.000000,108.000000
488,460.000000,104.000000
489,480.000000,108.000000
490,500.000000,112.000000
491,500.000000,112.000000
492,520.000000,108.000000
493,520.000000,112.000000
494,520.000000,112.000000
495,520.000000,116.000000
496,540.000000,112.000000
497,540.000000,112.000000
498,560.000000,112.000000
499,560.000000,116.000000
500,580.000000,112.000000
501,580.000000,116.000000
502,580.000000,116.000000
503,600.000000,116.000000
504,600.000000,112.000000
505,580.000000,116.000000
506,600.000000,120.000000
507,580.000000,116.000000
508,600.000000,116.000000
509,620.000000,116.000000
510,600.000000,120.000000
511,620.000000,124.000000
512,620.000000,120.000000
513,620.000000,120.000000
514,640.000000,120.000000
515,640.000000,116.000000
516,640.000000,120.000000
517,600.000000,120.000000
518,620.000000,120.000000
519,600.000000,124.000000
520,640.000000,120.000000
521,640.000000,120.000000
522,620.000000,120.000000
523,640.000000,116.000000
524,620.000000,120.000000
525,640.000000,120.000000
526,620.000000,120.000000
527,660.000000,116.000000
528,640.000000,120.000000
529,640.000000,120.000000
530,640.000000,116.000000
531,660.000000,120.000000
532,640.000000,116.000000
533,640.000000,116.000000
534,640.000000,148.000000
535,640.000000,120.000000
536,620.000000,120.000000
537,640.000000,116.000000
538,620.000000,124.000000
539,640.000000,116.000000
540,620.000000,120.000000
541,640.000000,116.000000
542,620.000000,112.000000
543,640.000000,120.000000
544,640.000000,116.000000
545,640.000000,116.000000
546,620.000000,120.000000
547,640.000000,120.000000
548,620.000000,116.000000
549,620.000000,112.000000
550,620.000000,116.000000
551,620.000000,112.000000
552,620.000000,112.000000
553,600.000000,112.000000
554,620.000000,112.000000
555,600.000000,112.000000
556,620.000000,116.000000
557,600.000000,112.000000
558,600.000000,112.000000
559,620.000000,108.000000
560,580.000000,112.000000
561,600.000000,108.000000
562,600.000000,108.000000
563,620.000000,112.000000
564,600.000000,108.000000
565,620.000000,112.000000
566,620.000000,108.000000
567,620.000000,108.000000
568,600.000000,108.000000
569,640.000000,108.000000
570,620.000000,108.000000
571,640.000000,104.000000
572,640.000000,104.000000
573,640.000000,104.000000
574,620.000000,104.000000
575,640.000000,104.000000
576,640.000000,100.000000
577,620.000000,100.000000
578,640.000000,100.000000
579,640.000000,100.000000
580,640.000000,100.000000
581,620.000000,100.000000
582,640.000000,100.000000
583,660.000000,96.000000
584,620.000000,92.000000
585,620.000000,92.000000
586,620.000000,96.000000
587,620.000000,92.000000
588,620.000000,88.000000
589,640.000000,96.000000
590,640.000000,92.000000
591,640.000000,92.000000
592,660.000000,88.000000
593,660.000000,88.000000
594,620.000000,88.000000
595,640.000000,88.000000
596,620.000000,88.000000
597,600.000000,84.000000
598,620.000000,84.000000
599,620.000000,84.000000
600,600.000000,84.000000
601,600.000000,84.000000
602,580.000000,80.000000
603,600.000000,80.000000
604,560.000000,84.000000
605,580.000000,80.000000
606,580.000000,80.000000
607,540.000000,60.000000
608,540.000000,76.000000
609,560.000000,76.000000
610,540.000000,76.000000
611,540.000000,72.000000
612,540.000000,72.000000
613,540.000000,72.000000
614,500.000000,72.000000
615,540.000000,72.000000
616,500.000000,68.000000
617,480.000000,68.000000
618,480.000000,68.000000
619,500.000000,60.000000
620,440.000000,64.000000
621,440.000000,64.000000
622,420.000000,60.000000
623,440.000000,60.000000
624,420.000000,60.000000
625,440.000000,56.000000
626,420.000000,56.000000
627,420.000000,56.000000
628,400.000000,52.000000
629,420.000000,52.000000
630,380.000000,68.000000
631,380.000000,52.000000
632,360.000000,52.000000
633,360.000000,44.000000
634,360.000000,52.000000
635,340.000000,44.000000
636,340.000000,44.000000
637,320.000000,44.000000
638,320.000000,36.000000
639,300.000000,40.000000
640,300.000000,40.000000
641,300.000000,36.000000
642,280.000000,40.000000
643,280.000000,36.000000
644,260.000000,32.000000
645,260.000000,36.000000
646,260.000000,32.000000
647,240.000000,32.000000
648,200.000000,32.000000
649,200.000000,28.000000
650,200.000000,28.000000
651,180.000000,24.000000
652,200.000000,24.000000
653,200.000000,24.000000
654,160.000000,20.000000
655,200.000000,20.000000
656,160.000000,16.000000
657,180.000000,12.000000
658,160.000000,12.000000
659,140.000000,12.000000
660,140.000000,12.000000
661,140.000000,12.000000
662,100.000000,8.000000
663,120.000000,8.000000
664,80.000000,8.000000
665,100.000000,-4.000000
666,80.000000,4.000000
667,60.000000,0.000000
668,80.000000,0.000000
669,60.000000,0.000000
670,40.000000,-4.000000
671,40.000000,-4.000000
672,20.000000,-8.000000
673,40.000000,-4.000000
674,40.000000,-12.000000
675,0.000000,-12.000000
676,0.000000,-12.000000
677,-20.000000,-12.000000
678,0.000000,-16.000000
679,-20.000000,-16.000000
680,-20.000000,-16.000000
681,-20.000000,-20.000000
682,-40.000000,-20.000000
683,-40.000000,-24.000000
684,-60.000000,-28.000000
685,-60.000000,-28.000000
686,-60.000000,-28.000000
687,-60.000000,-28.000000
688,-80.000000,-32.000000
689,-100.000000,-32.000000
690,-100.000000,-32.000000
691,-120.000000,-36.000000
692,-80.000000,-40.000000
693,-80.000000,-40.000000
694,-100.000000,-40.000000
695,-120.000000,-40.000000
696,-120.000000,-44.000000
697,-140.000000,-48.000000
698,-160.000000,-48.000000
699,-160.000000,-48.000000
700,-160.000000,-52.000000
701,-160.000000,-52.000000
702,-180.000000,-52.000000
703,-220.000000,-36.000000
704,-180.000000,-56.000000
705,-200.000000,-56.000000
706,-200.000000,-60.000000
707,-220.000000,-60.000000
708,-240.000000,-64.000000
709,-260.000000,-64.000000
710,-260.000000,-68.000000
711,-260.000000,-64.000000
712,-280.000000,-68.000000
713,-280.000000,-72.000000
714,-300.000000,-72.000000
715,-280.000000,-76.000000
716,-300.000000,-76.000000
717,-320.000000,-76.000000
718,-300.000000,-80.000000
719,-360.000000,-80.000000
720,-320.000000,-80.000000
721,-340.000000,-84.000000
722,-360.000000,-80.000000
723,-360.000000,-84.000000
724,-360.000000,-88.000000
725,-380.000000,-88.000000
726,-400.000000,-92.000000
727,-400.000000,-92.000000
728,-420.000000,-92.000000
729,-420.000000,-92.000000
730,-420.000000,-92.000000
731,-420.000000,-100.000000
732,-460.000000,-96.000000
733,-460.000000,-100.000000
734,-460.000000,-104.000000
735,-480.000000,-100.000000
736,-500.000000,-104.000000
737,-520.000000,-104.000000
738,-540.000000,-100.000000
739,-540.000000,-104.000000
740,-520.000000,-108.000000
741,-540.000000,-108.000000
742,-540.000000,-108.000000
743,-580.000000,-112.000000
744,-600.000000,-112.000000
745,-600.000000,-116.000000
746,-600.000000,-116.000000
747,-620.000000,-116.000000
748,-640.000000,-116.000000
749,-640.000000,-124.000000
750,-640.000000,-120.000000
751,-640.000000,-120.000000
752,-660.000000,-124.000000
753,-640.000000,-132.000000
754,-680.000000,-128.000000
755,-680.000000,-128.000000
756,-700.000000,-128.000000
757,-700.000000,-124.000000
