lab2_frequencies/25Hz.csv

Channel              :,CH1,CH2
Frequency            :,25.00Hz,25.00Hz
Period               :,40.00ms,40.00ms
PK-PK                :,1.660V,356.0mV
Probe attenuation    :,1X,1X
Voltage per ADC value:,1.250000mV,0.250000mV
Time interval        :,40.00000uS,40.00000uS

index,CH1_Voltage(mV),CH2_Voltage(mV)
1,-780.000000,-88.000000
2,-780.000000,-88.000000
3,-760.000000,-88.000000
4,-760.000000,-88.000000
5,-760.000000,-88.000000
6,-760.000000,-88.000000
7,-740.000000,-84.000000
8,-760.000000,-84.000000
9,-740.000000,-84.000000
10,-740.000000,-84.000000
11,-740.000000,-80.000000
12,-740.000000,-80.000000
13,-740.000000,-80.000000
14,-720.000000,-76.000000
15,-720.000000,-76.000000
16,-720.000000,-76.000000
17,-720.000000,-80.000000
18,-720.000000,-72.000000
19,-700.000000,-76.000000
20,-700.000000,-72.000000
21,-700.000000,-72.000000
22,-680.000000,-72.000000
23,-680.000000,-72.000000
24,-660.000000,-56.000000
25,-680.000000,-68.000000
26,-680.000000,-64.000000
27,-660.000000,-64.000000
28,-660.000000,-64.000000
29,-660.000000,-60.000000
30,-660.000000,-60.000000
31,-640.000000,-60.000000
32,-660.000000,-60.000000
33,-640.000000,-56.000000
34,-600.000000,-60.000000
35,-600.000000,-56.000000
36,-620.000000,-56.000000
37,-620.000000,-56.000000
38,-620.000000,-52.000000
39,-600.000000,-52.000000
40,-600.000000,-52.000000
41,-540.000000,-44.000000
42,-580.000000,-48.000000
43,-580.000000,-44.000000
44,-560.000000,-44.000000
45,-560.000000,-44.000000
46,-560.000000,-44.000000
47,-580.000000,-40.000000
48,-580.000000,-40.000000
49,-540.000000,-40.000000
50,-580.000000,-44.000000
51,-540.000000,-44.000000
52,-560.000000,-36.000000
53,-540.000000,-40.000000
54,-520.000000,-36.000000
55,-520.000000,-32.000000
56,-480.000000,-36.000000
57,-520.000000,-32.000000
58,-520.000000,-28.000000
59,-460.000000,-28.000000
60,-480.000000,-24.000000
61,-500.000000,-28.000000
62,-460.000000,-24.000000
63,-440.000000,-24.000000
64,-460.000000,-24.000000
65,-480.000000,-24.000000
66,-440.000000,-24.000000
67,-460.000000,-20.000000
68,-440.000000,-44.000000
69,-420.000000,-20.000000
70,-380.000000,-20.000000
71,-420.000000,-16.000000
72,-400.000000,-16.000000
73,-400.000000,-12.000000
74,-400.000000,-12.000000
75,-400.000000,-12.000000
76,-380.000000,-12.000000
77,-360.000000,-12.000000
78,-360.000000,-12.000000
79,-360.000000,-12.000000
80,-340.000000,-8.000000
81,-340.000000,-8.000000
82,-300.000000,-4.000000
83,-320.000000,-4.000000
84,-340.000000,-4.000000
85,-300.000000,-4.000000
86,-300.000000,0.000000
87,-280.000000,0.000000
88,-320.000000,4.000000
89,-280.000000,4.000000
90,-280.000000,4.000000
91,-260.000000,4.000000
92,-240.000000,4.000000
93,-240.000000,4.000000
94,-220.000000,4.000000
95,-240.000000,8.000000
96,-240.000000,8.000000
97,-220.000000,12.000000
98,-240.000000,12.000000
99,-220.000000,12.000000
100,-220.000000,16.000000
101,-240.000000,12.000000
102,-220.000000,16.000000
103,-200.000000,16.000000
104,-180.000000,20.000000
105,-200.000000,28.000000
106,-180.000000,20.000000
107,-200.000000,16.000000
108,-200.000000,24.000000
109,-160.000000,20.000000
110,-180.000000,20.000000
111,-160.000000,20.000000
112,-160.000000,16.000000
113,-140.000000,28.000000
114,-120.000000,24.000000
115,-120.000000,20.000000
116,-120.000000,28.000000
117,-120.000000,32.000000
118,-120.000000,32.000000
119,-120.000000,28.000000
120,-100.000000,32.000000
121,-120.000000,32.000000
122,-100.000000,32.000000
123,-100.000000,36.000000
124,-80.000000,36.000000
125,-80.000000,36.000000
126,-60.000000,36.000000
127,-80.000000,40.000000
128,-60.000000,40.000000
129,-60.000000,44.000000
130,-60.000000,44.000000
131,-60.000000,44.000000
132,-40.000000,44.000000
133,-60.000000,44.000000
134,-40.000000,48.000000
135,-20.000000,48.000000
136,-20.000000,48.000000
137,-40.000000,48.000000
138,-20.000000,48.000000
139,0.000000,48.000000
140,-20.000000,52.000000
141,-40.000000,52.000000
142,0.000000,48.000000
143,0.000000,56.000000
144,20.000000,56.000000
145,0.000000,56.000000
146,0.000000,56.000000
147,0.000000,60.000000
148,20.000000,60.000000
149,20.000000,56.000000
150,40.000000,60.000000
151,40.000000,60.000000
152,60.000000,64.000000
153,20.000000,64.000000
154,40.000000,64.000000
155,80.000000,64.000000
156,40.000000,68.000000
157,80.000000,68.000000
158,60.000000,72.000000
159,80.000000,72.000000
160,100.000000,68.000000
161,80.000000,72.000000
162,100.000000,72.000000
163,100.000000,76.000000
164,80.000000,76.000000
165,100.000000,72.000000
166,120.000000,80.000000
167,100.000000,72.000000
168,100.000000,76.000000
169,120.000000,80.000000
170,120.000000,80.000000
171,140.000000,80.000000
172,140.000000,80.000000
173,120.000000,84.000000
174,140.000000,80.000000
175,140.000000,80.000000
176,140.000000,80.000000
177,120.000000,84.000000
178,140.000000,84.000000
179,160.000000,88.000000
180,180.000000,84.000000
181,160.000000,88.000000
182,180.000000,88.000000
183,180.000000,92.000000
184,180.000000,92.000000
185,200.000000,88.000000
186,180.000000,92.000000
187,180.000000,92.000000
188,180.000000,92.000000
189,220.000000,92.000000
190,200.000000,92.000000
191,200.000000,92.000000
192,220.000000,96.000000
193,200.000000,92.000000
194,220.000000,96.000000
195,240.000000,96.000000
196,240.000000,96.000000
197,240.000000,96.000000
198,240.000000,100.000000
199,260.000000,96.000000
200,240.000000,104.000000
201,240.000000,100.000000
202,260.000000,100.000000
203,260.000000,100.000000
204,260.000000,100.000000
205,300.000000,100.000000
206,280.000000,104.000000
207,300.000000,104.000000
208,300.000000,104.000000
209,280.000000,104.000000
210,300.000000,104.000000
211,320.000000,104.000000
212,300.000000,108.000000
213,320.000000,108.000000
214,300.000000,108.000000
215,300.000000,104.000000
216,320.000000,108.000000
217,320.000000,108.000000
218,320.000000,112.000000
219,320.000000,112.000000
220,340.000000,108.000000
221,340.000000,112.000000
222,340.000000,112.000000
223,340.000000,112.000000
224,360.000000,112.000000
225,360.000000,112.000000
226,360.000000,112.000000
227,360.000000,124.000000
228,360.000000,112.000000
229,380.000000,112.000000
230,380.000000,116.000000
231,360.000000,116.000000
232,380.000000,116.000000
233,380.000000,116.000000
234,380.000000,120.000000
235,360.000000,116.000000
236,400.000000,120.000000
237,400.000000,124.000000
238,400.000000,120.000000
239,400.000000,120.000000
240,400.000000,120.000000
241,420.000000,120.000000
242,400.000000,120.000000
243,400.000000,120.000000
244,420.000000,124.000000
245,400.000000,124.000000
246,420.000000,124.000000
247,420.000000,128.000000
248,420.000000,120.000000
249,440.000000,124.000000
250,440.000000,128.000000
251,440.000000,128.000000
252,440.000000,124.000000
253,440.000000,124.000000
254,460.000000,128.000000
255,460.000000,124.000000
256,460.000000,124.000000
257,460.000000,124.000000
258,460.000000,124.000000
259,460.000000,128.000000
260,460.000000,128.000000
261,480.000000,124.000000
262,460.000000,128.000000
263,480.000000,128.000000
264,460.000000,132.000000
265,480.000000,124.000000
266,480.000000,128.000000
267,480.000000,128.000000
268,480.000000,128.000000
269,480.000000,132.000000
270,460.000000,128.000000
271,500.000000,108.000000
272,500.000000,132.000000
273,480.000000,132.000000
274,520.000000,120.000000
275,520.000000,132.000000
276,520.000000,132.000000
277,520.000000,132.000000
278,520.000000,132.000000
279,520.000000,132.000000
280,500.000000,128.000000
281,520.000000,128.000000
282,520.000000,132.000000
283,520.000000,132.000000
284,560.000000,136.000000
285,520.000000,132.000000
286,540.000000,128.000000
287,560.000000,132.000000
288,540.000000,136.000000
289,560.000000,132.000000
290,540.000000,136.000000
291,560.000000,136.000000
292,560.000000,132.000000
293,560.000000,136.000000
294,580.000000,136.000000
295,580.000000,136.000000
296,580.000000,132.000000
297,580.000000,132.000000
298,580.000000,136.000000
299,580.000000,136.000000
300,580.000000,136.000000
301,580.000000,132.000000
302,600.000000,132.000000
303,600.000000,136.000000
304,600.000000,132.000000
305,600.000000,136.000000
306,580.000000,136.000000
307,600.000000,136.000000
308,600.000000,148.000000
309,600.000000,136.000000
310,640.000000,132.000000
311,620.000000,136.000000
312,620.000000,136.000000
313,640.000000,136.000000
314,620.000000,132.000000
315,620.000000,148.000000
316,640.000000,136.000000
317,640.000000,136.000000
318,620.000000,140.000000
319,620.000000,136.000000
320,620.000000,136.000000
321,640.000000,136.000000
322,640.000000,132.000000
323,640.000000,136.000000
324,640.000000,132.000000
325,640.000000,136.000000
326,660.000000,132.000000
327,660.000000,136.000000
328,640.000000,136.000000
329,660.000000,136.000000
330,680.000000,132.000000
331,660.000000,132.000000
332,660.000000,132.000000
333,660.000000,136.000000
334,660.000000,132.000000
335,660.000000,132.000000
336,680.000000,132.000000
337,680.000000,132.000000
338,660.000000,132.000000
339,680.000000,132.000000
340,680.000000,132.000000
341,720.000000,132.000000
342,720.000000,136.000000
343,680.000000,132.000000
344,680.000000,132.000000
345,720.000000,128.000000
346,700.000000,132.000000
347,720.000000,128.000000
348,720.000000,132.000000
349,700.000000,132.000000
350,700.000000,128.000000
351,720.000000,128.000000
352,720.000000,128.000000
353,720.000000,132.000000
354,720.000000,132.000000
355,720.000000,132.000000
356,720.000000,128.000000
357,720.000000,128.000000
358,720.000000,128.000000
359,700.000000,120.000000
360,720.000000,128.000000
361,720.000000,128.000000
362,700.000000,124.000000
363,720.000000,128.000000
364,700.000000,128.000000
365,720.000000,128.000000
366,700.000000,128.000000
367,720.000000,128.000000
368,700.000000,128.000000
369,720.000000,124.000000
370,720.000000,128.000000
371,720.000000,128.000000
372,720.000000,124.000000
373,700.000000,128.000000
374,700.000000,128.000000
375,720.000000,124.000000
376,740.000000,128.000000
377,720.000000,124.000000
378,720.000000,124.000000
379,720.000000,120.000000
380,720.000000,124.000000
381,700.000000,124.000000
382,720.000000,124.000000
383,720.000000,124.000000
384,720.000000,120.000000
385,700.000000,120.000000
386,700.000000,136.000000
387,720.000000,120.000000
388,680.000000,120.000000
389,700.000000,128.000000
390,700.000000,120.000000
391,680.000000,120.000000
392,700.000000,120.000000
393,660.000000,124.000000
394,680.000000,120.000000
395,720.000000,120.000000
396,700.000000,120.000000
397,680.000000,116.000000
398,700.000000,116.000000
399,680.000000,116.000000
400,700.000000,120.000000
401,680.000000,116.000000
402,680.000000,116.000000
403,680.000000,116.000000
404,680.000000,116.000000
405,680.000000,116.000000
406,680.000000,120.000000
407,700.000000,116.000000
408,660.000000,116.000000
409,700.000000,116.000000
410,660.000000,112.000000
411,700.000000,116.000000
412,680.000000,112.000000
413,680.000000,112.000000
414,660.000000,112.000000
415,680.000000,112.000000
416,680.000000,112.000000
417,660.000000,112.000000
418,660.000000,112.000000
419,680.000000,112.000000
420,700.000000,112.000000
421,680.000000,108.000000
422,660.000000,108.000000
423,660.000000,116.000000
424,660.000000,112.000000
425,660.000000,108.000000
426,660.000000,108.000000
427,660.000000,108.000000
428,660.000000,108.000000
429,660.000000,108.000000
430,660.000000,96.000000
431,640.000000,108.000000
432,640.000000,104.000000
433,640.000000,100.000000
434,660.000000,104.000000
435,660.000000,108.000000
436,640.000000,108.000000
437,640.000000,108.000000
438,660.000000,104.000000
439,640.000000,104.000000
440,640.000000,104.000000
441,640.000000,100.000000
442,640.000000,104.000000
443,640.000000,100.000000
444,640.000000,104.000000
445,640.000000,100.000000
446,640.000000,100.000000
447,640.000000,104.000000
448,620.000000,100.000000
449,640.000000,100.000000
450,640.000000,100.000000
451,620.000000,100.000000
452,620.000000,100.000000
453,620.000000,100.000000
454,600.000000,96.000000
455,620.000000,96.000000
456,600.000000,96.000000
457,600.000000,96.000000
458,600.000000,96.000000
459,580.000000,96.000000
460,600.000000,92.000000
461,600.000000,96.000000
462,600.000000,92.000000
463,560.000000,92.000000
464,580.000000,96.000000
465,560.000000,92.000000
466,600.000000,92.000000
467,580.000000,92.000000
468,560.000000,92.000000
469,560.000000,92.000000
470,560.000000,92.000000
471,560.000000,88.000000
472,560.000000,88.000000
473,540.000000,88.000000
474,560.000000,120.000000
475,560.000000,88.000000
476,560.000000,88.000000
477,540.000000,92.000000
478,540.000000,88.000000
479,560.000000,88.000000
480,540.000000,88.000000
481,520.000000,88.000000
482,520.000000,84.000000
483,540.000000,84.000000
484,520.000000,88.000000
485,520.000000,84.000000
486,500.000000,84.000000
487,480.000000,84.000000
488,520.000000,84.000000
489,500.000000,84.000000
490,500.000000,84.000000
491,520.000000,80.000000
492,480.000000,84.000000
493,480.000000,80.000000
494,500.000000,80.000000
495,500.000000,80.000000
496,480.000000,80.000000
497,480.000000,80.000000
498,460.000000,76.000000
499,480.000000,76.000000
500,500.000000,76.000000
501,480.000000,76.000000
502,480.000000,76.000000
503,480.000000,76.000000
504,460.000000,72.000000
505,480.000000,72.000000
506,460.000000,72.000000
507,460.000000,76.000000
508,460.000000,72.000000
509,460.000000,72.000000
510,460.000000,72.000000
511,440.000000,68.000000
512,440.000000,72.000000
513,460.000000,68.000000
514,440.000000,72.000000
515,440.000000,68.000000
516,420.000000,68.000000
517,420.000000,68.000000
518,460.000000,60.000000
519,420.000000,64.000000
520,420.000000,64.000000
521,420.000000,60.000000
522,420.000000,64.000000
523,420.000000,64.000000
524,420.000000,64.000000
525,420.000000,64.000000
526,420.000000,64.000000
527,400.000000,60.000000
528,420.000000,60.000000
529,420.000000,60.000000
530,400.000000,60.000000
531,380.000000,60.000000
532,420.000000,60.000000
533,420.000000,60.000000
534,400.000000,60.000000
535,400.000000,60.000000
536,400.000000,56.000000
537,420.000000,56.000000
538,400.000000,52.000000
539,400.000000,56.000000
540,400.000000,56.000000
541,400.000000,56.000000
542,380.000000,52.000000
543,400.000000,52.000000
544,400.000000,52.000000
545,400.000000,64.000000
546,360.000000,52.000000
547,400.000000,48.000000
548,400.000000,56.000000
549,380.000000,44.000000
550,380.000000,48.000000
551,380.000000,44.000000
552,380.000000,48.000000
553,380.000000,44.000000
554,380.000000,48.000000
555,380.000000,48.000000
556,360.000000,44.000000
557,360.000000,44.000000
558,360.000000,44.000000
559,360.000000,40.000000
560,360.000000,40.000000
561,340.000000,40.000000
562,380.000000,36.000000
563,340.000000,44.000000
564,340.000000,40.000000
565,360.000000,40.000000
566,320.000000,36.000000
567,340.000000,36.000000
568,320.000000,36.000000
569,320.000000,32.000000
570,320.000000,32.000000
571,320.000000,36.000000
572,320.000000,28.000000
573,300.000000,32.000000
574,320.000000,32.000000
575,300.000000,32.000000
576,280.000000,32.000000
577,300.000000,28.000000
578,300.000000,28.000000
579,300.000000,28.000000
580,320.000000,28.000000
581,280.000000,28.000000
582,260.000000,28.000000
583,280.000000,24.000000
584,260.000000,24.000000
585,280.000000,24.000000
586,280.000000,24.000000
587,300.000000,24.000000
588,260.000000,24.000000
589,280.000000,-4.000000
590,240.000000,20.000000
591,280.000000,16.000000
592,260.000000,12.000000
593,260.000000,20.000000
594,240.000000,16.000000
595,240.000000,16.000000
596,240.000000,16.000000
597,220.000000,12.000000
598,240.000000,12.000000
599,220.000000,12.000000
600,240.000000,12.000000
601,240.000000,12.000000
602,220.000000,12.000000
603,220.000000,12.000000
604,200.000000,12.000000
605,180.000000,12.000000
606,200.000000,8.000000
607,200.000000,8.000000
608,200.000000,8.000000
609,200.000000,8.000000
610,180.000000,8.000000
611,160.000000,4.000000
612,160.000000,4.000000
613,140.000000,4.000000
614,160.000000,0.000000
615,160.000000,0.000000
616,160.000000,4.000000
617,140.000000,0.000000
618,140.000000,0.000000
619,120.000000,0.000000
620,120.000000,0.000000
621,140.000000,0.000000
622,100.000000,-4.000000
623,80.000000,-4.000000
624,100.000000,-4.000000
625,120.000000,-4.000000
626,100.000000,4.000000
627,100.000000,-8.000000
628,100.000000,-12.000000
629,100.000000,-8.000000
630,80.000000,-12.000000
631,80.000000,-12.000000
632,60.000000,-12.000000
633,80.000000,-12.000000
634,100.000000,-12.000000
635,80.000000,-16.000000
636,60.000000,-16.000000
637,60.000000,-16.000000
638,80.000000,-16.000000
639,60.000000,-16.000000
640,20.000000,-16.000000
641,40.000000,-20.000000
642,40.000000,-20.000000
643,40.000000,-20.000000
644,40.000000,-20.000000
645,20.000000,-20.000000
646,20.000000,-24.000000
647,0.000000,-20.000000
648,20.000000,-24.000000
649,20.000000,-24.000000
650,-20.000000,-24.000000
651,20.000000,-24.000000
652,0.000000,-28.000000
653,0.000000,-28.000000
654,-40.000000,-28.000000
655,-20.000000,-28.000000
656,-20.000000,-28.000000
657,-40.000000,-32.000000
658,-60.000000,-32.000000
659,-40.000000,-36.000000
660,-20.000000,-40.000000
661,-60.000000,-36.000000
662,-60.000000,-36.000000
663,-40.000000,-40.000000
664,-60.000000,-36.000000
665,-60.000000,-40.000000
666,-60.000000,-40.000000
667,-60.000000,-40.000000
668,-100.000000,-40.000000
669,-100.000000,-40.000000
670,-120.000000,-36.000000
671,-120.000000,-44.000000
672,-100.000000,-44.000000
673,-140.000000,-40.000000
674,-140.000000,-44.000000
675,-140.000000,-48.000000
676,-140.000000,-48.000000
677,-160.000000,-20.000000
678,-140.000000,-48.000000
679,-160.000000,-52.000000
680,-140.000000,-44.000000
681,-180.000000,-48.000000
682,-180.000000,-52.000000
683,-180.000000,-56.000000
684,-200.000000,-52.000000
685,-180.000000,-56.000000
686,-180.000000,-56.000000
687,-200.000000,-52.000000
688,-200.000000,-56.000000
689,-200.000000,-60.000000
690,-200.000000,-60.000000
691,-240.000000,-60.000000
692,-240.000000,-64.000000
693,-240.000000,-64.000000
694,-260.000000,-64.000000
695,-260.000000,-64.000000
696,-240.000000,-64.000000
697,-260.000000,-72.000000
698,-280.000000,-68.000000
699,-300.000000,-64.000000
700,-280.000000,-68.000000
701,-300.000000,-72.000000
702,-280.000000,-72.000000
703,-300.000000,-72.000000
704,-300.000000,-60.000000
705,-300.000000,-72.000000
706,-320.000000,-76.000000
707,-340.000000,-72.000000
708,-340.000000,-76.000000
709,-340.000000,-76.000000
710,-340.000000,-76.000000
711,-320.000000,-76.000000
712,-320.000000,-76.000000
713,-340.000000,-80.000000
714,-360.000000,-84.000000
715,-360.000000,-80.000000
716,-360.000000,-84.000000
717,-360.000000,-84.000000
718,-360.000000,-84.000000
719,-380.000000,-84.000000
720,-360.000000,-84.000000
721,-380.000000,-88.000000
722,-380.000000,-84.000000
723,-400.000000,-88.000000
724,-400.000000,-92.000000
725,-400.000000,-92.000000
726,-400.000000,-88.000000
727,-420.000000,-92.000000
728,-420.000000,-92.000000
729,-420.000000,-92.000000
730,-440.000000,-92.000000
731,-460.000000,-96.000000
732,-460.000000,-96.000000
733,-460.000000,-96.000000
734,-460.000000,-96.000000
735,-460.000000,-96.000000
736,-460.000000,-100.000000
737,-500.000000,-100.000000
738,-480.000000,-100.000000
739,-480.000000,-100.000000
740,-480.000000,-104.000000
741,-520.000000,-108.000000
742,-480.000000,-104.000000
743,-480.000000,-104.000000
744,-480.000000,-104.000000
745,-480.000000,-104.000000
746,-500.000000,-104.000000
747,-520.000000,-108.000000
748,-500.000000,-104.000000
749,-500.000000,-104.000000
750,-540.000000,-108.000000
751,-520.000000,-104.000000
752,-520.000000,-112.000000
753,-560.000000,-112.000000
754,-540.000000,-108.000000
755,-560.000000,-112.000000
756,-560.000000,-112.000000
757,-560.000000,-112.000000
758,-560.000000,-120.000000
759,-580.000000,-116.000000
760,-580.000000,-116.000000
761,-580.000000,-116.000000
762,-600.000000,-120.000000
763,-600.000000,-120.000000
764,-580.000000,-120.000000
765,-600.000000,-116.000000
766,-600.000000,-116.000000
