lab2_frequencies/280Hz.csv

Channel              :,CH1,CH2
Frequency            :,455.2Hz,279.7Hz
Period               :,2.197ms,3.575ms
PK-PK                :,100.0mV,304.0mV
Probe attenuation    :,1X,1X
Voltage per ADC value:,0.050000mV,0.250000mV
Time interval        :,4.00000uS,4.00000uS

index,CH1_Voltage(mV),CH2_Voltage(mV)
1,-26.400000,20.000000
2,-26.400000,20.000000
3,-34.400002,20.000000
4,-22.400000,20.000000
5,-21.600000,24.000000
6,-40.799999,24.000000
7,-40.799999,24.000000
8,-22.400000,24.000000
9,-22.400000,28.000000
10,-32.799999,28.000000
11,-28.799999,36.000000
12,-19.200001,32.000000
13,-16.799999,32.000000
14,-25.600000,32.000000
15,-22.400000,32.000000
16,-21.600000,36.000000
17,-36.000000,32.000000
18,-32.000000,36.000000
19,-20.000000,36.000000
20,-18.400000,40.000000
21,-32.799999,40.000000
22,-32.000000,40.000000
23,-22.400000,36.000000
24,-19.200001,40.000000
25,-29.600000,40.000000
26,-25.600000,40.000000
27,-21.600000,44.000000
28,-21.600000,44.000000
29,-25.600000,44.000000
30,-24.000000,44.000000
31,-19.200001,48.000000
32,-22.400000,48.000000
33,-28.799999,48.000000
34,-18.400000,48.000000
35,-18.400000,44.000000
36,-27.200001,52.000000
37,-26.400000,52.000000
38,-16.000000,52.000000
39,-24.799999,52.000000
40,-35.200001,52.000000
41,-21.600000,56.000000
42,-18.400000,56.000000
43,-32.799999,56.000000
44,-32.799999,60.000000
45,-34.400002,60.000000
46,-26.400000,60.000000
47,-24.000000,64.000000
48,-22.400000,60.000000
49,-24.000000,64.000000
50,-26.400000,64.000000
51,-25.600000,64.000000
52,-14.400000,40.000000
53,-16.799999,64.000000
54,-22.400000,64.000000
55,-21.600000,68.000000
56,-20.799999,68.000000
57,-16.799999,68.000000
58,-24.000000,68.000000
59,-36.000000,72.000000
60,-31.200001,72.000000
61,-20.799999,72.000000
62,-26.400000,72.000000
63,-17.600000,76.000000
64,-19.200001,76.000000
65,-26.400000,76.000000
66,-18.400000,72.000000
67,-6.400000,76.000000
68,-4.800000,76.000000
69,-11.200000,80.000000
70,-20.000000,80.000000
71,-11.200000,80.000000
72,-12.000000,84.000000
73,-24.000000,80.000000
74,-19.200001,80.000000
75,-8.800000,80.000000
76,-10.400000,88.000000
77,-18.400000,80.000000
78,-20.799999,84.000000
79,-16.799999,84.000000
80,-22.400000,84.000000
81,-20.000000,84.000000
82,-14.400000,84.000000
83,-14.400000,84.000000
84,-20.799999,88.000000
85,-18.400000,88.000000
86,-18.400000,88.000000
87,-15.200000,88.000000
88,-19.200001,88.000000
89,-24.000000,92.000000
90,-14.400000,92.000000
91,-7.200000,96.000000
92,-21.600000,92.000000
93,-24.799999,124.000000
94,-17.600000,92.000000
95,-18.400000,96.000000
96,-17.600000,96.000000
97,-17.600000,96.000000
98,-18.400000,96.000000
99,-16.000000,92.000000
100,-11.200000,92.000000
101,-4.000000,96.000000
102,-7.200000,100.000000
103,-18.400000,100.000000
104,-16.799999,100.000000
105,-9.600000,100.000000
106,-20.799999,100.000000
107,-29.600000,100.000000
108,-26.400000,100.000000
109,-12.800000,100.000000
110,-6.400000,104.000000
111,-16.799999,104.000000
112,-13.600000,104.000000
113,-11.200000,104.000000
114,-13.600000,104.000000
115,-12.800000,104.000000
116,-4.000000,108.000000
117,-16.799999,104.000000
118,-21.600000,108.000000
119,-10.400000,104.000000
120,-4.800000,104.000000
121,-12.800000,112.000000
122,-25.600000,108.000000
123,-20.799999,108.000000
124,-18.400000,108.000000
125,-23.200001,108.000000
126,-12.800000,108.000000
127,-20.000000,108.000000
128,-24.000000,112.000000
129,-13.600000,112.000000
130,-2.400000,112.000000
131,-3.200000,112.000000
132,-11.200000,112.000000
133,-12.800000,112.000000
134,-4.000000,120.000000
135,-4.800000,112.000000
136,-11.200000,112.000000
137,-11.200000,116.000000
138,-3.200000,116.000000
139,-6.400000,120.000000
140,-8.000000,128.000000
141,-12.000000,120.000000
142,-16.000000,120.000000
143,-17.600000,116.000000
144,-12.000000,120.000000
145,-3.200000,120.000000
146,-3.200000,116.000000
147,-18.400000,120.000000
148,-8.800000,120.000000
149,8.800000,120.000000
150,0.000000,120.000000
151,-7.200000,120.000000
152,-2.400000,116.000000
153,3.200000,120.000000
154,-8.800000,120.000000
155,-20.000000,124.000000
156,-12.000000,120.000000
157,-10.400000,120.000000
158,-15.200000,120.000000
159,-8.000000,124.000000
160,-5.600000,124.000000
161,-14.400000,124.000000
162,-16.799999,124.000000
163,-18.400000,124.000000
164,-8.000000,124.000000
165,-7.200000,124.000000
166,-4.000000,124.000000
167,-11.200000,128.000000
168,-6.400000,124.000000
169,-12.000000,124.000000
170,-7.200000,124.000000
171,-1.600000,128.000000
172,-6.400000,124.000000
173,-4.800000,128.000000
174,-3.200000,128.000000
175,-4.800000,128.000000
176,-7.200000,128.000000
177,-8.000000,128.000000
178,7.200000,128.000000
179,4.800000,128.000000
180,-4.800000,128.000000
181,-5.600000,104.000000
182,-4.000000,128.000000
183,-7.200000,128.000000
184,-2.400000,128.000000
185,0.000000,128.000000
186,1.600000,128.000000
187,1.600000,128.000000
188,3.200000,128.000000
189,-4.000000,128.000000
190,-10.400000,128.000000
191,-14.400000,128.000000
192,-6.400000,128.000000
193,-0.800000,128.000000
194,0.000000,132.000000
195,-2.400000,128.000000
196,-2.400000,132.000000
197,-8.000000,128.000000
198,0.000000,128.000000
199,-9.600000,132.000000
200,-9.600000,128.000000
201,-1.600000,128.000000
202,-3.200000,124.000000
203,-10.400000,128.000000
204,-8.000000,128.000000
205,-4.800000,136.000000
206,-2.400000,128.000000
207,-10.400000,128.000000
208,-8.000000,128.000000
209,-12.000000,128.000000
210,-14.400000,128.000000
211,-7.200000,128.000000
212,0.800000,128.000000
213,-4.000000,128.000000
214,-11.200000,128.000000
215,-3.200000,128.000000
216,5.600000,128.000000
217,-3.200000,128.000000
218,-3.200000,128.000000
219,-5.600000,128.000000
220,-6.400000,128.000000
221,-4.000000,128.000000
222,-4.000000,156.000000
223,-9.600000,124.000000
224,-18.400000,128.000000
225,-17.600000,128.000000
226,-4.800000,128.000000
227,-11.200000,128.000000
228,-9.600000,120.000000
229,0.000000,128.000000
230,0.800000,128.000000
231,2.400000,128.000000
232,5.600000,124.000000
233,16.000000,128.000000
234,5.600000,128.000000
235,-4.800000,128.000000
236,-2.400000,124.000000
237,-8.000000,128.000000
238,-10.400000,124.000000
239,-6.400000,124.000000
240,4.000000,116.000000
241,8.000000,124.000000
242,0.000000,120.000000
243,7.200000,124.000000
244,4.800000,124.000000
245,0.000000,120.000000
246,0.000000,124.000000
247,3.200000,120.000000
248,3.200000,120.000000
249,4.000000,120.000000
250,5.600000,120.000000
251,5.600000,120.000000
252,-3.200000,120.000000
253,-9.600000,120.000000
254,-8.800000,120.000000
255,-4.000000,120.000000
256,-8.800000,116.000000
257,-8.800000,120.000000
258,0.800000,120.000000
259,-7.200000,120.000000
260,-10.400000,116.000000
261,4.000000,116.000000
262,12.800000,116.000000
263,1.600000,124.000000
264,0.000000,116.000000
265,7.200000,116.000000
266,2.400000,120.000000
267,-6.400000,116.000000
268,0.000000,116.000000
269,8.000000,128.000000
270,-4.800000,116.000000
271,1.600000,116.000000
272,10.400000,112.000000
273,4.800000,112.000000
274,-9.600000,112.000000
275,0.000000,112.000000
276,0.800000,112.000000
277,-8.000000,112.000000
278,3.200000,108.000000
279,12.000000,112.000000
280,0.000000,108.000000
281,-7.200000,104.000000
282,8.000000,108.000000
283,25.600000,108.000000
284,10.400000,108.000000
285,3.200000,108.000000
286,11.200000,108.000000
287,8.000000,108.000000
288,0.800000,108.000000
289,9.600000,104.000000
290,7.200000,104.000000
291,-7.200000,104.000000
292,2.400000,104.000000
293,18.400000,100.000000
294,12.000000,100.000000
295,1.600000,100.000000
296,6.400000,100.000000
297,11.200000,104.000000
298,8.800000,100.000000
299,8.800000,100.000000
300,20.000000,100.000000
301,13.600000,100.000000
302,6.400000,100.000000
303,20.000000,100.000000
304,24.000000,96.000000
305,-4.800000,100.000000
306,-1.600000,96.000000
307,15.200000,96.000000
308,8.800000,96.000000
309,2.400000,96.000000
310,14.400000,72.000000
311,20.799999,92.000000
312,12.800000,92.000000
313,8.800000,92.000000
314,14.400000,92.000000
315,10.400000,92.000000
316,3.200000,92.000000
317,8.800000,88.000000
318,16.799999,92.000000
319,8.800000,92.000000
320,11.200000,88.000000
321,20.000000,88.000000
322,17.600000,88.000000
323,14.400000,88.000000
324,23.200001,84.000000
325,20.799999,84.000000
326,13.600000,84.000000
327,6.400000,84.000000
328,3.200000,88.000000
329,-0.800000,80.000000
330,4.800000,80.000000
331,15.200000,80.000000
332,19.200001,80.000000
333,14.400000,80.000000
334,8.000000,84.000000
335,13.600000,80.000000
336,16.000000,76.000000
337,8.800000,72.000000
338,19.200001,76.000000
339,18.400000,76.000000
340,15.200000,72.000000
341,16.000000,72.000000
342,23.200001,72.000000
343,17.600000,72.000000
344,13.600000,72.000000
345,12.800000,68.000000
346,16.000000,68.000000
347,18.400000,68.000000
348,20.799999,68.000000
349,24.000000,64.000000
350,20.799999,64.000000
351,17.600000,92.000000
352,23.200001,64.000000
353,22.400000,64.000000
354,14.400000,64.000000
355,12.800000,60.000000
356,16.799999,60.000000
357,11.200000,52.000000
358,3.200000,60.000000
359,16.799999,60.000000
360,20.000000,56.000000
361,15.200000,56.000000
362,16.000000,56.000000
363,13.600000,56.000000
364,12.000000,56.000000
365,13.600000,56.000000
366,21.600000,52.000000
367,22.400000,52.000000
368,15.200000,48.000000
369,15.200000,44.000000
370,14.400000,48.000000
371,13.600000,48.000000
372,13.600000,48.000000
373,19.200001,44.000000
374,25.600000,44.000000
375,18.400000,48.000000
376,16.000000,44.000000
377,14.400000,44.000000
378,11.200000,40.000000
379,18.400000,40.000000
380,18.400000,36.000000
381,20.799999,40.000000
382,16.799999,36.000000
383,5.600000,36.000000
384,4.800000,36.000000
385,10.400000,32.000000
386,8.000000,32.000000
387,7.200000,32.000000
388,13.600000,32.000000
389,16.000000,32.000000
390,5.600000,32.000000
391,4.000000,28.000000
392,9.600000,36.000000
393,9.600000,32.000000
394,18.400000,28.000000
395,14.400000,28.000000
396,8.000000,24.000000
397,14.400000,24.000000
398,18.400000,36.000000
399,17.600000,24.000000
400,20.799999,24.000000
401,15.200000,20.000000
402,18.400000,20.000000
403,20.799999,16.000000
404,14.400000,16.000000
405,12.800000,20.000000
406,12.000000,16.000000
407,6.400000,16.000000
408,20.000000,16.000000
409,23.200001,16.000000
410,4.800000,16.000000
411,8.800000,12.000000
412,17.600000,12.000000
413,4.000000,12.000000
414,9.600000,8.000000
415,18.400000,8.000000
416,12.000000,4.000000
417,6.400000,8.000000
418,12.000000,8.000000
419,18.400000,4.000000
420,13.600000,4.000000
421,3.200000,4.000000
422,13.600000,4.000000
423,10.400000,0.000000
424,1.600000,0.000000
425,12.000000,0.000000
426,19.200001,0.000000
427,16.000000,0.000000
428,11.200000,4.000000
429,24.799999,0.000000
430,23.200001,-4.000000
431,8.000000,-4.000000
432,9.600000,-4.000000
433,18.400000,-8.000000
434,8.800000,-12.000000
435,13.600000,-8.000000
436,15.200000,-8.000000
437,11.200000,-12.000000
438,9.600000,-12.000000
439,12.800000,-24.000000
440,6.400000,-12.000000
441,8.000000,-16.000000
442,11.200000,-12.000000
443,16.799999,-16.000000
444,15.200000,-16.000000
445,13.600000,-16.000000
446,6.400000,-20.000000
447,7.200000,-20.000000
448,8.000000,-20.000000
449,11.200000,-20.000000
450,14.400000,-20.000000
451,11.200000,-24.000000
452,2.400000,-24.000000
453,3.200000,-24.000000
454,12.800000,-28.000000
455,7.200000,-28.000000
456,8.000000,-28.000000
457,13.600000,-16.000000
458,10.400000,-28.000000
459,9.600000,-28.000000
460,11.200000,-32.000000
461,9.600000,-32.000000
462,16.000000,-32.000000
463,10.400000,-32.000000
464,12.000000,-36.000000
465,19.200001,-36.000000
466,19.200001,-36.000000
467,18.400000,-36.000000
468,17.600000,-40.000000
469,8.800000,-44.000000
470,6.400000,-40.000000
471,8.800000,-44.000000
472,4.000000,-44.000000
473,3.200000,-44.000000
474,12.800000,-44.000000
475,4.800000,-44.000000
476,2.400000,-48.000000
477,9.600000,-48.000000
478,12.800000,-48.000000
479,8.000000,-48.000000
480,12.800000,-56.000000
481,6.400000,-52.000000
482,0.000000,-48.000000
483,5.600000,-52.000000
484,4.000000,-52.000000
485,1.600000,-52.000000
486,4.800000,-56.000000
487,13.600000,-52.000000
488,-2.400000,-52.000000
489,-4.800000,-56.000000
490,8.000000,-56.000000
491,13.600000,-60.000000
492,13.600000,-56.000000
493,16.000000,-64.000000
494,15.200000,-60.000000
495,0.800000,-60.000000
496,-4.800000,-64.000000
497,6.400000,-64.000000
498,3.200000,-68.000000
499,-1.600000,-64.000000
500,4.800000,-68.000000
501,23.200001,-68.000000
502,14.400000,-68.000000
503,12.000000,-68.000000
504,21.600000,-68.000000
505,16.000000,-72.000000
506,9.600000,-72.000000
507,17.600000,-72.000000
508,10.400000,-76.000000
509,-10.400000,-76.000000
510,-2.400000,-72.000000
511,4.800000,-76.000000
512,-9.600000,-76.000000
513,-11.200000,-80.000000
514,3.200000,-80.000000
515,6.400000,-76.000000
516,-0.800000,-84.000000
517,5.600000,-80.000000
518,4.000000,-84.000000
519,4.000000,-80.000000
520,17.600000,-80.000000
521,9.600000,-80.000000
522,-3.200000,-80.000000
523,4.000000,-84.000000
524,4.800000,-80.000000
525,-11.200000,-84.000000
526,1.600000,-84.000000
527,15.200000,-88.000000
528,11.200000,-84.000000
529,5.600000,-88.000000
530,12.000000,-88.000000
531,3.200000,-88.000000
532,-7.200000,-88.000000
533,5.600000,-96.000000
534,16.000000,-88.000000
535,8.800000,-92.000000
536,12.800000,-92.000000
537,20.000000,-92.000000
538,10.400000,-92.000000
539,-3.200000,-96.000000
540,4.800000,-96.000000
541,4.000000,-92.000000
542,5.600000,-96.000000
543,3.200000,-96.000000
544,0.800000,-96.000000
545,-1.600000,-104.000000
546,3.200000,-100.000000
547,19.200001,-100.000000
548,10.400000,-100.000000
549,5.600000,-100.000000
550,14.400000,-100.000000
551,8.000000,-100.000000
552,2.400000,-100.000000
553,8.000000,-104.000000
554,-3.200000,-104.000000
555,-7.200000,-108.000000
556,4.000000,-104.000000
557,4.000000,-100.000000
558,-18.400000,-104.000000
559,-10.400000,-108.000000
560,5.600000,-108.000000
561,2.400000,-104.000000
562,3.200000,-108.000000
563,11.200000,-108.000000
564,3.200000,-108.000000
565,-0.800000,-108.000000
566,12.800000,-108.000000
567,10.400000,-108.000000
568,2.400000,-112.000000
569,6.400000,-112.000000
570,-0.800000,-112.000000
571,-4.800000,-112.000000
572,6.400000,-112.000000
573,3.200000,-112.000000
574,-1.600000,-112.000000
575,5.600000,-116.000000
576,7.200000,-116.000000
577,0.000000,-116.000000
578,-6.400000,-116.000000
579,4.000000,-116.000000
580,3.200000,-116.000000
581,5.600000,-116.000000
582,16.000000,-116.000000
583,7.200000,-116.000000
584,-5.600000,-116.000000
585,-3.200000,-116.000000
586,-0.800000,-108.000000
587,-6.400000,-120.000000
588,-5.600000,-120.000000
589,-1.600000,-120.000000
590,-2.400000,-120.000000
591,3.200000,-120.000000
592,-0.800000,-124.000000
593,0.800000,-120.000000
594,9.600000,-120.000000
595,-0.800000,-120.000000
596,-4.000000,-120.000000
597,4.800000,-120.000000
598,4.800000,-132.000000
599,-3.200000,-124.000000
600,-5.600000,-124.000000
601,-5.600000,-124.000000
602,-3.200000,-124.000000
603,-2.400000,-124.000000
604,-4.800000,-124.000000
605,-10.400000,-124.000000
606,-4.800000,-124.000000
607,0.800000,-128.000000
608,-4.800000,-124.000000
609,3.200000,-136.000000
610,4.800000,-128.000000
611,-4.800000,-124.000000
612,-3.200000,-124.000000
613,0.800000,-124.000000
614,-0.800000,-128.000000
615,-6.400000,-124.000000
616,-10.400000,-128.000000
617,-5.600000,-128.000000
618,-17.600000,-124.000000
619,-13.600000,-128.000000
620,-9.600000,-124.000000
621,-8.000000,-124.000000
622,-4.000000,-128.000000
623,-6.400000,-128.000000
624,-7.200000,-128.000000
625,4.800000,-128.000000
626,9.600000,-128.000000
627,0.000000,-132.000000
628,-3.200000,-128.000000
629,3.200000,-128.000000
630,-3.200000,-128.000000
631,-13.600000,-128.000000
632,-7.200000,-128.000000
633,-7.200000,-132.000000
634,-3.200000,-132.000000
635,3.200000,-132.000000
636,2.400000,-128.000000
637,-4.800000,-128.000000
638,-1.600000,-132.000000
639,-14.400000,-128.000000
640,-7.200000,-132.000000
641,4.000000,-128.000000
642,1.600000,-132.000000
643,-7.200000,-128.000000
644,0.800000,-128.000000
645,-1.600000,-136.000000
646,-5.600000,-132.000000
647,-6.400000,-132.000000
648,2.400000,-132.000000
649,-2.400000,-132.000000
650,-4.000000,-132.000000
651,1.600000,-132.000000
652,-4.000000,-132.000000
653,-10.400000,-132.000000
654,-6.400000,-132.000000
655,-0.800000,-128.000000
656,12.800000,-152.000000
657,11.200000,-128.000000
658,7.200000,-128.000000
659,-2.400000,-128.000000
660,-0.800000,-128.000000
661,-11.200000,-128.000000
662,-21.600000,-132.000000
663,-15.200000,-128.000000
664,-6.400000,-132.000000
665,-4.800000,-128.000000
666,-1.600000,-132.000000
667,-6.400000,-132.000000
668,-12.000000,-128.000000
669,-8.000000,-128.000000
670,-8.000000,-132.000000
671,-11.200000,-128.000000
672,2.400000,-128.000000
673,-0.800000,-128.000000
674,-10.400000,-128.000000
675,-4.000000,-128.000000
676,-1.600000,-128.000000
677,-8.800000,-128.000000
678,-9.600000,-128.000000
679,-8.800000,-128.000000
680,-16.000000,-128.000000
681,-24.000000,-128.000000
682,-10.400000,-128.000000
683,-10.400000,-128.000000
684,-4.000000,-128.000000
685,-5.600000,-128.000000
686,-17.600000,-124.000000
687,-21.600000,-128.000000
688,-13.600000,-124.000000
689,-3.200000,-128.000000
690,1.600000,-124.000000
691,9.600000,-124.000000
692,2.400000,-124.000000
693,-9.600000,-120.000000
694,-4.800000,-124.000000
695,-2.400000,-124.000000
696,-10.400000,-124.000000
697,-15.200000,-116.000000
698,-16.000000,-124.000000
699,-17.600000,-120.000000
700,-5.600000,-120.000000
701,-3.200000,-120.000000
702,-9.600000,-120.000000
703,-9.600000,-120.000000
704,-7.200000,-120.000000
705,-8.000000,-120.000000
706,-15.200000,-116.000000
707,-3.200000,-120.000000
708,-3.200000,-120.000000
709,-8.000000,-120.000000
710,-7.200000,-120.000000
711,-4.000000,-120.000000
712,-12.000000,-116.000000
713,-8.800000,-116.000000
714,-20.799999,-116.000000
715,-32.000000,-108.000000
716,-23.200001,-116.000000
717,-10.400000,-116.000000
718,-5.600000,-116.000000
719,-4.800000,-116.000000
720,6.400000,-112.000000
721,-13.600000,-112.000000
722,-20.000000,-112.000000
723,-12.000000,-112.000000
724,-5.600000,-112.000000
725,-13.600000,-112.000000
726,-7.200000,-108.000000
727,-8.000000,-116.000000
728,-16.000000,-112.000000
729,-16.000000,-108.000000
730,-12.000000,-108.000000
731,-10.400000,-108.000000
732,-8.800000,-108.000000
733,-8.000000,-108.000000
734,-13.600000,-108.000000
735,-8.000000,-104.000000
736,-10.400000,-104.000000
737,-21.600000,-104.000000
738,-7.200000,-116.000000
739,0.000000,-104.000000
740,-6.400000,-104.000000
741,-8.000000,-104.000000
742,-9.600000,-104.000000
743,-7.200000,-104.000000
744,-12.000000,-96.000000
745,-13.600000,-100.000000
746,-8.800000,-100.000000
747,8.000000,-100.000000
748,8.800000,-96.000000
749,-2.400000,-100.000000
750,-7.200000,-92.000000
751,0.000000,-96.000000
752,-8.800000,-96.000000
753,-12.800000,-96.000000
754,-8.800000,-96.000000
755,-8.800000,-92.000000
756,-12.800000,-96.000000
757,-6.400000,-92.000000
758,-16.000000,-92.000000
759,-6.400000,-92.000000
760,5.600000,-92.000000
761,-3.200000,-92.000000
762,-12.000000,-92.000000
763,-3.200000,-92.000000
764,-8.000000,-88.000000
765,-17.600000,-88.000000
766,-5.600000,-88.000000
767,-8.800000,-88.000000
768,-12.800000,-84.000000
769,6.400000,-88.000000
770,0.000000,-88.000000
771,-8.000000,-84.000000
772,-7.200000,-84.000000
773,-16.799999,-84.000000
774,-17.600000,-84.000000
775,-4.000000,-84.000000
776,8.800000,-84.000000
777,-4.000000,-80.000000
778,-7.200000,-80.000000
779,0.000000,-76.000000
780,-8.000000,-80.000000
781,-11.200000,-80.000000
782,-7.200000,-80.000000
783,-14.400000,-76.000000
784,-1.600000,-76.000000
785,-7.200000,-88.000000
786,-13.600000,-76.000000
787,-8.800000,-72.000000
788,-4.800000,-72.000000
789,-12.800000,-72.000000
790,-17.600000,-72.000000
791,-15.200000,-76.000000
792,-14.400000,-68.000000
793,-20.799999,-68.000000
