lab2_frequencies/2Hz.csv

Channel              :,CH1,CH2
Frequency            :,  ?,  ?
Period               :,  ?,  ?
PK-PK                :,1.340V,186.0mV
Probe attenuation    :,1X,1X
Voltage per ADC value:,1.250000mV,0.125000mV
Time interval        :,400.00000uS,400.00000uS

index,CH1_Voltage(mV),CH2_Voltage(mV)
1,320.000000,66.000000
2,320.000000,66.000000
3,340.000000,68.000000
4,320.000000,66.000000
5,360.000000,68.000000
6,340.000000,68.000000
7,340.000000,68.000000
8,340.000000,66.000000
9,340.000000,66.000000
10,360.000000,68.000000
11,340.000000,66.000000
12,340.000000,68.000000
13,320.000000,70.000000
14,300.000000,68.000000
15,340.000000,68.000000
16,340.000000,64.000000
17,300.000000,68.000000
18,300.000000,68.000000
19,300.000000,64.000000
20,300.000000,66.000000
21,300.000000,66.000000
22,280.000000,66.000000
23,300.000000,66.000000
24,340.000000,68.000000
25,320.000000,68.000000
26,320.000000,68.000000
27,340.000000,66.000000
28,340.000000,68.000000
29,340.000000,66.000000
30,380.000000,66.000000
31,360.000000,66.000000
32,400.000000,64.000000
33,380.000000,66.000000
34,380.000000,66.000000
35,380.000000,68.000000
36,400.000000,68.000000
37,380.000000,60.000000
38,380.000000,66.000000
39,380.000000,68.000000
40,380.000000,64.000000
41,380.000000,68.000000
42,360.000000,68.000000
43,380.000000,66.000000
44,340.000000,64.000000
45,380.000000,66.000000
46,360.000000,66.000000
47,360.000000,64.000000
48,360.000000,64.000000
49,360.000000,66.000000
50,380.000000,66.000000
51,400.000000,66.000000
52,400.000000,64.000000
53,440.000000,64.000000
54,440.000000,64.000000
55,460.000000,66.000000
56,460.000000,94.000000
57,460.000000,66.000000
58,460.000000,64.000000
59,440.000000,62.000000
60,440.000000,66.000000
61,420.000000,66.000000
62,440.000000,64.000000
63,420.000000,66.000000
64,400.000000,64.000000
65,420.000000,64.000000
66,420.000000,64.000000
67,380.000000,64.000000
68,400.000000,64.000000
69,400.000000,64.000000
70,380.000000,62.000000
71,380.000000,62.000000
72,420.000000,64.000000
73,400.000000,62.000000
74,400.000000,62.000000
75,420.000000,62.000000
76,420.000000,62.000000
77,420.000000,64.000000
78,420.000000,66.000000
79,440.000000,70.000000
80,440.000000,58.000000
81,440.000000,62.000000
82,460.000000,66.000000
83,460.000000,62.000000
84,460.000000,62.000000
85,460.000000,62.000000
86,440.000000,64.000000
87,460.000000,62.000000
88,420.000000,62.000000
89,440.000000,62.000000
90,460.000000,62.000000
91,420.000000,62.000000
92,440.000000,62.000000
93,440.000000,60.000000
94,420.000000,62.000000
95,420.000000,62.000000
96,420.000000,62.000000
97,440.000000,60.000000
98,440.000000,60.000000
99,440.000000,84.000000
100,480.000000,60.000000
101,520.000000,60.000000
102,500.000000,58.000000
103,500.000000,60.000000
104,520.000000,60.000000
105,520.000000,60.000000
106,520.000000,60.000000
107,480.000000,60.000000
108,500.000000,60.000000
109,480.000000,58.000000
110,480.000000,60.000000
111,480.000000,58.000000
112,460.000000,58.000000
113,460.000000,58.000000
114,460.000000,58.000000
115,460.000000,58.000000
116,440.000000,56.000000
117,440.000000,58.000000
118,460.000000,56.000000
119,440.000000,58.000000
120,420.000000,58.000000
121,440.000000,60.000000
122,460.000000,68.000000
123,440.000000,50.000000
124,460.000000,54.000000
125,460.000000,56.000000
126,480.000000,56.000000
127,480.000000,56.000000
128,480.000000,56.000000
129,480.000000,56.000000
130,500.000000,56.000000
131,520.000000,56.000000
132,500.000000,56.000000
133,500.000000,54.000000
134,500.000000,54.000000
135,520.000000,54.000000
136,520.000000,54.000000
137,480.000000,54.000000
138,500.000000,54.000000
139,480.000000,54.000000
140,500.000000,54.000000
141,480.000000,52.000000
142,480.000000,44.000000
143,500.000000,52.000000
144,460.000000,54.000000
145,480.000000,52.000000
146,460.000000,52.000000
147,460.000000,54.000000
148,460.000000,52.000000
149,460.000000,50.000000
150,480.000000,52.000000
151,520.000000,52.000000
152,500.000000,50.000000
153,520.000000,52.000000
154,520.000000,52.000000
155,520.000000,52.000000
156,540.000000,52.000000
157,520.000000,52.000000
158,520.000000,50.000000
159,500.000000,52.000000
160,500.000000,52.000000
161,500.000000,50.000000
162,500.000000,50.000000
163,500.000000,52.000000
164,500.000000,50.000000
165,480.000000,54.000000
166,500.000000,52.000000
167,500.000000,50.000000
168,480.000000,50.000000
169,460.000000,50.000000
170,480.000000,48.000000
171,460.000000,50.000000
172,480.000000,48.000000
173,440.000000,48.000000
174,480.000000,46.000000
175,480.000000,48.000000
176,500.000000,46.000000
177,520.000000,48.000000
178,520.000000,48.000000
179,500.000000,46.000000
180,540.000000,46.000000
181,520.000000,48.000000
182,520.000000,46.000000
183,500.000000,46.000000
184,520.000000,48.000000
185,540.000000,46.000000
186,520.000000,46.000000
187,500.000000,48.000000
188,520.000000,44.000000
189,520.000000,46.000000
190,500.000000,46.000000
191,500.000000,44.000000
192,500.000000,44.000000
193,500.000000,46.000000
194,460.000000,44.000000
195,460.000000,42.000000
196,460.000000,44.000000
197,480.000000,42.000000
198,480.000000,42.000000
199,480.000000,42.000000
200,480.000000,42.000000
201,520.000000,42.000000
202,500.000000,42.000000
203,540.000000,42.000000
204,540.000000,40.000000
205,540.000000,42.000000
206,540.000000,46.000000
207,540.000000,40.000000
208,540.000000,40.000000
209,520.000000,38.000000
210,500.000000,40.000000
211,500.000000,40.000000
212,500.000000,38.000000
213,480.000000,38.000000
214,480.000000,40.000000
215,480.000000,40.000000
216,460.000000,38.000000
217,480.000000,38.000000
218,460.000000,40.000000
219,460.000000,38.000000
220,480.000000,36.000000
221,460.000000,38.000000
222,480.000000,38.000000
223,460.000000,38.000000
224,460.000000,36.000000
225,480.000000,36.000000
226,460.000000,36.000000
227,480.000000,38.000000
228,480.000000,30.000000
229,500.000000,30.000000
230,500.000000,32.000000
231,500.000000,34.000000
232,500.000000,36.000000
233,520.000000,34.000000
234,500.000000,34.000000
235,480.000000,36.000000
236,480.000000,34.000000
237,480.000000,32.000000
238,480.000000,32.000000
239,500.000000,34.000000
240,480.000000,32.000000
241,480.000000,30.000000
242,460.000000,32.000000
243,440.000000,30.000000
244,440.000000,30.000000
245,460.000000,32.000000
246,460.000000,30.000000
247,480.000000,32.000000
248,460.000000,30.000000
249,480.000000,62.000000
250,480.000000,32.000000
251,480.000000,30.000000
252,500.000000,26.000000
253,520.000000,30.000000
254,500.000000,32.000000
255,500.000000,28.000000
256,500.000000,30.000000
257,480.000000,30.000000
258,500.000000,28.000000
259,480.000000,28.000000
260,480.000000,28.000000
261,480.000000,26.000000
262,460.000000,26.000000
263,460.000000,28.000000
264,440.000000,30.000000
265,440.000000,28.000000
266,460.000000,26.000000
267,440.000000,26.000000
268,440.000000,26.000000
269,420.000000,28.000000
270,420.000000,26.000000
271,440.000000,26.000000
272,400.000000,28.000000
273,420.000000,18.000000
274,420.000000,22.000000
275,420.000000,24.000000
276,420.000000,22.000000
277,440.000000,22.000000
278,440.000000,22.000000
279,480.000000,24.000000
280,440.000000,22.000000
281,420.000000,22.000000
282,440.000000,22.000000
283,460.000000,20.000000
284,440.000000,22.000000
285,440.000000,20.000000
286,460.000000,20.000000
287,460.000000,20.000000
288,420.000000,18.000000
289,440.000000,18.000000
290,440.000000,20.000000
291,440.000000,20.000000
292,400.000000,34.000000
293,400.000000,20.000000
294,400.000000,18.000000
295,400.000000,16.000000
296,400.000000,20.000000
297,420.000000,18.000000
298,380.000000,14.000000
299,420.000000,18.000000
300,420.000000,16.000000
301,380.000000,14.000000
302,420.000000,14.000000
303,420.000000,16.000000
304,440.000000,16.000000
305,440.000000,14.000000
306,420.000000,14.000000
307,460.000000,14.000000
308,440.000000,14.000000
309,440.000000,14.000000
310,440.000000,12.000000
311,420.000000,12.000000
312,400.000000,14.000000
313,380.000000,14.000000
314,400.000000,10.000000
315,400.000000,8.000000
316,380.000000,16.000000
317,360.000000,14.000000
318,380.000000,12.000000
319,360.000000,10.000000
320,360.000000,10.000000
321,380.000000,10.000000
322,380.000000,10.000000
323,380.000000,8.000000
324,380.000000,8.000000
325,380.000000,10.000000
326,360.000000,8.000000
327,360.000000,8.000000
328,380.000000,8.000000
329,380.000000,8.000000
330,400.000000,8.000000
331,400.000000,8.000000
332,380.000000,8.000000
333,380.000000,6.000000
334,400.000000,6.000000
335,380.000000,-20.000000
336,360.000000,6.000000
337,360.000000,8.000000
338,360.000000,4.000000
339,360.000000,6.000000
340,340.000000,6.000000
341,360.000000,4.000000
342,340.000000,4.000000
343,320.000000,4.000000
344,320.000000,4.000000
345,320.000000,4.000000
346,340.000000,4.000000
347,320.000000,2.000000
348,320.000000,2.000000
349,340.000000,0.000000
350,320.000000,2.000000
351,340.000000,2.000000
352,360.000000,2.000000
353,340.000000,2.000000
354,340.000000,2.000000
355,360.000000,0.000000
356,380.000000,0.000000
357,360.000000,-2.000000
358,340.000000,-10.000000
359,340.000000,4.000000
360,340.000000,-2.000000
361,320.000000,-2.000000
362,320.000000,-2.000000
363,300.000000,-4.000000
364,300.000000,-2.000000
365,300.000000,-4.000000
366,280.000000,-4.000000
367,260.000000,-2.000000
368,280.000000,-4.000000
369,260.000000,-4.000000
370,260.000000,-6.000000
371,260.000000,-4.000000
372,280.000000,-6.000000
373,260.000000,-6.000000
374,280.000000,-6.000000
375,280.000000,-6.000000
376,260.000000,-8.000000
377,280.000000,-4.000000
378,260.000000,-4.000000
379,280.000000,-10.000000
380,260.000000,-8.000000
381,280.000000,-6.000000
382,280.000000,-8.000000
383,260.000000,-8.000000
384,280.000000,-10.000000
385,280.000000,-8.000000
386,280.000000,-10.000000
387,240.000000,-10.000000
388,260.000000,-12.000000
389,260.000000,-10.000000
390,240.000000,-10.000000
391,240.000000,-12.000000
392,220.000000,-12.000000
393,220.000000,-12.000000
394,200.000000,-12.000000
395,200.000000,-12.000000
396,220.000000,-12.000000
397,200.000000,-14.000000
398,200.000000,-14.000000
399,220.000000,-6.000000
400,200.000000,-16.000000
401,220.000000,-16.000000
402,220.000000,-14.000000
403,220.000000,-14.000000
404,240.000000,-14.000000
405,240.000000,-16.000000
406,260.000000,-16.000000
407,220.000000,-16.000000
408,220.000000,-14.000000
409,240.000000,-18.000000
410,220.000000,-16.000000
411,220.000000,-16.000000
412,180.000000,-18.000000
413,200.000000,-18.000000
414,180.000000,-18.000000
415,160.000000,-18.000000
416,140.000000,-20.000000
417,140.000000,-18.000000
418,140.000000,-20.000000
419,160.000000,-20.000000
420,140.000000,-18.000000
421,140.000000,-22.000000
422,120.000000,-26.000000
423,120.000000,-18.000000
424,120.000000,-22.000000
425,140.000000,-22.000000
426,140.000000,-20.000000
427,160.000000,-22.000000
428,180.000000,-22.000000
429,140.000000,-22.000000
430,160.000000,-24.000000
431,160.000000,-22.000000
432,140.000000,-22.000000
433,160.000000,-24.000000
434,140.000000,-24.000000
435,140.000000,-24.000000
436,160.000000,-24.000000
437,120.000000,-26.000000
438,120.000000,-24.000000
439,120.000000,-26.000000
440,120.000000,-26.000000
441,100.000000,-26.000000
442,80.000000,2.000000
443,80.000000,-26.000000
444,60.000000,-30.000000
445,40.000000,-28.000000
446,60.000000,-28.000000
447,60.000000,-28.000000
448,60.000000,-28.000000
449,60.000000,-30.000000
450,60.000000,-28.000000
451,80.000000,-28.000000
452,100.000000,-30.000000
453,80.000000,-30.000000
454,100.000000,-32.000000
455,100.000000,-32.000000
456,100.000000,-30.000000
457,120.000000,-30.000000
458,60.000000,-32.000000
459,80.000000,-32.000000
460,60.000000,-32.000000
461,40.000000,-32.000000
462,40.000000,-34.000000
463,40.000000,-32.000000
464,40.000000,-30.000000
465,20.000000,-20.000000
466,20.000000,-40.000000
467,20.000000,-34.000000
468,20.000000,-34.000000
469,0.000000,-36.000000
470,-20.000000,-36.000000
471,0.000000,-34.000000
472,-20.000000,-34.000000
473,20.000000,-36.000000
474,0.000000,-36.000000
475,0.000000,-36.000000
476,-20.000000,-38.000000
477,0.000000,-36.000000
478,-20.000000,-38.000000
479,0.000000,-36.000000
480,0.000000,-40.000000
481,0.000000,-38.000000
482,0.000000,-38.000000
483,0.000000,-40.000000
484,0.000000,-40.000000
485,0.000000,-36.000000
486,-20.000000,-42.000000
487,0.000000,-38.000000
488,0.000000,-42.000000
489,-20.000000,-38.000000
490,-20.000000,-38.000000
491,-20.000000,-40.000000
492,-40.000000,-42.000000
493,-60.000000,-42.000000
494,-80.000000,-42.000000
495,-60.000000,-44.000000
496,-100.000000,-42.000000
497,-100.000000,-42.000000
498,-100.000000,-44.000000
499,-80.000000,-42.000000
500,-80.000000,-42.000000
501,-60.000000,-44.000000
502,-60.000000,-44.000000
503,-60.000000,-44.000000
504,-60.000000,-44.000000
505,-60.000000,-44.000000
506,-60.000000,-44.000000
507,-60.000000,-44.000000
508,-60.000000,-40.000000
509,-100.000000,-52.000000
510,-100.000000,-46.000000
511,-80.000000,-44.000000
512,-80.000000,-46.000000
513,-120.000000,-46.000000
514,-140.000000,-46.000000
515,-120.000000,-46.000000
516,-120.000000,-48.000000
517,-140.000000,-50.000000
518,-140.000000,-46.000000
519,-160.000000,-48.000000
520,-160.000000,-48.000000
521,-160.000000,-48.000000
522,-160.000000,-48.000000
523,-160.000000,-48.000000
524,-160.000000,-50.000000
525,-160.000000,-50.000000
526,-160.000000,-50.000000
527,-160.000000,-50.000000
528,-140.000000,-74.000000
529,-140.000000,-50.000000
530,-120.000000,-46.000000
531,-140.000000,-54.000000
532,-140.000000,-50.000000
533,-120.000000,-52.000000
534,-160.000000,-50.000000
535,-180.000000,-54.000000
536,-160.000000,-52.000000
537,-180.000000,-54.000000
538,-180.000000,-54.000000
539,-160.000000,-50.000000
540,-180.000000,-52.000000
541,-200.000000,-54.000000
542,-200.000000,-54.000000
543,-220.000000,-54.000000
544,-240.000000,-56.000000
545,-220.000000,-54.000000
546,-240.000000,-54.000000
547,-240.000000,-52.000000
548,-240.000000,-56.000000
549,-240.000000,-54.000000
550,-260.000000,-58.000000
551,-240.000000,-50.000000
552,-240.000000,-54.000000
553,-240.000000,-56.000000
554,-200.000000,-56.000000
555,-220.000000,-56.000000
556,-180.000000,-58.000000
557,-220.000000,-58.000000
558,-200.000000,-56.000000
559,-220.000000,-58.000000
560,-220.000000,-58.000000
561,-240.000000,-58.000000
562,-240.000000,-58.000000
563,-240.000000,-58.000000
564,-260.000000,-58.000000
565,-300.000000,-58.000000
566,-280.000000,-58.000000
567,-320.000000,-60.000000
568,-320.000000,-58.000000
569,-320.000000,-60.000000
570,-320.000000,-58.000000
571,-320.000000,-66.000000
572,-320.000000,-60.000000
573,-320.000000,-56.000000
574,-320.000000,-62.000000
575,-340.000000,-58.000000
576,-320.000000,-62.000000
577,-320.000000,-60.000000
578,-300.000000,-62.000000
579,-320.000000,-60.000000
580,-320.000000,-62.000000
581,-320.000000,-62.000000
582,-320.000000,-62.000000
583,-320.000000,-62.000000
584,-300.000000,-62.000000
585,-300.000000,-62.000000
586,-320.000000,-62.000000
587,-320.000000,-62.000000
588,-340.000000,-62.000000
589,-320.000000,-62.000000
590,-320.000000,-62.000000
591,-340.000000,-62.000000
592,-360.000000,-64.000000
593,-360.000000,-62.000000
594,-380.000000,-64.000000
595,-380.000000,-60.000000
596,-380.000000,-64.000000
597,-380.000000,-62.000000
598,-400.000000,-62.000000
599,-400.000000,-64.000000
600,-380.000000,-64.000000
601,-380.000000,-64.000000
602,-380.000000,-64.000000
603,-360.000000,-62.000000
604,-360.000000,-66.000000
605,-340.000000,-64.000000
606,-320.000000,-64.000000
607,-380.000000,-66.000000
608,-340.000000,-66.000000
609,-360.000000,-68.000000
610,-380.000000,-64.000000
611,-380.000000,-66.000000
612,-420.000000,-66.000000
613,-400.000000,-66.000000
614,-440.000000,-64.000000
615,-400.000000,-64.000000
616,-440.000000,-64.000000
617,-440.000000,-68.000000
618,-440.000000,-66.000000
619,-460.000000,-66.000000
620,-480.000000,-68.000000
621,-480.000000,-68.000000
622,-460.000000,-68.000000
623,-460.000000,-68.000000
624,-460.000000,-70.000000
625,-460.000000,-66.000000
626,-460.000000,-68.000000
627,-460.000000,-70.000000
628,-460.000000,-68.000000
629,-460.000000,-68.000000
630,-460.000000,-68.000000
631,-440.000000,-70.000000
632,-460.000000,-68.000000
633,-480.000000,-68.000000
634,-460.000000,-70.000000
635,-440.000000,-66.000000
636,-440.000000,-74.000000
637,-440.000000,-76.000000
638,-440.000000,-64.000000
639,-500.000000,-70.000000
640,-480.000000,-68.000000
641,-480.000000,-70.000000
642,-500.000000,-70.000000
643,-480.000000,-70.000000
644,-500.000000,-70.000000
645,-520.000000,-70.000000
646,-520.000000,-70.000000
647,-520.000000,-70.000000
648,-540.000000,-70.000000
649,-500.000000,-70.000000
650,-520.000000,-70.000000
651,-500.000000,-70.000000
652,-520.000000,-70.000000
653,-500.000000,-68.000000
654,-500.000000,-70.000000
655,-460.000000,-70.000000
656,-480.000000,-70.000000
657,-500.000000,-52.000000
658,-480.000000,-72.000000
659,-520.000000,-70.000000
660,-520.000000,-70.000000
661,-520.000000,-70.000000
662,-520.000000,-70.000000
663,-540.000000,-70.000000
664,-580.000000,-70.000000
665,-520.000000,-70.000000
666,-560.000000,-72.000000
667,-580.000000,-72.000000
668,-560.000000,-70.000000
669,-600.000000,-70.000000
670,-600.000000,-72.000000
671,-580.000000,-70.000000
672,-600.000000,-72.000000
673,-600.000000,-70.000000
674,-600.000000,-70.000000
675,-600.000000,-72.000000
676,-600.000000,-70.000000
677,-600.000000,-70.000000
678,-600.000000,-76.000000
679,-600.000000,-72.000000
680,-560.000000,-74.000000
681,-560.000000,-70.000000
682,-580.000000,-72.000000
683,-560.000000,-72.000000
684,-560.000000,-72.000000
685,-580.000000,-72.000000
686,-580.000000,-72.000000
687,-580.000000,-72.000000
688,-600.000000,-74.000000
689,-600.000000,-72.000000
690,-580.000000,-70.000000
691,-600.000000,-72.000000
692,-620.000000,-72.000000
693,-620.000000,-74.000000
694,-640.000000,-72.000000
695,-620.000000,-72.000000
696,-660.000000,-70.000000
697,-620.000000,-74.000000
698,-620.000000,-70.000000
699,-620.000000,-72.000000
700,-620.000000,-56.000000
701,-620.000000,-76.000000
702,-600.000000,-74.000000
703,-620.000000,-70.000000
704,-600.000000,-72.000000
705,-620.000000,-72.000000
706,-600.000000,-72.000000
707,-600.000000,-70.000000
708,-600.000000,-72.000000
709,-620.000000,-70.000000
710,-600.000000,-74.000000
711,-640.000000,-70.000000
712,-640.000000,-72.000000
713,-640.000000,-72.000000
714,-660.000000,-72.000000
715,-640.000000,-72.000000
716,-660.000000,-72.000000
717,-680.000000,-70.000000
718,-660.000000,-72.000000
719,-680.000000,-72.000000
720,-700.000000,-70.000000
721,-680.000000,-52.000000
722,-720.000000,-68.000000
723,-700.000000,-72.000000
724,-700.000000,-76.000000
725,-680.000000,-70.000000
726,-700.000000,-72.000000
727,-680.000000,-70.000000
728,-660.000000,-74.000000
729,-660.000000,-70.000000
730,-680.000000,-70.000000
731,-680.000000,-72.000000
732,-660.000000,-70.000000
733,-680.000000,-70.000000
734,-680.000000,-68.000000
735,-680.000000,-70.000000
736,-680.000000,-70.000000
737,-680.000000,-72.000000
738,-660.000000,-70.000000
739,-660.000000,-68.000000
740,-660.000000,-68.000000
741,-680.000000,-70.000000
742,-680.000000,-70.000000
743,-680.000000,-78.000000
744,-700.000000,-74.000000
745,-720.000000,-66.000000
746,-720.000000,-70.000000
747,-720.000000,-66.000000
748,-720.000000,-70.000000
749,-700.000000,-68.000000
750,-700.000000,-68.000000
751,-720.000000,-68.000000
752,-680.000000,-68.000000
753,-680.000000,-68.000000
754,-660.000000,-66.000000
755,-640.000000,-68.000000
756,-660.000000,-68.000000
757,-660.000000,-68.000000
758,-640.000000,-66.000000
759,-660.000000,-68.000000
760,-680.000000,-66.000000
761,-700.000000,-70.000000
762,-700.000000,-68.000000
763,-700.000000,-66.000000
764,-700.000000,-38.000000
765,-700.000000,-62.000000
766,-720.000000,-66.000000
767,-720.000000,-68.000000
768,-720.000000,-64.000000
769,-740.000000,-66.000000
770,-740.000000,-66.000000
