lab2_frequencies/300Hz.csv

Channel              :,CH1,CH2
Frequency            :,751.3Hz,300.0Hz
Period               :,1.331ms,3.333ms
PK-PK                :,96.80mV,296.0mV
Probe attenuation    :,1X,1X
Voltage per ADC value:,0.050000mV,0.250000mV
Time interval        :,4.00000uS,4.00000uS

index,CH1_Voltage(mV),CH2_Voltage(mV)
1,-32.799999,-76.000000
2,-32.799999,-76.000000
3,-32.799999,-76.000000
4,-44.799999,-76.000000
5,-46.400002,-76.000000
6,-38.400002,-76.000000
7,-40.799999,-72.000000
8,-45.599998,-76.000000
9,-40.000000,-72.000000
10,-25.600000,-72.000000
11,-29.600000,-72.000000
12,-34.400002,-72.000000
13,-34.400002,-68.000000
14,-28.000000,-68.000000
15,-36.799999,-68.000000
16,-39.200001,-68.000000
17,-39.200001,-68.000000
18,-35.200001,-64.000000
19,-45.599998,-64.000000
20,-36.799999,-60.000000
21,-38.400002,-60.000000
22,-37.599998,-60.000000
23,-38.400002,-60.000000
24,-31.200001,-60.000000
25,-35.200001,-60.000000
26,-33.599998,-60.000000
27,-34.400002,-56.000000
28,-29.600000,-56.000000
29,-32.000000,-56.000000
30,-36.799999,-56.000000
31,-37.599998,-36.000000
32,-34.400002,-52.000000
33,-30.400000,-52.000000
34,-39.200001,-52.000000
35,-30.400000,-48.000000
36,-28.799999,-48.000000
37,-36.000000,-48.000000
38,-37.599998,-44.000000
39,-35.200001,-48.000000
40,-32.799999,-44.000000
41,-42.400002,-44.000000
42,-39.200001,-44.000000
43,-25.600000,-40.000000
44,-34.400002,-40.000000
45,-40.000000,-40.000000
46,-32.000000,-36.000000
47,-24.000000,-36.000000
48,-30.400000,-40.000000
49,-39.200001,-24.000000
50,-36.799999,-36.000000
51,-37.599998,-36.000000
52,-40.799999,-36.000000
53,-30.400000,-36.000000
54,-25.600000,-32.000000
55,-36.799999,-32.000000
56,-36.799999,-28.000000
57,-36.000000,-28.000000
58,-34.400002,-28.000000
59,-42.400002,-28.000000
60,-44.000000,-28.000000
61,-46.400002,-32.000000
62,-42.400002,-24.000000
63,-46.400002,-24.000000
64,-40.000000,-24.000000
65,-32.000000,-20.000000
66,-27.200001,-20.000000
67,-33.599998,-20.000000
68,-28.799999,-24.000000
69,-28.799999,-20.000000
70,-29.600000,-16.000000
71,-28.799999,-16.000000
72,-28.799999,-16.000000
73,-43.200001,-16.000000
74,-45.599998,-16.000000
75,-37.599998,-12.000000
76,-30.400000,-12.000000
77,-40.000000,-12.000000
78,-42.400002,-4.000000
79,-36.799999,-8.000000
80,-26.400000,-8.000000
81,-26.400000,-8.000000
82,-21.600000,-8.000000
83,-21.600000,-4.000000
84,-30.400000,0.000000
85,-31.200001,-4.000000
86,-32.799999,-4.000000
87,-27.200001,0.000000
88,-39.200001,0.000000
89,-40.000000,0.000000
90,-33.599998,-4.000000
91,-31.200001,0.000000
92,-35.200001,4.000000
93,-39.200001,4.000000
94,-35.200001,4.000000
95,-34.400002,4.000000
96,-27.200001,4.000000
97,-32.000000,8.000000
98,-37.599998,8.000000
99,-32.000000,8.000000
100,-24.799999,8.000000
101,-23.200001,12.000000
102,-28.799999,12.000000
103,-32.000000,12.000000
104,-43.200001,12.000000
105,-41.599998,12.000000
106,-39.200001,12.000000
107,-44.799999,16.000000
108,-41.599998,16.000000
109,-29.600000,16.000000
110,-37.599998,20.000000
111,-35.200001,16.000000
112,-29.600000,20.000000
113,-28.000000,24.000000
114,-28.799999,28.000000
115,-24.000000,24.000000
116,-20.000000,24.000000
117,-38.400002,28.000000
118,-42.400002,28.000000
119,-36.000000,0.000000
120,-31.200001,28.000000
121,-39.200001,28.000000
122,-40.000000,32.000000
123,-36.799999,32.000000
124,-35.200001,32.000000
125,-38.400002,32.000000
126,-34.400002,32.000000
127,-28.000000,36.000000
128,-25.600000,36.000000
129,-27.200001,36.000000
130,-25.600000,36.000000
131,-28.799999,40.000000
132,-34.400002,40.000000
133,-44.799999,40.000000
134,-33.599998,40.000000
135,-24.799999,40.000000
136,-32.799999,44.000000
137,-39.200001,40.000000
138,-30.400000,44.000000
139,-21.600000,44.000000
140,-28.799999,44.000000
141,-30.400000,48.000000
142,-21.600000,48.000000
143,-23.200001,52.000000
144,-29.600000,48.000000
145,-26.400000,52.000000
146,-26.400000,52.000000
147,-28.799999,56.000000
148,-29.600000,56.000000
149,-21.600000,56.000000
150,-18.400000,56.000000
151,-25.600000,56.000000
152,-38.400002,60.000000
153,-33.599998,56.000000
154,-23.200001,60.000000
155,-26.400000,56.000000
156,-37.599998,60.000000
157,-27.200001,60.000000
158,-19.200001,60.000000
159,-28.000000,64.000000
160,-32.000000,84.000000
161,-24.799999,68.000000
162,-24.799999,64.000000
163,-28.799999,68.000000
164,-20.799999,68.000000
165,-15.200000,68.000000
166,-29.600000,68.000000
167,-33.599998,68.000000
168,-24.000000,72.000000
169,-21.600000,72.000000
170,-33.599998,72.000000
171,-34.400002,72.000000
172,-29.600000,76.000000
173,-26.400000,76.000000
174,-30.400000,76.000000
175,-30.400000,76.000000
176,-22.400000,76.000000
177,-20.799999,80.000000
178,-20.000000,84.000000
179,-21.600000,80.000000
180,-22.400000,80.000000
181,-36.000000,80.000000
182,-35.200001,80.000000
183,-29.600000,80.000000
184,-19.200001,80.000000
185,-32.799999,84.000000
186,-31.200001,84.000000
187,-24.799999,84.000000
188,-15.200000,84.000000
189,-32.799999,88.000000
190,-32.799999,84.000000
191,-24.799999,88.000000
192,-24.799999,88.000000
193,-28.799999,88.000000
194,-24.799999,88.000000
195,-28.799999,88.000000
196,-29.600000,92.000000
197,-28.799999,92.000000
198,-20.799999,92.000000
199,-16.000000,92.000000
200,-26.400000,92.000000
201,-35.200001,92.000000
202,-24.799999,92.000000
203,-22.400000,92.000000
204,-32.799999,96.000000
205,-35.200001,100.000000
206,-19.200001,96.000000
207,-14.400000,104.000000
208,-26.400000,96.000000
209,-29.600000,100.000000
210,-20.000000,100.000000
211,-25.600000,100.000000
212,-23.200001,100.000000
213,-21.600000,100.000000
214,-15.200000,100.000000
215,-25.600000,104.000000
216,-31.200001,100.000000
217,-21.600000,100.000000
218,-16.799999,100.000000
219,-27.200001,100.000000
220,-31.200001,104.000000
221,-22.400000,104.000000
222,-13.600000,104.000000
223,-24.799999,104.000000
224,-37.599998,104.000000
225,-21.600000,104.000000
226,-14.400000,104.000000
227,-20.000000,104.000000
228,-24.799999,108.000000
229,-18.400000,108.000000
230,-22.400000,108.000000
231,-29.600000,112.000000
232,-23.200001,108.000000
233,-18.400000,108.000000
234,-24.000000,112.000000
235,-24.799999,112.000000
236,-19.200001,112.000000
237,-16.000000,108.000000
238,-22.400000,112.000000
239,-29.600000,112.000000
240,-25.600000,112.000000
241,-5.600000,112.000000
242,-16.799999,116.000000
243,-28.000000,116.000000
244,-16.799999,116.000000
245,-11.200000,116.000000
246,-20.799999,116.000000
247,-24.000000,116.000000
248,-16.799999,92.000000
249,-16.799999,116.000000
250,-24.000000,116.000000
251,-21.600000,116.000000
252,-14.400000,116.000000
253,-26.400000,116.000000
254,-26.400000,112.000000
255,-20.799999,120.000000
256,-10.400000,120.000000
257,-13.600000,120.000000
258,-24.000000,120.000000
259,-24.799999,120.000000
260,-10.400000,124.000000
261,-15.200000,120.000000
262,-20.000000,120.000000
263,-19.200001,120.000000
264,-12.000000,120.000000
265,-19.200001,120.000000
266,-28.000000,116.000000
267,-24.799999,120.000000
268,-19.200001,120.000000
269,-21.600000,120.000000
270,-18.400000,120.000000
271,-8.000000,124.000000
272,-16.000000,124.000000
273,-21.600000,124.000000
274,-22.400000,120.000000
275,-8.800000,124.000000
276,-8.800000,124.000000
277,-16.799999,120.000000
278,-20.799999,128.000000
279,-10.400000,124.000000
280,-11.200000,124.000000
281,-17.600000,124.000000
282,-20.799999,124.000000
283,-10.400000,124.000000
284,-12.800000,120.000000
285,-20.000000,124.000000
286,-20.799999,124.000000
287,-20.000000,124.000000
288,-24.000000,124.000000
289,-15.200000,140.000000
290,-9.600000,124.000000
291,-8.000000,128.000000
292,-18.400000,124.000000
293,-18.400000,124.000000
294,-16.000000,124.000000
295,-11.200000,128.000000
296,-20.000000,124.000000
297,-22.400000,124.000000
298,-10.400000,124.000000
299,-9.600000,124.000000
300,-15.200000,124.000000
301,-21.600000,124.000000
302,-13.600000,128.000000
303,-13.600000,128.000000
304,-15.200000,124.000000
305,-16.000000,124.000000
306,-16.000000,124.000000
307,-20.000000,120.000000
308,-17.600000,124.000000
309,-14.400000,124.000000
310,-10.400000,128.000000
311,-14.400000,124.000000
312,-17.600000,124.000000
313,-8.000000,124.000000
314,-8.800000,124.000000
315,-20.799999,124.000000
316,-28.799999,124.000000
317,-20.799999,124.000000
318,-13.600000,120.000000
319,-24.000000,124.000000
320,-22.400000,120.000000
321,-18.400000,120.000000
322,-20.000000,124.000000
323,-12.800000,120.000000
324,-12.000000,124.000000
325,-12.000000,120.000000
326,-12.800000,124.000000
327,-14.400000,120.000000
328,-13.600000,124.000000
329,-16.799999,120.000000
330,-20.799999,124.000000
331,-27.200001,124.000000
332,-19.200001,120.000000
333,-10.400000,120.000000
334,-17.600000,120.000000
335,-27.200001,120.000000
336,-20.799999,128.000000
337,-15.200000,120.000000
338,-17.600000,120.000000
339,-14.400000,120.000000
340,-12.000000,120.000000
341,-14.400000,116.000000
342,-11.200000,116.000000
343,-14.400000,116.000000
344,-13.600000,116.000000
345,-16.000000,116.000000
346,-20.000000,116.000000
347,-13.600000,116.000000
348,-13.600000,116.000000
349,-12.800000,116.000000
350,-18.400000,116.000000
351,-20.799999,116.000000
352,-10.400000,116.000000
353,-14.400000,112.000000
354,-16.799999,104.000000
355,-17.600000,112.000000
356,-18.400000,108.000000
357,-12.000000,112.000000
358,-12.000000,108.000000
359,-16.799999,112.000000
360,-8.800000,108.000000
361,-4.800000,108.000000
362,-8.800000,108.000000
363,-8.000000,108.000000
364,-11.200000,108.000000
365,-20.799999,108.000000
366,-20.799999,112.000000
367,-12.800000,108.000000
368,-15.200000,108.000000
369,-24.799999,108.000000
370,-18.400000,104.000000
371,-14.400000,104.000000
372,-6.400000,108.000000
373,-8.000000,104.000000
374,-7.200000,104.000000
375,-6.400000,104.000000
376,-4.800000,104.000000
377,-9.600000,84.000000
378,-18.400000,104.000000
379,-14.400000,100.000000
380,-16.000000,100.000000
381,-10.400000,100.000000
382,-12.000000,104.000000
383,-14.400000,100.000000
384,-19.200001,100.000000
385,-20.000000,100.000000
386,-15.200000,96.000000
387,-9.600000,96.000000
388,-12.000000,96.000000
389,-14.400000,96.000000
390,-11.200000,92.000000
391,-8.000000,92.000000
392,-15.200000,96.000000
393,-18.400000,92.000000
394,-11.200000,92.000000
395,-1.600000,104.000000
396,-5.600000,92.000000
397,-7.200000,92.000000
398,-3.200000,92.000000
399,0.000000,88.000000
400,-4.800000,88.000000
401,-11.200000,88.000000
402,-12.000000,88.000000
403,-11.200000,88.000000
404,-13.600000,84.000000
405,-13.600000,88.000000
406,-10.400000,84.000000
407,-12.800000,76.000000
408,-13.600000,80.000000
409,-8.800000,84.000000
410,-2.400000,80.000000
411,-7.200000,80.000000
412,-11.200000,80.000000
413,0.000000,76.000000
414,0.800000,76.000000
415,2.400000,76.000000
416,-2.400000,80.000000
417,-9.600000,76.000000
418,-11.200000,84.000000
419,-10.400000,76.000000
420,-18.400000,72.000000
421,-13.600000,76.000000
422,-4.000000,72.000000
423,-8.000000,72.000000
424,-7.200000,64.000000
425,-4.000000,72.000000
426,-5.600000,72.000000
427,-13.600000,68.000000
428,-19.200001,68.000000
429,-17.600000,64.000000
430,-13.600000,68.000000
431,-7.200000,68.000000
432,-24.799999,64.000000
433,-21.600000,64.000000
434,-8.800000,60.000000
435,-10.400000,64.000000
436,-15.200000,56.000000
437,-5.600000,60.000000
438,-1.600000,60.000000
439,-15.200000,60.000000
440,-18.400000,60.000000
441,-9.600000,56.000000
442,-4.800000,56.000000
443,-13.600000,56.000000
444,-14.400000,56.000000
445,-9.600000,52.000000
446,-11.200000,52.000000
447,-11.200000,52.000000
448,-8.800000,56.000000
449,0.000000,52.000000
450,-8.800000,52.000000
451,-12.800000,48.000000
452,-3.200000,48.000000
453,2.400000,48.000000
454,-16.799999,40.000000
455,-21.600000,44.000000
456,-12.000000,44.000000
457,-2.400000,44.000000
458,1.600000,44.000000
459,-3.200000,48.000000
460,2.400000,44.000000
461,-4.800000,40.000000
462,-15.200000,40.000000
463,-9.600000,40.000000
464,-8.800000,36.000000
465,-20.799999,56.000000
466,-20.000000,36.000000
467,-8.000000,36.000000
468,0.800000,36.000000
469,-13.600000,32.000000
470,-16.799999,32.000000
471,-5.600000,24.000000
472,-7.200000,32.000000
473,-19.200001,28.000000
474,-17.600000,28.000000
475,-4.000000,28.000000
476,-0.800000,28.000000
477,-9.600000,28.000000
478,-8.800000,24.000000
479,8.000000,24.000000
480,-3.200000,24.000000
481,-9.600000,20.000000
482,-4.800000,20.000000
483,0.000000,12.000000
484,-12.000000,16.000000
485,-17.600000,16.000000
486,-14.400000,16.000000
487,3.200000,16.000000
488,-3.200000,16.000000
489,-12.800000,12.000000
490,-9.600000,12.000000
491,2.400000,12.000000
492,-3.200000,8.000000
493,-7.200000,8.000000
494,5.600000,8.000000
495,-4.000000,12.000000
496,-16.799999,8.000000
497,-11.200000,4.000000
498,0.000000,4.000000
499,-8.000000,8.000000
500,-10.400000,0.000000
501,-13.600000,0.000000
502,-0.800000,0.000000
503,-12.800000,4.000000
504,-28.000000,0.000000
505,-13.600000,0.000000
506,0.000000,-12.000000
507,-8.800000,0.000000
508,-16.799999,0.000000
509,0.000000,-4.000000
510,0.000000,-4.000000
511,-8.800000,-4.000000
512,-9.600000,-4.000000
513,-4.000000,-8.000000
514,-5.600000,-8.000000
515,-10.400000,-12.000000
516,-10.400000,-12.000000
517,-4.000000,-12.000000
518,-5.600000,-12.000000
519,-12.800000,-12.000000
520,0.000000,-16.000000
521,5.600000,-16.000000
522,-6.400000,-16.000000
523,-12.000000,-20.000000
524,3.200000,-8.000000
525,-1.600000,-20.000000
526,-20.799999,-20.000000
527,-26.400000,-20.000000
528,-13.600000,-24.000000
529,-4.000000,-24.000000
530,-13.600000,-24.000000
531,-16.000000,-24.000000
532,-10.400000,-28.000000
533,-18.400000,-28.000000
534,-20.000000,-28.000000
535,-6.400000,-32.000000
536,3.200000,-36.000000
537,-8.000000,-32.000000
538,-8.000000,-28.000000
539,-0.800000,-36.000000
540,-0.800000,-32.000000
541,-5.600000,-36.000000
542,-3.200000,-36.000000
543,6.400000,-36.000000
544,6.400000,-36.000000
545,-0.800000,-40.000000
546,0.000000,-36.000000
547,4.800000,-52.000000
548,8.000000,-40.000000
549,5.600000,-40.000000
550,4.800000,-40.000000
551,0.800000,-44.000000
552,-2.400000,-44.000000
553,-7.200000,-48.000000
554,-3.200000,-44.000000
555,2.400000,-48.000000
556,-4.000000,-48.000000
557,-2.400000,-48.000000
558,8.000000,-48.000000
559,11.200000,-48.000000
560,0.000000,-52.000000
561,-5.600000,-52.000000
562,4.800000,-52.000000
563,7.200000,-56.000000
564,-3.200000,-56.000000
565,-2.400000,-60.000000
566,-1.600000,-56.000000
567,2.400000,-56.000000
568,-1.600000,-60.000000
569,-6.400000,-60.000000
570,-3.200000,-64.000000
571,-5.600000,-60.000000
572,-3.200000,-60.000000
573,-4.800000,-64.000000
574,-11.200000,-64.000000
575,-13.600000,-64.000000
576,-1.600000,-64.000000
577,-3.200000,-64.000000
578,-3.200000,-68.000000
579,-4.800000,-68.000000
580,-13.600000,-72.000000
581,-16.799999,-72.000000
582,-12.000000,-76.000000
583,-6.400000,-76.000000
584,-12.000000,-72.000000
585,-16.000000,-72.000000
586,-12.000000,-76.000000
587,-3.200000,-76.000000
588,-0.800000,-76.000000
589,-4.000000,-72.000000
590,-0.800000,-72.000000
591,4.800000,-80.000000
592,1.600000,-76.000000
593,-0.800000,-80.000000
594,2.400000,-84.000000
595,-0.800000,-80.000000
596,6.400000,-80.000000
597,4.800000,-84.000000
598,-0.800000,-84.000000
599,-10.400000,-84.000000
600,-11.200000,-92.000000
601,-9.600000,-84.000000
602,-7.200000,-84.000000
603,-4.000000,-88.000000
604,-11.200000,-88.000000
605,-14.400000,-88.000000
606,-8.000000,-88.000000
607,-9.600000,-88.000000
608,-11.200000,-88.000000
609,-13.600000,-92.000000
610,0.800000,-92.000000
611,-1.600000,-92.000000
612,-13.600000,-100.000000
613,-4.800000,-92.000000
614,-0.800000,-92.000000
615,-6.400000,-96.000000
616,-4.000000,-92.000000
617,-3.200000,-96.000000
618,-6.400000,-92.000000
619,-9.600000,-96.000000
620,-1.600000,-96.000000
621,8.000000,-100.000000
622,-1.600000,-100.000000
623,-12.800000,-96.000000
624,-6.400000,-96.000000
625,-0.800000,-100.000000
626,-3.200000,-100.000000
627,-7.200000,-104.000000
628,-7.200000,-100.000000
629,-4.800000,-100.000000
630,4.000000,-104.000000
631,-1.600000,-104.000000
632,-7.200000,-104.000000
633,-8.800000,-104.000000
634,-11.200000,-108.000000
635,-8.800000,-104.000000
636,-3.200000,-104.000000
637,-12.800000,-108.000000
638,-18.400000,-108.000000
639,-13.600000,-108.000000
640,-5.600000,-112.000000
641,-4.800000,-104.000000
642,-8.800000,-108.000000
643,-3.200000,-108.000000
644,1.600000,-108.000000
645,-4.000000,-112.000000
646,-14.400000,-112.000000
647,-10.400000,-112.000000
648,-8.000000,-116.000000
649,-11.200000,-112.000000
650,-9.600000,-116.000000
651,-9.600000,-112.000000
652,-18.400000,-116.000000
653,-18.400000,-112.000000
654,-11.200000,-116.000000
655,-10.400000,-116.000000
656,-12.000000,-116.000000
657,-14.400000,-116.000000
658,-7.200000,-116.000000
659,2.400000,-112.000000
660,-10.400000,-116.000000
661,-13.600000,-120.000000
662,-9.600000,-116.000000
663,-8.800000,-116.000000
664,-8.800000,-120.000000
665,-12.800000,-124.000000
666,-23.200001,-116.000000
667,-27.200001,-120.000000
668,-18.400000,-120.000000
669,-20.000000,-116.000000
670,-18.400000,-120.000000
671,-12.800000,-120.000000
672,-12.800000,-120.000000
673,-12.000000,-120.000000
674,-12.000000,-120.000000
675,-16.000000,-120.000000
676,-16.799999,-132.000000
677,-11.200000,-124.000000
678,-4.000000,-124.000000
679,-14.400000,-124.000000
680,-19.200001,-124.000000
681,-17.600000,-124.000000
682,-14.400000,-124.000000
683,-5.600000,-124.000000
684,-5.600000,-124.000000
685,-8.000000,-124.000000
686,-11.200000,-124.000000
687,-9.600000,-124.000000
688,-18.400000,-120.000000
689,-21.600000,-124.000000
690,-16.000000,-124.000000
691,-5.600000,-124.000000
692,-8.000000,-124.000000
693,-12.000000,-124.000000
694,-14.400000,-132.000000
695,-12.800000,-124.000000
696,-14.400000,-128.000000
697,-13.600000,-128.000000
698,-0.800000,-128.000000
699,-17.600000,-128.000000
700,-28.000000,-128.000000
701,-15.200000,-128.000000
702,-19.200001,-128.000000
703,-25.600000,-128.000000
704,-22.400000,-128.000000
705,-14.400000,-128.000000
706,-8.000000,-124.000000
707,-13.600000,-128.000000
708,-14.400000,-128.000000
709,-14.400000,-128.000000
710,-12.800000,-128.000000
711,-8.000000,-128.000000
712,-4.800000,-132.000000
713,-4.000000,-124.000000
714,-13.600000,-128.000000
715,-22.400000,-128.000000
716,-13.600000,-124.000000
717,-8.800000,-128.000000
718,-16.799999,-124.000000
719,-15.200000,-124.000000
720,-7.200000,-128.000000
721,-1.600000,-124.000000
722,-24.000000,-124.000000
723,-27.200001,-120.000000
724,-8.000000,-124.000000
725,-9.600000,-124.000000
726,-12.000000,-124.000000
727,-13.600000,-124.000000
728,-10.400000,-128.000000
729,-16.000000,-132.000000
730,-21.600000,-124.000000
731,-11.200000,-124.000000
732,-1.600000,-124.000000
733,-20.799999,-124.000000
734,-19.200001,-124.000000
735,-6.400000,-124.000000
736,-15.200000,-124.000000
737,-23.200001,-124.000000
738,-19.200001,-124.000000
739,-11.200000,-124.000000
740,-4.800000,-124.000000
741,-13.600000,-128.000000
742,-15.200000,-124.000000
743,-9.600000,-124.000000
744,-12.000000,-124.000000
745,-8.000000,-124.000000
746,3.200000,-124.000000
747,0.800000,-120.000000
748,-10.400000,-124.000000
749,-12.000000,-120.000000
750,-8.000000,-124.000000
751,-10.400000,-124.000000
752,-22.400000,-124.000000
753,-16.000000,-116.000000
754,-0.800000,-124.000000
755,-3.200000,-120.000000
756,-20.799999,-120.000000
757,-11.200000,-120.000000
758,-5.600000,-116.000000
759,-6.400000,-120.000000
760,-12.800000,-116.000000
761,-8.000000,-116.000000
762,-12.000000,-116.000000
763,-26.400000,-116.000000
764,-15.200000,-120.000000
765,-7.200000,-116.000000
766,-14.400000,-120.000000
767,-25.600000,-116.000000
768,-13.600000,-116.000000
769,-12.000000,-116.000000
770,-28.000000,-112.000000
771,-32.000000,-116.000000
772,-19.200001,-116.000000
773,-12.000000,-112.000000
774,-12.800000,-112.000000
775,-9.600000,-112.000000
776,-1.600000,-112.000000
777,-8.800000,-108.000000
