lab2_frequencies/35Hz.csv

Channel              :,CH1,CH2
Frequency            :,35.06Hz,34.97Hz
Period               :,28.52ms,28.60ms
PK-PK                :,1.900V,448.0mV
Probe attenuation    :,1X,1X
Voltage per ADC value:,1.250000mV,0.250000mV
Time interval        :,40.00000uS,40.00000uS

index,CH1_Voltage(mV),CH2_Voltage(mV)
1,-900.000000,-196.000000
2,-900.000000,-196.000000
3,-940.000000,-196.000000
4,-920.000000,-192.000000
5,-900.000000,-196.000000
6,-940.000000,-192.000000
7,-920.000000,-192.000000
8,-920.000000,-192.000000
9,-920.000000,-192.000000
10,-920.000000,-192.000000
11,-920.000000,-188.000000
12,-940.000000,-188.000000
13,-920.000000,-188.000000
14,-940.000000,-192.000000
15,-940.000000,-184.000000
16,-940.000000,-184.000000
17,-940.000000,-188.000000
18,-920.000000,-180.000000
19,-940.000000,-188.000000
20,-920.000000,-184.000000
21,-960.000000,-184.000000
22,-940.000000,-184.000000
23,-920.000000,-184.000000
24,-940.000000,-184.000000
25,-940.000000,-180.000000
26,-940.000000,-180.000000
27,-920.000000,-176.000000
28,-940.000000,-180.000000
29,-940.000000,-180.000000
30,-900.000000,-176.000000
31,-940.000000,-180.000000
32,-920.000000,-176.000000
33,-920.000000,-172.000000
34,-940.000000,-172.000000
35,-920.000000,-168.000000
36,-920.000000,-168.000000
37,-940.000000,-168.000000
38,-920.000000,-168.000000
39,-920.000000,-168.000000
40,-920.000000,-168.000000
41,-920.000000,-168.000000
42,-920.000000,-164.000000
43,-920.000000,-164.000000
44,-920.000000,-164.000000
45,-920.000000,-160.000000
46,-900.000000,-160.000000
47,-940.000000,-160.000000
48,-920.000000,-160.000000
49,-920.000000,-156.000000
50,-940.000000,-156.000000
51,-920.000000,-156.000000
52,-920.000000,-156.000000
53,-900.000000,-152.000000
54,-920.000000,-148.000000
55,-920.000000,-148.000000
56,-940.000000,-148.000000
57,-920.000000,-148.000000
58,-900.000000,-148.000000
59,-900.000000,-124.000000
60,-900.000000,-144.000000
61,-900.000000,-140.000000
62,-900.000000,-140.000000
63,-900.000000,-136.000000
64,-880.000000,-136.000000
65,-860.000000,-132.000000
66,-880.000000,-132.000000
67,-880.000000,-132.000000
68,-880.000000,-128.000000
69,-860.000000,-124.000000
70,-840.000000,-128.000000
71,-860.000000,-124.000000
72,-840.000000,-120.000000
73,-840.000000,-120.000000
74,-860.000000,-120.000000
75,-840.000000,-120.000000
76,-840.000000,-120.000000
77,-840.000000,-116.000000
78,-820.000000,-112.000000
79,-840.000000,-116.000000
80,-820.000000,-112.000000
81,-820.000000,-108.000000
82,-820.000000,-108.000000
83,-800.000000,-108.000000
84,-780.000000,-104.000000
85,-760.000000,-104.000000
86,-740.000000,-84.000000
87,-740.000000,-100.000000
88,-760.000000,-96.000000
89,-760.000000,-92.000000
90,-760.000000,-92.000000
91,-720.000000,-92.000000
92,-720.000000,-88.000000
93,-700.000000,-88.000000
94,-720.000000,-88.000000
95,-720.000000,-84.000000
96,-700.000000,-84.000000
97,-720.000000,-80.000000
98,-700.000000,-80.000000
99,-700.000000,-76.000000
100,-700.000000,-76.000000
101,-680.000000,-76.000000
102,-700.000000,-72.000000
103,-680.000000,-68.000000
104,-660.000000,-68.000000
105,-660.000000,-64.000000
106,-660.000000,-60.000000
107,-660.000000,-64.000000
108,-680.000000,-60.000000
109,-640.000000,-56.000000
110,-660.000000,-52.000000
111,-660.000000,-56.000000
112,-640.000000,-56.000000
113,-660.000000,-48.000000
114,-640.000000,-48.000000
115,-640.000000,-48.000000
116,-620.000000,-44.000000
117,-620.000000,-44.000000
118,-620.000000,-40.000000
119,-620.000000,-40.000000
120,-620.000000,-36.000000
121,-600.000000,-36.000000
122,-580.000000,-32.000000
123,-560.000000,-36.000000
124,-560.000000,-28.000000
125,-560.000000,-28.000000
126,-560.000000,-24.000000
127,-520.000000,-24.000000
128,-560.000000,-20.000000
129,-520.000000,-20.000000
130,-500.000000,-24.000000
131,-540.000000,-16.000000
132,-480.000000,-12.000000
133,-500.000000,-12.000000
134,-500.000000,-16.000000
135,-480.000000,-8.000000
136,-480.000000,-8.000000
137,-460.000000,-4.000000
138,-460.000000,-4.000000
139,-460.000000,-4.000000
140,-440.000000,0.000000
141,-440.000000,4.000000
142,-440.000000,4.000000
143,-420.000000,8.000000
144,-420.000000,8.000000
145,-400.000000,8.000000
146,-440.000000,12.000000
147,-400.000000,12.000000
148,-380.000000,16.000000
149,-400.000000,16.000000
150,-340.000000,16.000000
151,-340.000000,24.000000
152,-360.000000,24.000000
153,-300.000000,24.000000
154,-320.000000,28.000000
155,-320.000000,28.000000
156,-300.000000,32.000000
157,-300.000000,36.000000
158,-280.000000,36.000000
159,-300.000000,36.000000
160,-280.000000,32.000000
161,-280.000000,44.000000
162,-260.000000,44.000000
163,-240.000000,48.000000
164,-260.000000,48.000000
165,-220.000000,48.000000
166,-240.000000,52.000000
167,-220.000000,52.000000
168,-200.000000,56.000000
169,-200.000000,56.000000
170,-180.000000,60.000000
171,-180.000000,60.000000
172,-180.000000,64.000000
173,-160.000000,64.000000
174,-160.000000,68.000000
175,-120.000000,68.000000
176,-120.000000,72.000000
177,-140.000000,72.000000
178,-100.000000,72.000000
179,-120.000000,76.000000
180,-80.000000,80.000000
181,-100.000000,80.000000
182,-80.000000,80.000000
183,-60.000000,84.000000
184,-60.000000,80.000000
185,-40.000000,88.000000
186,-40.000000,88.000000
187,-40.000000,88.000000
188,-40.000000,88.000000
189,-20.000000,92.000000
190,0.000000,96.000000
191,0.000000,96.000000
192,0.000000,96.000000
193,20.000000,100.000000
194,20.000000,100.000000
195,40.000000,104.000000
196,40.000000,104.000000
197,60.000000,108.000000
198,80.000000,108.000000
199,60.000000,112.000000
200,100.000000,112.000000
201,120.000000,112.000000
202,100.000000,116.000000
203,120.000000,116.000000
204,140.000000,120.000000
205,140.000000,120.000000
206,160.000000,124.000000
207,180.000000,124.000000
208,180.000000,124.000000
209,200.000000,124.000000
210,180.000000,128.000000
211,200.000000,128.000000
212,200.000000,128.000000
213,220.000000,128.000000
214,260.000000,132.000000
215,260.000000,136.000000
216,260.000000,136.000000
217,260.000000,136.000000
218,260.000000,136.000000
219,280.000000,140.000000
220,280.000000,140.000000
221,320.000000,156.000000
222,320.000000,144.000000
223,320.000000,144.000000
224,340.000000,144.000000
225,340.000000,148.000000
226,360.000000,148.000000
227,360.000000,148.000000
228,360.000000,156.000000
229,380.000000,152.000000
230,400.000000,156.000000
231,400.000000,152.000000
232,420.000000,156.000000
233,400.000000,160.000000
234,420.000000,156.000000
235,420.000000,156.000000
236,440.000000,160.000000
237,440.000000,160.000000
238,460.000000,164.000000
239,460.000000,164.000000
240,460.000000,164.000000
241,460.000000,168.000000
242,480.000000,164.000000
243,460.000000,172.000000
244,480.000000,168.000000
245,480.000000,168.000000
246,500.000000,168.000000
247,480.000000,172.000000
248,500.000000,172.000000
249,520.000000,172.000000
250,540.000000,172.000000
251,520.000000,176.000000
252,520.000000,176.000000
253,540.000000,176.000000
254,560.000000,176.000000
255,560.000000,188.000000
256,560.000000,180.000000
257,560.000000,180.000000
258,580.000000,188.000000
259,560.000000,184.000000
260,580.000000,180.000000
261,580.000000,184.000000
262,620.000000,184.000000
263,600.000000,184.000000
264,600.000000,184.000000
265,580.000000,188.000000
266,640.000000,184.000000
267,640.000000,184.000000
268,640.000000,184.000000
269,640.000000,188.000000
270,640.000000,188.000000
271,620.000000,188.000000
272,660.000000,192.000000
273,640.000000,192.000000
274,660.000000,192.000000
275,680.000000,196.000000
276,680.000000,188.000000
277,680.000000,192.000000
278,660.000000,196.000000
279,680.000000,192.000000
280,700.000000,192.000000
281,680.000000,192.000000
282,680.000000,196.000000
283,680.000000,192.000000
284,700.000000,192.000000
285,700.000000,192.000000
286,700.000000,192.000000
287,720.000000,196.000000
288,700.000000,196.000000
289,720.000000,192.000000
290,720.000000,196.000000
291,700.000000,196.000000
292,760.000000,188.000000
293,720.000000,196.000000
294,720.000000,192.000000
295,740.000000,196.000000
296,720.000000,196.000000
297,740.000000,192.000000
298,740.000000,192.000000
299,740.000000,200.000000
300,740.000000,196.000000
301,740.000000,192.000000
302,760.000000,192.000000
303,740.000000,192.000000
304,740.000000,192.000000
305,740.000000,192.000000
306,740.000000,192.000000
307,740.000000,188.000000
308,760.000000,188.000000
309,760.000000,192.000000
310,780.000000,188.000000
311,760.000000,192.000000
312,760.000000,192.000000
313,740.000000,192.000000
314,740.000000,188.000000
315,780.000000,188.000000
316,760.000000,188.000000
317,760.000000,184.000000
318,780.000000,188.000000
319,780.000000,184.000000
320,780.000000,188.000000
321,780.000000,184.000000
322,760.000000,184.000000
323,760.000000,184.000000
324,760.000000,184.000000
325,760.000000,184.000000
326,780.000000,196.000000
327,780.000000,180.000000
328,760.000000,180.000000
329,760.000000,176.000000
330,760.000000,180.000000
331,780.000000,180.000000
332,780.000000,180.000000
333,780.000000,180.000000
334,800.000000,180.000000
335,780.000000,176.000000
336,760.000000,176.000000
337,760.000000,176.000000
338,740.000000,172.000000
339,760.000000,172.000000
340,760.000000,176.000000
341,780.000000,172.000000
342,760.000000,172.000000
343,780.000000,168.000000
344,760.000000,172.000000
345,760.000000,172.000000
346,740.000000,164.000000
347,760.000000,168.000000
348,760.000000,168.000000
349,760.000000,168.000000
350,760.000000,164.000000
351,760.000000,164.000000
352,720.000000,160.000000
353,740.000000,160.000000
354,740.000000,160.000000
355,740.000000,160.000000
356,740.000000,156.000000
357,740.000000,160.000000
358,740.000000,160.000000
359,740.000000,156.000000
360,720.000000,156.000000
361,740.000000,156.000000
362,740.000000,152.000000
363,720.000000,152.000000
364,740.000000,152.000000
365,720.000000,152.000000
366,720.000000,148.000000
367,720.000000,148.000000
368,740.000000,148.000000
369,700.000000,144.000000
370,720.000000,148.000000
371,720.000000,148.000000
372,720.000000,148.000000
373,720.000000,148.000000
374,700.000000,140.000000
375,680.000000,140.000000
376,680.000000,140.000000
377,700.000000,140.000000
378,700.000000,140.000000
379,700.000000,136.000000
380,680.000000,136.000000
381,680.000000,136.000000
382,680.000000,136.000000
383,660.000000,132.000000
384,680.000000,132.000000
385,660.000000,132.000000
386,660.000000,128.000000
387,680.000000,128.000000
388,660.000000,128.000000
389,660.000000,128.000000
390,680.000000,136.000000
391,660.000000,120.000000
392,660.000000,120.000000
393,640.000000,124.000000
394,660.000000,124.000000
395,660.000000,120.000000
396,660.000000,120.000000
397,660.000000,108.000000
398,640.000000,112.000000
399,640.000000,116.000000
400,660.000000,104.000000
401,640.000000,116.000000
402,640.000000,112.000000
403,640.000000,112.000000
404,620.000000,108.000000
405,620.000000,108.000000
406,620.000000,108.000000
407,600.000000,108.000000
408,640.000000,104.000000
409,600.000000,104.000000
410,620.000000,104.000000
411,640.000000,100.000000
412,620.000000,100.000000
413,560.000000,100.000000
414,600.000000,96.000000
415,580.000000,96.000000
416,580.000000,96.000000
417,620.000000,96.000000
418,580.000000,96.000000
419,600.000000,92.000000
420,580.000000,92.000000
421,580.000000,88.000000
422,560.000000,88.000000
423,560.000000,88.000000
424,560.000000,88.000000
425,540.000000,84.000000
426,560.000000,84.000000
427,560.000000,88.000000
428,560.000000,80.000000
429,560.000000,80.000000
430,540.000000,80.000000
431,520.000000,76.000000
432,540.000000,76.000000
433,520.000000,76.000000
434,540.000000,72.000000
435,520.000000,76.000000
436,520.000000,68.000000
437,540.000000,72.000000
438,480.000000,68.000000
439,520.000000,68.000000
440,500.000000,68.000000
441,520.000000,68.000000
442,480.000000,64.000000
443,480.000000,64.000000
444,500.000000,68.000000
445,480.000000,64.000000
446,480.000000,60.000000
447,460.000000,60.000000
448,460.000000,60.000000
449,480.000000,56.000000
450,480.000000,56.000000
451,480.000000,56.000000
452,480.000000,52.000000
453,440.000000,52.000000
454,440.000000,48.000000
455,440.000000,48.000000
456,420.000000,48.000000
457,440.000000,44.000000
458,440.000000,44.000000
459,420.000000,44.000000
460,420.000000,44.000000
461,420.000000,52.000000
462,420.000000,40.000000
463,400.000000,40.000000
464,420.000000,40.000000
465,420.000000,40.000000
466,420.000000,36.000000
467,400.000000,36.000000
468,380.000000,32.000000
469,380.000000,32.000000
470,380.000000,32.000000
471,360.000000,28.000000
472,380.000000,28.000000
473,380.000000,28.000000
474,380.000000,28.000000
475,360.000000,28.000000
476,360.000000,24.000000
477,360.000000,24.000000
478,340.000000,24.000000
479,360.000000,24.000000
480,340.000000,20.000000
481,320.000000,20.000000
482,340.000000,16.000000
483,320.000000,16.000000
484,320.000000,12.000000
485,320.000000,16.000000
486,300.000000,12.000000
487,300.000000,16.000000
488,280.000000,12.000000
489,280.000000,12.000000
490,280.000000,8.000000
491,280.000000,8.000000
492,260.000000,4.000000
493,260.000000,4.000000
494,240.000000,4.000000
495,220.000000,4.000000
496,220.000000,4.000000
497,220.000000,0.000000
498,200.000000,4.000000
499,220.000000,0.000000
500,180.000000,0.000000
501,180.000000,-4.000000
502,200.000000,-8.000000
503,200.000000,-8.000000
504,180.000000,-8.000000
505,180.000000,-4.000000
506,160.000000,-8.000000
507,140.000000,-12.000000
508,160.000000,-12.000000
509,120.000000,-12.000000
510,160.000000,-16.000000
511,140.000000,-16.000000
512,120.000000,-16.000000
513,100.000000,-16.000000
514,120.000000,-20.000000
515,100.000000,-16.000000
516,80.000000,-20.000000
517,80.000000,-24.000000
518,60.000000,-20.000000
519,60.000000,-24.000000
520,60.000000,-28.000000
521,40.000000,-28.000000
522,60.000000,-28.000000
523,40.000000,-32.000000
524,40.000000,-32.000000
525,40.000000,-32.000000
526,0.000000,-36.000000
527,20.000000,-36.000000
528,0.000000,-36.000000
529,0.000000,-36.000000
530,-40.000000,-40.000000
531,-20.000000,-40.000000
532,-40.000000,-48.000000
533,-60.000000,-44.000000
534,-60.000000,-44.000000
535,-60.000000,-44.000000
536,-60.000000,-44.000000
537,-80.000000,-48.000000
538,-80.000000,-48.000000
539,-60.000000,-44.000000
540,-100.000000,-48.000000
541,-100.000000,-52.000000
542,-120.000000,-52.000000
543,-120.000000,-52.000000
544,-100.000000,-56.000000
545,-120.000000,-56.000000
546,-160.000000,-60.000000
547,-140.000000,-60.000000
548,-140.000000,-64.000000
549,-140.000000,-64.000000
550,-160.000000,-64.000000
551,-180.000000,-64.000000
552,-200.000000,-72.000000
553,-200.000000,-68.000000
554,-200.000000,-68.000000
555,-200.000000,-68.000000
556,-200.000000,-72.000000
557,-220.000000,-72.000000
558,-240.000000,-72.000000
559,-240.000000,-76.000000
560,-240.000000,-76.000000
561,-280.000000,-76.000000
562,-280.000000,-80.000000
563,-300.000000,-80.000000
564,-280.000000,-84.000000
565,-280.000000,-80.000000
566,-300.000000,-96.000000
567,-280.000000,-84.000000
568,-280.000000,-84.000000
569,-300.000000,-88.000000
570,-300.000000,-88.000000
571,-320.000000,-88.000000
572,-320.000000,-88.000000
573,-300.000000,-92.000000
574,-300.000000,-92.000000
575,-340.000000,-92.000000
576,-360.000000,-96.000000
577,-360.000000,-96.000000
578,-380.000000,-100.000000
579,-380.000000,-100.000000
580,-380.000000,-100.000000
581,-380.000000,-104.000000
582,-400.000000,-104.000000
583,-400.000000,-104.000000
584,-420.000000,-104.000000
585,-440.000000,-104.000000
586,-420.000000,-112.000000
587,-460.000000,-112.000000
588,-440.000000,-112.000000
589,-440.000000,-108.000000
590,-460.000000,-112.000000
591,-460.000000,-112.000000
592,-460.000000,-116.000000
593,-460.000000,-124.000000
594,-460.000000,-116.000000
595,-480.000000,-120.000000
596,-500.000000,-124.000000
597,-500.000000,-120.000000
598,-480.000000,-124.000000
599,-500.000000,-124.000000
600,-500.000000,-128.000000
601,-520.000000,-128.000000
602,-520.000000,-128.000000
603,-540.000000,-132.000000
604,-520.000000,-128.000000
605,-560.000000,-128.000000
606,-540.000000,-132.000000
607,-560.000000,-136.000000
608,-540.000000,-132.000000
609,-560.000000,-132.000000
610,-580.000000,-136.000000
611,-600.000000,-136.000000
612,-620.000000,-140.000000
613,-600.000000,-140.000000
614,-640.000000,-140.000000
615,-620.000000,-140.000000
616,-640.000000,-144.000000
617,-620.000000,-144.000000
618,-660.000000,-144.000000
619,-640.000000,-144.000000
620,-660.000000,-152.000000
621,-660.000000,-148.000000
622,-700.000000,-152.000000
623,-680.000000,-148.000000
624,-700.000000,-148.000000
625,-700.000000,-152.000000
626,-680.000000,-152.000000
627,-680.000000,-156.000000
628,-680.000000,-156.000000
629,-700.000000,-156.000000
630,-720.000000,-156.000000
631,-700.000000,-160.000000
632,-720.000000,-164.000000
633,-700.000000,-160.000000
634,-700.000000,-160.000000
635,-720.000000,-164.000000
636,-720.000000,-168.000000
637,-720.000000,-176.000000
638,-760.000000,-164.000000
639,-740.000000,-168.000000
640,-760.000000,-172.000000
641,-760.000000,-168.000000
642,-760.000000,-168.000000
643,-760.000000,-172.000000
644,-780.000000,-172.000000
645,-780.000000,-176.000000
646,-780.000000,-172.000000
647,-780.000000,-172.000000
648,-800.000000,-176.000000
649,-800.000000,-176.000000
650,-780.000000,-176.000000
651,-820.000000,-180.000000
652,-800.000000,-176.000000
653,-820.000000,-180.000000
654,-840.000000,-180.000000
655,-820.000000,-180.000000
656,-840.000000,-180.000000
657,-840.000000,-184.000000
658,-860.000000,-184.000000
659,-840.000000,-184.000000
660,-840.000000,-184.000000
661,-860.000000,-184.000000
662,-860.000000,-184.000000
663,-880.000000,-184.000000
664,-860.000000,-184.000000
665,-860.000000,-184.000000
666,-880.000000,-188.000000
667,-860.000000,-184.000000
668,-900.000000,-188.000000
669,-880.000000,-188.000000
670,-880.000000,-188.000000
671,-900.000000,-188.000000
672,-900.000000,-192.000000
673,-900.000000,-192.000000
674,-900.000000,-192.000000
675,-920.000000,-192.000000
676,-920.000000,-192.000000
677,-900.000000,-192.000000
678,-920.000000,-192.000000
679,-920.000000,-196.000000
680,-920.000000,-192.000000
681,-920.000000,-192.000000
682,-900.000000,-196.000000
683,-920.000000,-196.000000
684,-920.000000,-192.000000
685,-920.000000,-196.000000
686,-940.000000,-196.000000
687,-940.000000,-196.000000
688,-960.000000,-196.000000
689,-960.000000,-196.000000
690,-940.000000,-196.000000
691,-960.000000,-196.000000
692,-960.000000,-200.000000
693,-960.000000,-196.000000
694,-940.000000,-200.000000
695,-960.000000,-200.000000
696,-980.000000,-196.000000
697,-960.000000,-196.000000
698,-960.000000,-196.000000
699,-1000.000000,-196.000000
700,-980.000000,-200.000000
701,-980.000000,-204.000000
702,-960.000000,-196.000000
703,-980.000000,-196.000000
704,-980.000000,-196.000000
705,-960.000000,-196.000000
706,-980.000000,-196.000000
707,-980.000000,-196.000000
708,-940.000000,-188.000000
709,-960.000000,-196.000000
710,-960.000000,-196.000000
711,-980.000000,-196.000000
712,-960.000000,-196.000000
713,-960.000000,-196.000000
714,-960.000000,-192.000000
715,-960.000000,-196.000000
716,-960.000000,-196.000000
717,-960.000000,-192.000000
718,-980.000000,-196.000000
719,-960.000000,-196.000000
720,-960.000000,-192.000000
721,-980.000000,-192.000000
722,-980.000000,-192.000000
723,-980.000000,-192.000000
724,-980.000000,-192.000000
725,-960.000000,-188.000000
726,-960.000000,-192.000000
727,-940.000000,-192.000000
728,-960.000000,-192.000000
729,-960.000000,-188.000000
730,-980.000000,-188.000000
731,-960.000000,-184.000000
732,-960.000000,-188.000000
733,-960.000000,-188.000000
734,-940.000000,-188.000000
735,-960.000000,-168.000000
736,-960.000000,-180.000000
737,-940.000000,-184.000000
738,-960.000000,-176.000000
739,-960.000000,-180.000000
740,-960.000000,-180.000000
741,-980.000000,-180.000000
742,-960.000000,-180.000000
743,-960.000000,-180.000000
744,-940.000000,-176.000000
