lab2_frequencies/50Hz.csv

Channel              :,CH1,CH2
Frequency            :,50.00Hz,50.00Hz
Period               :,20.00ms,20.00ms
PK-PK                :,2.280V,708.0mV
Probe attenuation    :,1X,1X
Voltage per ADC value:,1.250000mV,0.250000mV
Time interval        :,20.00000uS,20.00000uS

index,CH1_Voltage(mV),CH2_Voltage(mV)
1,660.000000,112.000000
2,660.000000,112.000000
3,640.000000,108.000000
4,660.000000,112.000000
5,620.000000,104.000000
6,640.000000,104.000000
7,640.000000,104.000000
8,620.000000,100.000000
9,620.000000,96.000000
10,640.000000,96.000000
11,620.000000,96.000000
12,600.000000,96.000000
13,600.000000,92.000000
14,600.000000,88.000000
15,600.000000,88.000000
16,580.000000,88.000000
17,600.000000,84.000000
18,600.000000,92.000000
19,580.000000,84.000000
20,560.000000,80.000000
21,560.000000,80.000000
22,540.000000,76.000000
23,560.000000,72.000000
24,540.000000,76.000000
25,540.000000,72.000000
26,540.000000,72.000000
27,520.000000,68.000000
28,540.000000,68.000000
29,500.000000,64.000000
30,500.000000,64.000000
31,500.000000,56.000000
32,500.000000,60.000000
33,500.000000,56.000000
34,500.000000,60.000000
35,480.000000,52.000000
36,460.000000,52.000000
37,480.000000,52.000000
38,500.000000,44.000000
39,480.000000,44.000000
40,460.000000,44.000000
41,460.000000,40.000000
42,440.000000,40.000000
43,440.000000,40.000000
44,440.000000,32.000000
45,440.000000,56.000000
46,400.000000,32.000000
47,440.000000,32.000000
48,420.000000,32.000000
49,420.000000,32.000000
50,420.000000,24.000000
51,380.000000,28.000000
52,380.000000,24.000000
53,400.000000,20.000000
54,380.000000,20.000000
55,380.000000,16.000000
56,360.000000,16.000000
57,360.000000,16.000000
58,360.000000,8.000000
59,360.000000,12.000000
60,340.000000,8.000000
61,320.000000,4.000000
62,320.000000,8.000000
63,340.000000,4.000000
64,320.000000,4.000000
65,320.000000,0.000000
66,320.000000,0.000000
67,320.000000,-4.000000
68,300.000000,-4.000000
69,300.000000,-8.000000
70,280.000000,-12.000000
71,280.000000,-8.000000
72,280.000000,0.000000
73,260.000000,-12.000000
74,240.000000,-16.000000
75,260.000000,-20.000000
76,240.000000,-20.000000
77,260.000000,-20.000000
78,240.000000,-20.000000
79,220.000000,-24.000000
80,220.000000,-24.000000
81,200.000000,-28.000000
82,200.000000,-28.000000
83,220.000000,-32.000000
84,200.000000,-36.000000
85,180.000000,-32.000000
86,180.000000,-40.000000
87,180.000000,-40.000000
88,160.000000,-40.000000
89,180.000000,-44.000000
90,180.000000,-44.000000
91,160.000000,-44.000000
92,140.000000,-44.000000
93,140.000000,-52.000000
94,140.000000,-48.000000
95,120.000000,-56.000000
96,160.000000,-56.000000
97,120.000000,-56.000000
98,120.000000,-60.000000
99,120.000000,-64.000000
100,100.000000,-64.000000
101,100.000000,-64.000000
102,80.000000,-68.000000
103,80.000000,-68.000000
104,100.000000,-72.000000
105,80.000000,-72.000000
106,80.000000,-68.000000
107,60.000000,-72.000000
108,40.000000,-76.000000
109,60.000000,-80.000000
110,40.000000,-80.000000
111,0.000000,-80.000000
112,40.000000,-84.000000
113,40.000000,-88.000000
114,-20.000000,-84.000000
115,20.000000,-88.000000
116,0.000000,-88.000000
117,-20.000000,-88.000000
118,0.000000,-92.000000
119,-20.000000,-84.000000
120,-20.000000,-92.000000
121,-20.000000,-96.000000
122,-40.000000,-100.000000
123,-20.000000,-100.000000
124,-40.000000,-104.000000
125,-40.000000,-104.000000
126,-40.000000,-108.000000
127,-60.000000,-108.000000
128,-60.000000,-108.000000
129,-100.000000,-112.000000
130,-100.000000,-116.000000
131,-80.000000,-112.000000
132,-80.000000,-120.000000
133,-80.000000,-108.000000
134,-80.000000,-120.000000
135,-120.000000,-120.000000
136,-100.000000,-124.000000
137,-100.000000,-124.000000
138,-140.000000,-128.000000
139,-140.000000,-124.000000
140,-120.000000,-128.000000
141,-160.000000,-132.000000
142,-140.000000,-132.000000
143,-140.000000,-132.000000
144,-160.000000,-136.000000
145,-140.000000,-132.000000
146,-180.000000,-140.000000
147,-180.000000,-140.000000
148,-180.000000,-140.000000
149,-180.000000,-140.000000
150,-180.000000,-144.000000
151,-220.000000,-148.000000
152,-200.000000,-144.000000
153,-220.000000,-148.000000
154,-260.000000,-152.000000
155,-240.000000,-152.000000
156,-260.000000,-152.000000
157,-240.000000,-152.000000
158,-240.000000,-156.000000
159,-260.000000,-156.000000
160,-260.000000,-152.000000
161,-280.000000,-164.000000
162,-260.000000,-164.000000
163,-280.000000,-164.000000
164,-300.000000,-168.000000
165,-300.000000,-168.000000
166,-280.000000,-168.000000
167,-320.000000,-172.000000
168,-320.000000,-176.000000
169,-360.000000,-172.000000
170,-320.000000,-176.000000
171,-340.000000,-176.000000
172,-340.000000,-176.000000
173,-340.000000,-180.000000
174,-340.000000,-180.000000
175,-360.000000,-180.000000
176,-360.000000,-184.000000
177,-380.000000,-184.000000
178,-380.000000,-184.000000
179,-400.000000,-188.000000
180,-380.000000,-188.000000
181,-400.000000,-192.000000
182,-400.000000,-192.000000
183,-420.000000,-192.000000
184,-420.000000,-196.000000
185,-440.000000,-196.000000
186,-420.000000,-200.000000
187,-440.000000,-204.000000
188,-460.000000,-200.000000
189,-440.000000,-200.000000
190,-480.000000,-204.000000
191,-460.000000,-208.000000
192,-480.000000,-204.000000
193,-460.000000,-212.000000
194,-480.000000,-208.000000
195,-460.000000,-212.000000
196,-500.000000,-212.000000
197,-480.000000,-212.000000
198,-500.000000,-212.000000
199,-500.000000,-216.000000
200,-500.000000,-212.000000
201,-520.000000,-216.000000
202,-520.000000,-220.000000
203,-560.000000,-220.000000
204,-520.000000,-224.000000
205,-520.000000,-224.000000
206,-540.000000,-224.000000
207,-560.000000,-232.000000
208,-520.000000,-228.000000
209,-560.000000,-228.000000
210,-560.000000,-232.000000
211,-560.000000,-232.000000
212,-580.000000,-228.000000
213,-580.000000,-232.000000
214,-560.000000,-240.000000
215,-600.000000,-232.000000
216,-580.000000,-236.000000
217,-600.000000,-240.000000
218,-600.000000,-240.000000
219,-620.000000,-240.000000
220,-620.000000,-244.000000
221,-600.000000,-220.000000
222,-640.000000,-244.000000
223,-620.000000,-248.000000
224,-640.000000,-248.000000
225,-660.000000,-248.000000
226,-660.000000,-252.000000
227,-660.000000,-244.000000
228,-660.000000,-252.000000
229,-660.000000,-252.000000
230,-680.000000,-256.000000
231,-700.000000,-256.000000
232,-680.000000,-252.000000
233,-700.000000,-256.000000
234,-700.000000,-264.000000
235,-700.000000,-256.000000
236,-720.000000,-256.000000
237,-720.000000,-264.000000
238,-720.000000,-260.000000
239,-720.000000,-264.000000
240,-760.000000,-260.000000
241,-720.000000,-264.000000
242,-740.000000,-264.000000
243,-760.000000,-268.000000
244,-760.000000,-268.000000
245,-760.000000,-268.000000
246,-760.000000,-272.000000
247,-760.000000,-272.000000
248,-780.000000,-256.000000
249,-780.000000,-276.000000
250,-780.000000,-276.000000
251,-800.000000,-276.000000
252,-820.000000,-276.000000
253,-820.000000,-276.000000
254,-800.000000,-272.000000
255,-800.000000,-280.000000
256,-820.000000,-280.000000
257,-820.000000,-280.000000
258,-800.000000,-280.000000
259,-820.000000,-284.000000
260,-860.000000,-284.000000
261,-840.000000,-284.000000
262,-840.000000,-284.000000
263,-840.000000,-288.000000
264,-860.000000,-288.000000
265,-880.000000,-288.000000
266,-880.000000,-288.000000
267,-860.000000,-288.000000
268,-880.000000,-288.000000
269,-860.000000,-292.000000
270,-880.000000,-292.000000
271,-900.000000,-288.000000
272,-900.000000,-296.000000
273,-920.000000,-296.000000
274,-900.000000,-292.000000
275,-920.000000,-296.000000
276,-920.000000,-296.000000
277,-900.000000,-296.000000
278,-920.000000,-300.000000
279,-940.000000,-300.000000
280,-940.000000,-300.000000
281,-940.000000,-300.000000
282,-960.000000,-300.000000
283,-960.000000,-300.000000
284,-960.000000,-300.000000
285,-980.000000,-300.000000
286,-980.000000,-304.000000
287,-980.000000,-304.000000
288,-1000.000000,-304.000000
289,-1000.000000,-300.000000
290,-960.000000,-300.000000
291,-1000.000000,-304.000000
292,-980.000000,-304.000000
293,-980.000000,-304.000000
294,-1000.000000,-304.000000
295,-980.000000,-300.000000
296,-1000.000000,-304.000000
297,-1020.000000,-308.000000
298,-980.000000,-308.000000
299,-1000.000000,-308.000000
300,-1020.000000,-308.000000
301,-1020.000000,-308.000000
302,-1040.000000,-308.000000
303,-1020.000000,-308.000000
304,-1040.000000,-312.000000
305,-1020.000000,-308.000000
306,-1020.000000,-312.000000
307,-1040.000000,-308.000000
308,-1020.000000,-312.000000
309,-1040.000000,-316.000000
310,-1040.000000,-312.000000
311,-1060.000000,-312.000000
312,-1060.000000,-308.000000
313,-1040.000000,-312.000000
314,-1080.000000,-316.000000
315,-1060.000000,-312.000000
316,-1060.000000,-312.000000
317,-1100.000000,-316.000000
318,-1080.000000,-312.000000
319,-1060.000000,-312.000000
320,-1100.000000,-312.000000
321,-1080.000000,-316.000000
322,-1080.000000,-316.000000
323,-1080.000000,-316.000000
324,-1060.000000,-316.000000
325,-1100.000000,-316.000000
326,-1080.000000,-316.000000
327,-1100.000000,-316.000000
328,-1100.000000,-316.000000
329,-1100.000000,-312.000000
330,-1120.000000,-316.000000
331,-1100.000000,-316.000000
332,-1120.000000,-316.000000
333,-1120.000000,-316.000000
334,-1120.000000,-316.000000
335,-1120.000000,-316.000000
336,-1120.000000,-300.000000
337,-1140.000000,-316.000000
338,-1120.000000,-316.000000
339,-1140.000000,-316.000000
340,-1120.000000,-316.000000
341,-1140.000000,-316.000000
342,-1160.000000,-312.000000
343,-1160.000000,-316.000000
344,-1160.000000,-316.000000
345,-1160.000000,-312.000000
346,-1140.000000,-312.000000
347,-1140.000000,-316.000000
348,-1140.000000,-316.000000
349,-1180.000000,-316.000000
350,-1140.000000,-316.000000
351,-1180.000000,-316.000000
352,-1160.000000,-312.000000
353,-1200.000000,-316.000000
354,-1160.000000,-316.000000
355,-1200.000000,-312.000000
356,-1160.000000,-312.000000
357,-1180.000000,-316.000000
358,-1160.000000,-312.000000
359,-1160.000000,-312.000000
360,-1160.000000,-312.000000
361,-1180.000000,-312.000000
362,-1180.000000,-316.000000
363,-1160.000000,-316.000000
364,-1180.000000,-312.000000
365,-1180.000000,-308.000000
366,-1180.000000,-308.000000
367,-1180.000000,-312.000000
368,-1200.000000,-312.000000
369,-1180.000000,-316.000000
370,-1180.000000,-312.000000
371,-1200.000000,-312.000000
372,-1200.000000,-308.000000
373,-1200.000000,-308.000000
374,-1220.000000,-308.000000
375,-1180.000000,-308.000000
376,-1200.000000,-300.000000
377,-1200.000000,-308.000000
378,-1200.000000,-308.000000
379,-1200.000000,-304.000000
380,-1220.000000,-304.000000
381,-1220.000000,-304.000000
382,-1180.000000,-304.000000
383,-1200.000000,-308.000000
384,-1180.000000,-304.000000
385,-1200.000000,-300.000000
386,-1200.000000,-300.000000
387,-1200.000000,-300.000000
388,-1200.000000,-300.000000
389,-1200.000000,-300.000000
390,-1200.000000,-304.000000
391,-1200.000000,-300.000000
392,-1220.000000,-300.000000
393,-1220.000000,-296.000000
394,-1200.000000,-296.000000
395,-1220.000000,-296.000000
396,-1240.000000,-296.000000
397,-1220.000000,-268.000000
398,-1220.000000,-292.000000
399,-1220.000000,-292.000000
400,-1220.000000,-292.000000
401,-1240.000000,-292.000000
402,-1200.000000,-288.000000
403,-1220.000000,-288.000000
404,-1220.000000,-288.000000
405,-1220.000000,-288.000000
406,-1220.000000,-288.000000
407,-1220.000000,-284.000000
408,-1260.000000,-284.000000
409,-1220.000000,-284.000000
410,-1200.000000,-288.000000
411,-1220.000000,-280.000000
412,-1200.000000,-280.000000
413,-1220.000000,-280.000000
414,-1220.000000,-280.000000
415,-1220.000000,-276.000000
416,-1200.000000,-280.000000
417,-1200.000000,-272.000000
418,-1220.000000,-276.000000
419,-1200.000000,-272.000000
420,-1220.000000,-272.000000
421,-1220.000000,-272.000000
422,-1200.000000,-272.000000
423,-1220.000000,-268.000000
424,-1220.000000,-264.000000
425,-1220.000000,-268.000000
426,-1200.000000,-268.000000
427,-1200.000000,-264.000000
428,-1200.000000,-264.000000
429,-1200.000000,-264.000000
430,-1200.000000,-260.000000
431,-1220.000000,-260.000000
432,-1200.000000,-256.000000
433,-1220.000000,-256.000000
434,-1200.000000,-256.000000
435,-1220.000000,-256.000000
436,-1200.000000,-256.000000
437,-1200.000000,-256.000000
438,-1220.000000,-252.000000
439,-1200.000000,-252.000000
440,-1220.000000,-248.000000
441,-1220.000000,-248.000000
442,-1200.000000,-248.000000
443,-1220.000000,-248.000000
444,-1220.000000,-248.000000
445,-1180.000000,-244.000000
446,-1220.000000,-244.000000
447,-1220.000000,-240.000000
448,-1200.000000,-240.000000
449,-1200.000000,-236.000000
450,-1200.000000,-236.000000
451,-1180.000000,-232.000000
452,-1200.000000,-232.000000
453,-1200.000000,-232.000000
454,-1200.000000,-232.000000
455,-1180.000000,-232.000000
456,-1180.000000,-228.000000
457,-1200.000000,-228.000000
458,-1180.000000,-224.000000
459,-1200.000000,-224.000000
460,-1200.000000,-224.000000
461,-1180.000000,-220.000000
462,-1180.000000,-220.000000
463,-1180.000000,-220.000000
464,-1160.000000,-216.000000
465,-1160.000000,-212.000000
466,-1160.000000,-212.000000
467,-1160.000000,-212.000000
468,-1140.000000,-212.000000
469,-1160.000000,-208.000000
470,-1160.000000,-204.000000
471,-1120.000000,-204.000000
472,-1180.000000,-200.000000
473,-1140.000000,-200.000000
474,-1120.000000,-200.000000
475,-1140.000000,-200.000000
476,-1120.000000,-200.000000
477,-1100.000000,-196.000000
478,-1120.000000,-196.000000
479,-1120.000000,-192.000000
480,-1080.000000,-188.000000
481,-1100.000000,-188.000000
482,-1100.000000,-188.000000
483,-1080.000000,-184.000000
484,-1080.000000,-184.000000
485,-1080.000000,-176.000000
486,-1060.000000,-180.000000
487,-1060.000000,-176.000000
488,-1100.000000,-176.000000
489,-1060.000000,-176.000000
490,-1060.000000,-172.000000
491,-1060.000000,-172.000000
492,-1060.000000,-168.000000
493,-1060.000000,-168.000000
494,-1040.000000,-164.000000
495,-1040.000000,-164.000000
496,-1040.000000,-160.000000
497,-1020.000000,-160.000000
498,-1040.000000,-164.000000
499,-1020.000000,-160.000000
500,-1020.000000,-152.000000
501,-1000.000000,-152.000000
502,-1040.000000,-152.000000
503,-1000.000000,-148.000000
504,-1020.000000,-144.000000
505,-1020.000000,-144.000000
506,-1000.000000,-144.000000
507,-1000.000000,-140.000000
508,-1000.000000,-140.000000
509,-980.000000,-136.000000
510,-1000.000000,-132.000000
511,-980.000000,-132.000000
512,-980.000000,-116.000000
513,-980.000000,-128.000000
514,-980.000000,-124.000000
515,-980.000000,-128.000000
516,-960.000000,-124.000000
517,-980.000000,-124.000000
518,-980.000000,-112.000000
519,-960.000000,-116.000000
520,-940.000000,-116.000000
521,-960.000000,-112.000000
522,-940.000000,-108.000000
523,-920.000000,-108.000000
524,-920.000000,-104.000000
525,-920.000000,-104.000000
526,-900.000000,-104.000000
527,-900.000000,-100.000000
528,-900.000000,-96.000000
529,-900.000000,-96.000000
530,-900.000000,-92.000000
531,-900.000000,-88.000000
532,-880.000000,-88.000000
533,-860.000000,-88.000000
534,-860.000000,-88.000000
535,-840.000000,-84.000000
536,-840.000000,-84.000000
537,-860.000000,-80.000000
538,-860.000000,-80.000000
539,-840.000000,-76.000000
540,-820.000000,-76.000000
541,-820.000000,-72.000000
542,-820.000000,-72.000000
543,-800.000000,-68.000000
544,-800.000000,-68.000000
545,-760.000000,-68.000000
546,-760.000000,-64.000000
547,-780.000000,-60.000000
548,-780.000000,-60.000000
549,-760.000000,-52.000000
550,-760.000000,-52.000000
551,-760.000000,-52.000000
552,-740.000000,-48.000000
553,-760.000000,-48.000000
554,-720.000000,-48.000000
555,-740.000000,-40.000000
556,-720.000000,-44.000000
557,-720.000000,-40.000000
558,-720.000000,-36.000000
559,-700.000000,-36.000000
560,-680.000000,-32.000000
561,-700.000000,-32.000000
562,-680.000000,-32.000000
563,-660.000000,-28.000000
564,-700.000000,-28.000000
565,-660.000000,-24.000000
566,-640.000000,-24.000000
567,-680.000000,-20.000000
568,-640.000000,-16.000000
569,-620.000000,-16.000000
570,-640.000000,-16.000000
571,-640.000000,-12.000000
572,-600.000000,-16.000000
573,-600.000000,-4.000000
574,-620.000000,-8.000000
575,-600.000000,-4.000000
576,-580.000000,0.000000
577,-600.000000,0.000000
578,-580.000000,0.000000
579,-560.000000,4.000000
580,-580.000000,4.000000
581,-560.000000,8.000000
582,-560.000000,8.000000
583,-560.000000,12.000000
584,-540.000000,12.000000
585,-520.000000,16.000000
586,-520.000000,12.000000
587,-520.000000,16.000000
588,-520.000000,16.000000
589,-520.000000,24.000000
590,-500.000000,24.000000
591,-500.000000,28.000000
592,-500.000000,28.000000
593,-460.000000,28.000000
594,-480.000000,32.000000
595,-460.000000,32.000000
596,-440.000000,36.000000
597,-460.000000,36.000000
598,-440.000000,40.000000
599,-440.000000,40.000000
600,-400.000000,56.000000
601,-400.000000,48.000000
602,-400.000000,48.000000
603,-420.000000,52.000000
604,-400.000000,52.000000
605,-380.000000,56.000000
606,-360.000000,60.000000
607,-380.000000,60.000000
608,-320.000000,64.000000
609,-340.000000,64.000000
610,-360.000000,68.000000
611,-340.000000,68.000000
612,-320.000000,72.000000
613,-320.000000,76.000000
614,-300.000000,76.000000
615,-320.000000,76.000000
616,-280.000000,80.000000
617,-280.000000,84.000000
618,-280.000000,84.000000
619,-260.000000,84.000000
620,-280.000000,84.000000
621,-220.000000,92.000000
622,-200.000000,92.000000
623,-220.000000,96.000000
624,-220.000000,96.000000
625,-220.000000,96.000000
626,-200.000000,100.000000
627,-180.000000,104.000000
628,-180.000000,104.000000
629,-160.000000,104.000000
630,-160.000000,108.000000
631,-160.000000,112.000000
632,-160.000000,116.000000
633,-120.000000,116.000000
634,-140.000000,108.000000
635,-120.000000,120.000000
636,-140.000000,120.000000
637,-100.000000,124.000000
638,-100.000000,128.000000
639,-80.000000,128.000000
640,-80.000000,128.000000
641,-80.000000,132.000000
642,-80.000000,136.000000
643,-60.000000,136.000000
644,-40.000000,136.000000
645,-40.000000,140.000000
646,-20.000000,144.000000
647,-20.000000,156.000000
648,-20.000000,144.000000
649,0.000000,148.000000
650,-20.000000,152.000000
651,0.000000,152.000000
652,20.000000,156.000000
653,0.000000,156.000000
654,20.000000,156.000000
655,-20.000000,160.000000
656,20.000000,164.000000
657,40.000000,164.000000
658,80.000000,168.000000
659,60.000000,168.000000
660,100.000000,172.000000
661,80.000000,156.000000
662,100.000000,176.000000
663,80.000000,176.000000
664,120.000000,180.000000
665,120.000000,180.000000
666,120.000000,184.000000
667,120.000000,180.000000
668,120.000000,188.000000
669,160.000000,188.000000
670,160.000000,188.000000
671,200.000000,192.000000
672,200.000000,196.000000
673,200.000000,196.000000
674,180.000000,196.000000
675,200.000000,200.000000
676,200.000000,200.000000
677,220.000000,200.000000
678,220.000000,204.000000
679,220.000000,208.000000
680,260.000000,212.000000
681,240.000000,208.000000
682,260.000000,216.000000
683,260.000000,216.000000
684,280.000000,212.000000
685,260.000000,220.000000
686,280.000000,220.000000
687,280.000000,224.000000
688,300.000000,228.000000
689,320.000000,224.000000
690,300.000000,228.000000
691,320.000000,228.000000
692,320.000000,232.000000
693,320.000000,232.000000
694,320.000000,240.000000
695,340.000000,236.000000
696,340.000000,240.000000
697,360.000000,240.000000
698,380.000000,244.000000
699,380.000000,244.000000
700,360.000000,248.000000
701,440.000000,248.000000
702,400.000000,248.000000
703,420.000000,252.000000
704,420.000000,252.000000
705,440.000000,256.000000
706,420.000000,256.000000
707,480.000000,260.000000
708,460.000000,256.000000
709,440.000000,260.000000
710,460.000000,264.000000
711,460.000000,264.000000
712,480.000000,264.000000
713,500.000000,264.000000
714,480.000000,268.000000
715,500.000000,272.000000
716,500.000000,272.000000
717,480.000000,276.000000
718,480.000000,276.000000
719,520.000000,276.000000
720,540.000000,276.000000
721,520.000000,280.000000
722,500.000000,268.000000
723,540.000000,280.000000
724,560.000000,280.000000
