lab2_frequencies/5Hz.csv

Channel              :,CH1,CH2
Frequency            :,  ?,  ?
Period               :,  ?,  ?
PK-PK                :,1.560V,246.0mV
Probe attenuation    :,1X,1X
Voltage per ADC value:,1.250000mV,0.125000mV
Time interval        :,200.00000uS,200.00000uS

index,CH1_Voltage(mV),CH2_Voltage(mV)
1,320.000000,86.000000
2,320.000000,86.000000
3,340.000000,84.000000
4,340.000000,86.000000
5,320.000000,86.000000
6,300.000000,86.000000
7,340.000000,86.000000
8,320.000000,86.000000
9,340.000000,88.000000
10,340.000000,88.000000
11,340.000000,86.000000
12,360.000000,88.000000
13,360.000000,86.000000
14,360.000000,88.000000
15,360.000000,88.000000
16,400.000000,80.000000
17,380.000000,88.000000
18,400.000000,94.000000
19,420.000000,90.000000
20,420.000000,88.000000
21,420.000000,86.000000
22,400.000000,88.000000
23,400.000000,88.000000
24,440.000000,90.000000
25,440.000000,88.000000
26,460.000000,90.000000
27,440.000000,90.000000
28,480.000000,90.000000
29,480.000000,92.000000
30,460.000000,92.000000
31,480.000000,92.000000
32,480.000000,94.000000
33,460.000000,92.000000
34,460.000000,90.000000
35,480.000000,92.000000
36,460.000000,92.000000
37,460.000000,68.000000
38,460.000000,92.000000
39,460.000000,96.000000
40,460.000000,92.000000
41,460.000000,90.000000
42,480.000000,94.000000
43,460.000000,94.000000
44,460.000000,92.000000
45,460.000000,94.000000
46,460.000000,94.000000
47,440.000000,94.000000
48,460.000000,94.000000
49,460.000000,92.000000
50,460.000000,94.000000
51,480.000000,92.000000
52,460.000000,94.000000
53,460.000000,94.000000
54,460.000000,94.000000
55,460.000000,94.000000
56,460.000000,92.000000
57,460.000000,94.000000
58,460.000000,98.000000
59,460.000000,94.000000
60,480.000000,90.000000
61,460.000000,94.000000
62,480.000000,94.000000
63,500.000000,96.000000
64,480.000000,92.000000
65,480.000000,96.000000
66,500.000000,94.000000
67,480.000000,94.000000
68,500.000000,94.000000
69,480.000000,94.000000
70,500.000000,96.000000
71,500.000000,94.000000
72,520.000000,96.000000
73,540.000000,94.000000
74,540.000000,96.000000
75,540.000000,96.000000
76,540.000000,94.000000
77,560.000000,96.000000
78,560.000000,94.000000
79,560.000000,96.000000
80,560.000000,96.000000
81,580.000000,92.000000
82,560.000000,94.000000
83,560.000000,100.000000
84,560.000000,94.000000
85,560.000000,96.000000
86,560.000000,96.000000
87,560.000000,96.000000
88,540.000000,94.000000
89,560.000000,94.000000
90,560.000000,94.000000
91,560.000000,94.000000
92,560.000000,96.000000
93,560.000000,96.000000
94,540.000000,94.000000
95,560.000000,94.000000
96,580.000000,96.000000
97,580.000000,94.000000
98,560.000000,100.000000
99,560.000000,96.000000
100,540.000000,98.000000
101,560.000000,94.000000
102,560.000000,92.000000
103,560.000000,96.000000
104,540.000000,90.000000
105,540.000000,96.000000
106,540.000000,96.000000
107,540.000000,94.000000
108,560.000000,94.000000
109,540.000000,94.000000
110,540.000000,94.000000
111,540.000000,94.000000
112,560.000000,94.000000
113,560.000000,94.000000
114,560.000000,96.000000
115,560.000000,94.000000
116,580.000000,94.000000
117,580.000000,94.000000
118,560.000000,92.000000
119,580.000000,86.000000
120,600.000000,94.000000
121,620.000000,92.000000
122,620.000000,92.000000
123,620.000000,96.000000
124,640.000000,92.000000
125,600.000000,90.000000
126,640.000000,92.000000
127,620.000000,92.000000
128,640.000000,92.000000
129,620.000000,92.000000
130,620.000000,90.000000
131,620.000000,90.000000
132,620.000000,90.000000
133,640.000000,90.000000
134,640.000000,90.000000
135,620.000000,90.000000
136,640.000000,92.000000
137,600.000000,88.000000
138,620.000000,90.000000
139,600.000000,90.000000
140,620.000000,96.000000
141,600.000000,90.000000
142,600.000000,82.000000
143,580.000000,88.000000
144,580.000000,84.000000
145,600.000000,90.000000
146,580.000000,88.000000
147,600.000000,88.000000
148,580.000000,88.000000
149,600.000000,88.000000
150,600.000000,86.000000
151,580.000000,88.000000
152,580.000000,86.000000
153,600.000000,86.000000
154,580.000000,88.000000
155,580.000000,86.000000
156,580.000000,88.000000
157,580.000000,86.000000
158,580.000000,86.000000
159,580.000000,86.000000
160,560.000000,88.000000
161,580.000000,82.000000
162,560.000000,86.000000
163,580.000000,80.000000
164,580.000000,84.000000
165,580.000000,90.000000
166,560.000000,84.000000
167,560.000000,84.000000
168,580.000000,84.000000
169,580.000000,84.000000
170,580.000000,82.000000
171,580.000000,82.000000
172,600.000000,82.000000
173,600.000000,82.000000
174,600.000000,82.000000
175,600.000000,84.000000
176,600.000000,82.000000
177,620.000000,82.000000
178,620.000000,80.000000
179,620.000000,80.000000
180,620.000000,74.000000
181,600.000000,82.000000
182,620.000000,84.000000
183,600.000000,78.000000
184,620.000000,80.000000
185,600.000000,78.000000
186,600.000000,78.000000
187,580.000000,78.000000
188,600.000000,80.000000
189,600.000000,78.000000
190,620.000000,78.000000
191,580.000000,78.000000
192,600.000000,78.000000
193,580.000000,76.000000
194,580.000000,76.000000
195,580.000000,78.000000
196,600.000000,76.000000
197,580.000000,74.000000
198,560.000000,76.000000
199,580.000000,78.000000
200,560.000000,74.000000
201,540.000000,72.000000
202,560.000000,74.000000
203,560.000000,74.000000
204,560.000000,74.000000
205,540.000000,76.000000
206,520.000000,72.000000
207,560.000000,70.000000
208,560.000000,74.000000
209,540.000000,72.000000
210,540.000000,70.000000
211,520.000000,72.000000
212,520.000000,68.000000
213,520.000000,70.000000
214,540.000000,70.000000
215,540.000000,68.000000
216,560.000000,68.000000
217,560.000000,68.000000
218,580.000000,68.000000
219,580.000000,68.000000
220,580.000000,68.000000
221,560.000000,68.000000
222,580.000000,80.000000
223,560.000000,68.000000
224,600.000000,62.000000
225,580.000000,66.000000
226,580.000000,68.000000
227,560.000000,64.000000
228,580.000000,64.000000
229,580.000000,66.000000
230,560.000000,64.000000
231,560.000000,64.000000
232,580.000000,64.000000
233,560.000000,62.000000
234,580.000000,62.000000
235,560.000000,62.000000
236,540.000000,62.000000
237,560.000000,60.000000
238,540.000000,60.000000
239,520.000000,60.000000
240,540.000000,60.000000
241,540.000000,60.000000
242,520.000000,60.000000
243,520.000000,62.000000
244,520.000000,58.000000
245,520.000000,58.000000
246,500.000000,56.000000
247,500.000000,58.000000
248,500.000000,58.000000
249,500.000000,56.000000
250,500.000000,56.000000
251,500.000000,56.000000
252,460.000000,54.000000
253,480.000000,52.000000
254,460.000000,54.000000
255,460.000000,52.000000
256,460.000000,54.000000
257,460.000000,52.000000
258,460.000000,52.000000
259,460.000000,52.000000
260,440.000000,52.000000
261,460.000000,50.000000
262,460.000000,54.000000
263,460.000000,52.000000
264,440.000000,52.000000
265,420.000000,48.000000
266,440.000000,48.000000
267,460.000000,48.000000
268,460.000000,46.000000
269,440.000000,48.000000
270,460.000000,48.000000
271,440.000000,46.000000
272,480.000000,44.000000
273,480.000000,44.000000
274,460.000000,42.000000
275,440.000000,44.000000
276,480.000000,44.000000
277,460.000000,42.000000
278,480.000000,44.000000
279,440.000000,42.000000
280,460.000000,42.000000
281,460.000000,40.000000
282,440.000000,40.000000
283,440.000000,62.000000
284,420.000000,40.000000
285,420.000000,42.000000
286,460.000000,38.000000
287,420.000000,42.000000
288,420.000000,38.000000
289,400.000000,36.000000
290,380.000000,38.000000
291,380.000000,38.000000
292,400.000000,36.000000
293,400.000000,36.000000
294,380.000000,34.000000
295,380.000000,36.000000
296,380.000000,34.000000
297,380.000000,32.000000
298,380.000000,34.000000
299,380.000000,32.000000
300,360.000000,32.000000
301,380.000000,30.000000
302,340.000000,32.000000
303,340.000000,28.000000
304,340.000000,48.000000
305,320.000000,30.000000
306,340.000000,24.000000
307,320.000000,28.000000
308,320.000000,30.000000
309,300.000000,26.000000
310,300.000000,26.000000
311,320.000000,26.000000
312,300.000000,26.000000
313,300.000000,24.000000
314,300.000000,24.000000
315,280.000000,24.000000
316,300.000000,22.000000
317,300.000000,22.000000
318,320.000000,24.000000
319,300.000000,22.000000
320,320.000000,22.000000
321,300.000000,20.000000
322,300.000000,18.000000
323,300.000000,20.000000
324,320.000000,18.000000
325,300.000000,20.000000
326,300.000000,20.000000
327,340.000000,24.000000
328,320.000000,16.000000
329,340.000000,18.000000
330,320.000000,16.000000
331,300.000000,14.000000
332,300.000000,14.000000
333,280.000000,14.000000
334,260.000000,12.000000
335,280.000000,10.000000
336,260.000000,12.000000
337,280.000000,10.000000
338,260.000000,12.000000
339,260.000000,10.000000
340,260.000000,10.000000
341,240.000000,10.000000
342,220.000000,8.000000
343,220.000000,6.000000
344,220.000000,8.000000
345,220.000000,8.000000
346,200.000000,8.000000
347,200.000000,4.000000
348,200.000000,4.000000
349,200.000000,4.000000
350,200.000000,0.000000
351,200.000000,2.000000
352,180.000000,4.000000
353,180.000000,2.000000
354,160.000000,2.000000
355,160.000000,2.000000
356,140.000000,0.000000
357,140.000000,0.000000
358,140.000000,0.000000
359,140.000000,0.000000
360,100.000000,-2.000000
361,120.000000,-4.000000
362,120.000000,-2.000000
363,100.000000,-4.000000
364,120.000000,-4.000000
365,100.000000,-26.000000
366,100.000000,-4.000000
367,120.000000,-6.000000
368,100.000000,-6.000000
369,100.000000,-6.000000
370,120.000000,-8.000000
371,100.000000,-8.000000
372,100.000000,-10.000000
373,100.000000,-10.000000
374,80.000000,-10.000000
375,100.000000,-10.000000
376,100.000000,-12.000000
377,120.000000,-12.000000
378,100.000000,-14.000000
379,80.000000,-12.000000
380,100.000000,-14.000000
381,80.000000,-14.000000
382,100.000000,-16.000000
383,100.000000,-16.000000
384,60.000000,-16.000000
385,80.000000,-16.000000
386,60.000000,-10.000000
387,60.000000,-20.000000
388,60.000000,-24.000000
389,60.000000,-20.000000
390,40.000000,-18.000000
391,20.000000,-20.000000
392,20.000000,-22.000000
393,20.000000,-22.000000
394,20.000000,-22.000000
395,40.000000,-22.000000
396,0.000000,-24.000000
397,0.000000,-24.000000
398,0.000000,-24.000000
399,-20.000000,-26.000000
400,-20.000000,-26.000000
401,-40.000000,-28.000000
402,-40.000000,-26.000000
403,-40.000000,-28.000000
404,-40.000000,-30.000000
405,-60.000000,-30.000000
406,-80.000000,-28.000000
407,-60.000000,-26.000000
408,-80.000000,-30.000000
409,-80.000000,-20.000000
410,-80.000000,-32.000000
411,-80.000000,-38.000000
412,-80.000000,-34.000000
413,-140.000000,-34.000000
414,-120.000000,-34.000000
415,-120.000000,-34.000000
416,-140.000000,-36.000000
417,-100.000000,-36.000000
418,-120.000000,-38.000000
419,-120.000000,-40.000000
420,-100.000000,-38.000000
421,-120.000000,-38.000000
422,-100.000000,-40.000000
423,-120.000000,-42.000000
424,-120.000000,-40.000000
425,-80.000000,-40.000000
426,-100.000000,-42.000000
427,-100.000000,-44.000000
428,-100.000000,-44.000000
429,-140.000000,-42.000000
430,-120.000000,-44.000000
431,-120.000000,-46.000000
432,-120.000000,-48.000000
433,-140.000000,-46.000000
434,-140.000000,-46.000000
435,-120.000000,-48.000000
436,-140.000000,-46.000000
437,-160.000000,-48.000000
438,-140.000000,-48.000000
439,-160.000000,-48.000000
440,-180.000000,-50.000000
441,-200.000000,-50.000000
442,-200.000000,-50.000000
443,-200.000000,-50.000000
444,-220.000000,-52.000000
445,-220.000000,-50.000000
446,-240.000000,-52.000000
447,-220.000000,-40.000000
448,-240.000000,-54.000000
449,-240.000000,-54.000000
450,-260.000000,-54.000000
451,-240.000000,-52.000000
452,-280.000000,-56.000000
453,-260.000000,-60.000000
454,-260.000000,-58.000000
455,-280.000000,-58.000000
456,-280.000000,-58.000000
457,-300.000000,-58.000000
458,-300.000000,-60.000000
459,-300.000000,-60.000000
460,-320.000000,-60.000000
461,-300.000000,-62.000000
462,-320.000000,-60.000000
463,-340.000000,-62.000000
464,-340.000000,-62.000000
465,-340.000000,-64.000000
466,-340.000000,-62.000000
467,-340.000000,-64.000000
468,-340.000000,-52.000000
469,-340.000000,-64.000000
470,-340.000000,-66.000000
471,-340.000000,-66.000000
472,-320.000000,-68.000000
473,-340.000000,-66.000000
474,-340.000000,-66.000000
475,-360.000000,-68.000000
476,-320.000000,-68.000000
477,-340.000000,-68.000000
478,-360.000000,-70.000000
479,-360.000000,-70.000000
480,-360.000000,-72.000000
481,-360.000000,-70.000000
482,-360.000000,-72.000000
483,-360.000000,-70.000000
484,-360.000000,-70.000000
485,-380.000000,-72.000000
486,-380.000000,-74.000000
487,-380.000000,-74.000000
488,-380.000000,-74.000000
489,-380.000000,-78.000000
490,-400.000000,-76.000000
491,-400.000000,-66.000000
492,-400.000000,-78.000000
493,-420.000000,-82.000000
494,-440.000000,-78.000000
495,-420.000000,-80.000000
496,-400.000000,-78.000000
497,-400.000000,-76.000000
498,-420.000000,-80.000000
499,-420.000000,-78.000000
500,-440.000000,-80.000000
501,-440.000000,-80.000000
502,-440.000000,-82.000000
503,-440.000000,-80.000000
504,-460.000000,-80.000000
505,-480.000000,-82.000000
506,-480.000000,-82.000000
507,-500.000000,-84.000000
508,-500.000000,-84.000000
509,-520.000000,-84.000000
510,-520.000000,-90.000000
511,-540.000000,-84.000000
512,-500.000000,-88.000000
513,-520.000000,-88.000000
514,-560.000000,-80.000000
515,-540.000000,-88.000000
516,-520.000000,-88.000000
517,-520.000000,-88.000000
518,-540.000000,-88.000000
519,-540.000000,-90.000000
520,-520.000000,-88.000000
521,-560.000000,-90.000000
522,-540.000000,-90.000000
523,-520.000000,-90.000000
524,-540.000000,-92.000000
525,-540.000000,-92.000000
526,-520.000000,-92.000000
527,-540.000000,-92.000000
528,-540.000000,-94.000000
529,-540.000000,-90.000000
530,-560.000000,-94.000000
531,-520.000000,-92.000000
532,-540.000000,-92.000000
533,-540.000000,-92.000000
534,-560.000000,-96.000000
535,-580.000000,-96.000000
536,-540.000000,-96.000000
537,-580.000000,-96.000000
538,-580.000000,-96.000000
539,-560.000000,-98.000000
540,-580.000000,-98.000000
541,-580.000000,-100.000000
542,-600.000000,-98.000000
543,-620.000000,-98.000000
544,-620.000000,-98.000000
545,-620.000000,-98.000000
546,-620.000000,-98.000000
547,-640.000000,-100.000000
548,-660.000000,-102.000000
549,-640.000000,-100.000000
550,-640.000000,-112.000000
551,-640.000000,-100.000000
552,-660.000000,-100.000000
553,-660.000000,-102.000000
554,-680.000000,-100.000000
555,-660.000000,-100.000000
556,-680.000000,-102.000000
557,-680.000000,-102.000000
558,-680.000000,-102.000000
559,-680.000000,-104.000000
560,-700.000000,-104.000000
561,-720.000000,-104.000000
562,-700.000000,-106.000000
563,-740.000000,-104.000000
564,-760.000000,-104.000000
565,-720.000000,-104.000000
566,-700.000000,-104.000000
567,-720.000000,-106.000000
568,-720.000000,-108.000000
569,-720.000000,-106.000000
570,-720.000000,-108.000000
571,-740.000000,-104.000000
572,-740.000000,-106.000000
573,-720.000000,-112.000000
574,-740.000000,-106.000000
575,-740.000000,-110.000000
576,-740.000000,-108.000000
577,-740.000000,-106.000000
578,-760.000000,-108.000000
579,-760.000000,-106.000000
580,-720.000000,-108.000000
581,-740.000000,-108.000000
582,-780.000000,-108.000000
583,-740.000000,-110.000000
584,-760.000000,-108.000000
585,-740.000000,-106.000000
586,-760.000000,-110.000000
587,-720.000000,-108.000000
588,-740.000000,-110.000000
589,-740.000000,-110.000000
590,-760.000000,-110.000000
591,-760.000000,-110.000000
592,-760.000000,-108.000000
593,-740.000000,-110.000000
594,-760.000000,-106.000000
595,-740.000000,-110.000000
596,-780.000000,-108.000000
597,-760.000000,-110.000000
598,-760.000000,-112.000000
599,-780.000000,-112.000000
600,-800.000000,-112.000000
601,-780.000000,-110.000000
602,-800.000000,-110.000000
603,-800.000000,-110.000000
604,-800.000000,-112.000000
605,-820.000000,-110.000000
606,-820.000000,-110.000000
607,-820.000000,-110.000000
608,-820.000000,-112.000000
609,-840.000000,-112.000000
610,-820.000000,-112.000000
611,-800.000000,-116.000000
612,-820.000000,-112.000000
613,-860.000000,-106.000000
614,-820.000000,-112.000000
615,-840.000000,-112.000000
616,-860.000000,-112.000000
617,-840.000000,-112.000000
618,-840.000000,-112.000000
619,-840.000000,-110.000000
620,-840.000000,-110.000000
621,-840.000000,-112.000000
622,-840.000000,-112.000000
623,-840.000000,-110.000000
624,-800.000000,-110.000000
625,-820.000000,-110.000000
626,-820.000000,-110.000000
627,-780.000000,-110.000000
628,-780.000000,-110.000000
629,-800.000000,-110.000000
630,-800.000000,-110.000000
631,-800.000000,-112.000000
632,-820.000000,-122.000000
633,-820.000000,-108.000000
634,-800.000000,-110.000000
635,-820.000000,-112.000000
636,-820.000000,-110.000000
637,-820.000000,-110.000000
638,-820.000000,-110.000000
639,-820.000000,-108.000000
640,-840.000000,-108.000000
641,-820.000000,-108.000000
642,-840.000000,-110.000000
643,-840.000000,-110.000000
644,-840.000000,-106.000000
645,-860.000000,-108.000000
646,-840.000000,-108.000000
647,-820.000000,-106.000000
648,-820.000000,-106.000000
649,-840.000000,-108.000000
650,-860.000000,-106.000000
651,-860.000000,-106.000000
652,-860.000000,-106.000000
653,-860.000000,-112.000000
654,-860.000000,-106.000000
655,-880.000000,-114.000000
656,-880.000000,-106.000000
657,-880.000000,-112.000000
658,-880.000000,-106.000000
659,-880.000000,-104.000000
660,-860.000000,-104.000000
661,-880.000000,-102.000000
662,-880.000000,-104.000000
663,-860.000000,-104.000000
664,-880.000000,-104.000000
665,-880.000000,-104.000000
666,-900.000000,-102.000000
667,-900.000000,-102.000000
668,-860.000000,-102.000000
669,-860.000000,-104.000000
670,-880.000000,-102.000000
671,-880.000000,-102.000000
672,-880.000000,-100.000000
673,-860.000000,-98.000000
674,-840.000000,-104.000000
675,-840.000000,-100.000000
676,-820.000000,-106.000000
677,-820.000000,-100.000000
678,-840.000000,-100.000000
679,-840.000000,-100.000000
680,-860.000000,-98.000000
681,-840.000000,-96.000000
682,-820.000000,-98.000000
683,-820.000000,-96.000000
684,-840.000000,-98.000000
685,-860.000000,-96.000000
686,-840.000000,-96.000000
687,-820.000000,-96.000000
688,-820.000000,-96.000000
689,-820.000000,-94.000000
690,-820.000000,-94.000000
691,-840.000000,-92.000000
692,-800.000000,-94.000000
693,-820.000000,-100.000000
694,-820.000000,-90.000000
695,-840.000000,-90.000000
696,-800.000000,-92.000000
697,-800.000000,-90.000000
698,-820.000000,-92.000000
699,-820.000000,-92.000000
700,-820.000000,-90.000000
701,-820.000000,-88.000000
702,-820.000000,-88.000000
703,-840.000000,-90.000000
704,-840.000000,-90.000000
705,-840.000000,-90.000000
706,-840.000000,-86.000000
707,-840.000000,-86.000000
708,-800.000000,-86.000000
709,-820.000000,-86.000000
710,-860.000000,-86.000000
711,-860.000000,-86.000000
712,-860.000000,-84.000000
713,-840.000000,-82.000000
714,-840.000000,-106.000000
715,-840.000000,-82.000000
716,-820.000000,-82.000000
717,-800.000000,-80.000000
718,-780.000000,-78.000000
719,-800.000000,-80.000000
720,-800.000000,-76.000000
721,-780.000000,-80.000000
722,-780.000000,-78.000000
723,-760.000000,-76.000000
724,-760.000000,-78.000000
725,-760.000000,-76.000000
726,-760.000000,-78.000000
727,-740.000000,-76.000000
728,-760.000000,-74.000000
729,-740.000000,-74.000000
730,-740.000000,-72.000000
731,-740.000000,-74.000000
732,-740.000000,-72.000000
733,-720.000000,-70.000000
734,-740.000000,-72.000000
735,-720.000000,-72.000000
736,-720.000000,-68.000000
737,-720.000000,-58.000000
738,-740.000000,-70.000000
739,-720.000000,-74.000000
740,-740.000000,-68.000000
741,-740.000000,-66.000000
742,-760.000000,-66.000000
743,-740.000000,-66.000000
744,-740.000000,-64.000000
745,-760.000000,-66.000000
746,-720.000000,-64.000000
747,-720.000000,-62.000000
748,-760.000000,-62.000000
749,-720.000000,-58.000000
750,-740.000000,-60.000000
751,-740.000000,-56.000000
752,-740.000000,-60.000000
753,-720.000000,-58.000000
754,-740.000000,-56.000000
755,-740.000000,-56.000000
756,-740.000000,-60.000000
757,-720.000000,-54.000000
758,-700.000000,-58.000000
759,-700.000000,-54.000000
