lab2_frequencies/7Hz.csv

Channel              :,CH1,CH2
Frequency            :,  ?,  ?
Period               :,  ?,  ?
PK-PK                :,1.600V,270.0mV
Probe attenuation    :,1X,1X
Voltage per ADC value:,1.250000mV,0.125000mV
Time interval        :,200.00000uS,200.00000uS

index,CH1_Voltage(mV),CH2_Voltage(mV)
1,340.000000,86.000000
2,340.000000,86.000000
3,340.000000,86.000000
4,340.000000,86.000000
5,340.000000,86.000000
6,320.000000,88.000000
7,340.000000,86.000000
8,340.000000,90.000000
9,340.000000,88.000000
10,320.000000,82.000000
11,320.000000,90.000000
12,340.000000,94.000000
13,360.000000,90.000000
14,340.000000,88.000000
15,360.000000,90.000000
16,340.000000,90.000000
17,360.000000,92.000000
18,360.000000,92.000000
19,360.000000,90.000000
20,360.000000,92.000000
21,380.000000,92.000000
22,380.000000,94.000000
23,360.000000,92.000000
24,380.000000,94.000000
25,380.000000,94.000000
26,380.000000,94.000000
27,400.000000,94.000000
28,400.000000,94.000000
29,400.000000,92.000000
30,440.000000,96.000000
31,400.000000,96.000000
32,440.000000,98.000000
33,420.000000,94.000000
34,440.000000,96.000000
35,460.000000,100.000000
36,480.000000,96.000000
37,460.000000,98.000000
38,480.000000,98.000000
39,480.000000,98.000000
40,500.000000,98.000000
41,500.000000,98.000000
42,480.000000,96.000000
43,520.000000,98.000000
44,500.000000,96.000000
45,520.000000,98.000000
46,520.000000,100.000000
47,520.000000,100.000000
48,520.000000,98.000000
49,500.000000,98.000000
50,500.000000,100.000000
51,520.000000,100.000000
52,540.000000,76.000000
53,520.000000,98.000000
54,520.000000,98.000000
55,520.000000,100.000000
56,520.000000,100.000000
57,520.000000,100.000000
58,520.000000,98.000000
59,520.000000,100.000000
60,540.000000,102.000000
61,520.000000,100.000000
62,540.000000,106.000000
63,540.000000,102.000000
64,520.000000,100.000000
65,540.000000,100.000000
66,520.000000,100.000000
67,520.000000,100.000000
68,540.000000,100.000000
69,520.000000,102.000000
70,520.000000,102.000000
71,500.000000,100.000000
72,520.000000,100.000000
73,540.000000,100.000000
74,540.000000,100.000000
75,540.000000,98.000000
76,540.000000,102.000000
77,540.000000,98.000000
78,540.000000,100.000000
79,560.000000,104.000000
80,560.000000,100.000000
81,560.000000,100.000000
82,580.000000,100.000000
83,560.000000,102.000000
84,600.000000,100.000000
85,600.000000,98.000000
86,580.000000,100.000000
87,600.000000,98.000000
88,640.000000,100.000000
89,620.000000,100.000000
90,640.000000,100.000000
91,620.000000,100.000000
92,620.000000,98.000000
93,620.000000,98.000000
94,640.000000,98.000000
95,640.000000,98.000000
96,640.000000,98.000000
97,620.000000,98.000000
98,600.000000,96.000000
99,600.000000,100.000000
100,600.000000,98.000000
101,620.000000,98.000000
102,600.000000,98.000000
103,580.000000,98.000000
104,600.000000,96.000000
105,600.000000,98.000000
106,580.000000,96.000000
107,600.000000,98.000000
108,560.000000,96.000000
109,580.000000,96.000000
110,580.000000,96.000000
111,580.000000,96.000000
112,560.000000,96.000000
113,560.000000,96.000000
114,580.000000,94.000000
115,580.000000,94.000000
116,580.000000,94.000000
117,580.000000,94.000000
118,560.000000,92.000000
119,580.000000,86.000000
120,560.000000,94.000000
121,560.000000,94.000000
122,540.000000,94.000000
123,560.000000,92.000000
124,560.000000,92.000000
125,540.000000,90.000000
126,560.000000,90.000000
127,560.000000,92.000000
128,560.000000,92.000000
129,540.000000,92.000000
130,580.000000,90.000000
131,580.000000,88.000000
132,580.000000,90.000000
133,560.000000,88.000000
134,580.000000,88.000000
135,580.000000,88.000000
136,560.000000,86.000000
137,600.000000,86.000000
138,580.000000,86.000000
139,600.000000,86.000000
140,580.000000,86.000000
141,600.000000,86.000000
142,580.000000,94.000000
143,600.000000,86.000000
144,580.000000,80.000000
145,580.000000,84.000000
146,600.000000,80.000000
147,620.000000,84.000000
148,580.000000,80.000000
149,600.000000,84.000000
150,580.000000,82.000000
151,580.000000,82.000000
152,580.000000,82.000000
153,540.000000,80.000000
154,580.000000,78.000000
155,560.000000,78.000000
156,560.000000,80.000000
157,580.000000,78.000000
158,560.000000,78.000000
159,560.000000,78.000000
160,560.000000,76.000000
161,540.000000,78.000000
162,560.000000,76.000000
163,540.000000,76.000000
164,520.000000,76.000000
165,520.000000,76.000000
166,520.000000,74.000000
167,520.000000,78.000000
168,500.000000,74.000000
169,520.000000,72.000000
170,500.000000,72.000000
171,500.000000,72.000000
172,500.000000,70.000000
173,480.000000,72.000000
174,460.000000,70.000000
175,480.000000,68.000000
176,500.000000,68.000000
177,480.000000,68.000000
178,480.000000,66.000000
179,500.000000,68.000000
180,500.000000,66.000000
181,480.000000,66.000000
182,500.000000,64.000000
183,500.000000,64.000000
184,500.000000,64.000000
185,500.000000,62.000000
186,520.000000,60.000000
187,520.000000,62.000000
188,500.000000,64.000000
189,540.000000,62.000000
190,520.000000,56.000000
191,520.000000,58.000000
192,520.000000,66.000000
193,500.000000,58.000000
194,500.000000,58.000000
195,480.000000,58.000000
196,480.000000,56.000000
197,480.000000,54.000000
198,460.000000,54.000000
199,460.000000,54.000000
200,500.000000,52.000000
201,460.000000,52.000000
202,440.000000,52.000000
203,440.000000,50.000000
204,460.000000,50.000000
205,420.000000,50.000000
206,420.000000,48.000000
207,420.000000,48.000000
208,420.000000,48.000000
209,400.000000,22.000000
210,400.000000,48.000000
211,380.000000,46.000000
212,360.000000,46.000000
213,380.000000,48.000000
214,360.000000,42.000000
215,360.000000,42.000000
216,340.000000,42.000000
217,340.000000,42.000000
218,320.000000,42.000000
219,320.000000,40.000000
220,320.000000,38.000000
221,300.000000,38.000000
222,320.000000,38.000000
223,300.000000,38.000000
224,280.000000,36.000000
225,300.000000,34.000000
226,300.000000,34.000000
227,300.000000,36.000000
228,280.000000,32.000000
229,300.000000,32.000000
230,260.000000,32.000000
231,280.000000,30.000000
232,280.000000,22.000000
233,280.000000,30.000000
234,300.000000,36.000000
235,280.000000,28.000000
236,280.000000,28.000000
237,260.000000,26.000000
238,280.000000,28.000000
239,260.000000,26.000000
240,260.000000,24.000000
241,280.000000,22.000000
242,260.000000,20.000000
243,280.000000,22.000000
244,280.000000,20.000000
245,280.000000,20.000000
246,280.000000,18.000000
247,260.000000,16.000000
248,220.000000,18.000000
249,240.000000,16.000000
250,240.000000,16.000000
251,220.000000,16.000000
252,200.000000,12.000000
253,180.000000,12.000000
254,180.000000,12.000000
255,180.000000,6.000000
256,180.000000,10.000000
257,160.000000,10.000000
258,180.000000,8.000000
259,160.000000,4.000000
260,140.000000,8.000000
261,140.000000,6.000000
262,160.000000,6.000000
263,160.000000,4.000000
264,140.000000,4.000000
265,140.000000,2.000000
266,100.000000,2.000000
267,100.000000,0.000000
268,80.000000,-2.000000
269,60.000000,0.000000
270,80.000000,-4.000000
271,40.000000,-2.000000
272,60.000000,-4.000000
273,40.000000,-6.000000
274,40.000000,-6.000000
275,20.000000,-8.000000
276,20.000000,14.000000
277,0.000000,-10.000000
278,20.000000,-8.000000
279,0.000000,-10.000000
280,20.000000,-12.000000
281,40.000000,-14.000000
282,20.000000,-16.000000
283,20.000000,-14.000000
284,20.000000,-12.000000
285,20.000000,-14.000000
286,0.000000,-18.000000
287,20.000000,-16.000000
288,0.000000,-18.000000
289,0.000000,-18.000000
290,20.000000,-20.000000
291,20.000000,-20.000000
292,20.000000,-20.000000
293,20.000000,-22.000000
294,20.000000,-22.000000
295,0.000000,-24.000000
296,-20.000000,-26.000000
297,-40.000000,-26.000000
298,-40.000000,-26.000000
299,-40.000000,-18.000000
300,-60.000000,-28.000000
301,-60.000000,-26.000000
302,-60.000000,-30.000000
303,-100.000000,-30.000000
304,-80.000000,-34.000000
305,-80.000000,-34.000000
306,-100.000000,-34.000000
307,-100.000000,-34.000000
308,-120.000000,-36.000000
309,-140.000000,-36.000000
310,-160.000000,-38.000000
311,-140.000000,-40.000000
312,-160.000000,-40.000000
313,-160.000000,-38.000000
314,-160.000000,-42.000000
315,-200.000000,-40.000000
316,-200.000000,-44.000000
317,-240.000000,-44.000000
318,-220.000000,-46.000000
319,-240.000000,-46.000000
320,-240.000000,-46.000000
321,-260.000000,-48.000000
322,-260.000000,-44.000000
323,-280.000000,-48.000000
324,-300.000000,-38.000000
325,-280.000000,-50.000000
326,-280.000000,-58.000000
327,-300.000000,-52.000000
328,-320.000000,-54.000000
329,-320.000000,-54.000000
330,-320.000000,-56.000000
331,-320.000000,-58.000000
332,-320.000000,-58.000000
333,-340.000000,-58.000000
334,-320.000000,-60.000000
335,-340.000000,-58.000000
336,-340.000000,-60.000000
337,-320.000000,-60.000000
338,-320.000000,-62.000000
339,-300.000000,-62.000000
340,-320.000000,-62.000000
341,-340.000000,-66.000000
342,-320.000000,-66.000000
343,-320.000000,-60.000000
344,-320.000000,-68.000000
345,-360.000000,-68.000000
346,-360.000000,-68.000000
347,-380.000000,-76.000000
348,-380.000000,-72.000000
349,-360.000000,-64.000000
350,-360.000000,-72.000000
351,-360.000000,-72.000000
352,-380.000000,-72.000000
353,-400.000000,-72.000000
354,-400.000000,-76.000000
355,-400.000000,-76.000000
356,-420.000000,-76.000000
357,-420.000000,-78.000000
358,-440.000000,-78.000000
359,-440.000000,-78.000000
360,-440.000000,-80.000000
361,-460.000000,-80.000000
362,-460.000000,-82.000000
363,-480.000000,-82.000000
364,-460.000000,-82.000000
365,-500.000000,-84.000000
366,-480.000000,-90.000000
367,-520.000000,-84.000000
368,-520.000000,-82.000000
369,-560.000000,-86.000000
370,-560.000000,-88.000000
371,-540.000000,-88.000000
372,-540.000000,-88.000000
373,-580.000000,-90.000000
374,-580.000000,-90.000000
375,-560.000000,-90.000000
376,-580.000000,-90.000000
377,-580.000000,-92.000000
378,-580.000000,-94.000000
379,-580.000000,-92.000000
380,-600.000000,-94.000000
381,-580.000000,-94.000000
382,-580.000000,-96.000000
383,-600.000000,-96.000000
384,-580.000000,-94.000000
385,-580.000000,-96.000000
386,-560.000000,-98.000000
387,-580.000000,-98.000000
388,-600.000000,-100.000000
389,-580.000000,-98.000000
390,-600.000000,-100.000000
391,-560.000000,-106.000000
392,-580.000000,-100.000000
393,-600.000000,-102.000000
394,-600.000000,-104.000000
395,-620.000000,-104.000000
396,-640.000000,-102.000000
397,-640.000000,-102.000000
398,-640.000000,-104.000000
399,-620.000000,-104.000000
400,-660.000000,-106.000000
401,-660.000000,-106.000000
402,-680.000000,-106.000000
403,-660.000000,-106.000000
404,-700.000000,-108.000000
405,-680.000000,-106.000000
406,-700.000000,-108.000000
407,-720.000000,-108.000000
408,-720.000000,-108.000000
409,-740.000000,-110.000000
410,-720.000000,-104.000000
411,-720.000000,-110.000000
412,-740.000000,-114.000000
413,-740.000000,-112.000000
414,-760.000000,-108.000000
415,-740.000000,-114.000000
416,-760.000000,-120.000000
417,-780.000000,-112.000000
418,-780.000000,-112.000000
419,-800.000000,-114.000000
420,-780.000000,-114.000000
421,-800.000000,-116.000000
422,-780.000000,-114.000000
423,-820.000000,-116.000000
424,-820.000000,-116.000000
425,-820.000000,-114.000000
426,-820.000000,-116.000000
427,-840.000000,-114.000000
428,-820.000000,-116.000000
429,-820.000000,-116.000000
430,-820.000000,-116.000000
431,-820.000000,-116.000000
432,-840.000000,-118.000000
433,-840.000000,-86.000000
434,-840.000000,-118.000000
435,-820.000000,-114.000000
436,-820.000000,-118.000000
437,-820.000000,-120.000000
438,-820.000000,-118.000000
439,-820.000000,-120.000000
440,-800.000000,-118.000000
441,-800.000000,-118.000000
442,-800.000000,-118.000000
443,-780.000000,-120.000000
444,-820.000000,-118.000000
445,-820.000000,-120.000000
446,-780.000000,-118.000000
447,-800.000000,-118.000000
448,-820.000000,-118.000000
449,-820.000000,-118.000000
450,-820.000000,-118.000000
451,-800.000000,-118.000000
452,-820.000000,-118.000000
453,-820.000000,-118.000000
454,-800.000000,-116.000000
455,-800.000000,-118.000000
456,-800.000000,-100.000000
457,-820.000000,-118.000000
458,-820.000000,-116.000000
459,-840.000000,-116.000000
460,-800.000000,-114.000000
461,-840.000000,-118.000000
462,-840.000000,-118.000000
463,-860.000000,-118.000000
464,-840.000000,-116.000000
465,-860.000000,-116.000000
466,-880.000000,-114.000000
467,-860.000000,-118.000000
468,-880.000000,-116.000000
469,-900.000000,-114.000000
470,-880.000000,-116.000000
471,-880.000000,-114.000000
472,-900.000000,-114.000000
473,-880.000000,-116.000000
474,-880.000000,-116.000000
475,-900.000000,-112.000000
476,-900.000000,-114.000000
477,-880.000000,-112.000000
478,-880.000000,-114.000000
479,-880.000000,-114.000000
480,-880.000000,-112.000000
481,-860.000000,-110.000000
482,-860.000000,-112.000000
483,-840.000000,-110.000000
484,-840.000000,-112.000000
485,-860.000000,-108.000000
486,-820.000000,-110.000000
487,-840.000000,-108.000000
488,-840.000000,-108.000000
489,-820.000000,-108.000000
490,-820.000000,-106.000000
491,-820.000000,-108.000000
492,-840.000000,-108.000000
493,-800.000000,-106.000000
494,-800.000000,-106.000000
495,-800.000000,-104.000000
496,-800.000000,-104.000000
497,-820.000000,-104.000000
498,-820.000000,-104.000000
499,-820.000000,-102.000000
500,-800.000000,-104.000000
501,-820.000000,-102.000000
502,-800.000000,-102.000000
503,-820.000000,-100.000000
504,-820.000000,-104.000000
505,-800.000000,-100.000000
506,-820.000000,-94.000000
507,-820.000000,-98.000000
508,-820.000000,-98.000000
509,-840.000000,-96.000000
510,-820.000000,-96.000000
511,-800.000000,-94.000000
512,-840.000000,-94.000000
513,-860.000000,-94.000000
514,-840.000000,-94.000000
515,-840.000000,-92.000000
516,-840.000000,-90.000000
517,-860.000000,-90.000000
518,-860.000000,-90.000000
519,-840.000000,-90.000000
520,-860.000000,-88.000000
521,-840.000000,-88.000000
522,-820.000000,-88.000000
523,-800.000000,-104.000000
524,-820.000000,-82.000000
525,-820.000000,-84.000000
526,-820.000000,-84.000000
527,-800.000000,-82.000000
528,-820.000000,-82.000000
529,-800.000000,-78.000000
530,-800.000000,-80.000000
531,-780.000000,-78.000000
532,-800.000000,-76.000000
533,-820.000000,-76.000000
534,-780.000000,-76.000000
535,-780.000000,-74.000000
536,-760.000000,-74.000000
537,-740.000000,-72.000000
538,-720.000000,-72.000000
539,-740.000000,-70.000000
540,-740.000000,-72.000000
541,-700.000000,-70.000000
542,-680.000000,-68.000000
543,-700.000000,-68.000000
544,-700.000000,-66.000000
545,-700.000000,-66.000000
546,-680.000000,-58.000000
547,-680.000000,-62.000000
548,-680.000000,-68.000000
549,-680.000000,-62.000000
550,-680.000000,-62.000000
551,-660.000000,-60.000000
552,-680.000000,-60.000000
553,-660.000000,-58.000000
554,-640.000000,-56.000000
555,-660.000000,-56.000000
556,-680.000000,-54.000000
557,-640.000000,-54.000000
558,-640.000000,-54.000000
559,-640.000000,-52.000000
560,-640.000000,-52.000000
561,-620.000000,-50.000000
562,-640.000000,-46.000000
563,-620.000000,-46.000000
564,-620.000000,-46.000000
565,-620.000000,-46.000000
566,-600.000000,-44.000000
567,-620.000000,-44.000000
568,-620.000000,-42.000000
569,-620.000000,-38.000000
570,-620.000000,-38.000000
571,-640.000000,-26.000000
572,-600.000000,-38.000000
573,-600.000000,-42.000000
574,-600.000000,-36.000000
575,-580.000000,-34.000000
576,-600.000000,-34.000000
577,-580.000000,-32.000000
578,-580.000000,-32.000000
579,-540.000000,-30.000000
580,-520.000000,-28.000000
581,-520.000000,-30.000000
582,-500.000000,-26.000000
583,-500.000000,-26.000000
584,-480.000000,-26.000000
585,-460.000000,-22.000000
586,-480.000000,-22.000000
587,-460.000000,-20.000000
588,-460.000000,-18.000000
589,-440.000000,-18.000000
590,-440.000000,-8.000000
591,-440.000000,-16.000000
592,-400.000000,-12.000000
593,-420.000000,-14.000000
594,-400.000000,-14.000000
595,-420.000000,-14.000000
596,-400.000000,-12.000000
597,-400.000000,-8.000000
598,-380.000000,-10.000000
599,-400.000000,-6.000000
600,-380.000000,-8.000000
601,-360.000000,-6.000000
602,-380.000000,-6.000000
603,-360.000000,-4.000000
604,-400.000000,-2.000000
605,-340.000000,-2.000000
606,-360.000000,0.000000
607,-360.000000,2.000000
608,-360.000000,2.000000
609,-360.000000,4.000000
610,-360.000000,2.000000
611,-340.000000,4.000000
612,-320.000000,4.000000
613,-360.000000,20.000000
614,-340.000000,8.000000
615,-320.000000,10.000000
616,-340.000000,8.000000
617,-320.000000,14.000000
618,-340.000000,10.000000
619,-300.000000,10.000000
620,-320.000000,14.000000
621,-300.000000,12.000000
622,-300.000000,16.000000
623,-300.000000,18.000000
624,-320.000000,16.000000
625,-260.000000,16.000000
626,-240.000000,18.000000
627,-240.000000,22.000000
628,-280.000000,20.000000
629,-240.000000,22.000000
630,-260.000000,22.000000
631,-240.000000,24.000000
632,-240.000000,24.000000
633,-200.000000,26.000000
634,-180.000000,28.000000
635,-200.000000,26.000000
636,-160.000000,24.000000
637,-180.000000,28.000000
638,-120.000000,24.000000
639,-140.000000,30.000000
640,-120.000000,36.000000
641,-120.000000,32.000000
642,-120.000000,38.000000
643,-120.000000,36.000000
644,-100.000000,36.000000
645,-80.000000,36.000000
646,-80.000000,38.000000
647,-100.000000,38.000000
648,-60.000000,38.000000
649,-60.000000,40.000000
650,-40.000000,40.000000
651,-60.000000,42.000000
652,-40.000000,42.000000
653,-20.000000,44.000000
654,-40.000000,44.000000
655,-40.000000,46.000000
656,-20.000000,44.000000
657,-20.000000,46.000000
658,20.000000,46.000000
659,0.000000,44.000000
660,0.000000,50.000000
661,0.000000,58.000000
662,20.000000,52.000000
663,20.000000,44.000000
664,20.000000,52.000000
665,20.000000,54.000000
666,20.000000,54.000000
667,20.000000,56.000000
668,-20.000000,56.000000
669,20.000000,56.000000
670,40.000000,56.000000
671,40.000000,58.000000
672,60.000000,58.000000
673,40.000000,62.000000
674,20.000000,60.000000
675,20.000000,60.000000
676,40.000000,60.000000
677,60.000000,62.000000
678,80.000000,62.000000
679,80.000000,62.000000
680,120.000000,86.000000
681,120.000000,66.000000
682,120.000000,66.000000
683,140.000000,68.000000
684,160.000000,68.000000
685,180.000000,68.000000
686,180.000000,68.000000
687,200.000000,70.000000
688,220.000000,70.000000
689,220.000000,70.000000
690,240.000000,72.000000
691,240.000000,74.000000
692,240.000000,72.000000
693,220.000000,72.000000
694,220.000000,72.000000
695,240.000000,74.000000
696,240.000000,74.000000
697,240.000000,74.000000
698,260.000000,76.000000
699,240.000000,76.000000
700,240.000000,76.000000
701,260.000000,76.000000
702,260.000000,80.000000
703,300.000000,82.000000
704,260.000000,80.000000
705,280.000000,76.000000
706,260.000000,78.000000
707,260.000000,78.000000
708,280.000000,80.000000
709,280.000000,78.000000
710,260.000000,82.000000
711,280.000000,82.000000
712,300.000000,86.000000
713,280.000000,84.000000
714,280.000000,84.000000
715,280.000000,84.000000
716,300.000000,84.000000
717,300.000000,86.000000
718,280.000000,86.000000
719,300.000000,86.000000
720,300.000000,88.000000
721,300.000000,88.000000
722,340.000000,88.000000
723,320.000000,88.000000
724,300.000000,90.000000
725,300.000000,88.000000
726,320.000000,92.000000
727,340.000000,90.000000
728,360.000000,100.000000
729,340.000000,90.000000
730,340.000000,84.000000
731,360.000000,92.000000
732,380.000000,90.000000
733,360.000000,92.000000
734,400.000000,94.000000
735,400.000000,92.000000
736,400.000000,94.000000
737,420.000000,94.000000
738,440.000000,92.000000
739,460.000000,94.000000
740,420.000000,96.000000
741,440.000000,96.000000
742,460.000000,96.000000
743,440.000000,96.000000
744,460.000000,96.000000
745,460.000000,96.000000
746,480.000000,94.000000
747,460.000000,92.000000
748,480.000000,94.000000
749,480.000000,94.000000
750,480.000000,96.000000
751,480.000000,94.000000
752,480.000000,98.000000
753,500.000000,102.000000
754,480.000000,98.000000
755,480.000000,98.000000
756,540.000000,98.000000
757,500.000000,98.000000
758,500.000000,98.000000
759,500.000000,96.000000
760,520.000000,98.000000
761,520.000000,98.000000
762,520.000000,100.000000
763,480.000000,100.000000
