lab2_frequencies/80Hz.csv

Channel              :,CH1,CH2
Frequency            :,79.94Hz,79.94Hz
Period               :,12.51ms,12.51ms
PK-PK                :,1.700V,832.0mV
Probe attenuation    :,1X,1X
Voltage per ADC value:,1.250000mV,0.500000mV
Time interval        :,20.00000uS,20.00000uS

index,CH1_Voltage(mV),CH2_Voltage(mV)
1,-300.000000,-256.000000
2,-300.000000,-256.000000
3,-300.000000,-264.000000
4,-300.000000,-264.000000
5,-320.000000,-264.000000
6,-320.000000,-272.000000
7,-340.000000,-272.000000
8,-320.000000,-272.000000
9,-340.000000,-272.000000
10,-360.000000,-280.000000
11,-360.000000,-280.000000
12,-360.000000,-288.000000
13,-380.000000,-288.000000
14,-380.000000,-288.000000
15,-380.000000,-288.000000
16,-400.000000,-296.000000
17,-420.000000,-272.000000
18,-420.000000,-296.000000
19,-420.000000,-304.000000
20,-440.000000,-304.000000
21,-440.000000,-304.000000
22,-460.000000,-304.000000
23,-460.000000,-312.000000
24,-460.000000,-320.000000
25,-460.000000,-312.000000
26,-500.000000,-320.000000
27,-500.000000,-320.000000
28,-480.000000,-320.000000
29,-500.000000,-328.000000
30,-500.000000,-336.000000
31,-520.000000,-328.000000
32,-520.000000,-336.000000
33,-540.000000,-336.000000
34,-540.000000,-344.000000
35,-540.000000,-336.000000
36,-540.000000,-344.000000
37,-560.000000,-344.000000
38,-580.000000,-352.000000
39,-580.000000,-352.000000
40,-580.000000,-352.000000
41,-580.000000,-352.000000
42,-600.000000,-360.000000
43,-600.000000,-352.000000
44,-620.000000,-352.000000
45,-620.000000,-360.000000
46,-640.000000,-360.000000
47,-640.000000,-360.000000
48,-620.000000,-368.000000
49,-640.000000,-360.000000
50,-660.000000,-360.000000
51,-660.000000,-368.000000
52,-660.000000,-368.000000
53,-660.000000,-376.000000
54,-680.000000,-376.000000
55,-680.000000,-376.000000
56,-700.000000,-376.000000
57,-700.000000,-376.000000
58,-700.000000,-376.000000
59,-720.000000,-376.000000
60,-700.000000,-376.000000
61,-720.000000,-376.000000
62,-720.000000,-376.000000
63,-740.000000,-384.000000
64,-740.000000,-384.000000
65,-740.000000,-384.000000
66,-760.000000,-384.000000
67,-760.000000,-384.000000
68,-740.000000,-384.000000
69,-780.000000,-392.000000
70,-780.000000,-392.000000
71,-780.000000,-400.000000
72,-780.000000,-392.000000
73,-780.000000,-392.000000
74,-800.000000,-384.000000
75,-800.000000,-392.000000
76,-820.000000,-392.000000
77,-820.000000,-392.000000
78,-820.000000,-384.000000
79,-840.000000,-392.000000
80,-820.000000,-392.000000
81,-840.000000,-392.000000
82,-840.000000,-392.000000
83,-860.000000,-400.000000
84,-860.000000,-392.000000
85,-840.000000,-392.000000
86,-860.000000,-392.000000
87,-860.000000,-392.000000
88,-880.000000,-392.000000
89,-880.000000,-392.000000
90,-880.000000,-392.000000
91,-880.000000,-392.000000
92,-880.000000,-392.000000
93,-900.000000,-392.000000
94,-900.000000,-392.000000
95,-900.000000,-392.000000
96,-900.000000,-392.000000
97,-900.000000,-392.000000
98,-920.000000,-392.000000
99,-900.000000,-392.000000
100,-920.000000,-392.000000
101,-900.000000,-392.000000
102,-920.000000,-392.000000
103,-940.000000,-384.000000
104,-920.000000,-392.000000
105,-940.000000,-384.000000
106,-940.000000,-384.000000
107,-940.000000,-384.000000
108,-960.000000,-384.000000
109,-940.000000,-384.000000
110,-940.000000,-384.000000
111,-940.000000,-376.000000
112,-960.000000,-376.000000
113,-960.000000,-376.000000
114,-960.000000,-376.000000
115,-960.000000,-376.000000
116,-960.000000,-368.000000
117,-960.000000,-376.000000
118,-980.000000,-368.000000
119,-980.000000,-376.000000
120,-980.000000,-368.000000
121,-980.000000,-368.000000
122,-980.000000,-360.000000
123,-960.000000,-360.000000
124,-1000.000000,-360.000000
125,-980.000000,-368.000000
126,-980.000000,-360.000000
127,-1000.000000,-352.000000
128,-980.000000,-352.000000
129,-1000.000000,-352.000000
130,-980.000000,-352.000000
131,-1000.000000,-352.000000
132,-1000.000000,-352.000000
133,-1000.000000,-344.000000
134,-980.000000,-344.000000
135,-1000.000000,-344.000000
136,-1000.000000,-344.000000
137,-1000.000000,-336.000000
138,-1000.000000,-336.000000
139,-1000.000000,-304.000000
140,-1000.000000,-336.000000
141,-1020.000000,-320.000000
142,-1000.000000,-328.000000
143,-1020.000000,-328.000000
144,-1020.000000,-320.000000
145,-1020.000000,-320.000000
146,-1020.000000,-320.000000
147,-1020.000000,-312.000000
148,-1000.000000,-312.000000
149,-1020.000000,-312.000000
150,-1000.000000,-312.000000
151,-1000.000000,-312.000000
152,-1000.000000,-304.000000
153,-1000.000000,-304.000000
154,-1000.000000,-304.000000
155,-1020.000000,-296.000000
156,-1000.000000,-296.000000
157,-980.000000,-288.000000
158,-1000.000000,-288.000000
159,-1000.000000,-288.000000
160,-980.000000,-280.000000
161,-1000.000000,-280.000000
162,-1000.000000,-280.000000
163,-980.000000,-280.000000
164,-1000.000000,-272.000000
165,-1000.000000,-264.000000
166,-980.000000,-264.000000
167,-980.000000,-264.000000
168,-980.000000,-256.000000
169,-960.000000,-256.000000
170,-980.000000,-256.000000
171,-980.000000,-256.000000
172,-960.000000,-248.000000
173,-980.000000,-248.000000
174,-980.000000,-248.000000
175,-980.000000,-232.000000
176,-960.000000,-232.000000
177,-960.000000,-232.000000
178,-960.000000,-224.000000
179,-960.000000,-224.000000
180,-960.000000,-224.000000
181,-980.000000,-224.000000
182,-960.000000,-216.000000
183,-940.000000,-216.000000
184,-960.000000,-216.000000
185,-940.000000,-208.000000
186,-940.000000,-208.000000
187,-960.000000,-200.000000
188,-920.000000,-200.000000
189,-920.000000,-192.000000
190,-920.000000,-192.000000
191,-920.000000,-192.000000
192,-920.000000,-184.000000
193,-900.000000,-184.000000
194,-920.000000,-176.000000
195,-920.000000,-176.000000
196,-900.000000,-176.000000
197,-900.000000,-176.000000
198,-900.000000,-168.000000
199,-900.000000,-168.000000
200,-880.000000,-152.000000
201,-880.000000,-152.000000
202,-880.000000,-152.000000
203,-880.000000,-144.000000
204,-880.000000,-144.000000
205,-880.000000,-144.000000
206,-860.000000,-136.000000
207,-860.000000,-128.000000
208,-840.000000,-128.000000
209,-860.000000,-128.000000
210,-840.000000,-120.000000
211,-840.000000,-120.000000
212,-820.000000,-112.000000
213,-840.000000,-120.000000
214,-820.000000,-104.000000
215,-800.000000,-104.000000
216,-840.000000,-104.000000
217,-800.000000,-96.000000
218,-800.000000,-96.000000
219,-800.000000,-88.000000
220,-780.000000,-88.000000
221,-780.000000,-80.000000
222,-780.000000,-80.000000
223,-760.000000,-72.000000
224,-760.000000,-72.000000
225,-760.000000,-72.000000
226,-760.000000,-64.000000
227,-740.000000,-56.000000
228,-740.000000,-64.000000
229,-740.000000,-56.000000
230,-740.000000,-48.000000
231,-720.000000,-48.000000
232,-720.000000,-48.000000
233,-700.000000,-48.000000
234,-700.000000,-40.000000
235,-680.000000,-40.000000
236,-680.000000,-32.000000
237,-680.000000,-24.000000
238,-680.000000,-24.000000
239,-660.000000,-24.000000
240,-640.000000,-16.000000
241,-640.000000,-16.000000
242,-640.000000,-16.000000
243,-640.000000,-8.000000
244,-640.000000,-8.000000
245,-620.000000,0.000000
246,-620.000000,8.000000
247,-620.000000,0.000000
248,-600.000000,8.000000
249,-600.000000,16.000000
250,-600.000000,16.000000
251,-580.000000,24.000000
252,-580.000000,24.000000
253,-580.000000,32.000000
254,-560.000000,32.000000
255,-560.000000,32.000000
256,-560.000000,40.000000
257,-540.000000,40.000000
258,-520.000000,40.000000
259,-540.000000,48.000000
260,-520.000000,48.000000
261,-500.000000,56.000000
262,-520.000000,64.000000
263,-480.000000,64.000000
264,-480.000000,72.000000
265,-480.000000,64.000000
266,-460.000000,80.000000
267,-460.000000,72.000000
268,-420.000000,88.000000
269,-440.000000,88.000000
270,-440.000000,88.000000
271,-420.000000,88.000000
272,-420.000000,96.000000
273,-420.000000,104.000000
274,-400.000000,104.000000
275,-400.000000,112.000000
276,-380.000000,112.000000
277,-380.000000,112.000000
278,-360.000000,120.000000
279,-360.000000,128.000000
280,-360.000000,136.000000
281,-360.000000,128.000000
282,-340.000000,136.000000
283,-340.000000,144.000000
284,-320.000000,152.000000
285,-320.000000,144.000000
286,-320.000000,152.000000
287,-300.000000,152.000000
288,-300.000000,152.000000
289,-280.000000,168.000000
290,-260.000000,176.000000
291,-280.000000,176.000000
292,-240.000000,176.000000
293,-240.000000,176.000000
294,-220.000000,176.000000
295,-240.000000,184.000000
296,-240.000000,192.000000
297,-220.000000,192.000000
298,-200.000000,192.000000
299,-200.000000,200.000000
300,-200.000000,200.000000
301,-180.000000,200.000000
302,-160.000000,208.000000
303,-160.000000,208.000000
304,-160.000000,216.000000
305,-140.000000,216.000000
306,-140.000000,224.000000
307,-140.000000,224.000000
308,-100.000000,224.000000
309,-100.000000,232.000000
310,-100.000000,232.000000
311,-80.000000,232.000000
312,-100.000000,240.000000
313,-80.000000,240.000000
314,-80.000000,248.000000
315,-60.000000,248.000000
316,-60.000000,256.000000
317,-60.000000,256.000000
318,-40.000000,264.000000
319,-40.000000,264.000000
320,-20.000000,264.000000
321,-20.000000,272.000000
322,0.000000,264.000000
323,-20.000000,272.000000
324,0.000000,280.000000
325,40.000000,280.000000
326,20.000000,288.000000
327,40.000000,280.000000
328,60.000000,272.000000
329,60.000000,288.000000
330,80.000000,288.000000
331,80.000000,296.000000
332,80.000000,296.000000
333,100.000000,296.000000
334,120.000000,304.000000
335,120.000000,304.000000
336,120.000000,304.000000
337,120.000000,304.000000
338,140.000000,312.000000
339,140.000000,312.000000
340,140.000000,312.000000
341,160.000000,320.000000
342,180.000000,320.000000
343,180.000000,320.000000
344,180.000000,328.000000
345,200.000000,328.000000
346,200.000000,328.000000
347,220.000000,328.000000
348,240.000000,336.000000
349,220.000000,328.000000
350,240.000000,336.000000
351,240.000000,344.000000
352,260.000000,344.000000
353,260.000000,344.000000
354,260.000000,344.000000
355,260.000000,344.000000
356,280.000000,360.000000
357,280.000000,352.000000
358,280.000000,352.000000
359,280.000000,360.000000
360,300.000000,352.000000
361,320.000000,360.000000
362,320.000000,360.000000
363,340.000000,360.000000
364,340.000000,360.000000
365,340.000000,368.000000
366,360.000000,368.000000
367,340.000000,368.000000
368,360.000000,368.000000
369,380.000000,384.000000
370,380.000000,368.000000
371,380.000000,376.000000
372,400.000000,368.000000
373,400.000000,376.000000
374,400.000000,376.000000
375,420.000000,376.000000
376,400.000000,384.000000
377,420.000000,376.000000
378,460.000000,376.000000
379,440.000000,384.000000
380,440.000000,384.000000
381,460.000000,384.000000
382,440.000000,384.000000
383,440.000000,352.000000
384,460.000000,384.000000
385,460.000000,384.000000
386,480.000000,384.000000
387,500.000000,384.000000
388,480.000000,384.000000
389,500.000000,392.000000
390,500.000000,384.000000
391,500.000000,384.000000
392,500.000000,384.000000
393,520.000000,384.000000
394,500.000000,384.000000
395,520.000000,392.000000
396,520.000000,384.000000
397,520.000000,384.000000
398,540.000000,384.000000
399,540.000000,384.000000
400,560.000000,392.000000
401,540.000000,384.000000
402,540.000000,384.000000
403,560.000000,384.000000
404,560.000000,384.000000
405,580.000000,384.000000
406,580.000000,384.000000
407,580.000000,384.000000
408,580.000000,384.000000
409,580.000000,384.000000
410,580.000000,384.000000
411,580.000000,384.000000
412,580.000000,384.000000
413,600.000000,384.000000
414,600.000000,384.000000
415,600.000000,376.000000
416,600.000000,376.000000
417,620.000000,384.000000
418,600.000000,376.000000
419,600.000000,376.000000
420,600.000000,376.000000
421,640.000000,376.000000
422,620.000000,368.000000
423,620.000000,368.000000
424,620.000000,368.000000
425,620.000000,368.000000
426,620.000000,368.000000
427,640.000000,360.000000
428,620.000000,368.000000
429,640.000000,368.000000
430,640.000000,376.000000
431,620.000000,360.000000
432,660.000000,360.000000
433,660.000000,352.000000
434,640.000000,352.000000
435,640.000000,352.000000
436,640.000000,352.000000
437,660.000000,352.000000
438,660.000000,344.000000
439,660.000000,344.000000
440,660.000000,344.000000
441,660.000000,344.000000
442,660.000000,336.000000
443,660.000000,344.000000
444,660.000000,312.000000
445,680.000000,336.000000
446,660.000000,328.000000
447,640.000000,328.000000
448,680.000000,328.000000
449,660.000000,328.000000
450,660.000000,320.000000
451,660.000000,320.000000
452,680.000000,320.000000
453,680.000000,320.000000
454,660.000000,320.000000
455,660.000000,312.000000
456,660.000000,312.000000
457,660.000000,304.000000
458,660.000000,304.000000
459,660.000000,304.000000
460,660.000000,304.000000
461,680.000000,304.000000
462,660.000000,296.000000
463,660.000000,288.000000
464,680.000000,296.000000
465,660.000000,296.000000
466,660.000000,288.000000
467,660.000000,280.000000
468,660.000000,280.000000
469,640.000000,280.000000
470,680.000000,280.000000
471,660.000000,280.000000
472,660.000000,272.000000
473,660.000000,272.000000
474,660.000000,272.000000
475,660.000000,264.000000
476,660.000000,264.000000
477,640.000000,256.000000
478,640.000000,256.000000
479,640.000000,256.000000
480,640.000000,248.000000
481,640.000000,248.000000
482,640.000000,240.000000
483,640.000000,240.000000
484,640.000000,240.000000
485,620.000000,240.000000
486,620.000000,232.000000
487,620.000000,232.000000
488,640.000000,224.000000
489,620.000000,224.000000
490,600.000000,224.000000
491,620.000000,216.000000
492,600.000000,208.000000
493,620.000000,208.000000
494,600.000000,208.000000
495,600.000000,208.000000
496,600.000000,200.000000
497,600.000000,200.000000
498,600.000000,200.000000
499,600.000000,192.000000
500,580.000000,184.000000
501,580.000000,184.000000
502,580.000000,184.000000
503,560.000000,176.000000
504,580.000000,176.000000
505,560.000000,176.000000
506,560.000000,168.000000
507,560.000000,168.000000
508,560.000000,160.000000
509,560.000000,160.000000
510,540.000000,152.000000
511,540.000000,152.000000
512,540.000000,152.000000
513,540.000000,152.000000
514,520.000000,144.000000
515,520.000000,136.000000
516,500.000000,136.000000
517,520.000000,136.000000
518,520.000000,128.000000
519,500.000000,128.000000
520,500.000000,128.000000
521,500.000000,120.000000
522,480.000000,120.000000
523,480.000000,112.000000
524,480.000000,112.000000
525,460.000000,112.000000
526,460.000000,104.000000
527,460.000000,96.000000
528,460.000000,96.000000
529,460.000000,88.000000
530,440.000000,88.000000
531,440.000000,80.000000
532,420.000000,80.000000
533,420.000000,80.000000
534,420.000000,72.000000
535,420.000000,72.000000
536,420.000000,64.000000
537,400.000000,56.000000
538,400.000000,56.000000
539,380.000000,48.000000
540,380.000000,48.000000
541,380.000000,40.000000
542,380.000000,48.000000
543,360.000000,40.000000
544,360.000000,40.000000
545,360.000000,32.000000
546,340.000000,32.000000
547,340.000000,24.000000
548,320.000000,24.000000
549,320.000000,16.000000
550,320.000000,16.000000
551,300.000000,16.000000
552,320.000000,8.000000
553,280.000000,0.000000
554,280.000000,0.000000
555,280.000000,0.000000
556,260.000000,-8.000000
557,260.000000,-8.000000
558,260.000000,-8.000000
559,240.000000,-16.000000
560,260.000000,-16.000000
561,240.000000,-24.000000
562,240.000000,-32.000000
563,220.000000,-32.000000
564,220.000000,-32.000000
565,200.000000,-40.000000
566,200.000000,-24.000000
567,200.000000,-48.000000
568,200.000000,-48.000000
569,160.000000,-56.000000
570,180.000000,-64.000000
571,160.000000,-64.000000
572,160.000000,-72.000000
573,140.000000,-72.000000
574,140.000000,-80.000000
575,120.000000,-72.000000
576,120.000000,-80.000000
577,100.000000,-80.000000
578,100.000000,-88.000000
579,80.000000,-88.000000
580,100.000000,-96.000000
581,80.000000,-96.000000
582,80.000000,-104.000000
583,60.000000,-104.000000
584,40.000000,-104.000000
585,60.000000,-120.000000
586,20.000000,-120.000000
587,40.000000,-120.000000
588,40.000000,-128.000000
589,20.000000,-128.000000
590,20.000000,-136.000000
591,-20.000000,-128.000000
592,-20.000000,-144.000000
593,-20.000000,-144.000000
594,-20.000000,-144.000000
595,-40.000000,-152.000000
596,-40.000000,-152.000000
597,-40.000000,-160.000000
598,-60.000000,-160.000000
599,-80.000000,-160.000000
600,-80.000000,-152.000000
601,-80.000000,-168.000000
602,-100.000000,-176.000000
603,-100.000000,-176.000000
604,-100.000000,-176.000000
605,-120.000000,-184.000000
606,-120.000000,-184.000000
607,-140.000000,-192.000000
608,-140.000000,-192.000000
609,-160.000000,-192.000000
610,-160.000000,-200.000000
611,-180.000000,-200.000000
612,-180.000000,-208.000000
613,-200.000000,-208.000000
614,-200.000000,-216.000000
615,-200.000000,-224.000000
616,-220.000000,-224.000000
617,-220.000000,-224.000000
618,-220.000000,-224.000000
619,-240.000000,-224.000000
620,-240.000000,-232.000000
621,-260.000000,-232.000000
622,-260.000000,-240.000000
623,-260.000000,-248.000000
624,-280.000000,-248.000000
625,-300.000000,-248.000000
626,-300.000000,-248.000000
627,-320.000000,-240.000000
628,-300.000000,-256.000000
629,-320.000000,-264.000000
630,-340.000000,-264.000000
631,-340.000000,-272.000000
632,-360.000000,-272.000000
633,-340.000000,-264.000000
634,-380.000000,-280.000000
635,-380.000000,-280.000000
636,-380.000000,-280.000000
637,-380.000000,-280.000000
638,-400.000000,-288.000000
639,-400.000000,-288.000000
640,-420.000000,-296.000000
641,-420.000000,-296.000000
642,-420.000000,-296.000000
643,-440.000000,-304.000000
644,-440.000000,-304.000000
645,-440.000000,-304.000000
646,-460.000000,-304.000000
647,-460.000000,-312.000000
648,-460.000000,-312.000000
649,-480.000000,-320.000000
650,-480.000000,-320.000000
651,-500.000000,-320.000000
652,-500.000000,-328.000000
653,-500.000000,-320.000000
654,-500.000000,-328.000000
655,-540.000000,-328.000000
656,-520.000000,-336.000000
657,-520.000000,-336.000000
658,-540.000000,-336.000000
659,-540.000000,-336.000000
660,-540.000000,-344.000000
661,-580.000000,-352.000000
662,-580.000000,-344.000000
663,-580.000000,-344.000000
664,-580.000000,-344.000000
665,-600.000000,-352.000000
666,-600.000000,-352.000000
667,-600.000000,-352.000000
668,-600.000000,-360.000000
669,-620.000000,-352.000000
670,-640.000000,-360.000000
671,-620.000000,-360.000000
672,-640.000000,-360.000000
673,-640.000000,-368.000000
674,-660.000000,-368.000000
675,-660.000000,-368.000000
676,-680.000000,-368.000000
677,-660.000000,-368.000000
678,-680.000000,-368.000000
679,-700.000000,-368.000000
680,-700.000000,-368.000000
681,-700.000000,-368.000000
682,-720.000000,-376.000000
683,-720.000000,-376.000000
684,-740.000000,-376.000000
685,-720.000000,-376.000000
686,-740.000000,-376.000000
687,-740.000000,-384.000000
688,-740.000000,-368.000000
689,-740.000000,-384.000000
690,-760.000000,-384.000000
691,-780.000000,-384.000000
692,-780.000000,-392.000000
693,-760.000000,-392.000000
694,-780.000000,-384.000000
695,-780.000000,-384.000000
696,-800.000000,-384.000000
697,-800.000000,-392.000000
698,-820.000000,-392.000000
699,-780.000000,-392.000000
700,-820.000000,-392.000000
701,-820.000000,-392.000000
702,-820.000000,-392.000000
703,-820.000000,-392.000000
704,-840.000000,-392.000000
705,-840.000000,-384.000000
706,-840.000000,-392.000000
707,-840.000000,-392.000000
708,-860.000000,-400.000000
709,-860.000000,-392.000000
710,-860.000000,-400.000000
711,-880.000000,-392.000000
712,-880.000000,-392.000000
713,-880.000000,-392.000000
714,-880.000000,-392.000000
715,-880.000000,-392.000000
716,-880.000000,-392.000000
717,-900.000000,-400.000000
718,-900.000000,-392.000000
719,-900.000000,-392.000000
720,-900.000000,-392.000000
721,-900.000000,-392.000000
722,-900.000000,-376.000000
723,-920.000000,-384.000000
724,-920.000000,-384.000000
725,-920.000000,-392.000000
726,-920.000000,-392.000000
727,-940.000000,-384.000000
728,-940.000000,-384.000000
729,-940.000000,-384.000000
730,-940.000000,-384.000000
731,-940.000000,-384.000000
732,-960.000000,-384.000000
