lab2_frequencies/8Hz.csv

Channel              :,CH1,CH2
Frequency            :,  ?,  ?
Period               :,  ?,  ?
PK-PK                :,1.600V,272.0mV
Probe attenuation    :,1X,1X
Voltage per ADC value:,1.250000mV,0.250000mV
Time interval        :,200.00000uS,200.00000uS

index,CH1_Voltage(mV),CH2_Voltage(mV)
1,-240.000000,16.000000
2,-240.000000,16.000000
3,-200.000000,16.000000
4,-200.000000,16.000000
5,-200.000000,16.000000
6,-200.000000,16.000000
7,-200.000000,16.000000
8,-180.000000,24.000000
9,-200.000000,20.000000
10,-180.000000,32.000000
11,-200.000000,24.000000
12,-180.000000,20.000000
13,-140.000000,24.000000
14,-160.000000,24.000000
15,-160.000000,28.000000
16,-160.000000,32.000000
17,-160.000000,32.000000
18,-160.000000,28.000000
19,-140.000000,32.000000
20,-120.000000,32.000000
21,-120.000000,32.000000
22,-140.000000,32.000000
23,-140.000000,36.000000
24,-100.000000,40.000000
25,-100.000000,40.000000
26,-100.000000,40.000000
27,-100.000000,40.000000
28,-60.000000,40.000000
29,-80.000000,32.000000
30,-80.000000,44.000000
31,-80.000000,48.000000
32,-60.000000,44.000000
33,-20.000000,48.000000
34,-20.000000,48.000000
35,-20.000000,48.000000
36,-20.000000,48.000000
37,-20.000000,52.000000
38,20.000000,52.000000
39,20.000000,52.000000
40,20.000000,52.000000
41,40.000000,56.000000
42,40.000000,56.000000
43,60.000000,56.000000
44,60.000000,56.000000
45,60.000000,60.000000
46,80.000000,56.000000
47,120.000000,60.000000
48,120.000000,60.000000
49,100.000000,60.000000
50,140.000000,64.000000
51,160.000000,64.000000
52,140.000000,68.000000
53,160.000000,64.000000
54,160.000000,80.000000
55,180.000000,64.000000
56,180.000000,64.000000
57,180.000000,64.000000
58,160.000000,68.000000
59,180.000000,68.000000
60,200.000000,72.000000
61,200.000000,72.000000
62,240.000000,68.000000
63,240.000000,72.000000
64,240.000000,72.000000
65,240.000000,76.000000
66,220.000000,76.000000
67,220.000000,76.000000
68,240.000000,76.000000
69,240.000000,76.000000
70,260.000000,76.000000
71,240.000000,80.000000
72,240.000000,80.000000
73,260.000000,88.000000
74,240.000000,80.000000
75,260.000000,80.000000
76,280.000000,80.000000
77,260.000000,84.000000
78,300.000000,80.000000
79,300.000000,80.000000
80,320.000000,84.000000
81,300.000000,88.000000
82,300.000000,88.000000
83,320.000000,84.000000
84,340.000000,84.000000
85,320.000000,88.000000
86,340.000000,84.000000
87,360.000000,88.000000
88,380.000000,88.000000
89,380.000000,88.000000
90,380.000000,88.000000
91,400.000000,88.000000
92,420.000000,88.000000
93,420.000000,88.000000
94,440.000000,92.000000
95,420.000000,92.000000
96,440.000000,92.000000
97,440.000000,92.000000
98,440.000000,104.000000
99,460.000000,92.000000
100,460.000000,88.000000
101,460.000000,92.000000
102,440.000000,92.000000
103,460.000000,92.000000
104,460.000000,92.000000
105,460.000000,96.000000
106,460.000000,96.000000
107,460.000000,96.000000
108,480.000000,96.000000
109,460.000000,96.000000
110,440.000000,96.000000
111,460.000000,96.000000
112,460.000000,96.000000
113,480.000000,96.000000
114,480.000000,96.000000
115,460.000000,100.000000
116,460.000000,96.000000
117,460.000000,84.000000
118,460.000000,100.000000
119,480.000000,96.000000
120,460.000000,96.000000
121,460.000000,104.000000
122,480.000000,100.000000
123,460.000000,100.000000
124,460.000000,100.000000
125,480.000000,100.000000
126,500.000000,100.000000
127,520.000000,96.000000
128,520.000000,100.000000
129,500.000000,100.000000
130,500.000000,104.000000
131,520.000000,100.000000
132,520.000000,100.000000
133,500.000000,100.000000
134,520.000000,100.000000
135,540.000000,100.000000
136,540.000000,104.000000
137,540.000000,100.000000
138,540.000000,100.000000
139,560.000000,104.000000
140,540.000000,100.000000
141,560.000000,104.000000
142,560.000000,108.000000
143,560.000000,104.000000
144,580.000000,92.000000
145,560.000000,100.000000
146,580.000000,100.000000
147,580.000000,100.000000
148,580.000000,104.000000
149,580.000000,104.000000
150,600.000000,100.000000
151,600.000000,100.000000
152,580.000000,104.000000
153,600.000000,100.000000
154,620.000000,100.000000
155,600.000000,104.000000
156,580.000000,100.000000
157,600.000000,100.000000
158,580.000000,100.000000
159,620.000000,100.000000
160,600.000000,100.000000
161,580.000000,88.000000
162,600.000000,100.000000
163,600.000000,100.000000
164,600.000000,100.000000
165,600.000000,100.000000
166,580.000000,100.000000
167,560.000000,96.000000
168,560.000000,100.000000
169,580.000000,100.000000
170,560.000000,100.000000
171,560.000000,96.000000
172,580.000000,100.000000
173,560.000000,96.000000
174,580.000000,96.000000
175,560.000000,100.000000
176,560.000000,100.000000
177,580.000000,96.000000
178,580.000000,96.000000
179,580.000000,96.000000
180,580.000000,96.000000
181,580.000000,96.000000
182,580.000000,96.000000
183,600.000000,96.000000
184,580.000000,96.000000
185,600.000000,96.000000
186,640.000000,92.000000
187,620.000000,92.000000
188,620.000000,96.000000
189,640.000000,96.000000
190,640.000000,92.000000
191,660.000000,92.000000
192,660.000000,88.000000
193,620.000000,92.000000
194,640.000000,92.000000
195,660.000000,92.000000
196,640.000000,92.000000
197,640.000000,92.000000
198,620.000000,92.000000
199,640.000000,88.000000
200,640.000000,92.000000
201,620.000000,88.000000
202,620.000000,92.000000
203,580.000000,88.000000
204,600.000000,88.000000
205,600.000000,100.000000
206,580.000000,88.000000
207,580.000000,84.000000
208,580.000000,88.000000
209,600.000000,88.000000
210,560.000000,88.000000
211,560.000000,84.000000
212,580.000000,84.000000
213,540.000000,84.000000
214,560.000000,84.000000
215,560.000000,84.000000
216,540.000000,80.000000
217,540.000000,84.000000
218,540.000000,80.000000
219,540.000000,80.000000
220,520.000000,76.000000
221,520.000000,80.000000
222,520.000000,76.000000
223,520.000000,80.000000
224,520.000000,80.000000
225,500.000000,76.000000
226,500.000000,64.000000
227,500.000000,76.000000
228,500.000000,80.000000
229,520.000000,76.000000
230,500.000000,72.000000
231,500.000000,76.000000
232,500.000000,76.000000
233,520.000000,76.000000
234,500.000000,72.000000
235,500.000000,72.000000
236,500.000000,72.000000
237,500.000000,68.000000
238,500.000000,68.000000
239,500.000000,68.000000
240,540.000000,68.000000
241,500.000000,68.000000
242,520.000000,68.000000
243,500.000000,68.000000
244,520.000000,64.000000
245,500.000000,64.000000
246,500.000000,64.000000
247,500.000000,64.000000
248,520.000000,64.000000
249,520.000000,68.000000
250,500.000000,60.000000
251,480.000000,56.000000
252,500.000000,60.000000
253,500.000000,56.000000
254,500.000000,56.000000
255,480.000000,60.000000
256,460.000000,56.000000
257,460.000000,56.000000
258,440.000000,56.000000
259,460.000000,52.000000
260,440.000000,52.000000
261,440.000000,52.000000
262,460.000000,52.000000
263,460.000000,48.000000
264,420.000000,52.000000
265,420.000000,48.000000
266,420.000000,48.000000
267,400.000000,48.000000
268,400.000000,44.000000
269,400.000000,44.000000
270,400.000000,36.000000
271,360.000000,40.000000
272,360.000000,48.000000
273,340.000000,44.000000
274,320.000000,36.000000
275,340.000000,40.000000
276,320.000000,40.000000
277,320.000000,36.000000
278,320.000000,36.000000
279,300.000000,36.000000
280,320.000000,36.000000
281,360.000000,36.000000
282,340.000000,32.000000
283,320.000000,32.000000
284,320.000000,32.000000
285,320.000000,32.000000
286,320.000000,28.000000
287,300.000000,28.000000
288,320.000000,28.000000
289,300.000000,28.000000
290,320.000000,24.000000
291,320.000000,24.000000
292,320.000000,24.000000
293,300.000000,16.000000
294,300.000000,20.000000
295,300.000000,16.000000
296,280.000000,24.000000
297,280.000000,24.000000
298,280.000000,16.000000
299,280.000000,16.000000
300,280.000000,16.000000
301,260.000000,16.000000
302,240.000000,12.000000
303,240.000000,12.000000
304,200.000000,12.000000
305,220.000000,12.000000
306,200.000000,12.000000
307,200.000000,8.000000
308,200.000000,8.000000
309,160.000000,8.000000
310,160.000000,8.000000
311,160.000000,4.000000
312,140.000000,8.000000
313,140.000000,0.000000
314,120.000000,12.000000
315,120.000000,0.000000
316,100.000000,4.000000
317,80.000000,0.000000
318,80.000000,0.000000
319,80.000000,-4.000000
320,80.000000,-4.000000
321,40.000000,-4.000000
322,20.000000,-4.000000
323,40.000000,-4.000000
324,0.000000,-8.000000
325,20.000000,-8.000000
326,20.000000,-8.000000
327,-20.000000,-12.000000
328,-20.000000,-12.000000
329,-20.000000,-12.000000
330,-20.000000,-16.000000
331,-40.000000,-16.000000
332,-60.000000,-16.000000
333,-20.000000,-16.000000
334,-40.000000,-20.000000
335,-40.000000,-16.000000
336,-40.000000,-20.000000
337,-60.000000,-20.000000
338,-60.000000,-24.000000
339,-60.000000,-12.000000
340,-60.000000,-24.000000
341,-60.000000,-32.000000
342,-60.000000,-28.000000
343,-80.000000,-28.000000
344,-100.000000,-24.000000
345,-80.000000,-28.000000
346,-80.000000,-28.000000
347,-100.000000,-32.000000
348,-80.000000,-32.000000
349,-120.000000,-32.000000
350,-100.000000,-32.000000
351,-140.000000,-36.000000
352,-120.000000,-36.000000
353,-120.000000,-36.000000
354,-140.000000,-40.000000
355,-140.000000,-40.000000
356,-160.000000,-40.000000
357,-180.000000,-40.000000
358,-180.000000,-48.000000
359,-180.000000,-44.000000
360,-180.000000,-44.000000
361,-200.000000,-48.000000
362,-200.000000,-44.000000
363,-220.000000,-44.000000
364,-240.000000,-48.000000
365,-200.000000,-52.000000
366,-240.000000,-48.000000
367,-240.000000,-52.000000
368,-240.000000,-56.000000
369,-280.000000,-52.000000
370,-280.000000,-56.000000
371,-300.000000,-56.000000
372,-300.000000,-56.000000
373,-320.000000,-60.000000
374,-340.000000,-56.000000
375,-360.000000,-60.000000
376,-340.000000,-60.000000
377,-360.000000,-64.000000
378,-360.000000,-64.000000
379,-360.000000,-64.000000
380,-360.000000,-64.000000
381,-360.000000,-72.000000
382,-380.000000,-64.000000
383,-380.000000,-72.000000
384,-360.000000,-72.000000
385,-360.000000,-68.000000
386,-400.000000,-72.000000
387,-400.000000,-72.000000
388,-420.000000,-72.000000
389,-400.000000,-72.000000
390,-400.000000,-72.000000
391,-380.000000,-76.000000
392,-420.000000,-76.000000
393,-420.000000,-76.000000
394,-400.000000,-76.000000
395,-420.000000,-76.000000
396,-420.000000,-80.000000
397,-400.000000,-80.000000
398,-420.000000,-80.000000
399,-440.000000,-80.000000
400,-440.000000,-80.000000
401,-460.000000,-84.000000
402,-460.000000,-76.000000
403,-460.000000,-84.000000
404,-460.000000,-92.000000
405,-480.000000,-88.000000
406,-480.000000,-88.000000
407,-520.000000,-88.000000
408,-540.000000,-88.000000
409,-520.000000,-88.000000
410,-520.000000,-92.000000
411,-560.000000,-92.000000
412,-540.000000,-92.000000
413,-560.000000,-92.000000
414,-580.000000,-96.000000
415,-580.000000,-92.000000
416,-580.000000,-96.000000
417,-620.000000,-96.000000
418,-620.000000,-100.000000
419,-600.000000,-96.000000
420,-620.000000,-100.000000
421,-660.000000,-96.000000
422,-640.000000,-100.000000
423,-660.000000,-112.000000
424,-680.000000,-104.000000
425,-660.000000,-100.000000
426,-680.000000,-100.000000
427,-700.000000,-108.000000
428,-680.000000,-104.000000
429,-660.000000,-104.000000
430,-700.000000,-108.000000
431,-720.000000,-108.000000
432,-700.000000,-108.000000
433,-720.000000,-108.000000
434,-680.000000,-108.000000
435,-700.000000,-108.000000
436,-720.000000,-108.000000
437,-740.000000,-112.000000
438,-740.000000,-112.000000
439,-700.000000,-112.000000
440,-740.000000,-112.000000
441,-720.000000,-112.000000
442,-740.000000,-112.000000
443,-720.000000,-116.000000
444,-760.000000,-116.000000
445,-740.000000,-116.000000
446,-740.000000,-116.000000
447,-760.000000,-116.000000
448,-760.000000,-124.000000
449,-760.000000,-116.000000
450,-760.000000,-116.000000
451,-760.000000,-116.000000
452,-780.000000,-116.000000
453,-760.000000,-116.000000
454,-800.000000,-116.000000
455,-760.000000,-116.000000
456,-760.000000,-120.000000
457,-800.000000,-120.000000
458,-780.000000,-116.000000
459,-780.000000,-120.000000
460,-780.000000,-120.000000
461,-800.000000,-120.000000
462,-780.000000,-120.000000
463,-780.000000,-120.000000
464,-820.000000,-120.000000
465,-800.000000,-120.000000
466,-820.000000,-124.000000
467,-820.000000,-124.000000
468,-840.000000,-120.000000
469,-840.000000,-120.000000
470,-880.000000,-120.000000
471,-860.000000,-120.000000
472,-860.000000,-124.000000
473,-880.000000,-124.000000
474,-860.000000,-120.000000
475,-880.000000,-120.000000
476,-880.000000,-124.000000
477,-900.000000,-124.000000
478,-900.000000,-124.000000
479,-900.000000,-124.000000
480,-880.000000,-120.000000
481,-900.000000,-120.000000
482,-900.000000,-124.000000
483,-880.000000,-124.000000
484,-880.000000,-120.000000
485,-900.000000,-120.000000
486,-860.000000,-120.000000
487,-880.000000,-120.000000
488,-880.000000,-120.000000
489,-860.000000,-120.000000
490,-860.000000,-116.000000
491,-860.000000,-116.000000
492,-840.000000,-108.000000
493,-860.000000,-120.000000
494,-860.000000,-128.000000
495,-860.000000,-116.000000
496,-820.000000,-120.000000
497,-860.000000,-116.000000
498,-840.000000,-116.000000
499,-840.000000,-112.000000
500,-840.000000,-116.000000
501,-840.000000,-116.000000
502,-840.000000,-116.000000
503,-860.000000,-116.000000
504,-840.000000,-116.000000
505,-860.000000,-112.000000
506,-860.000000,-112.000000
507,-860.000000,-116.000000
508,-860.000000,-112.000000
509,-880.000000,-108.000000
510,-860.000000,-112.000000
511,-880.000000,-136.000000
512,-880.000000,-108.000000
513,-860.000000,-108.000000
514,-860.000000,-112.000000
515,-880.000000,-108.000000
516,-860.000000,-108.000000
517,-840.000000,-104.000000
518,-860.000000,-104.000000
519,-860.000000,-108.000000
520,-880.000000,-104.000000
521,-860.000000,-104.000000
522,-860.000000,-104.000000
523,-840.000000,-104.000000
524,-860.000000,-100.000000
525,-860.000000,-100.000000
526,-860.000000,-100.000000
527,-860.000000,-96.000000
528,-860.000000,-100.000000
529,-840.000000,-100.000000
530,-880.000000,-96.000000
531,-880.000000,-96.000000
532,-840.000000,-92.000000
533,-820.000000,-96.000000
534,-820.000000,-100.000000
535,-840.000000,-92.000000
536,-820.000000,-92.000000
537,-840.000000,-92.000000
538,-800.000000,-92.000000
539,-800.000000,-92.000000
540,-820.000000,-88.000000
541,-780.000000,-88.000000
542,-800.000000,-88.000000
543,-780.000000,-88.000000
544,-780.000000,-84.000000
545,-780.000000,-84.000000
546,-740.000000,-84.000000
547,-740.000000,-80.000000
548,-760.000000,-80.000000
549,-740.000000,-80.000000
550,-760.000000,-80.000000
551,-740.000000,-76.000000
552,-740.000000,-80.000000
553,-740.000000,-72.000000
554,-740.000000,-76.000000
555,-720.000000,-64.000000
556,-740.000000,-72.000000
557,-700.000000,-68.000000
558,-720.000000,-72.000000
559,-700.000000,-72.000000
560,-700.000000,-68.000000
561,-700.000000,-72.000000
562,-700.000000,-64.000000
563,-680.000000,-64.000000
564,-660.000000,-64.000000
565,-660.000000,-60.000000
566,-660.000000,-60.000000
567,-660.000000,-60.000000
568,-640.000000,-56.000000
569,-660.000000,-56.000000
570,-660.000000,-52.000000
571,-640.000000,-52.000000
572,-660.000000,-56.000000
573,-640.000000,-48.000000
574,-640.000000,-48.000000
575,-660.000000,-52.000000
576,-640.000000,-44.000000
577,-660.000000,-48.000000
578,-660.000000,-44.000000
579,-620.000000,-44.000000
580,-640.000000,-44.000000
581,-640.000000,-40.000000
582,-580.000000,-40.000000
583,-580.000000,-40.000000
584,-580.000000,-36.000000
585,-580.000000,-36.000000
586,-560.000000,-36.000000
587,-540.000000,-32.000000
588,-540.000000,-32.000000
589,-520.000000,-32.000000
590,-520.000000,-32.000000
591,-500.000000,-28.000000
592,-460.000000,-28.000000
593,-460.000000,-28.000000
594,-480.000000,-24.000000
595,-460.000000,-24.000000
596,-440.000000,-24.000000
597,-440.000000,-20.000000
598,-440.000000,-20.000000
599,-420.000000,-20.000000
600,-420.000000,-16.000000
601,-420.000000,-20.000000
602,-420.000000,-16.000000
603,-420.000000,-16.000000
604,-420.000000,-12.000000
605,-400.000000,-12.000000
606,-400.000000,-12.000000
607,-400.000000,-12.000000
608,-380.000000,-8.000000
609,-380.000000,-8.000000
610,-400.000000,-4.000000
611,-360.000000,-4.000000
612,-400.000000,-4.000000
613,-380.000000,-4.000000
614,-360.000000,-4.000000
615,-340.000000,0.000000
616,-340.000000,4.000000
617,-340.000000,0.000000
618,-320.000000,4.000000
619,-320.000000,4.000000
620,-340.000000,-4.000000
621,-320.000000,8.000000
622,-320.000000,8.000000
623,-320.000000,12.000000
624,-280.000000,12.000000
625,-300.000000,12.000000
626,-300.000000,12.000000
627,-300.000000,12.000000
628,-300.000000,16.000000
629,-280.000000,16.000000
630,-280.000000,16.000000
631,-240.000000,20.000000
632,-240.000000,16.000000
633,-240.000000,20.000000
634,-220.000000,20.000000
635,-220.000000,20.000000
636,-220.000000,24.000000
637,-200.000000,24.000000
638,-220.000000,24.000000
639,-180.000000,28.000000
640,-140.000000,32.000000
641,-160.000000,32.000000
642,-120.000000,32.000000
643,-120.000000,32.000000
644,-140.000000,36.000000
645,-120.000000,40.000000
646,-120.000000,32.000000
647,-80.000000,32.000000
648,-80.000000,36.000000
649,-60.000000,36.000000
650,-40.000000,40.000000
651,-40.000000,40.000000
652,-40.000000,40.000000
653,0.000000,40.000000
654,-20.000000,40.000000
655,0.000000,44.000000
656,0.000000,48.000000
657,20.000000,44.000000
658,20.000000,44.000000
659,20.000000,48.000000
660,40.000000,48.000000
661,60.000000,48.000000
662,60.000000,52.000000
663,40.000000,48.000000
664,80.000000,24.000000
665,40.000000,56.000000
666,40.000000,60.000000
667,60.000000,60.000000
668,80.000000,56.000000
669,60.000000,56.000000
670,60.000000,56.000000
671,60.000000,60.000000
672,60.000000,60.000000
673,40.000000,60.000000
674,60.000000,64.000000
675,80.000000,60.000000
676,120.000000,64.000000
677,100.000000,64.000000
678,100.000000,64.000000
679,120.000000,68.000000
680,160.000000,68.000000
681,140.000000,64.000000
682,140.000000,68.000000
683,180.000000,68.000000
684,200.000000,68.000000
685,220.000000,72.000000
686,180.000000,72.000000
687,220.000000,72.000000
688,260.000000,72.000000
689,260.000000,68.000000
690,260.000000,76.000000
691,240.000000,76.000000
692,260.000000,76.000000
693,280.000000,76.000000
694,280.000000,76.000000
695,320.000000,76.000000
696,320.000000,76.000000
697,320.000000,80.000000
698,320.000000,80.000000
699,320.000000,80.000000
700,320.000000,80.000000
701,340.000000,84.000000
702,340.000000,84.000000
703,320.000000,84.000000
704,340.000000,80.000000
705,340.000000,84.000000
706,340.000000,84.000000
707,340.000000,84.000000
708,340.000000,76.000000
709,340.000000,84.000000
710,340.000000,88.000000
711,360.000000,88.000000
712,340.000000,92.000000
713,360.000000,88.000000
714,360.000000,88.000000
715,360.000000,88.000000
716,380.000000,88.000000
717,380.000000,88.000000
718,360.000000,88.000000
719,360.000000,88.000000
720,380.000000,88.000000
721,360.000000,92.000000
722,380.000000,92.000000
723,360.000000,92.000000
724,380.000000,92.000000
725,380.000000,92.000000
726,380.000000,92.000000
727,400.000000,92.000000
728,400.000000,92.000000
729,420.000000,84.000000
730,420.000000,96.000000
731,420.000000,96.000000
732,440.000000,96.000000
733,440.000000,92.000000
734,440.000000,96.000000
735,460.000000,92.000000
736,460.000000,96.000000
737,460.000000,100.000000
738,460.000000,100.000000
739,480.000000,100.000000
740,480.000000,96.000000
741,480.000000,96.000000
742,500.000000,96.000000
743,500.000000,96.000000
744,500.000000,96.000000
745,520.000000,100.000000
746,500.000000,100.000000
747,520.000000,100.000000
748,540.000000,100.000000
749,540.000000,100.000000
750,540.000000,100.000000
751,540.000000,100.000000
752,540.000000,100.000000
753,540.000000,100.000000
754,560.000000,108.000000
755,560.000000,100.000000
756,540.000000,100.000000
757,540.000000,96.000000
758,560.000000,100.000000
759,560.000000,104.000000
760,540.000000,104.000000
761,540.000000,100.000000
762,560.000000,100.000000
763,560.000000,100.000000
